Duration 263ms
State: [0, 0] Policy: [2, 0]
State: [0, 1] Policy: [0, 3]
State: [0, 2] Policy: [0, 3]
State: [0, 3] Policy: [0, 3]
State: [0, 4] Policy: [0, 3]
State: [0, 5] Policy: [2, 1]
State: [0, 6] Policy: [2, 0]
State: [0, 7] Policy: [0, 1]
State: [0, 8] Policy: [0, 0]
State: [1, 0] Policy: [2, 1]
State: [1, 1] Policy: [0, 3]
State: [1, 2] Policy: [0, 3]
State: [1, 3] Policy: [0, 3]
State: [1, 4] Policy: [1, 2]
State: [1, 5] Policy: [1, 1]
State: [1, 6] Policy: [1, 0]
State: [1, 7] Policy: [0, 0]
State: [2, 0] Policy: [3, 0]
State: [2, 1] Policy: [3, 0]
State: [2, 2] Policy: [0, 3]
State: [2, 3] Policy: [0, 3]
State: [2, 4] Policy: [0, 2]
State: [2, 5] Policy: [0, 1]
State: [2, 6] Policy: [0, 0]
State: [3, 0] Policy: [3, 0]
State: [3, 1] Policy: [3, 0]
State: [3, 2] Policy: [3, 0]
State: [3, 3] Policy: [0, 2]
State: [3, 4] Policy: [0, 1]
State: [3, 5] Policy: [0, 0]
State: [4, 0] Policy: [2, 1]
State: [4, 1] Policy: [2, 1]
State: [4, 2] Policy: [2, 0]
State: [4, 3] Policy: [0, 1]
State: [4, 4] Policy: [0, 0]
State: [5, 0] Policy: [3, 0]
State: [5, 1] Policy: [1, 1]
State: [5, 2] Policy: [1, 0]
State: [5, 3] Policy: [0, 0]
State: [6, 0] Policy: [2, 0]
State: [6, 1] Policy: [0, 1]
State: [6, 2] Policy: [0, 0]
State: [7, 0] Policy: [1, 0]
State: [7, 1] Policy: [0, 0]
State: [8, 0] Policy: [0, 0]
Overall profit: 866.540601
