21 
2 4 2 
6 3 6 
1 2 0 
0 0 0 
8 1 6 
0 1 2 
0 0 0 
6 5 2 
0 1 2 
0 0 0 
4 3 3 
0 1 2 
0 0 0 
7 3 6 
0 1 2 
0 0 0 
2 3 2 
0 1 2 
0 0 0 
1 3 1 
0 3 0 
0 0 0 
2 5 7 
0 1 2 
0 0 0 
0 3 3 
0 1 2 
0 0 0 
5 8 2 
0 1 2 
0 0 0 
5 2 8 
0 1 2 
0 0 0 
7 2 7 
0 1 2 
0 0 0 
1 0 2 
1 2 0 
0 0 0 
2 1 0 
0 1 2 
0 0 0 
6 2 3 
1 2 0 
0 0 0 
7 1 2 
0 1 2 
0 0 0 
0 1 2 
0 1 2 
0 0 0 
2 4 6 
0 1 2 
0 0 0 
6 3 2 
0 1 2 
0 0 0 
2 2 1 
0 3 0 
0 0 0 
2 5 6 
0 1 2 
0 0 0 
