Duration 109ms
State: [0, 0] Policy: [2, 0]
State: [0, 1] Policy: [0, 2]
State: [0, 2] Policy: [0, 1]
State: [0, 3] Policy: [0, 0]
State: [1, 0] Policy: [0, 2]
State: [1, 1] Policy: [0, 1]
State: [1, 2] Policy: [0, 0]
State: [2, 0] Policy: [1, 0]
State: [2, 1] Policy: [0, 0]
State: [3, 0] Policy: [0, 0]
Overall profit: 146.990594
