30 
6 1 1 
4 8 5 
1 0 2 
0 0 0 
1 1 0 
0 0 3 
0 0 0 
8 8 2 
0 1 2 
0 0 0 
8 3 2 
0 1 2 
0 0 0 
3 8 2 
0 1 2 
0 0 0 
7 5 0 
1 0 2 
0 0 0 
4 6 1 
1 0 1 
0 0 0 
2 5 0 
1 0 0 
0 0 0 
2 8 4 
0 1 2 
0 0 0 
6 8 7 
0 0 3 
0 0 0 
3 8 0 
0 1 2 
0 0 0 
1 6 4 
1 0 2 
0 0 0 
5 2 6 
0 0 3 
0 0 0 
6 8 6 
0 0 3 
0 0 0 
7 1 4 
0 0 3 
0 0 0 
6 1 2 
1 0 2 
0 0 0 
3 6 8 
0 0 3 
0 0 0 
8 2 0 
0 1 2 
0 0 0 
0 5 0 
1 0 2 
0 0 0 
2 3 4 
0 1 2 
0 0 0 
5 3 0 
1 0 2 
0 0 0 
2 2 5 
0 0 3 
0 0 0 
3 2 2 
0 1 2 
0 0 0 
7 6 5 
0 0 3 
0 0 0 
1 5 3 
0 0 3 
0 0 0 
0 2 2 
1 0 2 
0 0 0 
4 0 4 
0 0 3 
0 0 0 
1 6 8 
0 0 3 
0 0 0 
7 2 3 
0 0 3 
0 0 0 
6 6 2 
1 0 2 
0 0 0 
