15 
3 3 
6 7 
2 0 
0 0 
0 2 
1 2 
0 0 
4 3 
2 0 
0 0 
3 1 
2 0 
0 0 
0 7 
1 2 
0 0 
1 6 
1 2 
0 0 
8 3 
2 0 
0 0 
2 1 
2 0 
0 0 
5 8 
2 0 
0 0 
3 0 
2 0 
0 0 
5 5 
2 0 
0 0 
1 1 
0 3 
0 0 
0 4 
0 3 
0 0 
8 3 
2 0 
0 0 
4 8 
2 0 
0 0 
