large
0.923
23
106
94 65 84 84 62
3 1 4 1 1
0.009 0.032 0.039 0.159 0.162 0.124 0.101 0.144 0.034 0.144 0.052
0.164 0.089 0.123 0.022 0.112 0.027 0.103 0.027 0.065 0.209 0.059
0.099 0.125 0.138 0.139 0.015 0.055 0.127 0.116 0.102 0.051 0.033
0.154 0.149 0.153 0.004 0.01 0.161 0.02 0.048 0.096 0.062 0.143
0.064 0.136 0.12 0.075 0.12 0.059 0.059 0.017 0.161 0.115 0.074
0.087 0.086 0.08 0.105 0.012 0.003 0.112 0.143 0.157 0.082 0.133
0.065 0.091 0.192 0.065 0.075 0.08 0.116 0.037 0.137 0.013 0.129
0.052 0.118 0.174 0.021 0.185 0.085 0.044 0.076 0.097 0.016 0.132
0.111 0.172 0.193 0.117 0.028 0.001 0.008 0.017 0.031 0.174 0.148
0.163 0.112 0.041 0.145 0.034 0.001 0.183 0.054 0.142 0.119 0.006
0.035 0.159 0.186 0.136 0.121 0.198 0.023 0.044 0.039 0.044 0.015
0.194 0.001 0.133 0.038 0.164 0.12 0.099 0.005 0.078 0.025 0.143
0.009 0.113 0.121 0.125 0.109 0.032 0.114 0.11 0.009 0.114 0.144
0.164 0.122 0.106 0.091 0.01 0.084 0.12 0.089 0.05 0.086 0.078
0.108 0.132 0.085 0.061 0.115 0.092 0.103 0.021 0.127 0.109 0.047
0.092 0.081 0.067 0.057 0.147 0.1 0.005 0.088 0.137 0.09 0.136
0.012 0.127 0.036 0.106 0.196 0.013 0.159 0.05 0.209 0.033 0.059
0.069 0.072 0.131 0.094 0.077 0.125 0.065 0.09 0.079 0.095 0.103
0.144 0.088 0.149 0.024 0.12 0.006 0.148 0.096 0.129 0.024 0.072
0.019 0.173 0.087 0.18 0.046 0.034 0.106 0.176 0.047 0.043 0.089
0.093 0.144 0.021 0.115 0.064 0.165 0.108 0.083 0.051 0.075 0.081
0.121 0.052 0.071 0.169 0.011 0.1 0.166 0.184 0.026 0.002 0.098
0.001 0.139 0.101 0.08 0.038 0.137 0.151 0.134 0.062 0.031 0.126
0.143 0.045 0.071 0.175 0.187 0.036 0.09 0.025 0.08 0.015 0.133
0.085 0.039 0.124 0.037 0.088 0.11 0.044 0.049 0.128 0.145 0.151
0.176 0.005 0.042 0.004 0.085 0.151 0.039 0.15 0.076 0.192 0.08
0.149 0.03 0.019 0.057 0.147 0.144 0.027 0.091 0.105 0.096 0.135
0.093 0.091 0.033 0.0 0.111 0.125 0.079 0.082 0.135 0.132 0.119
0.0 0.069 0.009 0.138 0.073 0.083 0.104 0.113 0.117 0.143 0.151
0.056 0.019 0.082 0.136 0.114 0.098 0.083 0.1 0.14 0.04 0.132
0.158 0.033 0.139 0.14 0.063 0.109 0.023 0.07 0.16 0.017 0.088
0.137 0.062 0.018 0.146 0.114 0.033 0.078 0.126 0.065 0.13 0.091
0.009 0.068 0.151 0.087 0.031 0.106 0.171 0.031 0.096 0.209 0.041
0.108 0.198 0.023 0.082 0.061 0.201 0.097 0.048 0.105 0.044 0.033
0.123 0.031 0.033 0.01 0.002 0.198 0.108 0.199 0.164 0.115 0.017
0.113 0.109 0.131 0.146 0.041 0.17 0.003 0.098 0.145 0.035 0.009
0.177 0.016 0.164 0.084 0.029 0.069 0.067 0.137 0.121 0.077 0.059
0.065 0.119 0.081 0.16 0.037 0.11 0.024 0.121 0.087 0.029 0.167
0.05 0.099 0.17 0.029 0.057 0.152 0.038 0.045 0.115 0.077 0.168
0.117 0.099 0.002 0.086 0.035 0.067 0.031 0.198 0.185 0.076 0.104
0.128 0.084 0.138 0.152 0.114 0.064 0.035 0.171 0.071 0.033 0.01
0.03 0.023 0.03 0.072 0.218 0.131 0.248 0.036 0.025 0.093 0.094
0.249 0.009 0.045 0.17 0.211 0.056 0.021 0.031 0.112 0.079 0.017
0.058 0.04 0.138 0.182 0.056 0.127 0.012 0.013 0.211 0.085 0.078
0.112 0.178 0.039 0.141 0.014 0.165 0.174 0.082 0.028 0.039 0.028
0.021 0.04 0.12 0.171 0.095 0.058 0.13 0.143 0.044 0.162 0.016
0.14 0.071 0.147 0.02 0.086 0.1 0.162 0.024 0.012 0.147 0.091
0.182 0.118 0.112 0.074 0.045 0.112 0.095 0.07 0.13 0.022 0.04
0.135 0.016 0.124 0.045 0.162 0.119 0.086 0.09 0.014 0.165 0.044
0.053 0.044 0.016 0.128 0.16 0.13 0.164 0.111 0.022 0.046 0.126
0.173 0.012 0.025 0.143 0.077 0.057 0.124 0.09 0.08 0.086 0.133
0.138 0.151 0.139 0.105 0.069 0.051 0.137 0.116 0.008 0.086 0.0
0.1 0.091 0.011 0.054 0.089 0.012 0.169 0.112 0.196 0.058 0.108
0.02 0.16 0.151 0.113 0.119 0.075 0.086 0.025 0.079 0.162 0.01
0.102 0.034 0.1 0.154 0.07 0.087 0.064 0.052 0.139 0.124 0.074
