tiny
0.907
16
97
84 84
1 1
0.381 0.056 0.337 0.226
0.314 0.316 0.033 0.337
0.193 0.477 0.138 0.192
0.148 0.303 0.335 0.214
0.287 0.49 0.166 0.057
0.452 0.242 0.241 0.065
0.181 0.225 0.286 0.308
0.016 0.137 0.249 0.598
