30
0.00 0.73 0.65 0.67 0.83 0.70 0.75 0.89 0.90 0.65 0.51 0.99 0.65 0.84 0.52 0.59 0.57 0.77 0.66 0.66 0.61 0.53 0.67 0.67 0.99 0.00 0.70 0.00 0.74 0.86
0.89 0.00 0.59 0.81 0.95 0.86 0.67 0.80 0.52 0.00 0.68 0.75 0.94 0.81 0.67 0.69 0.95 0.85 0.81 0.60 0.64 0.00 0.00 0.86 0.56 0.85 0.83 0.94 0.92 0.96
0.64 0.71 0.00 0.00 0.54 0.67 0.51 0.61 0.00 0.85 0.78 0.79 0.95 0.55 0.65 0.73 0.65 0.74 0.99 0.00 0.62 0.82 0.58 0.92 0.96 0.81 0.96 0.62 0.00 0.56
0.56 0.55 0.79 0.00 0.00 0.69 0.76 0.84 0.95 0.90 0.81 0.65 0.66 0.66 0.89 0.60 0.58 0.57 0.65 0.89 0.00 0.58 0.56 0.52 0.63 0.68 0.63 0.62 0.56 0.77
0.66 0.85 0.97 0.63 0.00 0.68 0.75 0.97 0.95 0.53 0.59 0.98 0.88 0.58 0.61 0.63 0.80 0.61 0.58 0.53 0.86 0.62 0.97 0.64 0.86 0.67 0.95 0.68 0.00 0.96
0.54 0.76 0.99 0.00 0.88 0.00 0.87 0.72 0.77 0.77 0.63 0.71 0.61 0.64 0.85 0.00 0.74 0.68 0.56 0.68 0.80 0.73 0.57 0.86 0.94 0.51 0.75 0.75 0.86 0.55
0.77 0.58 0.94 1.00 0.85 0.90 0.00 0.80 0.73 0.73 0.70 0.93 0.97 0.67 0.57 0.78 0.73 0.82 0.52 0.68 0.84 0.82 0.84 0.79 0.71 0.90 0.89 0.75 0.77 0.79
0.97 0.52 0.92 0.85 0.67 0.76 0.89 0.00 0.93 0.75 0.64 0.00 0.82 0.95 0.52 0.00 0.86 0.93 0.79 0.61 0.56 0.00 0.89 0.00 0.65 0.65 0.63 0.67 0.54 0.80
0.80 0.64 0.68 0.69 0.67 0.96 0.62 0.83 0.00 0.00 0.62 0.98 0.90 0.79 0.56 0.56 0.51 0.96 0.75 0.56 0.72 0.00 0.51 0.82 0.52 0.97 0.60 0.55 0.81 0.69
0.55 0.92 0.92 0.55 0.63 0.60 0.93 0.79 0.86 0.00 0.89 0.88 0.67 0.96 0.56 0.54 0.00 0.77 0.73 0.81 1.00 0.63 0.61 0.67 0.67 0.92 0.84 0.91 0.77 0.63
0.00 0.81 0.90 0.96 0.83 0.52 0.97 0.85 0.78 0.75 0.00 0.84 0.00 0.58 0.59 0.57 0.62 0.60 0.73 0.00 1.00 0.00 0.00 0.60 0.73 0.00 0.84 0.88 0.62 0.82
0.62 0.63 0.80 0.88 0.72 0.74 0.88 0.74 0.94 0.70 0.99 0.00 0.51 0.63 0.55 0.57 0.97 0.59 0.69 0.78 0.89 0.00 0.89 0.74 0.77 0.60 0.84 0.77 0.58 0.84
0.74 0.89 0.73 0.77 0.98 0.82 0.51 0.00 0.52 0.99 0.75 0.84 0.00 0.82 0.98 0.53 0.77 0.69 0.78 0.69 0.55 0.93 0.86 0.84 0.70 0.94 0.78 0.59 0.80 0.54
0.70 0.70 0.52 0.68 0.97 0.72 0.53 0.91 0.00 0.84 0.69 0.80 0.68 0.00 0.00 0.67 0.86 0.86 0.69 0.00 0.63 0.74 0.87 0.54 0.66 0.80 0.83 0.54 0.82 0.62
0.93 0.69 0.82 0.77 0.67 0.88 0.83 0.59 0.61 0.94 0.77 0.83 0.00 0.57 0.00 0.99 0.52 0.60 0.68 0.00 0.71 0.71 0.77 0.85 0.66 0.98 0.82 0.55 0.00 0.70
0.75 0.80 0.52 0.00 0.58 0.89 0.00 0.90 0.73 0.70 0.62 0.74 0.73 0.50 0.86 0.00 0.71 0.77 0.97 0.63 0.52 0.78 0.88 1.00 0.97 0.88 0.68 0.83 0.67 0.93
0.78 0.58 0.97 0.81 0.95 0.63 1.00 0.90 0.93 0.75 0.00 0.66 0.54 0.54 0.81 0.00 0.00 0.88 0.53 0.99 0.69 0.82 0.63 0.89 0.64 0.83 0.51 0.89 0.53 0.68
0.78 0.00 0.99 0.92 0.61 0.56 0.93 0.79 0.70 0.69 0.67 0.92 0.59 0.84 0.54 0.99 0.71 0.00 0.83 0.86 0.65 0.52 0.79 0.71 0.91 0.96 0.73 0.51 0.99 0.83
0.88 0.63 0.60 0.70 0.88 0.76 0.96 0.56 0.61 0.00 0.68 0.87 0.82 0.58 0.81 0.00 0.72 0.78 0.00 0.70 0.69 0.65 0.50 0.00 0.68 0.50 0.00 0.77 0.58 0.69
0.65 0.98 0.61 0.82 0.71 0.98 0.81 0.57 0.57 0.85 0.90 0.92 0.53 0.76 0.55 0.77 0.62 0.76 0.92 0.00 0.75 0.80 0.55 0.65 0.00 0.65 0.78 0.63 0.65 0.86
0.60 0.81 0.52 0.00 0.60 0.61 0.57 0.86 0.60 0.87 0.67 0.86 0.54 0.92 0.84 0.79 0.82 0.94 0.00 0.87 0.00 0.00 0.93 0.69 0.91 0.95 0.58 0.64 0.54 0.87
0.86 0.83 0.90 0.73 0.94 0.60 0.89 0.58 0.94 0.90 0.77 0.50 0.00 0.95 0.51 0.93 0.63 0.50 0.00 0.65 0.63 0.00 0.97 0.63 0.81 0.62 0.58 0.53 0.64 0.86
0.00 0.91 0.74 0.94 0.00 0.83 0.87 0.95 0.92 0.61 0.98 0.97 0.70 0.66 0.98 0.99 0.67 0.51 0.84 0.56 0.95 0.98 0.00 0.00 0.87 0.94 0.80 0.52 0.89 0.93
0.91 1.00 0.83 0.88 0.76 0.74 0.84 0.69 0.60 0.81 0.57 0.96 0.91 0.51 0.58 0.87 0.62 0.00 0.57 0.51 0.00 0.81 0.95 0.00 0.80 0.69 0.99 0.97 0.50 0.00
0.57 0.66 0.54 0.75 0.00 0.69 0.94 0.61 0.00 0.66 0.00 0.89 0.85 0.58 0.78 0.81 0.66 0.98 0.87 0.79 0.90 0.66 0.00 0.90 0.00 0.69 0.64 0.68 0.00 0.71
0.99 0.73 0.58 1.00 0.66 0.59 0.70 0.63 0.96 0.88 0.97 0.63 0.74 0.55 0.83 0.62 0.54 0.00 0.89 0.52 0.75 0.84 0.86 0.67 0.94 0.00 0.70 0.80 0.70 0.91
0.68 0.90 0.75 0.74 0.00 0.84 0.67 0.73 0.51 0.70 0.96 0.78 0.83 0.65 0.78 0.82 0.82 0.92 0.91 0.81 0.96 0.84 0.59 0.00 0.68 0.63 0.00 0.73 0.75 0.72
0.76 0.56 0.96 0.67 0.89 0.85 0.61 0.52 0.72 0.77 0.78 0.58 0.00 0.97 0.70 0.85 0.82 0.81 0.95 0.72 0.82 0.89 0.52 0.66 0.85 0.57 0.91 0.00 0.72 0.66
0.57 0.00 0.95 0.97 0.65 0.78 0.72 0.86 0.68 0.84 0.84 0.92 0.62 0.50 0.59 0.88 0.00 0.99 0.74 0.88 0.96 0.85 0.00 0.94 0.68 0.74 0.66 0.90 0.00 0.70
0.66 0.96 0.57 0.80 0.56 0.51 0.68 0.94 0.85 0.62 0.74 0.00 0.87 0.86 0.88 0.83 0.82 0.94 0.98 0.74 0.97 0.88 0.65 0.63 0.74 0.65 0.84 0.00 0.91 0.00
