140
0.00 0.00 0.87 0.00 0.00 0.89 0.00 0.00 0.00 0.00 0.00 0.00 0.00 0.76 0.96 0.00 0.00 0.80 0.00 0.00 0.00 0.00 0.56 0.00 0.00 0.00 0.00 0.85 0.00 0.83 0.00 0.00 0.00 0.00 0.00 0.78 0.00 0.00 0.00 0.00 0.00 0.66 0.71 0.00 0.00 0.00 0.00 0.00 0.00 0.00 0.00 0.00 0.00 0.00 0.00 0.91 0.00 0.00 0.00 0.00 0.00 0.00 0.00 0.00 0.99 0.00 0.00 0.55 0.00 0.00 0.00 0.00 0.00 0.00 0.00 0.00 0.00 0.00 0.00 0.93 0.00 0.00 0.00 0.00 0.00 0.62 0.00 0.55 0.00 0.00 0.93 0.00 0.00 0.00 0.00 0.86 0.00 0.00 0.54 0.70 0.00 0.00 0.00 0.57 0.00 0.00 0.00 0.00 0.00 0.00 0.00 0.00 0.00 0.00 0.61 0.89 0.00 0.00 0.00 0.79 0.00 0.00 0.00 0.00 0.00 0.00 0.62 0.00 0.00 0.00 0.65 0.00 0.00 0.00 1.00 0.00 0.00 0.00 0.00 0.69
0.00 0.00 0.00 0.00 0.00 0.00 0.00 0.00 0.00 0.00 0.86 0.85 0.00 0.00 0.00 0.00 0.00 0.00 0.92 0.00 0.00 0.00 0.00 0.00 0.00 0.00 0.00 0.00 0.00 0.92 0.00 0.00 0.00 0.00 0.00 0.00 0.75 0.00 0.00 0.97 0.79 0.00 0.00 0.00 0.00 0.00 0.99 0.00 0.00 0.00 0.00 0.00 0.00 0.62 0.00 0.87 0.71 0.96 0.00 0.00 0.00 0.00 0.00 0.00 0.00 0.00 0.63 0.00 0.00 0.00 0.55 0.00 0.00 0.00 0.00 0.80 0.00 0.92 0.53 0.00 0.00 0.00 0.00 0.67 0.00 0.96 0.00 0.00 0.00 0.62 0.00 0.00 0.00 0.00 0.00 0.00 0.00 0.00 0.00 0.00 0.00 0.00 0.00 0.00 0.61 0.00 0.00 0.00 0.00 0.00 0.83 0.66 0.00 0.00 0.00 0.00 0.52 0.00 0.00 0.56 0.00 0.00 0.00 0.00 0.81 0.00 0.00 0.62 0.00 0.00 0.00 0.56 0.00 0.00 0.00 0.00 0.00 0.00 0.00 0.00
0.59 0.00 0.00 0.00 0.00 0.00 0.00 0.75 0.00 0.00 0.00 0.00 0.00 0.58 0.00 0.00 0.00 0.00 0.00 0.00 0.00 0.71 0.00 0.83 0.00 0.00 0.00 0.00 0.54 0.00 0.00 0.00 0.00 0.00 0.00 0.68 0.00 0.00 0.00 0.00 0.00 0.94 0.00 0.00 0.00 0.00 0.00 0.59 0.00 0.00 0.91 0.76 0.00 0.54 0.00 0.00 0.00 0.00 0.00 0.00 0.00 0.76 0.00 0.70 0.56 0.00 0.00 0.98 0.00 0.00 0.00 0.72 0.00 0.00 0.00 0.80 0.54 0.00 0.86 0.00 0.00 0.00 0.00 0.00 0.61 0.00 0.00 0.00 0.00 0.00 1.00 0.00 0.00 0.76 0.00 0.00 0.00 0.00 0.00 0.59 0.73 0.00 0.00 0.94 0.00 0.74 0.70 0.88 0.00 0.00 0.00 0.00 0.00 0.92 0.00 0.00 0.00 0.00 0.66 0.89 0.00 1.00 0.00 0.00 0.00 0.00 0.00 0.00 0.00 0.00 0.64 0.99 0.58 0.00 0.00 0.00 0.00 0.77 0.79 0.00
0.00 0.00 0.00 0.00 0.00 0.61 0.77 0.00 0.68 0.00 0.00 0.00 0.00 0.00 0.00 0.00 0.98 0.67 0.64 0.00 0.00 0.00 0.55 0.00 0.00 0.00 0.96 0.00 0.00 0.00 0.00 0.00 0.00 0.00 0.00 0.00 0.00 0.00 0.00 0.00 0.00 0.00 0.00 0.76 0.53 0.00 0.00 0.00 0.00 0.00 0.00 0.00 0.00 0.96 0.00 0.00 0.00 0.00 0.00 0.93 0.00 0.00 0.00 0.00 0.00 0.00 0.00 0.90 0.00 0.00 0.50 0.00 0.00 0.00 0.69 0.00 0.00 0.00 0.87 0.00 0.00 0.00 0.00 0.00 0.00 0.00 0.00 0.00 0.00 0.65 0.55 0.00 0.00 1.00 0.63 0.00 0.00 0.00 0.00 0.00 0.00 0.76 0.00 0.00 0.00 0.00 0.00 0.00 0.00 0.84 0.00 0.00 0.00 0.00 0.00 0.00 0.00 0.00 0.00 0.00 0.00 0.75 0.00 0.00 0.00 0.83 0.71 0.00 0.00 0.00 0.00 0.91 0.85 0.00 0.68 0.00 0.00 0.00 0.00 0.88
0.60 0.00 0.00 0.68 0.00 0.00 0.84 0.00 0.00 0.00 0.00 0.00 0.69 0.86 0.00 0.00 0.97 0.00 0.61 0.00 0.00 0.00 0.00 0.00 0.52 0.00 0.00 0.00 0.80 0.00 0.63 0.00 0.00 0.00 0.00 0.00 0.00 0.00 0.00 0.00 0.00 0.00 0.00 0.00 0.00 0.00 0.63 0.00 0.00 0.00 0.00 0.00 0.00 0.00 0.00 0.52 0.68 0.00 0.00 0.98 0.00 0.68 0.54 0.61 0.86 0.00 0.00 0.00 0.00 0.00 0.00 0.00 0.00 0.79 0.00 0.00 0.69 0.00 0.00 0.00 0.58 0.54 0.88 0.00 0.64 0.00 0.00 0.74 0.00 0.70 0.00 0.00 0.00 0.95 0.66 0.94 0.00 0.69 0.00 0.00 0.00 0.69 0.00 0.94 0.00 0.00 0.00 0.00 0.56 0.68 0.63 0.00 0.00 0.85 0.00 0.83 1.00 0.98 0.00 0.00 0.00 0.00 0.00 0.00 0.00 0.75 0.71 0.00 0.00 0.00 0.00 0.00 0.00 0.00 0.00 0.00 0.79 0.77 0.00 0.00
0.00 0.00 0.00 0.00 0.00 0.00 0.54 0.00 0.00 0.63 0.00 0.79 0.83 0.00 0.95 0.00 0.00 0.00 0.00 0.00 0.97 0.00 0.88 0.00 0.70 0.00 0.54 0.00 0.00 0.00 0.65 0.00 0.00 0.00 0.00 0.00 0.82 0.00 0.00 0.00 0.73 0.68 0.00 0.00 0.00 0.00 0.00 0.00 0.96 0.00 0.00 0.00 0.00 0.00 0.00 0.00 0.63 0.88 0.00 0.95 0.90 0.00 0.00 0.00 0.74 0.96 0.00 0.00 0.00 0.00 0.77 0.62 0.65 0.00 0.00 0.00 0.00 0.72 0.00 0.54 0.00 0.00 0.51 0.60 0.66 0.85 0.00 0.00 0.99 0.00 0.00 0.00 0.63 0.64 0.00 0.00 0.00 0.00 0.00 0.78 0.00 0.00 0.00 0.51 0.00 0.00 0.00 0.00 0.81 0.85 0.00 0.00 0.00 0.00 0.99 0.00 0.00 0.00 1.00 0.00 0.00 0.00 0.00 0.00 0.00 0.00 0.00 0.00 0.00 0.00 0.00 0.00 0.00 0.00 0.00 0.00 0.00 0.00 0.53 0.00
0.89 0.00 0.00 0.00 0.00 0.00 0.00 0.00 0.00 0.65 0.00 0.00 0.67 0.00 0.56 0.00 0.00 0.00 0.60 0.00 0.00 0.00 0.63 0.00 0.00 0.00 0.00 0.00 0.52 0.89 0.00 0.00 0.00 0.00 0.00 0.89 0.76 0.00 0.00 0.00 0.89 0.00 0.00 0.59 0.00 0.00 0.00 0.00 0.71 0.00 0.00 0.00 0.59 0.00 0.71 0.82 0.00 0.00 0.00 0.00 0.87 0.00 0.00 0.00 0.00 0.00 0.00 0.00 0.00 0.00 0.00 0.00 0.00 0.00 0.00 0.00 0.00 0.00 0.00 0.68 0.65 0.00 0.54 0.00 0.00 0.00 0.00 0.00 0.00 0.00 0.50 0.00 0.00 0.60 0.00 0.00 0.00 0.00 0.00 0.00 0.00 0.00 0.52 0.00 0.00 0.65 0.00 0.00 0.00 0.00 0.00 0.00 0.00 0.00 0.64 0.00 0.00 0.00 0.72 0.00 0.00 0.00 0.78 0.00 0.00 0.00 0.00 0.00 0.68 0.67 0.00 0.00 0.96 0.00 0.00 0.82 0.00 0.00 0.61 0.79
0.00 0.00 0.00 0.00 0.00 0.00 0.84 0.00 0.60 0.00 0.00 0.00 0.00 0.00 0.00 0.00 0.60 0.65 0.00 0.00 0.00 0.00 0.00 0.75 0.00 0.00 0.00 0.00 0.95 0.00 0.00 0.00 0.00 0.00 0.00 0.91 0.00 0.00 0.00 0.59 0.00 0.00 0.68 0.57 0.77 0.00 0.00 0.00 0.00 0.00 0.85 0.00 0.65 0.00 0.51 0.00 0.00 0.00 0.00 0.00 0.00 0.00 0.00 0.00 0.91 0.88 0.00 0.00 0.00 0.64 0.00 0.00 0.00 0.61 0.53 0.00 0.00 0.00 0.00 0.00 0.00 0.00 0.00 0.00 0.00 0.00 0.54 0.76 0.00 0.00 0.51 0.00 0.52 0.00 0.00 0.00 0.94 0.00 0.68 0.00 0.00 0.00 0.58 0.00 0.00 0.00 0.00 0.00 0.00 0.00 0.00 0.00 0.00 0.00 0.00 0.00 0.00 0.00 0.00 0.00 0.64 0.61 0.00 0.69 0.00 0.00 0.00 0.00 0.00 0.00 0.95 0.93 0.00 0.00 0.90 0.00 0.00 0.00 0.62 0.86
0.00 0.00 0.00 0.00 0.00 0.73 0.00 0.00 0.00 0.62 0.00 0.00 0.95 0.96 0.00 0.00 0.00 0.00 0.00 0.00 0.56 0.00 0.96 0.00 0.00 0.00 0.00 0.00 0.61 0.00 0.00 0.00 0.97 0.98 0.00 0.00 0.85 0.00 0.00 0.00 0.00 0.00 0.00 0.00 0.00 0.00 0.00 0.70 0.55 0.00 0.60 0.00 0.00 0.00 0.00 0.00 0.00 0.00 0.00 0.00 0.00 0.90 0.00 0.00 0.00 0.00 0.00 0.00 0.00 0.00 0.59 0.00 0.00 0.00 0.59 0.00 0.00 0.00 0.00 0.00 0.65 0.00 0.94 0.00 0.00 0.00 0.00 0.00 0.90 0.53 0.00 0.00 0.00 0.00 0.00 0.82 0.00 0.00 0.94 0.00 0.00 0.00 0.91 0.00 0.93 0.00 0.00 0.00 0.00 0.97 0.00 0.00 0.00 0.00 0.57 0.91 0.00 0.00 0.00 0.00 0.00 0.83 0.00 0.76 0.00 0.83 0.00 0.51 0.00 0.00 0.92 0.00 0.00 0.71 0.93 0.00 0.00 0.95 0.00 0.00
0.00 0.88 0.59 0.00 0.00 0.60 0.93 0.52 0.00 0.00 0.00 0.00 0.00 0.00 0.00 0.00 0.00 0.00 0.00 0.00 0.00 0.96 0.00 0.00 0.00 0.00 0.00 0.51 0.00 0.63 0.65 0.00 0.00 0.00 0.00 0.70 0.00 0.00 0.00 0.64 0.69 0.00 0.00 0.00 0.00 0.00 0.00 0.00 0.54 0.62 0.81 0.00 0.00 0.74 0.00 0.00 0.53 0.72 0.51 0.58 0.00 0.95 0.00 0.72 0.58 0.00 0.00 0.00 0.85 0.98 0.00 0.00 0.00 0.00 0.00 0.00 0.00 0.00 0.58 0.00 0.81 0.89 0.00 0.00 0.00 0.00 0.00 0.00 0.00 0.73 0.00 0.00 0.00 0.00 0.00 0.69 0.00 0.85 0.00 0.00 0.00 0.00 0.00 0.00 0.00 0.00 0.00 0.62 0.69 0.00 0.72 0.00 0.62 0.67 0.00 0.00 0.60 0.00 0.00 0.00 0.00 0.00 0.61 0.00 0.00 0.67 0.00 0.00 0.68 0.00 0.00 0.00 0.55 0.00 0.90 0.00 0.96 0.00 0.00 0.00
0.00 0.00 0.00 0.00 0.51 0.00 0.58 0.00 0.00 0.00 0.00 0.79 0.68 0.00 0.00 0.00 0.00 0.95 0.00 0.00 0.83 0.00 0.00 0.00 0.00 0.00 0.00 0.00 0.00 0.00 0.00 0.00 0.00 0.00 0.00 0.00 0.00 0.67 0.00 0.00 0.89 0.00 0.00 0.55 0.75 0.00 0.00 0.00 0.00 0.00 0.85 0.00 0.00 0.00 0.91 0.00 0.00 0.00 0.00 0.92 0.00 0.91 0.00 0.00 0.00 0.60 0.00 0.00 0.00 0.00 0.00 0.00 0.76 0.00 0.00 0.00 0.00 0.00 0.00 0.00 0.00 0.76 0.00 0.00 0.00 0.00 0.00 0.00 0.00 0.00 0.00 0.84 0.00 0.00 0.58 0.00 0.00 0.00 0.00 0.00 0.00 0.00 0.00 0.87 0.00 0.00 0.77 0.00 0.00 0.00 0.00 0.00 0.00 0.00 0.00 0.00 0.00 0.62 0.00 0.00 0.00 0.54 0.00 0.00 0.00 0.00 0.00 0.00 0.00 0.00 0.00 0.53 0.00 0.00 0.00 0.95 0.96 0.00 0.00 0.00
0.00 0.00 0.00 0.94 0.00 0.00 0.00 0.00 0.52 0.00 0.00 0.00 0.00 0.00 0.89 0.00 0.71 0.00 0.55 0.00 0.73 0.00 0.00 0.00 0.55 0.00 0.00 0.59 0.68 0.00 0.54 0.00 0.00 0.00 0.99 0.58 0.66 0.75 0.00 0.00 0.00 0.00 0.00 0.00 0.00 0.00 0.00 0.00 0.00 0.00 0.00 0.00 0.00 0.00 0.00 0.00 0.00 0.76 0.00 0.00 0.00 0.00 0.00 0.00 0.74 0.00 0.00 0.00 0.55 0.83 0.00 0.00 0.00 0.00 0.92 0.00 0.85 0.00 0.00 0.00 0.93 0.00 0.00 0.00 0.00 0.57 0.51 0.00 0.00 0.84 0.00 0.00 0.00 0.00 0.00 0.57 0.00 0.00 0.00 0.00 0.56 0.95 0.00 0.54 0.83 0.83 0.00 0.00 0.00 0.90 0.00 0.00 0.00 0.61 0.00 0.00 0.00 0.00 0.00 0.00 0.00 0.00 0.00 0.00 0.60 0.00 0.00 0.00 0.00 0.00 0.00 0.00 0.00 0.88 0.00 0.00 0.00 0.00 0.00 0.75
0.00 0.93 0.00 0.00 0.00 0.00 0.00 0.00 0.00 0.53 0.95 0.00 0.00 0.00 0.60 0.00 0.00 0.00 0.00 0.59 0.00 0.00 0.00 0.00 0.00 0.00 0.00 0.00 0.00 0.00 0.00 0.67 0.00 0.00 0.55 0.00 0.95 0.00 0.63 0.89 0.00 0.00 0.00 0.00 0.00 0.54 0.65 0.80 0.00 0.00 0.00 0.00 0.00 0.00 0.86 0.00 0.98 0.00 0.00 0.71 0.00 0.00 0.00 0.00 0.00 0.81 0.00 0.00 0.00 0.00 0.00 0.00 0.61 0.00 0.67 0.00 0.00 0.00 0.00 0.00 0.00 0.00 0.00 0.00 0.00 0.98 0.92 0.00 0.00 0.91 0.87 0.00 0.79 0.00 0.00 0.00 0.00 0.95 0.79 0.92 0.90 0.56 0.00 0.00 0.00 0.00 0.00 0.00 0.86 0.00 0.00 0.00 0.51 0.65 0.00 0.00 0.00 0.00 0.95 0.00 0.94 0.00 0.00 0.00 0.00 0.58 0.00 0.00 0.00 0.00 0.00 0.00 0.00 0.00 0.98 0.90 0.00 0.63 0.87 0.00
0.00 0.62 0.00 0.00 0.00 0.00 0.00 0.65 0.00 0.73 0.00 0.00 0.00 0.00 0.87 0.00 0.00 0.00 0.86 0.00 0.00 0.00 0.85 0.00 0.00 0.00 0.00 0.81 0.00 0.53 0.00 0.00 0.00 0.00 0.54 0.00 0.00 0.00 0.00 0.97 0.52 0.67 0.00 0.00 0.00 0.00 0.00 0.00 0.00 0.00 0.87 0.00 0.00 0.00 0.00 0.00 0.83 0.62 0.00 0.00 0.00 0.00 0.00 0.00 0.00 1.00 0.00 0.00 0.60 0.54 0.69 0.00 0.00 0.00 0.62 0.00 0.00 0.00 0.00 0.63 0.00 0.65 0.00 0.00 0.00 0.00 0.66 0.00 0.00 0.00 0.00 0.00 0.00 0.00 0.00 0.00 0.75 0.00 0.00 0.74 0.00 0.00 0.00 0.52 0.00 0.98 0.00 0.00 0.00 0.00 0.00 0.73 0.00 0.00 0.00 0.92 0.00 0.00 0.51 0.60 0.00 0.00 0.00 0.00 0.00 0.88 0.00 0.00 0.00 0.82 0.00 0.00 0.00 0.69 0.00 0.85 0.67 0.00 0.00 0.00
0.00 0.00 0.54 0.00 0.00 0.89 0.00 0.00 0.00 0.00 0.00 0.00 0.97 0.00 0.00 0.00 0.00 0.00 0.00 0.00 0.00 0.00 0.00 0.98 0.00 0.00 0.00 0.00 0.00 0.74 0.00 0.00 0.00 0.00 0.83 0.00 0.00 0.00 0.00 0.00 0.51 0.85 0.00 0.00 0.00 0.00 0.00 0.00 0.00 0.00 0.55 0.00 0.00 0.00 0.00 0.00 0.00 0.00 0.00 0.00 0.76 0.00 0.00 0.96 0.00 0.53 0.00 0.56 0.00 0.77 0.00 0.56 0.00 0.80 0.00 0.66 0.00 0.00 0.00 0.67 0.67 0.00 0.00 0.00 0.82 0.00 0.89 0.00 0.00 0.77 0.00 0.00 0.81 0.00 0.00 0.00 0.00 0.00 0.00 0.00 0.00 0.00 0.00 0.00 0.00 0.77 0.00 0.00 0.00 0.90 0.00 0.76 0.00 0.79 0.00 0.87 0.00 0.00 0.00 0.00 0.00 0.00 0.54 0.00 0.00 0.70 0.00 0.52 0.85 0.91 0.00 0.00 0.00 0.00 0.00 0.00 0.00 0.00 0.00 0.00
0.00 0.00 0.52 0.00 0.86 0.00 0.55 0.00 0.00 0.00 0.00 0.00 0.00 0.00 0.00 0.00 0.85 0.56 0.00 0.00 0.00 0.75 0.00 0.00 0.00 0.00 0.70 0.00 0.00 0.00 0.00 0.00 0.00 0.00 0.00 0.00 0.00 0.00 0.00 0.00 0.00 0.69 0.00 0.00 0.73 0.00 0.00 0.00 0.56 0.82 0.00 0.00 0.54 0.00 0.93 0.77 0.00 0.00 0.00 0.00 0.00 0.00 0.00 0.00 0.00 0.00 0.00 0.95 0.00 0.00 0.00 0.00 0.00 0.00 0.00 0.00 0.00 0.00 0.00 0.00 0.00 0.00 0.00 0.71 0.00 0.00 0.00 0.00 0.00 0.00 0.00 0.00 0.00 0.00 0.00 0.00 0.79 0.00 0.00 0.00 0.52 0.00 0.00 0.61 0.00 0.74 0.00 0.00 0.00 0.00 0.56 0.00 0.00 0.66 0.52 0.64 0.63 0.00 0.00 0.00 0.00 0.00 0.00 0.00 0.00 0.00 0.00 0.00 0.00 0.61 0.88 0.62 0.00 0.00 0.00 0.00 0.00 0.69 0.91 0.97
0.00 0.00 0.61 0.00 0.00 0.00 0.00 0.00 0.00 0.00 0.79 0.55 0.63 0.00 0.00 0.85 0.00 0.87 0.00 0.58 0.00 0.00 0.00 0.97 0.00 0.00 0.00 0.00 0.00 0.00 0.00 0.00 0.00 0.00 0.00 0.00 0.00 0.00 0.00 0.57 0.72 0.69 0.00 0.00 0.88 0.00 0.00 0.00 0.55 0.00 0.00 0.00 0.00 0.00 0.00 0.00 0.00 0.00 0.00 0.99 0.76 0.00 0.90 0.00 0.00 0.00 0.00 0.00 0.00 0.00 0.00 0.00 0.00 0.00 0.00 0.00 0.00 0.00 0.00 0.00 0.00 0.67 0.00 0.00 0.00 0.68 0.00 0.00 0.63 0.00 0.00 0.76 0.00 0.93 0.00 0.00 0.00 0.00 0.70 0.00 0.51 0.00 0.00 0.00 0.00 0.90 0.00 0.00 0.00 0.00 0.00 0.00 0.00 0.93 0.00 0.00 0.69 0.00 0.00 0.00 0.00 0.93 0.00 0.73 0.99 0.57 0.00 0.00 0.50 0.00 0.93 0.00 0.00 0.00 0.00 0.00 0.00 0.00 0.00 0.55
0.00 0.92 0.00 0.00 0.00 0.00 0.76 0.92 0.00 0.00 0.00 0.86 0.00 0.81 0.00 0.96 0.00 0.00 0.00 0.00 0.00 0.00 0.00 0.00 0.00 0.00 0.90 0.92 0.84 0.00 0.00 0.00 0.00 0.00 0.00 0.00 0.00 0.00 0.00 0.00 0.00 0.00 0.51 0.82 0.86 0.65 0.53 0.00 0.00 0.00 0.00 0.00 0.00 0.00 0.57 0.00 0.00 0.77 0.57 0.54 0.00 0.00 0.86 0.00 0.00 0.87 0.00 0.00 0.00 0.89 0.00 0.00 0.65 0.00 0.00 0.00 0.00 0.82 0.00 0.00 0.58 0.72 0.00 0.00 0.83 0.92 0.00 0.00 0.00 0.00 0.00 0.00 0.00 0.00 0.00 0.00 0.00 0.00 0.00 0.00 0.00 0.99 0.00 0.00 0.60 0.00 0.78 0.00 0.00 0.00 0.00 0.00 0.57 0.00 0.77 0.00 0.00 0.00 0.00 0.00 0.00 0.96 0.00 0.00 0.00 0.00 0.00 0.00 0.77 0.91 0.00 0.93 0.00 0.00 0.00 0.00 0.82 0.00 0.00 0.65
0.00 0.00 0.00 0.62 0.90 0.64 0.00 0.00 0.00 0.97 0.00 0.71 0.62 0.00 0.00 0.00 0.00 0.00 0.00 0.00 0.86 0.00 0.00 0.71 0.94 0.00 0.94 0.83 0.75 0.00 0.00 0.00 0.00 0.00 0.00 0.00 0.00 0.95 0.00 0.00 0.00 0.00 0.93 0.00 0.71 0.00 0.78 0.67 0.00 0.53 0.00 0.00 0.55 0.00 0.00 0.00 0.00 0.84 0.00 0.00 0.00 0.00 0.00 0.00 0.73 0.99 0.00 0.00 0.00 0.00 0.85 0.00 0.00 0.00 0.00 0.00 0.00 0.00 0.00 0.00 0.00 0.93 0.00 0.00 0.00 0.00 0.00 0.59 0.00 0.00 0.61 0.00 0.00 0.00 0.00 0.00 0.00 0.00 0.00 0.69 0.00 0.00 0.82 0.75 0.68 0.00 0.00 0.00 0.00 0.00 0.00 0.00 0.00 0.00 0.00 0.71 0.00 0.00 0.00 0.00 0.66 0.73 0.00 0.91 0.00 0.00 0.64 0.00 0.00 0.80 0.00 0.57 0.00 0.84 0.74 0.89 0.00 0.72 0.83 0.00
0.00 0.00 0.00 0.00 0.00 0.00 0.00 0.00 0.00 0.00 0.83 0.00 0.00 0.00 0.72 0.65 0.00 0.00 0.00 0.00 0.59 0.00 0.00 0.00 0.00 0.00 0.00 0.00 0.58 0.70 0.00 0.00 0.00 0.50 0.00 0.00 0.68 0.00 0.00 0.00 0.00 0.00 0.93 0.00 0.00 0.00 0.00 0.00 0.00 0.00 0.00 0.62 0.00 0.61 0.00 0.00 0.00 0.00 0.00 0.00 0.00 0.00 0.56 0.00 0.00 0.62 0.00 0.55 0.00 0.00 0.00 0.00 0.00 0.00 0.00 0.00 0.00 0.00 0.64 0.54 0.67 0.00 0.00 0.77 0.00 0.55 0.00 0.00 0.00 0.00 0.00 0.00 0.00 0.72 0.00 0.00 0.00 0.00 0.00 0.00 0.72 0.00 0.00 0.00 0.00 0.00 0.00 0.00 0.00 0.00 0.88 0.00 0.00 0.00 0.51 0.00 0.00 0.00 0.00 0.00 0.00 0.00 0.00 0.00 0.76 0.00 0.00 0.00 0.00 0.00 0.00 0.00 0.73 0.00 0.79 0.00 0.00 0.00 0.00 0.59
0.88 0.00 0.00 0.00 0.00 0.00 0.00 0.95 0.54 0.52 0.00 0.00 0.00 0.87 0.00 0.00 0.00 0.69 0.00 0.00 0.00 0.00 0.00 0.53 0.00 0.00 0.64 0.00 0.00 0.00 0.00 0.00 0.00 0.00 0.00 0.55 0.00 0.00 0.54 0.00 0.00 0.00 0.00 0.00 0.00 0.00 0.72 0.00 0.00 0.00 0.52 0.00 0.00 0.00 0.00 0.00 0.00 0.91 0.00 0.00 0.97 0.64 0.00 0.96 0.00 0.00 0.00 0.00 0.92 0.00 0.00 0.54 0.00 0.00 0.56 0.00 0.00 0.00 0.66 0.00 0.00 0.00 0.61 0.00 0.00 0.72 0.00 0.00 0.00 0.00 0.00 0.77 0.00 0.00 0.00 0.00 0.00 0.00 0.00 0.00 0.00 0.00 0.00 0.00 0.00 0.00 0.00 0.00 0.00 0.00 0.00 0.00 0.64 0.00 0.00 0.00 0.86 0.89 0.00 0.89 0.00 0.00 0.00 0.00 0.00 0.00 0.74 0.00 0.00 0.00 0.00 0.00 0.00 0.00 0.00 0.00 0.00 0.00 0.00 0.76
0.00 0.76 0.00 0.00 0.00 0.00 0.94 0.00 0.00 0.00 0.00 0.84 0.00 0.00 0.00 0.00 0.00 0.54 0.00 0.71 0.00 0.00 0.00 0.00 0.78 0.00 0.00 0.00 0.69 0.00 0.00 0.00 0.00 0.00 0.92 0.00 0.77 0.00 0.99 0.00 0.00 0.00 0.00 0.00 0.92 0.98 0.00 0.00 0.00 0.53 0.00 0.00 0.00 0.00 0.92 0.93 0.00 0.00 0.74 0.94 0.00 0.00 0.00 0.00 0.99 0.00 0.00 0.00 0.98 0.76 0.56 0.00 0.00 0.00 0.00 0.87 0.66 0.00 0.00 0.00 0.88 0.00 0.83 0.00 0.00 0.00 0.00 0.81 0.99 0.00 0.00 0.00 0.00 0.63 0.69 0.00 0.00 0.87 0.00 0.56 0.00 0.00 0.56 0.00 0.00 0.00 0.00 0.00 0.98 0.00 0.00 0.00 0.00 0.81 0.00 0.00 0.00 0.00 0.00 0.92 0.00 0.00 0.00 0.00 0.00 0.59 0.00 0.00 0.00 0.78 0.00 0.00 0.00 0.00 0.74 0.00 0.92 0.00 0.60 0.00
0.00 0.62 0.73 0.53 0.00 0.00 0.75 0.00 0.00 0.00 0.00 0.00 0.00 0.00 0.98 0.00 0.00 0.78 0.00 0.00 0.00 0.00 0.00 0.00 0.00 0.00 0.00 0.00 0.00 0.00 0.73 0.00 0.00 0.66 0.00 0.00 0.00 0.93 0.00 0.00 0.00 0.72 0.00 0.00 0.00 0.00 0.00 0.00 0.00 0.00 0.87 0.00 0.00 0.55 0.00 0.00 0.00 0.00 0.00 0.00 0.00 0.73 0.00 0.00 0.00 0.76 0.00 0.00 0.00 0.74 0.00 0.00 0.00 0.00 0.58 0.00 0.00 0.00 0.00 0.98 0.00 0.78 0.81 0.00 0.00 0.00 0.73 0.00 0.00 0.00 0.00 0.00 0.51 0.00 0.00 0.00 0.00 0.00 0.00 0.00 0.57 0.00 0.00 0.00 0.00 0.00 0.00 0.00 0.00 0.00 0.97 0.00 0.00 0.00 0.00 0.00 0.00 0.00 0.00 0.79 0.00 0.00 0.00 0.82 0.00 0.00 0.57 0.00 0.00 0.72 0.00 0.00 0.00 0.00 0.00 0.00 0.00 0.55 0.00 0.00
0.00 0.00 0.68 0.80 0.94 0.00 0.00 0.00 0.00 0.00 0.00 0.00 0.00 0.00 0.00 0.00 0.00 0.00 0.53 0.00 0.00 0.88 0.66 0.00 0.00 0.84 0.00 0.00 0.97 0.00 0.00 0.00 0.00 0.55 0.51 0.64 0.56 0.00 0.80 0.00 0.00 0.00 0.98 0.00 0.00 0.00 0.00 0.00 0.00 0.00 0.00 0.00 0.00 0.00 0.00 0.00 0.00 0.89 0.00 0.00 0.00 0.00 0.00 0.00 0.78 0.00 0.00 0.00 0.00 0.00 0.00 0.00 0.00 0.00 0.00 0.00 0.00 0.00 0.59 0.00 0.00 0.00 0.91 0.00 0.00 0.00 0.67 0.00 0.00 0.00 0.89 0.00 0.00 0.54 0.00 0.00 0.00 0.00 0.00 0.00 0.00 0.86 0.00 0.00 0.00 0.00 0.00 0.00 0.00 0.00 0.00 0.00 0.00 0.00 0.00 0.00 0.00 0.99 0.54 0.00 0.00 0.00 0.65 0.00 0.00 0.00 0.00 0.00 0.81 0.83 0.00 0.00 0.00 0.65 0.50 0.00 0.54 0.00 0.00 0.00
0.00 0.00 0.00 0.58 0.54 0.89 0.00 0.97 0.00 0.00 0.00 0.00 0.00 0.00 0.00 0.00 0.00 0.00 0.00 0.00 0.00 0.00 0.00 0.00 0.00 0.00 0.63 0.00 0.00 0.00 0.00 0.00 0.00 0.00 0.58 0.00 0.00 0.70 0.59 0.90 0.00 0.00 0.00 0.58 0.00 0.00 0.75 0.00 0.00 0.84 0.00 0.00 0.00 0.00 0.67 0.00 0.00 0.00 0.00 0.00 0.00 0.00 0.00 0.00 0.75 0.00 0.00 0.00 0.78 0.00 0.00 0.00 0.81 0.00 0.00 0.00 0.00 0.74 0.00 0.71 0.78 0.00 0.00 0.00 0.00 0.00 0.00 0.00 0.62 0.00 0.00 0.00 0.00 0.86 0.52 0.00 0.00 0.92 0.00 0.00 0.55 0.00 0.00 0.00 0.63 0.52 0.00 0.00 0.00 0.00 0.00 0.92 0.00 0.00 0.00 0.66 0.00 0.00 0.00 0.00 0.00 0.00 0.00 0.00 0.00 0.00 0.00 0.00 0.00 0.90 0.00 0.00 0.00 0.00 0.78 0.00 0.96 0.52 0.00 0.95
0.70 0.74 0.00 0.90 0.00 0.00 0.00 0.00 0.00 0.00 0.00 0.55 0.78 0.62 0.00 0.00 0.00 0.00 0.89 0.53 0.00 0.00 0.00 0.00 0.00 0.00 0.00 0.00 0.00 0.00 0.00 0.00 0.93 0.00 0.93 0.00 0.00 0.77 0.00 0.00 0.00 0.97 0.00 0.00 0.00 0.00 0.80 0.00 0.55 0.00 0.00 0.00 0.00 0.61 0.00 0.98 0.00 0.62 0.00 0.00 0.00 0.00 0.00 0.00 0.70 0.82 0.00 0.52 0.00 0.00 0.00 0.00 0.00 0.00 0.00 0.00 0.64 0.00 0.71 0.00 0.00 0.00 0.00 0.00 0.00 0.00 0.00 0.00 0.00 0.00 0.63 0.00 0.00 0.00 0.00 0.70 0.00 0.00 0.00 0.61 0.00 0.83 0.56 0.00 0.00 0.00 0.00 0.00 0.00 0.63 0.73 0.71 0.00 0.00 0.80 0.00 0.00 0.00 0.00 0.00 0.96 0.00 0.00 0.00 0.00 0.00 0.00 0.00 0.00 0.00 0.00 0.88 0.00 0.00 0.00 0.00 0.00 0.82 0.64 0.00
0.00 0.00 0.00 0.00 0.00 0.00 0.00 0.00 0.00 0.00 0.00 0.00 0.61 0.00 0.86 0.00 0.00 0.66 0.94 0.00 0.72 0.00 0.67 0.00 0.00 0.70 0.00 0.00 0.00 0.00 0.00 0.00 0.00 0.00 0.00 0.00 0.97 0.89 0.00 0.00 0.71 0.00 0.52 0.00 0.75 0.00 0.00 0.00 0.00 0.00 0.00 0.00 0.00 0.00 0.00 0.00 0.53 0.00 0.68 0.00 0.00 0.00 0.00 0.00 0.00 0.00 0.59 0.97 0.00 0.00 0.00 0.00 0.00 0.73 0.00 0.00 0.00 0.00 0.88 0.00 0.00 0.00 0.00 0.00 0.00 0.81 0.00 0.61 0.00 0.00 0.71 0.86 0.00 0.00 0.00 0.00 0.00 0.73 0.00 0.00 0.00 0.00 0.00 0.00 0.63 0.00 0.00 0.00 0.00 0.00 0.78 0.00 0.00 0.00 0.77 0.96 0.00 0.00 0.00 0.00 0.85 0.00 0.00 0.00 0.00 0.00 0.00 0.00 0.83 0.00 0.00 0.70 0.00 0.00 0.00 0.00 0.00 0.81 0.00 0.76
0.00 0.97 0.62 0.00 0.95 0.00 0.00 0.00 0.00 0.00 0.00 0.00 0.00 0.00 0.00 0.95 0.65 0.00 0.00 0.00 0.00 0.00 0.00 0.00 0.69 0.00 0.00 0.00 0.62 0.00 0.88 0.72 0.00 0.61 0.00 0.98 0.00 0.97 0.00 0.00 0.61 0.00 0.00 0.00 0.00 0.71 0.00 0.69 0.96 0.00 0.73 0.61 0.00 0.00 0.00 0.00 0.85 0.86 0.00 0.75 0.00 0.00 0.00 0.00 0.00 0.00 0.00 0.55 0.63 0.00 0.00 0.00 0.00 0.00 0.00 0.00 0.00 0.81 0.51 0.00 0.99 0.00 0.00 0.59 0.61 0.00 0.00 0.00 0.00 0.97 0.00 0.00 0.00 0.00 0.00 0.00 0.70 0.52 0.00 0.90 0.00 0.00 0.00 0.94 0.00 0.52 0.00 0.00 0.56 0.00 0.94 0.00 0.99 0.96 0.51 0.74 0.00 0.00 0.00 0.00 0.00 0.00 0.00 0.71 0.87 0.00 0.00 0.57 0.00 0.00 0.00 0.00 0.00 0.53 0.00 0.00 0.00 0.00 0.92 0.00
0.00 0.00 0.00 0.73 0.00 0.69 0.00 0.00 0.98 0.00 0.00 0.00 0.00 0.00 0.79 0.00 0.00 0.00 0.00 0.00 0.00 0.00 0.87 0.00 0.00 0.00 0.00 0.98 0.00 0.00 0.00 0.83 0.00 0.00 0.00 0.00 0.00 0.00 0.00 0.00 0.00 0.00 0.00 0.75 0.00 0.00 0.00 0.67 0.00 0.00 0.00 0.70 0.00 0.00 0.84 0.73 0.76 0.00 0.00 0.00 0.00 0.00 0.00 0.00 0.94 0.00 0.00 0.95 0.93 0.00 0.00 0.00 0.00 0.00 0.65 0.00 0.00 0.00 0.00 0.92 0.00 0.00 0.00 0.00 0.00 0.82 0.00 0.00 0.00 0.00 0.00 0.00 0.00 0.00 0.00 0.00 0.00 0.52 0.68 0.00 0.00 0.00 0.00 0.00 0.52 0.98 0.00 0.00 0.00 0.82 0.00 0.60 0.64 0.50 0.00 0.00 0.00 0.79 0.00 0.71 0.85 0.00 0.00 0.86 0.00 0.68 0.00 0.00 0.00 0.00 0.00 0.00 0.58 0.00 0.00 0.00 0.00 0.00 0.00 0.00
0.76 0.00 0.00 0.68 0.00 0.00 0.61 0.00 0.00 0.00 0.81 0.00 0.81 0.00 0.00 0.73 0.00 0.00 0.00 0.79 0.00 0.00 0.00 0.88 0.72 0.54 0.65 0.00 0.00 0.00 0.00 0.00 0.00 0.00 0.00 0.00 0.00 0.00 0.00 0.78 0.00 0.00 0.00 0.00 0.61 0.00 0.92 0.00 0.00 0.00 0.00 0.00 0.00 0.00 0.54 0.00 0.00 0.00 0.00 0.00 0.00 0.00 0.00 0.00 0.00 0.00 0.66 0.00 0.00 0.76 0.00 0.00 0.00 0.00 0.90 0.00 0.00 0.77 0.00 0.00 0.00 0.00 0.00 0.00 0.00 0.67 0.89 0.00 0.65 0.00 0.00 0.00 0.00 0.00 0.00 0.00 0.82 0.00 0.00 0.73 0.86 0.00 0.00 0.61 0.00 0.00 0.00 0.81 0.00 0.80 0.00 0.00 0.00 0.00 0.00 0.00 0.00 0.59 0.00 0.00 0.00 0.00 0.00 0.95 0.00 0.00 0.00 0.00 0.00 0.00 0.00 0.88 0.00 0.00 0.00 0.00 0.00 0.00 0.00 0.00
0.00 0.00 0.00 0.00 0.00 0.00 0.00 0.00 0.71 0.52 0.00 0.00 0.00 0.91 0.00 0.00 0.00 0.00 0.00 0.60 0.00 0.00 0.98 0.00 0.00 0.99 0.00 0.00 0.00 0.54 0.00 0.00 0.00 0.90 0.00 0.59 0.00 0.00 0.00 0.00 0.63 0.00 0.00 0.00 0.64 0.00 0.58 0.00 0.00 0.00 0.00 0.00 0.00 0.00 0.00 0.88 0.00 0.00 0.00 0.00 0.00 0.66 0.00 0.00 0.00 0.00 0.00 0.00 0.00 0.00 0.83 0.91 0.64 0.58 0.00 0.00 0.88 0.65 0.62 0.00 0.00 0.00 0.00 0.00 0.00 0.00 0.00 0.56 0.00 0.74 0.00 0.00 0.00 0.00 0.00 0.00 0.74 0.00 0.00 0.70 0.84 0.94 0.00 0.00 0.00 0.00 0.00 0.00 0.00 0.00 0.00 0.00 0.00 0.00 0.00 0.00 0.00 0.00 0.00 0.00 0.74 0.00 0.84 0.00 0.52 0.00 0.00 1.00 0.00 0.00 0.00 0.00 1.00 0.00 0.00 0.00 0.00 0.00 0.92 0.00
0.51 0.00 0.00 0.00 0.00 0.00 0.00 0.00 0.00 0.00 0.00 0.00 0.00 0.00 0.00 0.00 0.87 0.00 0.00 0.00 0.77 0.00 0.57 0.00 0.00 0.00 0.97 0.00 0.00 0.00 0.00 0.00 0.00 0.00 0.58 0.00 0.00 0.00 0.00 0.00 0.00 0.00 0.00 0.00 0.00 0.00 0.00 0.00 0.00 0.00 0.60 0.97 0.54 0.00 0.72 0.00 0.00 0.00 0.00 0.63 0.00 0.00 0.00 0.00 0.00 0.77 0.00 0.00 0.00 0.00 0.00 0.93 0.00 0.00 0.00 0.00 0.72 0.00 0.00 0.00 0.00 0.00 0.00 0.60 0.00 0.74 0.00 0.00 0.00 0.00 0.00 0.00 0.00 0.72 0.59 0.00 0.53 0.00 0.00 0.00 0.00 0.00 0.00 0.00 0.59 0.00 0.00 0.00 0.00 0.58 0.00 0.00 0.00 0.00 0.95 0.00 0.00 0.54 0.00 0.00 0.00 0.00 0.00 0.69 0.85 0.64 0.00 0.00 0.86 0.00 0.00 0.00 0.00 0.00 0.00 0.00 0.00 0.00 0.58 0.00
0.86 0.00 0.00 0.00 0.00 0.56 0.53 0.00 0.65 0.84 0.84 0.00 0.70 0.00 0.00 0.82 0.00 0.00 0.00 0.00 0.00 0.00 0.96 0.00 0.00 0.00 0.00 0.00 0.00 0.00 0.58 0.00 0.00 0.00 0.00 0.00 0.00 0.00 0.00 0.00 0.00 0.00 0.00 0.00 0.00 0.00 0.00 0.00 0.00 0.00 0.83 0.00 0.52 0.86 0.00 0.00 0.00 0.00 0.00 0.51 0.65 0.00 0.83 0.76 0.00 0.00 0.96 0.68 0.67 0.94 0.00 0.00 0.00 0.83 0.61 0.93 0.00 0.80 0.00 0.00 0.00 0.00 0.00 0.60 0.00 0.00 0.00 0.00 0.00 0.00 0.55 0.88 0.00 0.80 0.00 0.00 0.00 0.00 0.58 0.73 0.00 0.00 0.00 0.00 0.00 0.00 0.00 0.00 0.00 0.00 0.83 0.00 0.94 0.00 0.91 0.00 0.81 0.00 0.88 0.00 0.00 0.00 0.00 0.00 0.00 0.00 0.00 0.00 0.70 0.80 0.00 0.00 0.00 0.00 0.59 0.00 0.95 0.00 0.00 0.00
0.00 0.56 0.93 0.65 0.68 0.00 0.00 0.00 0.00 0.00 0.00 0.00 0.00 0.00 0.00 0.88 0.00 0.00 0.79 0.00 0.00 0.00 0.00 0.00 0.00 0.00 0.84 0.00 0.00 0.00 0.00 0.00 0.60 0.00 0.65 0.59 0.00 0.00 0.00 0.79 0.00 0.00 0.00 0.00 0.92 0.00 0.00 0.00 0.00 0.71 0.00 0.00 0.00 0.00 0.82 0.83 0.00 0.00 0.64 0.94 0.85 0.00 0.00 0.60 0.00 0.00 0.00 0.00 0.00 0.00 0.00 0.00 0.57 0.88 0.00 0.51 0.00 0.00 0.00 0.00 0.60 0.61 0.00 0.91 0.84 0.00 0.00 0.53 0.94 0.00 0.95 0.00 0.00 0.00 0.00 0.00 0.00 0.54 0.00 0.00 0.00 0.00 0.60 0.00 0.00 0.00 0.00 0.00 0.00 0.00 0.00 0.71 0.60 0.00 0.67 0.00 0.00 0.00 0.00 0.91 0.00 0.00 0.00 0.00 1.00 0.00 0.80 0.00 0.84 0.00 0.00 0.00 0.00 0.00 0.00 0.00 0.00 0.00 0.00 0.62
0.00 0.00 0.00 0.00 0.00 0.91 0.00 0.83 0.87 0.00 0.00 0.85 0.00 0.00 0.00 0.00 0.00 0.00 0.00 0.00 0.00 0.00 0.00 0.69 0.71 0.00 0.85 0.00 0.00 0.00 0.00 0.00 0.00 0.94 0.00 0.00 0.97 0.00 0.00 0.00 0.71 0.00 0.00 0.63 0.90 0.00 0.00 0.00 0.00 0.84 0.00 0.00 0.00 0.00 0.00 0.00 0.96 0.00 0.00 0.00 0.97 0.00 0.69 0.99 0.00 0.00 0.00 0.84 0.59 0.00 0.00 0.00 0.00 0.00 0.69 0.90 0.00 0.00 0.00 0.00 0.00 0.00 0.00 0.00 0.00 0.00 0.00 0.00 0.00 0.00 0.00 0.00 0.00 0.77 0.78 0.00 0.00 0.00 0.00 0.00 0.00 0.00 0.93 0.00 0.79 0.80 0.00 0.00 0.00 0.58 0.92 0.00 0.00 0.00 0.00 0.00 0.00 0.00 0.00 0.79 0.00 0.00 0.00 0.68 0.00 0.00 0.00 0.72 0.84 0.00 0.00 0.00 0.00 0.00 0.00 0.67 0.57 0.80 0.00 0.00
0.00 0.00 0.00 0.86 0.00 0.00 0.00 0.00 0.00 0.00 0.00 0.00 0.00 0.52 0.00 0.51 0.65 0.59 0.00 0.00 0.00 0.61 0.00 0.00 0.60 0.00 0.69 0.00 0.00 0.00 0.00 0.00 0.00 0.00 0.00 0.00 0.00 0.00 0.00 0.00 0.00 0.00 0.00 0.00 0.91 0.00 0.00 0.00 0.00 0.00 0.00 0.00 0.98 0.00 0.00 0.00 0.00 0.00 0.00 0.00 0.00 0.00 0.00 0.00 0.00 0.00 0.00 0.00 0.00 0.00 0.71 0.00 0.61 0.00 0.00 0.00 0.00 0.98 0.00 0.00 0.00 0.00 0.00 0.00 0.00 0.00 0.00 0.62 0.53 0.00 0.00 0.00 0.00 0.00 0.79 0.82 0.00 0.91 0.00 0.99 0.00 0.00 0.00 0.00 0.00 0.00 0.00 0.00 0.59 0.00 0.00 0.00 0.00 0.83 0.00 0.96 0.82 0.00 0.66 0.00 0.00 0.00 0.70 0.82 0.00 0.00 0.86 0.00 0.00 0.00 0.00 0.54 0.00 0.73 0.00 0.00 0.00 0.00 0.00 0.00
0.61 0.00 0.75 0.00 0.00 0.81 0.00 0.00 0.57 0.86 0.00 0.00 0.53 0.00 0.00 0.00 0.86 0.00 0.78 0.00 0.00 0.00 0.00 0.00 0.00 0.00 0.00 0.51 0.00 0.00 0.00 0.80 0.00 0.61 0.00 0.00 0.00 0.00 0.00 0.00 0.00 0.00 0.00 0.00 0.87 0.00 0.67 0.57 0.00 0.00 0.00 0.00 0.00 0.84 0.85 0.00 0.53 0.78 0.80 0.00 0.81 0.00 0.00 0.84 0.00 0.53 0.00 0.00 0.83 0.00 0.97 0.00 0.00 0.00 0.00 0.00 0.71 0.00 0.00 0.00 0.78 0.00 0.00 0.00 0.97 0.00 0.00 0.00 0.00 0.91 0.00 0.00 0.00 0.81 0.00 0.00 0.00 0.00 0.00 0.00 0.00 0.58 0.00 0.00 0.00 0.76 0.72 0.68 0.00 0.00 0.68 0.00 0.00 0.00 0.00 0.82 0.00 0.00 0.00 0.00 0.00 0.00 0.94 0.00 0.00 0.60 0.98 0.00 0.00 0.96 0.00 0.00 0.00 0.00 0.67 0.00 0.00 0.00 0.00 0.00
0.00 0.60 0.00 0.78 0.00 0.00 0.00 0.00 0.00 0.80 0.64 0.00 0.00 0.00 0.00 0.65 0.00 0.00 0.00 0.00 0.97 0.67 0.00 0.00 0.89 0.00 0.76 0.84 0.00 0.00 0.00 0.00 0.00 0.00 0.00 0.00 0.00 0.00 0.00 0.59 0.00 0.00 0.00 0.00 0.00 0.00 0.00 0.00 0.00 0.00 0.00 0.00 0.81 0.71 0.00 0.00 0.00 0.00 0.00 0.74 0.00 0.00 0.00 0.80 0.70 0.00 0.00 0.89 0.51 0.66 0.00 0.00 0.00 0.00 0.00 0.54 0.00 0.00 0.72 0.00 0.00 0.69 0.00 0.00 0.00 0.00 0.61 0.00 0.00 0.00 0.00 0.82 0.00 0.00 0.00 0.50 0.00 0.00 0.00 0.96 0.00 0.98 0.58 0.00 0.00 0.00 0.00 0.00 0.00 0.73 0.00 0.00 0.00 0.78 0.79 0.77 0.00 0.00 0.00 0.00 0.00 0.00 0.00 0.00 0.00 0.00 0.00 0.56 0.00 0.66 0.57 0.00 0.00 0.00 0.00 0.00 0.00 0.00 0.00 0.00
0.00 0.00 0.00 0.00 0.00 0.00 0.00 0.00 0.00 0.00 0.00 0.00 0.73 0.92 0.56 0.90 0.85 0.00 0.59 0.00 0.00 0.00 0.00 0.00 0.00 0.00 0.00 0.68 0.00 0.00 0.00 0.00 0.00 0.94 0.00 0.00 0.00 0.00 0.00 0.00 0.93 0.00 0.00 0.00 0.00 0.64 0.67 0.00 0.00 0.00 0.00 0.00 0.00 0.00 0.00 0.69 0.00 0.00 0.00 0.80 0.00 0.95 0.00 0.00 0.00 0.00 0.00 0.00 0.94 0.00 0.92 0.55 0.00 0.00 0.00 0.00 0.00 0.00 0.00 0.75 0.00 0.00 0.00 0.00 0.75 0.00 0.00 0.00 0.00 0.00 0.00 0.00 0.72 0.94 0.61 0.85 0.00 0.97 0.00 0.00 0.00 0.92 0.00 0.99 0.88 0.54 0.00 0.00 0.83 0.50 0.00 0.00 0.00 0.00 0.58 0.00 0.70 0.90 0.00 0.90 0.00 0.00 0.00 0.00 0.00 0.58 0.00 0.00 0.00 0.00 0.91 0.57 0.00 0.00 0.00 0.80 0.00 0.00 0.00 0.84
0.00 0.00 0.00 0.00 0.00 0.00 0.00 0.00 0.00 0.53 0.00 0.00 0.00 0.00 0.66 0.00 0.00 0.00 0.80 0.78 0.89 0.00 0.00 0.00 0.74 0.00 0.00 0.00 0.55 0.00 0.00 0.68 0.94 0.60 0.00 0.00 0.00 0.00 0.00 0.00 0.00 0.68 0.00 0.68 0.93 0.00 0.00 0.00 0.70 0.00 0.00 0.00 0.00 1.00 0.00 0.00 0.00 0.00 0.00 0.00 0.00 0.00 0.00 0.00 0.00 0.00 0.67 0.00 0.00 0.71 0.73 0.00 0.00 0.00 0.00 0.00 0.00 0.00 0.00 0.00 0.85 0.00 0.00 0.81 0.00 0.00 0.00 0.00 0.00 0.90 0.00 0.00 0.00 0.00 0.67 0.62 0.87 0.00 0.59 0.00 0.00 0.00 0.00 0.81 0.00 0.00 0.00 0.73 0.56 0.00 0.00 0.00 0.00 0.00 0.97 0.00 0.00 0.00 0.00 0.00 0.00 0.00 0.00 0.86 0.00 0.00 0.00 0.00 0.51 0.00 0.00 0.00 0.51 0.00 0.00 0.00 0.00 0.75 0.79 0.75
0.69 0.00 0.00 0.71 0.00 0.00 0.00 0.00 0.00 0.56 0.00 0.00 0.00 0.55 0.00 0.00 0.00 0.00 0.80 0.00 0.00 0.00 0.00 0.00 0.00 0.00 0.00 0.00 0.00 0.00 0.00 0.00 0.00 0.00 0.00 0.00 0.00 0.00 0.80 0.00 0.00 0.00 0.00 0.00 0.59 0.00 0.00 0.00 0.00 0.00 0.00 0.00 0.00 0.86 0.00 0.93 0.75 0.00 0.00 0.00 0.81 0.52 0.70 0.81 0.00 0.85 0.00 0.00 0.87 0.00 0.00 0.00 0.93 0.80 0.00 0.78 0.00 0.66 0.74 0.95 0.00 0.94 0.00 0.54 0.67 0.00 0.00 0.00 0.00 0.00 0.00 0.00 0.00 0.00 0.00 0.00 0.00 0.00 0.00 0.73 0.00 0.00 0.62 0.00 0.00 0.00 0.56 0.00 0.00 0.95 0.00 0.00 0.00 0.00 0.66 0.00 0.00 0.00 0.00 0.77 0.00 0.00 0.00 0.00 0.71 0.00 0.60 0.00 0.00 0.58 0.00 0.00 0.86 0.00 0.00 0.00 0.00 0.00 0.77 0.00
0.00 0.00 0.00 0.00 0.00 0.82 0.00 0.00 0.00 0.00 0.00 0.00 0.00 0.00 0.00 0.00 0.00 0.80 0.00 0.00 0.74 0.00 0.00 0.00 0.92 0.51 0.67 0.64 0.00 0.96 0.00 0.00 0.00 0.00 0.00 0.94 0.00 0.00 0.76 0.91 0.83 0.00 0.00 0.00 0.00 0.00 0.00 0.00 0.00 0.00 0.61 0.00 0.00 0.00 0.00 0.00 0.00 0.00 0.00 0.00 0.00 0.99 0.00 0.00 0.00 0.70 0.00 0.00 0.00 0.00 0.00 0.00 0.00 0.00 0.00 0.00 0.00 0.88 0.00 0.00 0.00 0.73 0.00 0.00 0.65 0.00 0.00 0.00 0.54 0.00 0.00 0.00 0.00 0.00 0.00 0.60 0.00 0.00 0.00 0.00 0.00 0.00 0.72 0.00 0.00 0.00 0.00 0.00 0.00 0.00 0.00 0.00 0.90 0.00 0.00 0.00 0.00 0.85 0.00 0.00 0.00 0.00 0.99 0.00 0.00 0.00 0.00 0.00 0.00 0.00 0.99 0.75 0.00 0.00 0.00 0.00 0.00 0.66 0.00 0.00
0.00 0.00 0.00 0.74 0.00 0.00 0.00 0.00 0.00 0.00 0.00 0.00 0.00 0.00 0.00 0.00 0.00 0.00 0.61 0.00 0.00 0.00 0.85 0.95 0.00 0.00 0.00 0.00 0.00 0.00 0.72 0.00 0.84 0.00 0.00 0.63 0.86 0.87 0.00 0.00 0.95 0.71 0.00 0.00 0.00 0.00 0.00 0.54 0.00 0.00 0.00 0.00 0.54 0.00 0.68 0.00 0.90 0.00 0.61 0.00 0.00 0.00 0.00 0.00 0.00 0.00 0.00 0.00 0.00 0.00 0.61 0.00 0.00 0.86 0.94 0.00 0.77 0.00 0.00 0.00 0.00 0.00 0.00 0.00 0.00 0.73 0.00 0.00 0.00 0.00 0.00 0.00 0.70 0.00 0.53 0.00 0.87 0.53 0.66 0.00 0.54 0.00 0.00 0.60 0.00 0.78 0.66 0.00 0.00 0.00 0.00 0.00 0.00 0.00 0.00 0.00 0.00 0.00 0.00 0.00 0.00 0.00 0.00 0.85 0.00 0.00 0.00 0.00 0.00 0.79 0.00 0.00 0.00 0.89 0.60 0.52 0.00 0.00 0.00 0.00
0.00 0.00 0.75 0.00 0.00 0.00 0.56 0.00 0.74 0.91 0.72 0.00 0.00 0.00 0.00 0.00 0.00 0.00 0.00 0.60 0.55 0.00 0.00 0.00 0.00 0.78 0.69 0.00 0.00 0.81 0.00 0.00 0.00 0.60 0.00 0.00 0.00 0.00 0.00 0.90 0.62 0.00 0.00 0.00 0.00 0.00 0.00 0.00 0.00 0.73 0.51 0.55 0.00 0.00 0.00 0.98 0.00 0.00 0.00 0.56 0.00 0.00 0.94 0.00 0.00 0.96 0.00 0.00 0.82 0.00 0.00 0.89 0.00 0.61 0.00 0.00 0.00 0.00 0.79 0.55 0.00 0.00 0.85 0.51 0.69 0.00 0.63 0.58 0.00 0.55 0.00 0.75 0.00 0.00 0.00 0.84 0.00 0.00 0.00 0.59 0.00 0.00 0.00 0.51 0.00 0.86 0.00 0.00 0.00 0.00 0.00 0.87 0.00 0.00 0.00 0.00 0.81 0.00 0.74 0.00 0.00 0.62 0.73 0.00 0.00 0.90 0.00 0.00 0.00 0.00 0.00 0.00 0.00 0.00 0.00 0.00 0.00 0.00 0.00 0.00
0.00 0.00 0.00 0.00 0.00 0.74 0.80 0.00 0.00 0.00 0.74 0.00 0.77 0.00 0.00 0.00 0.00 0.57 0.00 0.00 0.87 0.89 0.67 0.83 0.65 0.00 0.00 0.00 0.50 0.00 0.00 0.00 0.00 0.00 0.93 0.00 0.00 0.00 0.00 0.00 0.00 0.00 0.79 0.00 0.00 0.00 0.00 0.00 0.00 0.00 0.00 0.00 0.00 0.00 0.00 0.00 0.00 0.00 0.50 0.00 0.00 0.76 0.00 0.00 0.00 0.00 0.64 0.00 0.00 0.00 0.00 0.00 0.96 0.00 0.00 0.00 0.00 0.00 0.00 0.00 0.00 0.00 0.00 0.00 0.00 0.00 0.00 0.00 0.00 0.00 0.00 0.00 0.00 0.00 0.00 0.51 0.54 0.56 0.62 0.00 0.85 0.00 0.00 0.92 0.85 0.00 0.00 0.00 0.00 0.00 0.00 0.00 0.00 0.00 0.00 0.00 0.00 0.00 0.00 0.00 0.00 0.62 0.00 0.00 0.00 0.00 0.00 0.00 0.00 0.00 0.00 0.00 0.79 0.00 0.76 0.54 0.00 0.72 0.00 0.00
0.58 0.71 0.00 0.00 0.00 0.99 0.00 0.00 0.00 0.00 0.00 0.79 0.00 0.00 0.00 0.00 0.00 0.00 0.00 0.00 0.00 0.00 0.00 0.56 0.00 0.00 0.00 0.00 0.90 0.00 0.00 0.00 0.54 0.00 0.00 0.00 1.00 0.00 0.00 0.00 0.00 0.00 0.00 0.00 0.00 0.00 0.00 0.00 0.00 0.00 0.00 0.00 0.00 0.82 0.00 0.00 0.00 0.00 0.00 0.00 0.00 0.00 0.00 0.00 0.00 0.69 0.00 0.00 0.00 0.00 0.54 0.00 0.00 0.00 0.00 0.00 0.00 0.00 0.00 0.00 0.00 0.53 0.00 0.00 0.00 0.00 0.00 0.70 0.00 0.00 0.72 0.00 0.00 0.00 0.00 0.00 0.00 0.71 0.00 0.00 0.00 0.00 0.00 0.00 0.51 0.00 0.00 0.00 0.88 0.00 0.00 0.00 0.91 0.00 0.00 0.00 0.70 0.00 0.89 0.00 0.00 0.00 0.84 0.00 0.66 0.00 0.00 0.00 0.00 0.00 0.00 0.00 0.00 0.00 0.00 0.00 0.00 0.81 0.00 0.56
0.00 0.58 0.00 0.95 0.00 0.00 0.56 0.00 0.00 0.00 0.63 0.00 0.00 0.00 0.00 0.68 0.00 0.00 0.00 0.00 0.00 0.98 0.00 0.94 0.00 0.00 0.00 0.00 0.00 0.00 0.00 0.66 0.00 0.00 0.00 0.00 0.00 0.78 0.00 0.00 0.00 0.00 0.00 0.00 0.00 0.00 0.00 0.60 0.00 0.87 0.00 0.00 0.00 0.83 0.00 0.00 0.00 0.00 0.00 0.79 0.00 0.92 0.00 0.00 0.00 0.53 0.00 0.00 0.00 0.00 0.92 0.00 0.51 0.00 0.87 0.00 0.00 0.00 0.00 0.00 0.00 0.65 0.83 0.00 0.00 0.76 0.00 0.76 0.67 0.00 0.00 0.90 0.00 0.00 0.00 0.00 0.60 0.00 0.00 0.00 0.00 0.97 0.00 0.00 0.00 0.00 0.00 0.00 0.00 0.00 0.00 0.00 0.00 0.57 0.00 0.00 0.60 0.00 0.00 0.00 0.00 0.00 0.00 0.00 0.00 0.73 0.00 0.58 0.00 0.00 0.78 0.00 0.00 0.00 0.57 0.00 0.54 0.00 0.00 0.65
0.00 0.00 0.00 0.00 0.00 0.00 0.00 0.00 0.00 0.00 0.00 0.00 0.56 0.00 0.59 0.70 0.00 0.00 0.53 0.00 0.00 0.00 0.00 0.00 0.00 0.00 0.00 0.00 0.00 0.00 0.54 0.00 0.52 0.00 0.95 0.00 0.00 0.00 0.00 0.69 0.59 0.80 0.00 0.00 0.00 0.00 0.00 0.00 0.00 0.00 0.00 0.00 0.00 0.54 0.00 0.00 0.00 0.00 0.77 0.00 0.00 0.00 0.00 0.93 0.00 0.00 0.00 0.00 0.00 0.00 0.00 0.65 0.00 0.00 0.75 0.00 0.00 0.00 0.00 0.00 0.00 0.00 0.00 0.00 0.00 0.00 0.00 0.63 0.00 0.00 0.00 0.00 0.00 0.00 0.00 0.00 0.00 0.68 0.85 0.00 0.59 0.00 0.85 0.00 0.00 0.00 0.00 0.69 0.00 0.75 0.96 0.87 0.00 0.00 0.00 0.00 0.00 0.00 0.78 0.00 0.00 0.00 0.77 0.00 0.00 0.00 0.68 0.00 0.00 0.00 0.00 0.82 0.00 0.93 0.00 0.00 0.00 0.00 0.00 0.00
0.00 0.00 0.00 0.00 0.59 0.00 0.83 0.00 0.00 0.00 0.00 0.00 0.00 0.85 0.00 0.79 0.00 0.00 0.71 0.00 0.69 0.99 0.00 0.00 0.65 0.00 0.00 0.00 0.00 0.00 0.00 0.51 0.93 0.86 0.00 0.00 0.91 0.00 0.60 0.00 0.83 0.00 0.00 0.00 0.00 0.00 0.75 0.00 0.00 0.00 0.77 0.00 0.00 0.00 0.73 0.00 0.99 0.00 0.00 0.69 0.00 0.00 0.50 0.00 0.00 0.00 0.00 0.00 0.00 0.00 0.00 0.85 0.00 0.00 0.00 0.67 0.00 0.00 0.76 0.00 0.00 0.00 0.00 0.00 0.00 0.00 0.00 0.00 0.00 0.91 0.00 0.00 0.99 0.00 0.84 0.73 0.79 0.00 0.00 0.00 0.00 0.91 0.00 0.60 0.00 0.00 0.00 0.00 0.61 0.00 0.00 0.00 0.00 0.00 0.00 0.00 0.00 0.00 0.87 0.80 0.00 0.00 0.00 0.00 0.00 0.00 0.52 0.00 0.00 0.00 0.00 0.00 1.00 0.00 0.00 0.00 0.00 0.00 0.00 0.00
0.68 0.80 0.72 0.00 0.00 0.00 0.52 0.89 0.00 0.00 0.00 0.00 0.88 0.70 0.00 0.00 0.59 0.76 0.83 0.63 0.00 0.00 0.00 0.00 0.00 0.00 0.00 0.00 0.82 0.00 0.00 0.00 0.00 0.96 0.79 0.00 0.00 0.00 0.00 0.00 0.00 0.00 0.00 0.99 0.00 0.00 0.00 0.00 0.00 0.00 0.76 0.00 0.69 0.00 0.00 0.00 0.00 0.96 0.00 0.00 0.00 0.00 0.00 0.00 0.00 0.00 0.00 0.00 0.00 0.00 0.00 0.60 0.00 0.00 0.00 0.00 0.00 0.00 0.90 0.00 0.83 0.00 0.00 0.00 0.00 0.00 0.00 0.00 0.00 0.70 0.51 0.64 0.00 0.85 0.53 0.77 0.00 0.00 0.00 0.52 0.00 0.88 0.00 0.00 0.00 0.00 0.00 0.00 0.80 0.90 0.00 0.00 0.00 0.00 0.00 0.00 0.00 0.73 0.00 0.87 0.00 0.71 0.00 0.00 0.72 0.99 0.78 0.00 0.00 0.00 0.00 0.00 0.00 0.00 0.00 0.00 0.00 0.59 0.00 0.00
0.00 0.00 0.00 0.58 0.00 0.00 0.00 0.00 0.00 0.00 0.00 0.92 0.78 0.00 0.00 0.59 0.94 0.00 0.00 0.73 0.00 0.00 0.00 0.00 0.00 0.00 0.00 0.00 0.00 0.00 0.82 0.00 0.88 0.00 0.00 0.00 0.00 0.59 0.00 0.00 0.00 0.00 0.00 0.00 0.00 0.00 0.00 0.61 0.00 0.00 0.00 0.00 0.00 0.00 0.00 0.00 0.00 0.00 0.00 0.00 0.98 0.94 0.00 0.56 0.00 0.00 0.00 0.00 0.00 0.00 0.51 0.00 0.00 0.00 0.78 0.00 0.00 0.80 0.53 0.00 0.00 0.81 0.00 0.00 0.00 0.00 0.98 0.00 0.00 0.00 0.00 0.00 0.00 0.00 0.00 0.00 0.00 0.00 0.56 0.00 0.69 0.59 0.00 0.00 0.00 0.00 0.00 0.00 0.65 0.00 0.00 0.00 0.00 0.00 0.00 0.00 0.00 0.00 0.00 0.00 0.00 0.72 0.55 0.00 0.59 0.00 0.00 0.00 0.00 0.00 0.00 0.00 0.00 0.77 0.00 0.53 0.00 0.00 0.00 0.00
0.00 0.00 0.00 0.00 0.75 0.00 0.50 0.00 0.00 0.52 0.00 0.00 0.00 0.00 0.00 0.00 0.00 0.91 0.00 0.00 0.00 0.00 0.83 0.00 0.00 0.00 0.00 0.00 0.00 0.00 0.00 0.00 0.00 0.00 0.58 0.00 0.00 0.00 0.00 0.00 0.00 0.00 0.00 0.52 0.00 0.00 0.82 0.00 0.94 0.00 0.89 0.00 0.96 0.00 0.00 0.68 0.00 0.00 0.00 0.00 0.00 0.00 0.00 1.00 0.00 0.00 0.00 0.00 0.00 0.00 0.00 0.00 0.00 0.90 0.00 0.71 0.00 0.00 0.00 0.00 0.87 0.00 0.75 0.00 0.00 0.00 0.00 0.00 0.00 0.00 0.00 0.77 0.00 0.00 0.00 0.00 0.00 0.00 0.00 0.00 0.00 0.00 0.84 0.00 0.00 0.00 0.00 0.00 0.00 0.00 0.00 0.00 0.00 0.81 0.93 0.00 0.00 0.00 0.00 0.72 0.00 0.00 0.00 0.00 0.00 0.00 0.00 0.00 0.66 0.00 0.00 0.65 0.00 0.00 0.00 0.68 0.00 0.63 0.00 0.00
0.00 0.00 0.00 0.00 0.87 0.00 0.00 0.00 0.67 0.00 0.00 0.00 0.00 0.00 0.00 0.78 0.00 0.00 0.00 0.00 0.00 0.00 0.95 0.00 0.51 0.00 0.56 0.00 0.73 0.00 0.79 0.97 0.00 0.57 0.86 0.00 0.00 0.98 0.00 0.97 0.00 0.00 0.69 0.91 0.00 0.00 0.00 0.00 0.62 0.00 0.00 0.53 0.00 0.85 0.00 0.80 0.00 0.00 0.00 0.00 0.00 0.50 0.00 0.00 0.00 0.00 0.00 0.75 0.00 0.00 0.83 0.61 0.00 0.81 0.00 0.84 0.00 0.87 0.78 0.97 0.00 0.75 0.00 0.56 0.68 0.00 0.00 0.50 0.00 0.00 0.00 0.00 0.00 0.00 0.00 0.00 0.00 0.00 0.00 0.00 0.00 0.00 0.00 0.63 0.61 0.00 0.00 0.00 0.00 0.00 0.00 0.00 0.89 0.00 0.00 0.00 0.65 0.00 0.00 0.00 0.90 0.00 0.00 0.92 0.00 0.00 0.00 0.00 0.65 0.00 0.65 0.58 0.00 0.00 0.00 0.00 0.00 0.88 0.00 0.00
0.00 0.00 0.00 0.00 0.00 0.00 0.74 0.00 0.00 0.00 0.00 0.00 0.00 0.53 0.00 0.00 0.00 0.00 0.00 0.00 0.00 0.00 0.00 0.00 0.00 0.00 0.86 0.00 0.52 0.00 0.95 0.00 0.65 0.00 0.00 0.00 0.00 0.00 0.94 0.00 0.00 0.00 0.00 0.00 0.00 0.00 0.76 0.00 0.00 0.00 0.00 0.00 0.00 0.00 0.00 0.85 0.00 0.00 0.00 0.00 0.81 0.00 0.00 0.00 0.60 0.57 0.58 0.89 0.00 0.00 0.00 0.00 0.00 0.93 0.00 0.84 0.00 0.00 0.00 0.00 0.85 0.97 0.00 0.00 0.00 0.00 0.00 0.50 0.00 0.93 0.00 0.79 0.61 0.00 0.59 0.00 0.00 0.71 0.00 0.00 0.00 0.00 0.00 0.00 0.00 0.00 0.91 0.53 0.92 0.00 0.00 0.00 0.00 0.00 0.00 0.00 0.87 0.00 0.00 0.00 0.58 0.00 0.55 0.00 0.97 0.00 0.94 0.00 0.73 0.00 0.00 0.00 0.00 0.96 0.00 0.77 0.00 0.66 0.00 0.00
0.00 0.71 0.60 0.00 0.00 0.00 0.65 0.53 0.00 0.00 0.00 0.00 0.00 0.00 0.00 0.00 0.82 0.76 0.00 0.72 0.00 0.00 0.00 0.96 0.00 0.00 0.00 0.00 0.00 0.97 0.00 0.00 0.00 0.83 0.00 0.62 0.00 0.00 0.00 0.00 0.00 0.97 0.00 0.87 0.00 0.82 0.00 0.00 0.72 0.00 0.00 0.00 0.00 0.97 0.00 0.00 0.77 0.00 0.00 0.00 0.00 0.00 0.00 0.80 0.00 0.00 0.00 0.00 0.66 0.00 0.82 0.00 0.00 0.74 0.00 0.00 0.00 0.00 0.00 0.00 0.00 0.00 0.62 0.00 0.00 0.00 0.00 0.00 0.00 0.00 0.00 0.00 0.63 0.00 0.00 0.91 0.00 0.00 0.00 0.00 0.76 0.00 0.89 0.96 0.00 0.00 0.00 0.00 0.00 0.00 0.56 0.77 0.86 0.00 0.00 0.00 0.65 0.00 0.66 0.00 0.92 0.00 0.00 0.64 0.92 0.00 0.00 0.00 0.00 0.71 0.00 0.00 0.00 0.00 0.00 0.00 0.87 0.82 0.00 0.00
0.00 0.00 0.00 0.59 0.00 0.00 0.00 0.79 0.00 0.00 0.75 0.00 0.00 0.00 0.93 0.00 0.00 0.00 0.00 0.63 0.00 0.51 0.00 0.00 0.54 0.68 0.00 0.00 0.00 0.00 0.74 0.00 0.00 0.00 0.00 0.00 0.00 0.92 0.84 0.52 0.84 0.00 0.00 0.00 0.00 0.00 0.00 0.00 0.00 0.00 0.00 0.00 0.72 0.98 0.92 0.00 0.00 0.00 0.00 0.61 0.00 0.00 0.64 0.00 0.00 0.00 0.00 0.00 0.00 0.00 0.00 0.00 0.00 0.00 0.00 0.83 0.00 0.00 0.00 0.00 0.00 0.00 0.00 0.00 0.00 0.78 0.00 0.00 0.00 0.00 0.00 0.00 0.00 0.00 0.56 0.76 0.00 0.00 0.88 0.00 0.00 0.00 0.00 0.00 0.89 0.00 0.56 0.90 0.00 0.00 0.00 0.00 0.00 0.00 0.00 0.00 0.00 0.00 0.00 0.00 0.00 0.00 0.00 0.85 0.00 0.00 0.00 0.67 0.00 0.00 0.00 0.00 0.00 0.00 0.00 0.00 0.00 0.00 0.00 0.00
0.00 0.00 0.63 0.51 0.62 0.00 0.72 0.69 0.00 0.00 0.00 0.00 0.00 0.00 0.00 0.00 0.00 0.74 0.75 0.00 0.69 0.00 0.00 0.00 0.00 0.58 0.00 0.00 0.00 0.00 0.00 0.00 0.78 0.00 0.00 0.00 0.00 0.56 0.00 0.00 0.00 0.80 0.00 0.00 0.00 0.00 0.00 0.00 0.00 0.00 0.00 0.00 0.97 0.00 0.69 0.00 0.00 0.00 0.70 0.00 0.00 0.00 0.00 0.00 0.00 0.00 1.00 1.00 0.00 0.00 0.77 0.50 0.00 0.00 0.00 0.60 0.00 0.00 0.00 0.00 0.78 0.00 0.00 0.00 0.78 0.00 0.00 0.00 0.00 0.00 0.00 0.00 0.00 0.88 0.00 0.00 0.00 0.00 0.00 0.00 0.00 0.00 0.00 0.92 0.00 0.00 0.84 0.91 0.00 0.00 0.00 0.00 0.00 0.00 0.00 0.00 0.73 0.00 0.66 0.00 0.70 0.84 0.00 0.00 0.00 0.00 0.98 0.00 0.98 0.00 0.00 0.00 0.83 0.00 0.59 0.00 0.99 0.00 0.00 0.00
0.00 0.69 0.00 0.00 0.00 0.00 0.54 0.52 0.77 0.77 0.00 0.00 0.00 0.53 0.00 0.00 0.98 0.00 0.00 0.00 0.00 0.00 0.00 0.00 0.96 0.00 0.00 0.00 0.00 0.00 0.92 0.00 0.58 0.00 0.52 0.00 0.00 0.00 0.88 0.00 0.00 0.00 0.00 0.00 0.00 0.00 0.00 0.00 0.00 0.00 0.00 0.59 0.00 0.00 0.84 0.00 0.64 0.00 0.00 0.92 0.00 0.00 0.00 0.60 0.71 0.00 0.00 0.00 0.00 0.60 0.00 0.00 0.00 0.00 0.00 0.00 0.00 0.98 0.70 0.00 0.60 0.86 0.00 0.00 0.81 0.00 0.00 0.00 0.00 0.00 0.82 0.60 0.00 0.00 0.75 0.00 0.00 0.00 0.00 0.00 0.00 0.00 0.00 0.67 0.00 0.00 0.00 0.00 0.75 0.00 0.00 0.00 0.00 0.96 0.00 0.00 0.99 0.00 0.00 0.00 0.00 0.00 0.00 0.00 0.00 0.00 0.00 0.00 0.52 0.00 0.00 0.00 0.00 0.00 0.00 0.00 0.00 0.00 0.00 0.73
0.00 0.00 0.00 0.00 0.00 0.84 0.70 0.00 0.00 0.00 0.00 0.00 0.92 0.00 0.00 0.77 0.00 0.00 0.55 0.00 0.00 0.00 0.00 0.00 0.00 0.00 0.00 0.62 0.00 0.00 0.52 0.00 0.70 0.00 0.00 0.55 0.00 0.00 0.00 0.00 0.73 0.65 0.00 0.00 0.00 0.00 0.00 0.00 0.00 0.00 0.00 0.00 0.00 0.65 0.00 0.00 0.00 0.98 0.00 0.00 0.00 0.00 0.00 0.00 0.00 0.00 0.00 0.00 0.00 0.56 0.00 0.00 0.70 0.00 0.52 0.00 0.00 0.00 0.00 0.97 0.00 0.00 0.00 0.61 0.00 0.00 0.00 0.00 0.00 0.91 0.72 0.00 0.00 0.00 0.00 0.00 0.96 0.00 0.00 0.00 0.00 0.81 0.00 0.91 0.67 0.00 0.81 0.51 0.00 0.75 0.77 0.00 0.00 0.00 0.00 0.00 0.00 0.97 0.00 0.87 0.00 0.00 0.85 0.00 0.00 0.00 0.00 0.00 0.00 0.00 0.00 0.00 0.00 0.72 0.85 0.00 0.00 0.00 0.95 0.00
0.00 0.00 0.74 0.00 0.00 0.00 0.00 0.00 0.00 0.98 0.00 0.00 0.00 0.00 0.00 0.51 0.00 0.52 0.00 0.00 0.54 0.00 0.00 0.54 0.00 0.00 0.92 0.72 0.00 0.00 0.00 0.87 0.00 0.82 0.00 0.00 0.00 0.00 0.00 0.00 0.00 0.00 0.00 0.00 0.88 0.00 0.00 0.00 0.00 0.00 0.00 0.00 0.00 0.00 0.00 0.00 0.00 0.00 0.00 0.00 0.00 0.00 0.58 0.00 0.00 0.00 0.00 0.00 0.00 0.00 0.00 0.00 0.79 0.00 0.71 0.00 0.00 0.00 0.97 0.00 0.00 0.00 0.74 0.00 0.00 0.00 0.00 0.00 0.00 0.00 0.00 0.00 0.59 0.00 0.63 0.00 0.00 0.00 0.00 0.00 0.84 0.00 0.00 0.68 0.00 0.00 0.00 0.00 0.00 0.00 0.00 0.00 0.69 0.00 0.00 0.96 0.00 0.00 0.00 0.58 0.82 0.00 0.00 0.00 0.98 0.00 0.00 0.93 0.00 0.00 0.00 0.00 0.00 0.00 0.00 0.00 0.00 0.00 0.00 0.00
0.00 0.57 0.00 0.77 0.77 0.66 0.00 0.00 0.67 0.00 0.00 0.00 0.00 0.00 0.00 0.00 0.00 0.00 0.00 0.00 0.63 0.00 0.00 0.00 0.00 0.00 0.00 0.00 0.00 0.00 0.00 0.95 0.00 0.00 0.00 0.00 0.00 0.82 0.93 0.56 0.71 0.59 0.00 0.00 0.73 0.00 0.00 0.00 0.00 0.94 0.00 0.00 0.00 0.56 0.00 0.00 0.00 0.00 0.00 0.00 0.00 0.00 0.00 0.00 0.90 0.69 0.00 0.51 0.00 0.00 0.69 0.00 0.00 0.90 0.00 0.00 0.00 0.00 0.92 0.00 0.00 0.00 0.00 0.00 0.00 0.00 0.00 0.00 0.00 0.00 0.00 0.60 0.00 0.00 0.00 0.00 0.00 0.00 0.00 0.00 0.00 0.00 0.00 0.00 0.00 0.00 0.00 0.00 0.00 0.00 0.00 0.00 1.00 0.00 0.00 0.00 0.00 0.00 0.00 0.00 0.00 0.00 0.00 0.00 0.00 0.00 0.00 0.00 0.00 0.00 0.00 0.00 0.81 0.00 0.00 0.00 0.76 0.00 0.00 0.00
0.00 0.00 0.72 0.76 0.81 0.00 0.00 0.00 0.00 0.82 0.00 0.00 0.00 0.00 0.00 0.00 0.00 0.00 0.80 0.00 0.59 0.57 0.51 0.00 0.00 0.00 0.00 0.00 0.00 0.00 0.00 0.54 0.00 0.90 0.00 0.73 0.63 0.00 0.00 0.71 0.00 0.00 0.00 0.00 0.00 0.00 0.00 0.82 0.00 0.00 0.90 0.00 0.95 0.00 0.00 0.00 0.00 0.00 0.87 0.00 0.57 0.00 0.00 0.00 0.89 0.54 0.00 0.00 0.00 0.00 0.79 0.87 0.00 0.00 0.00 0.00 0.00 0.00 0.00 0.00 0.85 0.00 0.00 0.00 0.00 0.00 0.78 1.00 0.55 0.65 0.98 0.00 0.00 0.00 0.00 0.00 0.00 0.00 0.84 0.00 0.92 0.00 0.83 0.00 0.00 0.00 0.00 0.00 0.00 0.00 0.00 0.00 0.85 0.00 0.00 0.00 0.64 0.00 0.00 0.61 0.00 0.56 0.00 0.00 0.99 0.98 0.00 0.00 0.00 0.00 0.00 0.00 0.00 0.00 0.00 0.00 0.00 0.00 0.53 0.00
0.00 0.00 0.57 0.52 0.00 0.00 0.00 0.00 0.84 0.00 0.00 0.96 0.53 0.00 0.00 0.00 0.00 0.00 0.96 0.00 0.00 0.00 0.00 0.00 0.00 0.52 0.00 0.00 0.00 0.00 0.74 0.97 0.56 0.00 0.00 0.00 0.00 0.00 0.00 0.00 1.00 0.00 0.00 0.00 0.00 0.00 0.00 0.00 0.00 0.89 0.00 0.00 0.00 0.00 0.00 0.00 0.00 0.00 0.00 0.00 0.64 0.98 0.00 0.79 0.00 0.00 0.00 0.95 0.00 0.00 0.00 0.74 0.00 0.00 0.00 0.00 0.00 0.68 0.59 0.00 0.00 0.83 0.00 0.00 0.00 0.00 0.92 0.00 0.00 0.00 0.00 0.00 0.00 0.00 0.00 0.62 0.00 0.64 0.00 0.00 0.00 0.00 0.00 0.00 0.00 0.00 0.00 0.74 0.00 0.00 0.00 0.00 0.00 0.77 0.94 0.00 0.00 0.76 0.00 0.00 0.00 0.00 0.50 0.00 0.00 0.92 0.71 0.00 0.86 0.00 0.00 0.00 0.00 0.68 0.79 0.00 0.73 0.00 0.00 0.00
0.00 0.00 0.00 0.00 0.00 0.77 0.00 0.95 0.00 0.00 0.85 0.00 0.00 0.00 0.00 0.00 0.00 0.00 0.00 0.00 0.00 0.00 0.00 0.00 0.00 0.00 0.83 0.00 0.00 0.00 0.00 0.00 0.76 0.65 0.00 0.00 0.00 0.00 0.00 0.00 0.00 0.97 0.80 0.00 0.00 0.72 0.00 0.00 0.00 0.00 0.00 0.00 0.00 0.00 0.00 0.00 0.00 0.00 0.00 0.91 0.00 0.00 0.00 0.00 0.00 0.00 0.69 0.98 0.86 0.00 0.70 0.00 0.00 0.00 0.00 0.00 0.00 0.96 0.00 0.91 0.00 0.00 0.00 0.00 0.00 0.00 0.00 0.87 0.00 0.98 0.99 1.00 0.63 0.00 0.00 0.00 0.00 0.90 0.56 0.00 0.86 0.00 0.00 0.00 0.00 0.70 0.00 0.00 0.00 0.89 0.00 0.00 0.00 0.00 0.00 0.00 0.00 0.00 0.00 0.00 0.00 0.00 0.00 0.94 0.60 0.00 0.00 0.00 0.00 0.00 0.00 0.54 0.00 0.52 0.00 0.00 0.71 0.00 0.74 0.00
0.00 0.00 0.00 0.65 0.94 0.00 0.00 0.74 0.00 0.00 0.00 0.00 0.00 0.63 0.68 0.00 0.00 0.00 0.00 0.00 0.00 0.00 0.00 0.93 0.00 0.81 0.00 0.00 0.58 0.00 0.00 0.76 0.00 0.00 0.00 0.00 0.90 0.00 0.00 0.00 0.00 0.00 0.59 0.70 0.00 0.00 0.00 0.00 0.00 0.00 0.00 0.95 0.00 0.56 0.54 0.59 0.00 0.00 0.81 0.00 0.65 0.00 0.96 0.99 0.00 0.00 0.00 0.00 0.00 0.79 0.00 0.00 0.00 0.00 0.00 0.00 0.00 0.72 0.00 0.00 0.54 0.66 0.00 0.00 0.00 0.50 0.00 0.57 0.99 0.96 0.00 0.00 0.00 0.00 0.00 0.00 0.00 0.00 0.90 0.00 0.00 0.00 0.00 0.54 0.00 0.00 0.55 0.51 0.00 0.00 0.00 0.55 0.00 0.00 0.00 0.00 0.00 0.00 0.00 0.55 0.00 0.00 0.00 0.00 0.00 0.00 0.00 0.54 0.00 0.68 0.00 0.00 0.00 0.00 0.00 0.00 0.00 0.00 0.00 0.00
0.00 0.65 0.00 0.00 0.89 0.00 0.00 0.57 0.71 0.53 0.00 0.00 0.00 0.87 0.00 0.00 0.67 0.00 0.00 0.00 0.89 0.00 0.00 0.00 0.00 0.00 0.00 0.00 0.71 0.00 0.00 0.00 0.00 0.00 0.67 0.93 0.00 0.00 0.00 0.00 0.00 0.00 0.00 0.00 0.00 0.00 0.88 0.00 0.97 0.00 0.00 0.00 0.00 0.00 0.00 0.00 0.00 0.75 0.65 0.00 0.00 0.00 0.83 0.88 0.80 0.00 0.71 0.00 0.00 0.00 0.00 0.64 0.00 0.85 0.85 0.65 0.56 0.88 0.00 0.72 0.94 0.00 0.00 0.00 0.00 0.58 0.00 0.74 0.00 0.00 0.00 0.00 0.00 0.00 0.84 0.00 0.00 0.00 0.00 0.00 0.00 0.00 0.00 0.00 0.00 0.65 0.51 0.77 0.00 0.00 0.00 0.00 0.75 0.98 0.00 0.00 0.00 0.00 0.00 0.00 0.00 0.00 0.00 0.87 0.68 0.00 0.00 0.00 0.00 0.00 0.97 0.84 0.83 0.00 0.68 0.00 0.81 0.00 0.00 0.95
0.00 0.00 0.98 0.00 0.58 0.59 0.52 0.00 0.00 0.00 0.00 0.83 0.95 0.00 0.00 0.59 0.00 0.96 0.00 0.00 0.00 0.00 0.00 0.80 0.00 0.00 0.00 0.00 0.00 1.00 0.00 0.00 0.99 0.00 0.00 0.00 0.00 0.00 0.00 0.00 0.00 0.88 0.00 0.00 0.00 0.00 0.00 0.00 0.00 0.00 0.00 0.00 0.00 0.00 0.60 0.68 0.00 0.00 0.00 0.00 0.00 0.00 0.00 0.00 0.00 0.00 0.00 0.00 0.00 0.00 0.72 0.00 0.00 0.00 0.00 0.00 0.00 0.00 0.00 0.84 0.00 0.00 0.88 0.00 0.88 0.00 0.58 0.00 0.00 0.00 0.61 0.00 0.00 0.70 0.95 0.00 0.00 0.61 0.89 0.91 0.00 0.00 0.00 0.00 0.00 0.00 0.83 0.00 0.00 0.00 0.00 0.00 0.60 0.00 0.00 0.87 0.00 0.00 0.00 0.00 0.00 0.52 0.00 0.00 0.00 0.00 0.68 0.00 0.00 0.99 0.00 0.00 0.00 0.00 0.00 0.00 0.00 0.00 0.00 0.87
0.00 0.00 0.00 0.00 0.85 0.00 0.00 0.00 0.00 0.00 0.00 0.00 0.00 0.68 0.00 0.00 0.00 0.00 0.00 0.00 0.00 0.00 0.86 0.00 0.00 0.00 0.74 0.00 0.68 0.00 0.00 0.00 0.78 0.00 0.65 0.00 0.00 0.00 0.00 0.00 0.52 0.00 0.00 0.72 0.00 0.00 0.00 0.00 0.00 0.00 0.00 0.63 0.77 0.82 0.00 0.00 0.00 0.00 0.00 0.00 0.00 0.00 0.00 0.00 0.89 0.00 0.00 0.00 0.00 0.00 0.00 0.60 0.00 0.00 0.66 0.00 0.00 0.00 0.00 0.00 0.00 0.00 0.96 0.00 0.00 0.00 0.65 0.00 0.00 0.00 0.00 0.00 0.00 0.99 0.00 0.86 0.63 0.93 0.94 0.00 0.00 0.96 0.00 0.00 0.00 0.67 0.00 0.91 0.00 0.94 0.00 0.00 0.75 0.00 0.91 0.00 0.00 0.66 0.00 0.00 0.85 0.00 0.00 0.00 0.00 0.00 0.00 0.00 0.69 0.00 0.87 0.00 0.56 0.93 0.62 0.00 0.00 0.00 0.68 0.00
0.00 0.00 0.64 0.00 0.00 0.97 0.00 0.00 0.00 0.00 0.00 0.00 0.00 0.00 0.75 0.55 0.00 0.00 1.00 0.00 0.00 0.00 0.00 0.00 0.00 0.68 0.00 0.98 0.00 0.68 0.00 0.00 0.85 0.00 0.00 0.00 0.00 0.00 0.00 0.00 0.00 0.00 0.99 0.00 0.96 0.00 0.00 0.00 0.00 0.00 0.00 0.55 0.58 0.00 0.00 0.00 0.00 0.00 0.60 0.00 0.00 0.85 0.00 0.00 0.00 0.00 0.00 0.69 0.00 0.00 0.00 0.79 0.00 0.94 0.00 0.00 0.64 0.00 0.00 0.93 0.00 0.00 0.00 0.00 0.00 0.00 0.00 0.00 0.00 0.85 0.93 0.98 0.00 0.00 0.00 0.00 0.00 0.00 0.00 0.89 0.00 0.00 0.00 0.00 0.77 0.00 0.00 0.96 0.00 0.95 0.00 0.00 0.64 0.60 0.00 0.99 0.00 0.00 0.82 0.00 0.00 0.87 0.00 0.00 0.00 0.72 0.93 0.00 0.00 0.00 0.64 0.00 0.00 0.00 0.97 0.00 0.00 0.00 0.00 0.00
0.00 0.00 0.00 0.00 0.00 0.83 0.77 0.00 0.00 0.00 0.00 0.00 0.00 0.00 0.00 0.81 0.75 0.00 0.58 0.00 0.00 0.00 0.00 0.00 0.00 0.00 0.00 0.00 0.00 0.00 0.57 0.59 0.55 0.00 0.00 0.90 0.54 0.76 0.00 0.00 0.00 0.52 0.00 0.95 0.59 0.00 0.00 0.00 0.00 0.00 0.69 0.00 0.00 0.00 0.00 0.00 0.00 0.00 0.00 0.90 0.00 0.00 0.91 0.00 0.00 0.00 0.00 0.00 0.86 0.00 0.91 0.00 0.00 0.00 0.97 0.00 0.61 0.54 0.00 0.00 0.80 0.00 0.68 0.00 0.00 0.88 0.93 0.00 0.00 0.00 0.00 0.00 0.98 0.00 0.00 0.00 0.00 0.00 0.53 0.81 0.00 0.00 0.00 0.00 0.89 0.00 0.00 0.88 0.00 0.00 0.00 0.82 0.00 0.64 0.00 0.00 0.00 0.00 0.56 0.00 0.00 0.00 0.00 0.00 0.75 0.00 0.78 0.00 0.00 0.98 0.00 0.97 0.00 0.00 0.00 0.00 0.00 0.00 0.00 0.00
0.61 0.79 0.00 0.00 0.00 0.00 0.00 0.00 0.00 0.00 0.00 0.00 0.00 0.00 0.86 0.00 0.00 0.00 0.00 0.00 0.00 0.00 0.00 0.00 0.00 0.90 0.59 0.83 0.00 0.00 0.00 0.73 0.00 0.00 0.00 0.00 0.00 0.00 0.00 0.00 0.00 0.00 0.00 0.00 0.00 0.57 0.00 0.77 0.50 0.00 0.00 0.00 0.00 0.00 0.00 0.71 0.00 0.00 0.00 0.00 0.00 0.00 0.00 0.00 0.00 0.00 0.00 0.88 0.87 0.00 0.00 0.00 0.00 0.00 0.00 0.68 0.00 0.00 0.00 0.00 0.00 0.51 0.00 0.00 0.00 0.00 0.00 0.00 0.00 0.00 0.88 0.00 0.52 0.00 1.00 0.00 0.00 0.00 0.00 0.00 0.00 0.00 0.00 0.00 0.00 0.93 0.90 0.00 0.00 0.61 0.95 0.00 0.91 0.00 0.00 0.00 0.00 0.00 0.00 0.00 0.00 0.00 0.00 0.00 0.00 0.00 0.00 0.00 0.00 0.54 0.00 0.00 0.65 0.00 0.00 0.64 0.00 0.89 0.00 0.00
0.00 0.64 0.74 0.00 0.53 0.00 0.00 0.00 0.00 0.00 0.00 0.00 0.00 0.00 0.00 0.00 0.00 0.00 0.64 0.00 0.00 0.00 0.00 0.00 0.00 0.00 0.00 0.00 0.00 0.00 0.00 0.00 0.00 0.90 0.00 0.85 0.00 0.00 0.00 0.00 0.00 0.00 0.87 0.00 0.00 0.83 0.00 0.81 0.80 0.00 0.00 0.00 0.00 0.00 0.00 0.00 0.00 0.76 0.00 0.00 0.00 0.00 0.00 0.98 0.00 0.00 0.00 0.00 0.00 0.00 0.00 0.00 0.00 0.82 0.00 0.78 0.00 0.00 0.79 0.00 0.95 0.00 0.64 0.00 0.00 0.00 0.00 0.00 0.00 0.00 0.00 0.00 0.00 0.00 0.00 0.00 0.64 0.00 0.00 0.00 0.00 0.00 0.00 0.00 0.00 0.00 0.00 0.00 0.00 0.00 0.00 0.85 0.00 0.00 0.00 1.00 0.00 0.00 0.83 0.00 0.00 0.66 0.00 0.00 0.69 1.00 0.58 0.00 0.00 0.00 0.00 0.00 0.00 0.00 0.00 0.00 0.00 0.00 0.00 0.00
0.00 0.80 0.00 0.00 0.00 0.70 0.00 0.00 0.00 0.00 0.68 0.00 0.00 0.00 0.00 0.80 0.80 0.00 0.00 0.00 0.64 0.96 0.60 0.00 0.00 0.00 0.00 0.00 0.00 0.00 0.59 0.56 0.00 0.00 0.00 0.00 0.00 0.00 0.00 0.99 0.00 0.00 0.00 0.00 0.91 0.00 0.00 0.00 0.95 0.66 0.00 0.00 0.00 0.00 0.91 0.00 0.00 0.00 0.00 0.00 0.00 0.00 0.00 0.00 0.00 0.00 0.00 0.00 0.00 0.00 0.00 0.00 0.00 0.00 0.61 0.00 0.00 0.00 0.00 0.66 0.00 0.00 0.00 0.96 0.00 0.00 0.00 0.00 0.00 0.00 0.84 0.00 0.00 0.00 0.00 0.00 0.00 0.00 0.00 0.00 0.61 0.00 0.82 0.00 0.00 0.00 0.00 0.00 0.00 0.00 0.61 0.67 0.00 0.00 0.54 0.00 0.62 0.00 0.00 0.00 0.00 0.00 0.00 0.58 0.00 0.00 0.55 0.00 0.00 0.00 0.00 0.00 0.00 0.81 0.00 0.63 0.00 0.81 0.80 0.83
0.00 0.00 0.00 0.99 0.88 0.00 0.00 0.00 0.00 0.74 0.51 0.00 0.00 0.72 0.00 0.00 0.00 0.00 0.71 0.00 0.00 0.81 0.52 0.00 0.00 0.86 0.00 0.00 0.51 0.00 0.00 0.00 0.00 0.97 0.00 0.72 0.98 0.00 0.54 0.84 0.00 0.56 0.00 0.00 0.52 0.00 0.00 0.96 0.00 0.00 0.77 0.00 0.00 0.00 0.62 0.58 0.00 0.00 0.69 0.76 0.00 0.00 0.81 0.88 0.00 0.00 0.00 0.88 0.00 0.00 0.00 0.00 0.00 0.00 0.00 0.00 0.00 0.00 0.00 0.75 0.00 0.00 0.00 0.00 0.00 0.00 0.00 0.00 0.52 0.78 0.97 0.00 0.00 0.00 0.00 0.00 0.00 0.00 0.00 0.00 0.00 0.00 0.00 0.00 0.00 0.69 0.00 0.00 0.00 0.00 0.00 0.80 0.00 0.80 0.00 0.66 0.62 0.57 0.97 0.00 0.58 0.00 0.00 0.00 0.00 0.00 0.00 0.00 0.89 0.00 0.00 0.75 0.00 0.00 0.00 0.00 0.00 0.00 0.80 0.00
0.00 0.00 0.00 0.96 0.00 0.00 0.83 0.00 0.00 0.00 0.00 0.00 0.51 0.00 0.00 0.00 0.00 0.00 0.52 0.00 0.00 0.00 0.00 0.00 0.00 0.00 0.85 0.00 0.00 0.98 0.00 0.00 0.00 0.00 0.00 0.93 0.00 0.95 0.58 0.00 0.00 0.78 0.00 0.00 0.00 0.00 0.00 0.68 0.00 0.00 0.98 0.93 0.00 0.00 0.00 0.00 0.00 0.92 0.59 0.66 0.00 0.77 0.60 0.00 0.00 0.00 0.00 0.00 0.00 0.57 0.00 0.00 0.89 0.00 0.00 0.00 0.00 0.00 0.52 0.00 0.00 0.00 0.00 0.00 0.00 0.00 0.00 0.00 0.00 0.00 0.00 0.00 0.00 0.84 0.00 0.00 0.00 0.00 0.00 0.00 0.00 0.64 0.76 0.00 0.00 0.00 0.00 0.00 0.65 0.00 0.52 0.00 0.00 0.00 0.00 0.00 0.00 0.00 0.00 0.00 0.65 0.00 0.50 0.66 0.00 0.00 0.00 0.70 0.00 0.00 0.00 0.00 0.00 0.00 0.00 0.00 0.00 0.00 0.80 0.95
0.00 0.00 0.00 0.00 0.00 0.00 0.00 0.00 0.68 0.00 0.00 0.00 0.59 0.00 0.00 0.96 0.95 0.00 0.00 0.00 0.00 0.00 0.66 0.00 0.00 0.00 0.00 0.00 0.00 0.00 0.00 0.00 0.00 0.51 0.00 0.00 0.57 0.59 0.00 0.00 0.00 0.00 0.00 0.00 0.00 0.00 0.00 0.86 0.00 0.88 0.00 0.00 0.00 0.00 0.00 0.58 0.76 0.00 0.00 0.00 0.65 0.00 0.54 0.00 0.00 0.00 0.00 0.00 0.00 0.00 0.00 0.00 0.00 0.77 0.61 0.00 0.00 0.00 0.64 0.00 0.00 0.00 0.00 0.00 0.82 0.00 0.00 0.93 0.00 0.80 0.61 0.00 0.80 0.00 0.00 0.00 0.00 0.00 0.51 0.00 0.00 0.80 0.87 0.00 0.00 0.00 0.68 0.00 0.58 0.00 0.00 0.00 0.78 0.00 0.00 0.00 0.00 0.00 0.00 0.00 0.53 0.00 0.00 0.87 0.82 0.54 0.00 0.00 0.00 0.00 0.00 0.62 0.00 0.00 0.00 0.00 0.95 0.00 0.00 0.00
0.00 0.00 0.00 0.00 0.99 0.80 0.00 0.00 0.00 0.00 0.00 0.00 0.00 0.00 0.00 0.00 0.00 0.00 0.00 0.65 0.53 0.67 0.00 0.00 0.00 0.00 0.00 0.00 0.00 0.00 0.00 0.00 0.00 0.00 0.00 0.97 0.00 0.00 0.00 0.00 0.00 0.93 0.00 0.00 0.00 0.00 0.00 0.00 0.00 0.00 0.00 0.00 0.00 0.80 0.00 0.85 0.00 0.69 0.00 0.00 0.71 0.00 0.00 0.00 0.00 0.00 0.00 0.00 0.00 0.82 0.82 0.00 0.00 0.00 0.00 0.00 0.00 0.00 0.54 0.00 0.00 0.70 0.93 0.00 0.72 0.00 0.00 0.54 0.00 0.98 0.00 0.00 0.62 0.00 0.79 0.00 0.00 0.00 0.00 0.00 0.00 0.00 0.95 0.00 0.00 0.00 0.00 0.00 0.00 0.00 0.00 0.00 0.80 0.00 0.00 0.88 0.83 0.50 0.62 0.00 0.00 0.00 0.00 0.00 0.00 0.78 0.00 0.76 0.00 0.00 0.00 0.00 0.00 0.57 0.00 0.00 0.61 0.00 0.66 0.00
0.00 0.00 0.00 0.00 0.00 0.00 0.00 0.00 0.00 0.00 0.00 0.00 0.00 0.00 0.00 1.00 0.84 0.00 0.00 0.00 0.00 0.00 0.00 0.00 0.89 0.00 0.00 0.73 0.00 0.00 0.00 0.56 0.00 0.00 0.87 0.00 0.00 0.00 0.54 0.93 0.00 0.00 0.00 0.91 0.52 0.70 0.00 0.88 0.61 0.00 0.61 0.00 0.68 0.00 0.00 0.00 0.00 0.00 0.00 0.00 0.00 0.00 0.00 0.00 0.00 0.00 0.00 0.00 0.00 0.00 0.00 0.00 0.98 0.00 0.00 0.00 0.61 0.00 0.00 0.00 0.71 0.00 0.00 0.00 0.00 0.00 0.00 0.00 0.00 0.00 0.00 0.00 0.00 0.00 0.00 0.00 0.68 0.00 0.00 0.00 0.00 0.96 0.00 0.00 0.00 0.00 0.00 0.00 0.00 0.79 0.85 0.00 0.00 0.00 0.00 0.00 0.00 0.00 0.95 0.00 0.75 0.00 0.00 0.00 0.00 0.00 0.00 0.00 0.00 0.00 0.00 0.00 0.00 0.70 0.00 0.00 0.91 0.00 0.00 0.00
0.00 0.00 0.53 0.00 0.00 0.00 0.00 0.00 0.69 0.00 0.00 0.00 0.00 0.00 0.00 0.72 0.00 0.00 0.00 0.00 0.00 0.00 0.00 0.00 0.00 0.80 0.00 0.00 0.00 0.00 0.54 0.00 0.00 0.00 0.67 0.94 0.00 0.79 0.00 0.00 0.57 0.00 0.00 0.00 0.00 0.00 0.00 0.00 0.00 0.00 0.00 0.00 0.00 0.00 0.00 0.00 0.00 0.00 0.00 0.00 0.00 0.00 0.00 0.00 0.00 0.00 0.00 0.00 0.72 0.00 0.00 0.00 0.54 0.65 0.00 0.00 0.73 0.00 0.00 0.00 0.00 0.00 0.00 0.00 0.00 0.00 0.00 0.00 0.00 0.00 0.00 0.00 0.00 0.00 0.00 0.62 0.95 0.98 0.00 0.00 0.00 0.00 0.00 0.00 0.00 0.00 0.00 0.81 0.00 0.00 0.00 0.00 0.63 0.00 0.00 0.70 0.00 0.00 0.00 0.00 0.00 0.00 0.69 0.00 0.00 0.00 0.00 0.88 0.62 0.00 0.00 0.00 0.83 0.00 0.82 0.67 0.00 0.00 0.00 0.00
0.00 0.00 0.00 0.00 0.00 0.00 0.00 0.00 0.00 0.00 0.00 0.00 0.00 0.00 0.61 0.00 0.00 0.00 0.00 0.00 0.00 0.00 0.00 0.00 0.79 0.71 0.00 0.72 0.50 0.80 0.00 0.54 0.00 0.00 0.00 0.00 0.76 0.00 0.00 0.00 0.00 0.00 0.00 0.00 0.00 0.58 0.00 0.57 0.00 0.00 0.94 0.00 0.83 0.00 0.00 0.66 0.00 0.90 0.00 0.00 0.58 0.00 0.00 0.00 0.00 0.95 0.91 0.00 0.00 0.00 0.00 0.00 0.00 0.00 0.00 0.00 0.00 0.00 0.00 0.00 0.00 0.00 0.00 0.00 0.00 0.00 0.00 0.93 0.72 0.00 0.00 0.54 0.00 0.00 0.63 0.00 0.00 0.00 0.00 0.00 0.00 0.00 0.53 0.00 0.00 0.00 0.74 0.00 0.76 0.00 0.51 0.00 0.00 0.00 0.00 0.95 0.86 0.00 0.00 0.00 0.93 0.00 0.00 0.00 0.76 0.00 0.00 0.00 0.00 0.00 0.00 0.00 0.72 0.00 0.00 0.00 0.00 0.00 0.00 0.00
0.00 0.88 0.00 0.00 0.00 0.00 0.00 0.85 0.00 0.00 0.00 0.73 0.00 0.00 0.00 0.97 0.89 0.00 0.00 0.00 0.98 0.99 0.53 0.00 0.00 0.00 0.00 0.00 0.92 0.50 0.00 0.00 0.00 0.00 0.00 0.00 0.00 0.00 0.00 0.00 0.00 0.00 0.00 0.00 0.00 0.55 0.81 0.89 0.00 0.00 0.71 0.74 0.78 0.00 0.00 0.00 0.00 0.00 0.00 0.00 0.00 0.00 0.00 0.00 0.60 1.00 0.00 0.00 0.00 0.00 0.00 0.51 0.00 0.65 0.00 0.00 0.62 0.59 0.00 0.56 0.00 0.00 0.00 0.00 0.00 0.00 0.00 0.68 0.00 0.00 0.00 0.00 0.69 0.54 0.00 0.86 0.00 0.00 0.70 0.00 0.75 0.00 0.00 0.00 0.99 0.00 0.91 0.00 0.96 0.00 0.00 0.87 0.67 0.00 0.00 0.00 0.00 0.93 0.00 0.00 0.81 0.00 0.00 0.00 0.60 0.82 0.00 0.79 0.00 0.56 0.00 0.00 0.00 0.00 0.00 0.53 0.65 0.00 0.00 0.00
0.00 0.00 0.00 0.00 0.00 0.00 0.71 0.00 0.58 0.00 0.00 0.00 0.59 0.00 0.00 0.00 0.00 0.00 0.00 0.00 0.00 0.00 0.00 0.00 0.98 0.00 0.00 0.00 0.83 0.00 0.85 0.86 0.58 0.00 0.00 0.58 0.00 0.00 0.00 0.00 0.00 0.00 0.00 0.00 0.00 0.00 0.00 0.00 0.00 0.00 0.00 0.00 0.00 0.00 0.00 0.00 0.00 0.00 0.00 0.00 0.00 0.00 0.00 0.00 0.00 0.00 0.00 0.95 0.00 0.86 0.00 0.00 0.00 0.00 0.00 0.00 0.00 0.75 0.96 0.00 0.00 0.00 0.00 0.00 0.00 0.92 0.00 0.00 0.77 0.00 0.00 0.61 0.00 0.00 0.00 0.00 0.00 0.00 0.00 0.00 0.00 0.00 0.93 0.63 0.97 0.00 0.00 0.00 0.00 0.89 0.75 0.00 0.00 0.00 0.81 0.00 0.00 0.00 0.81 0.00 0.98 0.00 0.00 0.87 0.00 0.56 0.00 0.00 0.77 0.00 0.00 0.00 0.00 0.56 0.00 0.00 0.67 0.00 0.62 0.00
0.00 0.00 0.00 0.00 0.00 0.00 0.00 0.00 0.00 0.00 0.74 0.00 0.00 0.00 0.00 0.61 0.00 0.00 0.00 0.97 0.51 0.00 0.83 0.00 0.00 0.00 0.51 0.89 0.00 0.72 0.70 0.00 0.00 0.61 0.00 0.00 0.00 0.00 0.00 0.00 0.00 0.00 0.89 0.00 0.00 0.00 0.00 0.00 0.00 0.00 0.00 0.00 0.90 0.00 0.00 0.00 0.00 0.58 0.69 0.72 0.52 0.00 0.00 0.00 0.00 0.00 0.00 0.00 0.00 0.00 0.72 0.00 0.00 0.00 0.78 0.83 0.97 0.65 0.00 0.74 0.00 0.00 0.00 0.00 0.85 0.00 0.00 0.57 0.00 0.00 0.00 0.00 0.00 0.00 0.00 0.88 0.00 0.00 0.00 0.00 0.00 0.00 0.62 0.00 0.00 0.55 0.00 0.00 0.00 0.94 0.78 0.99 0.00 0.00 0.00 0.72 0.00 0.88 0.00 0.74 0.00 0.99 0.00 0.00 0.00 0.00 0.00 0.00 0.00 0.00 0.00 0.00 0.00 0.00 0.00 0.00 0.00 0.80 0.00 0.00
0.00 0.00 0.00 0.00 0.00 0.00 0.00 0.58 0.64 0.00 0.00 0.70 0.00 0.00 0.92 0.00 0.00 0.00 0.00 0.00 0.00 0.71 0.53 0.92 0.00 0.00 0.00 0.00 0.00 0.00 0.89 0.00 0.00 0.91 0.00 0.00 0.00 0.99 0.00 0.00 0.00 0.00 0.00 0.00 0.59 0.00 0.81 0.00 0.00 0.00 0.00 0.00 0.00 0.61 0.00 0.55 0.63 0.00 0.55 0.67 0.00 0.00 0.00 0.00 0.87 0.00 0.79 0.67 0.98 0.74 0.95 0.78 0.86 0.00 0.00 0.00 0.00 0.00 1.00 0.76 0.00 0.00 0.00 0.00 0.00 0.56 0.00 0.00 0.00 0.77 0.00 0.00 0.00 0.00 0.00 0.88 0.00 0.00 0.00 0.00 0.79 0.00 0.00 0.72 0.00 0.88 0.00 0.00 0.00 0.69 0.00 0.00 0.00 0.00 0.00 0.00 0.00 0.00 0.00 0.68 0.64 0.00 0.80 0.00 0.77 0.00 0.00 0.00 0.88 0.64 0.00 0.00 0.00 0.93 0.00 0.00 0.00 0.71 0.00 0.00
0.99 0.00 0.75 0.00 0.00 0.00 0.00 0.88 0.00 1.00 0.00 0.00 0.00 0.00 0.00 0.00 0.89 0.00 0.73 0.00 0.00 0.00 0.00 0.68 0.71 0.00 0.00 0.00 0.00 0.00 0.00 0.00 0.00 0.00 0.00 0.92 0.60 0.00 0.00 0.00 0.00 0.00 0.96 0.00 0.00 0.00 0.00 0.00 0.00 0.00 0.95 0.00 0.58 0.61 0.00 0.00 0.00 0.00 0.00 0.00 0.00 0.00 0.00 0.00 0.88 0.00 0.00 0.00 0.00 0.00 0.00 0.82 0.00 0.64 0.00 0.66 0.87 0.00 0.57 0.00 0.00 0.00 0.00 0.00 0.00 0.00 0.00 0.00 0.00 0.93 0.98 0.00 0.00 0.00 0.00 0.00 0.00 0.00 0.00 0.81 0.71 0.00 0.00 0.78 0.00 0.00 0.85 0.00 0.58 0.00 0.00 0.00 0.00 0.96 0.53 0.00 0.00 0.00 0.00 0.96 0.00 0.00 0.00 0.00 0.52 0.00 0.00 0.77 0.00 0.00 0.00 0.00 0.00 0.00 0.00 0.00 0.00 0.68 0.00 0.00
0.00 0.00 0.00 0.00 0.00 0.00 0.82 0.00 0.00 0.00 0.00 0.00 0.00 0.76 0.99 0.00 0.72 0.00 0.00 0.00 0.95 0.00 0.00 0.00 0.00 0.00 0.98 0.76 0.00 0.83 0.50 0.00 0.00 0.97 0.00 0.00 0.00 0.62 0.00 0.00 0.00 0.00 0.00 0.51 0.00 0.72 0.85 0.00 0.00 0.00 0.00 0.00 0.00 0.00 0.73 0.00 0.60 0.00 0.00 0.00 0.00 0.00 0.00 0.00 0.00 0.00 0.00 0.00 0.00 0.00 0.00 0.00 0.00 0.00 0.00 0.00 1.00 0.00 0.00 0.00 0.00 0.69 0.00 0.00 0.00 0.00 0.00 0.00 0.00 0.89 0.00 0.00 0.00 0.91 0.82 0.61 0.00 0.00 0.59 0.00 0.00 0.00 0.00 0.00 0.00 0.00 0.00 0.00 0.58 0.59 0.00 0.00 0.97 0.51 0.00 0.00 0.00 0.00 0.00 0.00 0.00 0.56 0.00 0.90 0.00 0.00 0.00 0.00 0.00 0.00 0.00 0.00 0.00 0.00 0.75 0.00 0.00 0.00 0.66 0.00
0.00 0.80 0.00 0.00 0.00 0.64 0.00 0.00 0.00 0.00 0.00 0.00 0.00 0.67 0.00 0.68 0.00 0.55 0.83 0.00 0.00 0.00 0.00 0.00 0.00 0.00 0.00 0.00 0.00 0.00 0.53 0.00 0.00 0.00 0.00 0.00 0.59 0.00 0.77 0.59 0.00 0.00 0.00 0.52 0.69 0.82 0.00 0.75 0.00 0.00 0.86 0.00 0.00 0.61 0.00 0.00 0.00 0.00 0.00 0.00 0.00 0.00 0.00 0.00 0.00 0.00 0.00 0.61 0.53 0.00 0.00 0.71 0.00 0.51 0.00 0.00 0.99 0.00 0.00 0.00 0.00 0.00 0.00 0.50 0.00 0.00 0.00 0.72 0.00 0.00 0.86 0.00 0.00 0.00 0.00 0.00 0.00 0.00 0.00 0.54 0.75 0.00 0.00 0.58 0.00 0.00 0.00 0.00 0.61 0.83 0.60 0.00 0.00 0.67 0.00 0.00 0.00 0.00 0.00 0.00 0.94 0.55 0.00 0.00 0.00 0.00 0.00 0.00 0.80 0.00 0.00 0.00 0.00 0.00 0.56 0.99 0.00 0.00 0.00 0.83
0.00 0.00 0.00 0.00 0.00 0.00 0.00 0.00 0.00 0.00 0.79 0.00 0.00 0.00 0.00 0.00 0.00 0.99 0.00 0.53 0.00 0.78 0.00 0.00 0.00 0.79 0.00 0.57 0.00 0.00 0.00 0.00 0.00 0.00 0.72 0.66 0.00 0.00 0.00 0.00 0.71 0.00 0.00 0.00 0.00 0.00 0.65 0.00 0.56 0.00 0.00 0.81 0.00 0.00 0.00 0.00 0.00 0.00 0.85 0.74 0.64 0.89 0.00 0.74 0.66 0.00 0.66 0.78 0.00 0.82 0.67 0.70 0.00 0.00 0.00 0.00 0.73 0.00 0.00 0.00 0.59 0.53 0.00 0.99 0.00 0.61 0.00 0.00 0.00 0.00 0.00 0.00 0.00 0.00 0.67 0.83 0.00 0.85 0.00 0.72 0.00 0.00 0.00 0.00 0.51 0.00 0.98 0.00 0.75 0.84 0.00 0.00 0.65 0.00 0.00 0.59 0.00 0.67 0.00 0.00 0.69 0.58 0.00 0.00 0.00 0.00 0.00 0.00 0.00 0.00 0.00 0.00 0.00 0.50 0.00 0.00 0.00 0.00 0.00 0.00
0.00 0.00 0.00 0.85 0.00 0.51 0.89 0.00 0.75 0.58 0.00 0.00 0.00 0.00 0.00 0.00 0.00 0.00 0.00 0.61 0.80 0.00 0.00 0.00 0.00 0.00 0.00 0.00 0.00 0.00 0.00 0.00 0.00 0.00 0.52 0.00 0.00 0.00 0.60 0.00 0.00 0.60 0.00 0.00 0.00 0.00 0.70 0.00 0.00 0.81 0.00 0.67 0.00 0.00 0.00 0.00 0.00 0.95 0.63 0.00 0.00 0.00 0.00 0.94 0.00 0.00 0.71 0.72 0.00 0.00 0.00 0.00 0.00 0.64 0.00 0.00 0.00 0.00 0.00 0.00 0.00 0.00 0.00 0.00 0.00 0.00 0.00 0.00 0.00 0.00 0.00 0.00 0.00 0.00 0.00 0.00 0.00 0.93 0.00 0.00 0.00 0.00 0.00 0.00 0.00 0.00 0.00 0.00 0.00 0.72 0.88 0.00 0.00 0.00 0.00 0.00 0.00 0.00 0.00 0.00 0.00 0.00 0.00 0.00 0.00 0.00 0.00 0.79 0.00 0.61 0.52 0.00 0.00 0.00 0.00 0.90 0.00 0.00 0.00 0.00
0.82 0.00 0.00 0.00 0.00 0.00 0.00 0.00 0.89 0.97 0.00 0.95 0.00 0.92 0.72 0.77 0.00 0.00 0.99 0.55 0.00 0.00 0.00 0.00 0.00 0.00 0.00 0.00 0.00 0.00 0.00 0.00 0.00 0.00 0.56 0.00 0.94 0.71 0.00 0.00 0.00 0.00 0.84 0.00 0.00 0.00 0.00 0.00 0.00 0.00 0.00 0.00 0.00 0.83 0.00 0.00 0.75 0.00 0.61 0.00 0.80 0.00 0.00 0.00 0.00 0.00 0.00 0.00 0.00 0.00 0.00 0.00 0.00 0.95 0.00 0.00 0.00 0.00 0.00 0.00 0.00 0.00 0.00 0.00 0.00 0.00 0.00 0.75 0.00 0.00 0.00 0.00 0.88 0.98 0.00 0.00 0.85 0.00 0.00 0.52 0.00 0.00 0.00 0.00 0.00 0.00 0.67 0.78 0.99 0.51 0.85 0.00 0.92 0.00 0.90 0.81 0.00 0.00 0.00 0.00 0.00 0.00 0.00 0.00 0.00 0.00 0.00 0.00 0.92 0.86 0.58 0.00 0.66 0.00 0.82 0.00 0.00 0.00 0.00 0.00
0.00 0.85 0.00 0.91 0.79 0.00 0.00 0.00 0.00 0.00 0.00 0.00 0.00 0.00 0.00 0.80 0.00 0.00 0.00 0.00 0.00 0.00 0.00 0.00 0.98 0.53 0.78 0.86 0.00 0.00 0.00 0.00 0.00 0.00 0.55 0.00 0.98 0.00 0.68 0.00 0.65 0.00 0.96 0.76 0.00 0.00 0.00 0.00 0.55 0.00 0.00 0.00 0.00 0.00 0.00 0.00 0.00 0.00 0.63 0.00 0.00 0.00 0.88 0.00 0.00 0.00 0.00 0.00 0.00 0.00 0.00 0.00 0.00 0.00 0.54 0.00 0.00 0.00 0.00 0.00 0.53 0.00 0.00 0.00 0.00 0.00 0.00 0.00 0.00 0.59 0.00 0.00 0.00 0.00 0.52 0.87 0.00 0.00 0.84 0.00 0.57 0.00 0.00 0.00 0.90 0.00 0.00 0.50 0.00 0.00 0.00 0.00 0.00 0.00 0.00 0.00 0.00 0.00 0.00 0.00 0.00 0.92 0.00 0.00 0.00 0.86 0.00 0.56 0.78 0.00 0.60 0.00 0.97 0.72 0.00 0.82 0.00 0.91 0.00 0.00
0.00 0.00 0.00 0.00 0.00 0.00 0.00 0.00 0.00 0.00 0.00 0.00 0.00 0.00 0.00 0.00 0.00 0.79 0.00 0.00 0.00 0.00 0.51 0.00 0.00 0.00 0.00 0.56 0.82 0.00 0.00 0.00 0.00 0.53 0.00 0.00 0.00 0.98 0.00 0.61 0.00 0.55 0.00 0.66 0.00 0.00 0.00 0.00 0.00 0.99 0.00 0.70 0.59 0.00 0.00 0.96 0.00 0.56 0.00 0.74 0.00 0.00 0.95 0.00 0.80 0.00 0.00 0.00 0.00 0.50 0.00 0.00 0.00 0.00 0.00 0.82 0.87 0.00 0.00 0.71 0.99 0.00 0.00 0.00 0.53 0.65 0.00 0.83 0.00 0.00 0.00 0.00 0.00 0.00 0.00 0.00 0.00 0.00 0.00 0.00 0.00 0.00 0.00 0.71 0.00 0.00 0.72 0.84 0.00 0.00 0.00 0.00 0.00 0.00 0.59 0.66 0.59 0.00 0.00 0.00 0.00 0.00 0.94 0.00 0.00 0.00 0.51 0.00 0.00 0.00 0.00 0.00 0.73 0.00 0.00 0.00 0.00 0.00 0.00 0.00
0.00 0.75 0.00 0.00 0.00 0.00 0.00 0.00 0.62 0.00 0.00 0.00 0.00 0.52 0.93 0.78 0.89 0.73 0.00 0.00 0.00 0.60 0.00 0.00 0.00 0.00 0.00 0.00 0.00 0.64 0.67 0.00 0.00 0.90 0.00 0.00 0.62 0.93 0.00 0.83 0.57 0.00 0.00 0.00 0.00 0.00 0.00 0.79 0.00 0.00 0.62 0.00 0.53 0.00 0.00 0.00 0.00 0.00 0.00 0.00 0.00 0.00 0.75 0.00 0.00 0.00 0.00 0.00 0.00 0.00 0.00 0.00 0.00 0.57 0.57 0.00 0.00 0.00 0.00 0.67 0.00 0.00 0.00 0.00 0.00 0.00 0.00 0.00 0.69 0.00 0.96 0.00 0.00 0.81 0.00 0.00 0.92 0.57 0.66 0.00 0.64 0.73 0.50 0.65 0.00 0.00 0.00 0.00 0.00 0.00 0.00 0.60 0.65 0.57 0.00 0.00 0.00 0.00 0.00 0.00 0.00 0.00 0.00 0.00 0.00 0.00 0.00 0.00 0.00 0.00 0.66 0.00 0.00 0.79 0.00 0.00 0.00 0.00 0.00 0.00
0.00 0.00 0.00 0.00 0.00 0.00 0.00 0.57 0.00 0.61 0.68 0.00 0.73 0.00 0.00 0.00 0.00 0.00 0.00 0.00 0.00 0.56 0.00 0.00 0.00 0.87 0.00 0.00 0.00 0.00 0.68 0.57 0.00 0.00 0.00 0.77 0.00 0.00 0.00 0.00 0.69 0.00 0.00 0.00 0.00 0.00 0.00 0.00 0.00 0.00 0.00 0.00 0.00 0.97 0.00 0.00 0.00 0.00 0.00 0.82 0.00 0.00 0.00 0.00 0.00 0.00 0.96 0.00 0.94 0.00 0.00 0.00 0.00 0.67 0.00 0.00 0.00 0.70 0.82 0.00 0.00 0.00 0.00 0.00 0.68 0.00 0.00 0.00 0.00 0.00 0.59 0.00 0.00 0.00 0.00 0.00 0.00 0.00 0.00 0.00 0.00 0.00 0.00 0.00 0.00 0.00 0.00 0.69 0.00 0.91 0.00 0.00 0.00 0.96 0.00 0.00 0.00 0.00 0.95 0.00 0.00 0.00 0.00 0.74 0.00 0.00 0.00 0.95 0.00 0.59 0.00 0.00 0.00 0.00 0.00 0.90 0.00 0.00 0.00 0.00
0.00 0.00 0.80 0.00 0.00 0.70 0.76 0.00 0.00 0.83 0.65 0.82 0.00 0.68 0.00 0.00 0.00 0.00 0.85 0.00 0.00 0.93 0.00 0.00 0.71 0.89 0.00 0.00 0.58 0.00 0.00 0.00 0.54 0.00 0.00 0.00 0.88 0.00 0.90 0.00 0.00 0.00 0.82 0.00 0.00 0.51 0.61 0.00 0.00 0.00 0.00 0.00 0.00 0.00 0.00 0.66 0.00 0.00 0.00 0.00 0.00 0.70 0.00 0.00 0.77 0.90 0.00 0.75 0.00 0.00 0.65 0.00 0.00 0.00 0.00 1.00 0.69 0.00 0.00 0.68 0.00 0.00 0.99 0.00 0.00 0.00 0.00 0.00 0.00 0.79 0.00 0.00 0.00 0.00 0.00 0.00 0.00 0.00 0.00 0.00 0.00 0.00 0.00 0.00 0.00 0.00 0.00 0.59 0.00 0.00 0.00 0.00 0.00 0.82 0.57 0.00 0.00 0.53 0.91 0.00 0.74 0.00 0.00 0.00 0.77 1.00 0.00 0.00 0.00 0.00 0.00 0.78 0.00 0.00 0.00 0.00 0.00 0.91 0.00 0.00
0.00 0.00 0.64 0.00 0.00 0.00 0.00 0.79 0.89 0.00 0.00 0.00 0.00 0.00 0.52 0.00 0.89 0.00 0.65 0.00 0.00 0.99 0.00 0.00 0.00 0.00 0.00 0.00 0.00 0.00 0.00 0.00 0.00 0.00 0.98 0.84 0.00 0.00 0.00 0.00 0.00 0.00 0.00 0.77 0.00 0.00 0.00 0.00 0.77 0.00 0.00 0.00 0.00 0.00 0.00 0.74 0.63 0.82 0.00 0.00 0.00 0.00 0.00 0.00 0.00 0.00 0.00 0.00 0.98 0.00 0.00 0.00 0.00 0.51 0.00 0.72 0.00 0.00 0.97 0.00 0.65 0.00 0.80 0.00 0.87 0.90 0.51 0.00 0.67 0.64 0.00 0.51 0.00 0.00 0.00 0.00 0.00 0.00 0.00 0.00 0.58 0.00 0.00 0.00 0.74 0.00 0.00 0.68 0.00 0.00 0.00 0.00 0.00 0.00 0.00 0.93 0.00 0.00 0.00 0.00 0.00 0.69 0.00 0.00 0.00 0.00 0.00 0.94 0.00 0.00 0.00 0.74 0.94 0.75 0.00 0.79 0.00 0.97 0.00 0.00
0.50 0.96 0.00 0.00 0.66 0.00 0.00 0.56 0.00 0.00 0.00 0.00 0.00 0.93 0.51 0.00 0.00 0.00 0.00 0.00 0.75 0.00 0.95 0.94 0.00 0.00 0.00 0.51 0.00 0.00 0.00 0.00 0.60 0.00 0.00 0.00 0.00 0.00 0.00 0.00 0.00 0.89 0.00 0.00 0.72 0.00 0.00 0.00 0.00 0.56 0.98 0.00 0.00 0.00 0.00 0.57 0.00 0.00 0.58 0.00 0.00 0.00 0.00 0.00 0.00 0.00 0.00 0.00 0.00 1.00 0.00 0.00 0.00 0.00 0.00 0.00 0.00 0.00 0.00 0.93 0.76 0.00 0.00 0.00 0.00 0.00 0.77 0.00 0.72 0.00 0.00 0.00 0.00 0.00 0.98 0.00 0.00 0.57 0.00 0.00 0.00 0.00 0.00 0.81 0.00 0.00 0.00 0.00 0.00 0.00 0.00 0.00 0.00 0.00 0.00 0.58 0.62 0.00 0.00 0.78 0.00 1.00 0.00 0.93 0.87 0.80 0.00 0.00 0.00 0.00 0.00 0.00 0.52 0.00 0.00 0.00 0.00 0.77 0.58 0.00
0.00 0.00 0.00 0.00 0.00 0.68 0.00 0.00 0.00 0.00 0.00 0.00 0.00 0.00 0.83 0.00 0.00 0.00 0.00 0.65 0.61 0.63 0.00 0.00 0.00 0.82 0.00 0.00 0.00 0.00 0.00 0.00 0.00 0.00 0.76 0.00 0.00 0.00 1.00 0.00 0.00 0.00 0.00 0.00 0.00 0.00 0.00 0.00 0.00 0.87 0.00 0.00 0.00 0.00 0.72 0.00 0.00 0.64 0.00 0.00 0.00 0.00 0.00 0.52 0.00 0.00 0.00 0.00 0.00 0.00 0.00 0.00 0.00 0.88 0.00 0.00 0.00 0.96 0.00 0.00 0.00 0.59 0.00 0.00 0.00 0.00 0.00 0.00 0.00 0.76 0.00 0.00 0.66 0.98 0.00 0.00 0.72 0.00 0.00 0.89 0.62 0.00 0.00 0.94 0.00 0.00 0.00 0.00 0.00 0.00 0.00 0.00 0.61 0.00 0.00 0.00 0.00 0.97 0.00 0.00 0.00 0.00 0.00 0.00 0.53 0.00 0.81 0.00 0.61 0.00 0.00 0.97 0.00 0.00 0.00 0.65 0.00 0.00 0.00 0.00
0.00 0.86 0.00 0.00 0.70 0.00 0.00 0.97 0.92 0.00 0.00 0.00 0.00 0.00 0.00 0.00 0.00 0.00 0.93 0.50 0.00 0.95 0.00 0.00 0.00 0.00 0.00 0.00 0.00 0.00 0.00 0.00 0.00 0.00 0.88 0.00 0.00 0.00 0.51 0.00 0.00 0.00 0.00 0.00 0.00 0.00 0.00 0.00 0.00 0.00 0.50 0.00 0.00 0.00 0.00 0.58 0.51 0.00 0.92 0.00 0.00 0.00 0.00 0.00 0.51 0.00 0.00 0.00 0.00 0.00 0.00 0.00 0.00 0.00 0.67 0.00 0.00 0.00 0.00 0.99 0.00 0.00 0.00 0.00 0.00 0.00 0.00 0.00 0.00 0.00 0.00 0.00 0.75 0.00 0.72 0.00 0.96 0.79 0.00 0.52 0.56 1.00 0.00 0.00 0.00 0.00 0.00 0.00 0.00 0.68 0.82 0.00 0.00 0.00 0.55 0.78 0.00 0.00 0.85 0.00 0.00 0.00 0.00 0.00 0.58 0.55 0.00 0.74 0.00 0.67 0.83 0.92 0.52 0.00 0.00 0.00 0.00 0.00 0.93 0.00
0.00 0.72 0.00 0.00 0.00 0.00 0.99 0.65 0.00 0.00 0.00 0.00 0.00 0.96 0.00 0.00 0.00 0.00 0.00 0.00 0.00 0.00 0.00 0.94 0.00 0.70 0.00 0.00 0.00 0.00 0.64 0.69 0.00 0.72 0.00 0.00 0.00 0.89 0.00 0.00 0.00 0.82 0.00 0.66 0.00 0.88 0.00 0.00 0.62 0.00 0.00 0.00 0.00 0.56 0.00 0.00 0.00 0.00 0.00 0.00 0.00 0.00 0.54 0.00 0.64 0.00 0.69 0.00 0.00 0.81 0.00 0.00 0.67 0.00 0.66 0.00 0.00 0.80 0.00 0.86 0.82 0.70 0.00 0.78 0.00 0.00 0.00 0.00 0.70 0.00 0.00 0.00 0.98 0.00 0.00 0.00 0.00 0.00 0.00 0.00 0.00 0.00 0.00 0.00 0.00 0.00 0.00 0.00 0.00 0.00 0.00 0.00 0.00 0.00 0.00 0.73 0.00 0.00 0.00 0.00 0.00 0.00 0.00 0.00 0.00 0.00 0.00 0.68 0.00 0.00 0.00 0.00 0.60 0.00 0.00 0.00 0.00 0.00 0.00 0.00
1.00 0.00 0.00 0.00 0.00 0.73 0.00 0.00 0.00 0.00 0.00 0.00 0.00 0.00 0.59 0.00 0.00 0.00 0.00 0.55 0.00 0.00 0.00 0.00 0.00 0.94 0.72 0.00 0.00 0.00 0.00 0.00 0.00 0.00 0.98 0.00 0.00 0.00 0.00 0.00 0.52 0.55 0.66 0.95 0.00 0.00 0.89 0.00 0.00 0.60 0.00 0.00 0.00 0.82 0.00 0.59 0.00 0.00 0.00 0.00 0.00 0.00 0.64 0.00 0.00 0.87 0.00 0.00 0.00 0.64 0.00 0.00 0.00 0.76 0.50 0.00 0.00 0.00 0.00 0.00 0.00 0.00 0.71 0.54 0.00 0.00 0.00 0.00 0.00 0.00 0.72 0.95 0.53 0.00 0.63 0.00 0.00 0.57 0.86 0.00 0.00 0.00 0.00 0.00 0.00 0.00 0.00 0.00 0.00 0.00 0.58 0.00 0.80 0.00 0.00 0.00 0.75 0.00 0.60 0.78 0.84 0.93 0.00 0.85 0.67 0.00 0.00 0.00 0.00 0.00 0.00 0.81 0.00 0.00 0.51 0.00 0.00 0.78 0.96 0.00
0.55 0.59 0.00 0.00 0.00 0.00 0.64 0.85 0.52 0.00 0.00 0.00 0.00 0.00 0.00 0.00 0.00 0.00 0.00 0.00 0.00 0.91 0.00 0.55 0.00 0.00 0.96 0.00 0.00 0.00 0.00 0.00 0.91 0.00 0.00 0.65 0.00 0.00 0.00 0.82 0.00 0.00 0.00 0.00 0.00 0.00 0.00 0.00 0.82 0.00 0.00 0.00 0.00 0.58 0.00 0.00 0.87 0.00 0.00 0.00 0.00 0.65 0.87 0.00 0.00 0.00 0.00 0.00 0.00 0.00 0.00 0.00 0.00 0.00 0.00 0.67 0.00 0.55 0.00 0.00 0.00 0.00 0.87 0.00 0.00 0.00 0.85 0.00 0.00 0.00 0.00 0.00 0.00 0.00 0.00 0.00 0.00 0.00 0.00 0.00 0.00 0.00 0.00 0.00 0.00 0.00 0.00 0.00 0.85 0.52 0.00 0.75 0.00 0.00 0.00 0.00 0.00 0.92 0.00 0.00 0.53 0.86 0.56 0.00 0.00 0.99 0.00 0.00 0.00 0.00 0.81 0.00 0.00 0.00 0.70 0.00 0.00 0.00 0.00 0.00
0.00 0.00 0.81 0.00 0.73 0.00 0.00 0.00 0.00 0.00 0.00 0.00 0.00 0.00 0.00 0.00 0.00 0.00 0.00 0.00 0.00 0.00 0.00 0.00 0.00 0.00 0.00 0.00 0.00 0.00 0.00 0.00 0.00 0.00 0.00 0.70 0.00 0.00 0.68 0.00 0.00 0.00 0.00 0.00 0.00 0.00 0.00 0.00 0.00 0.00 0.00 0.00 0.00 0.00 0.55 0.00 0.00 0.00 0.00 0.00 0.00 0.00 0.00 0.00 0.00 0.73 0.00 0.00 0.71 0.68 0.00 0.00 0.55 0.00 0.00 0.55 0.00 0.00 0.00 0.00 0.97 0.00 0.00 0.69 0.00 0.00 0.00 0.00 0.00 0.00 0.00 0.00 0.00 0.00 0.65 0.00 0.00 0.00 0.80 0.00 0.00 0.95 0.00 0.00 0.00 0.00 0.00 0.00 0.00 0.00 0.00 0.00 0.00 0.00 0.00 0.00 0.00 0.67 0.00 0.00 0.67 0.00 0.00 0.00 0.00 0.00 0.00 0.00 0.00 0.00 0.00 0.99 0.00 0.00 0.00 0.00 0.00 0.00 0.00 0.00
0.68 0.00 0.00 0.00 0.00 0.00 0.72 0.57 0.00 0.00 0.00 0.00 0.88 0.51 0.00 0.00 0.00 0.69 0.00 0.00 0.00 0.00 0.74 0.00 0.00 0.62 0.00 0.00 0.00 0.00 0.00 0.00 0.00 0.00 0.00 0.93 0.00 0.00 0.74 0.00 0.00 0.00 0.54 0.00 0.00 0.00 0.00 0.66 0.00 0.00 0.97 0.00 0.54 0.00 0.00 0.69 0.00 0.00 0.54 0.54 0.00 0.00 0.00 0.00 0.00 1.00 0.00 0.00 0.00 0.56 0.00 0.00 0.00 0.00 0.00 0.00 0.68 0.00 0.00 0.00 0.51 0.91 0.00 0.00 0.00 0.00 0.00 0.00 0.00 0.00 0.00 0.00 0.00 0.00 0.00 0.00 0.00 0.00 0.77 0.00 0.95 0.00 0.00 0.00 0.00 0.00 0.00 0.00 0.00 0.55 0.00 0.00 0.00 0.00 0.00 0.75 0.92 0.00 0.00 0.00 0.00 0.65 0.00 0.00 0.00 0.00 0.61 0.00 0.00 0.00 0.00 0.00 0.00 0.75 0.00 0.00 0.00 0.00 0.00 0.00
0.00 0.66 0.00 0.00 0.00 0.74 0.00 0.79 0.77 0.00 0.00 0.00 0.00 0.00 0.00 0.00 0.00 0.00 0.00 0.00 0.88 0.00 0.00 0.00 0.80 0.00 0.00 0.00 0.73 0.00 0.00 0.77 0.95 0.61 0.00 0.00 0.00 0.89 0.00 0.52 0.78 0.00 0.00 0.00 0.00 0.95 0.00 0.00 0.00 0.00 0.00 0.00 0.00 0.00 0.00 0.00 0.00 0.00 0.00 0.00 0.00 0.00 0.00 0.00 0.96 0.80 0.00 0.65 0.00 0.00 0.00 0.00 0.00 0.00 0.00 0.00 0.00 0.00 0.00 0.00 0.91 0.00 0.00 0.00 0.67 0.00 0.00 0.00 0.00 0.00 0.00 0.00 0.00 0.00 0.72 0.00 0.00 0.66 0.93 0.84 0.63 0.00 0.00 0.00 0.00 0.00 0.00 0.00 0.00 0.00 0.00 0.00 0.77 0.00 0.00 0.00 0.00 0.00 0.00 0.00 0.00 0.00 0.00 0.00 0.99 0.00 0.00 0.00 0.00 0.89 0.00 0.91 0.00 0.00 0.00 0.00 0.00 0.00 0.00 0.00
0.59 0.00 0.53 0.00 0.00 0.00 0.00 0.00 0.00 0.00 0.00 0.00 0.00 0.00 0.00 0.00 0.00 0.50 0.00 0.00 0.00 0.00 0.00 0.00 0.00 0.00 0.00 0.00 0.00 0.00 0.00 0.00 0.89 0.69 0.74 0.00 0.00 0.00 0.69 0.00 0.00 0.57 0.00 0.00 0.00 0.00 0.00 0.76 0.00 0.00 0.70 0.00 0.00 0.81 0.00 0.00 0.82 0.00 0.00 0.92 0.00 0.00 0.00 0.00 0.00 0.00 0.00 0.00 0.00 0.00 0.00 0.00 0.80 0.83 0.00 0.00 0.00 0.00 0.00 0.00 0.53 0.00 0.00 0.55 0.69 0.00 0.00 0.00 0.00 0.76 0.00 0.88 0.00 0.00 0.00 0.00 0.65 0.00 0.00 0.78 0.00 0.00 0.00 0.00 0.00 0.00 0.69 0.00 0.00 0.00 0.00 0.00 0.00 0.56 0.00 0.00 0.70 0.00 0.00 0.00 0.94 0.74 0.54 0.00 0.00 0.93 0.82 0.00 0.00 0.00 0.00 0.71 0.00 0.00 0.00 0.00 0.81 0.00 0.00 0.00
0.52 0.00 0.00 0.00 0.00 0.00 0.00 0.00 0.00 0.00 0.00 0.00 0.97 0.00 0.00 0.00 0.88 0.77 0.93 0.00 0.00 0.00 0.00 0.00 0.00 0.00 0.00 0.69 0.58 0.00 0.00 0.00 0.74 0.00 0.00 0.00 0.00 0.00 0.00 0.97 0.96 0.64 0.98 0.00 0.00 0.00 0.00 0.00 0.00 0.00 0.00 0.51 0.00 0.62 0.00 0.00 0.00 0.00 0.00 0.00 0.00 0.00 0.00 0.00 0.00 0.00 0.00 0.00 0.00 0.00 0.74 0.00 0.00 0.00 0.70 0.00 0.00 0.60 0.00 0.00 0.79 0.76 0.00 0.00 0.00 0.00 0.00 0.00 0.84 0.71 0.00 0.00 0.94 0.76 0.60 0.00 0.88 0.72 0.80 0.00 0.00 0.00 0.87 0.98 0.55 0.00 0.00 0.73 0.00 0.00 0.00 0.00 0.00 0.00 0.00 0.00 0.00 0.00 0.51 0.00 0.00 0.00 0.00 0.00 0.00 0.00 0.00 0.82 0.00 0.87 0.00 0.00 0.00 0.00 0.00 0.00 0.00 0.00 0.00 0.00
0.00 0.00 0.00 0.00 0.60 0.00 0.00 0.00 0.00 0.72 0.00 0.00 0.00 0.00 0.97 0.98 0.96 0.00 0.00 0.00 0.00 0.00 0.00 1.00 0.00 0.00 0.00 0.00 0.00 0.00 0.00 0.99 0.00 0.00 0.00 0.00 0.00 0.00 0.00 0.00 0.00 0.00 0.00 0.00 0.00 0.78 0.00 0.00 0.00 0.80 0.98 0.70 0.00 0.00 0.86 0.73 0.00 0.00 0.00 0.00 0.00 0.79 0.00 0.00 0.00 0.00 0.00 0.00 0.00 0.71 0.00 0.60 0.00 0.00 0.00 0.00 0.00 0.00 0.00 0.00 0.00 0.00 0.52 0.00 0.54 0.00 0.00 0.00 0.00 0.00 0.79 0.86 0.69 0.83 0.90 0.56 0.00 0.86 0.00 0.00 0.00 0.00 0.84 0.00 0.64 0.68 0.00 0.00 0.00 0.00 0.00 0.00 0.00 0.50 0.00 0.00 0.00 0.00 0.00 0.86 0.66 0.00 0.94 0.00 0.00 0.00 0.00 0.89 0.95 0.00 0.82 0.00 0.00 0.96 0.00 0.62 0.00 0.00 0.60 0.00
0.00 0.00 0.00 0.00 0.00 0.00 0.88 0.00 0.00 0.00 0.00 0.00 0.00 0.77 0.00 0.90 0.66 0.00 0.67 0.00 0.88 0.00 0.00 0.88 0.00 0.00 0.00 0.00 0.00 0.00 0.00 0.00 0.00 0.78 0.00 0.00 0.00 0.00 0.63 0.00 0.50 0.00 0.00 0.00 0.00 0.83 0.57 0.00 0.00 0.00 0.00 0.00 0.00 0.00 0.74 0.00 0.00 0.00 0.58 0.00 0.00 0.00 0.00 0.00 0.00 0.64 0.00 0.00 0.78 0.00 0.00 0.00 0.00 0.00 0.00 0.00 0.00 0.00 0.00 0.00 0.00 0.90 0.00 0.82 0.91 0.00 0.00 0.00 0.00 0.00 0.78 0.00 0.00 0.74 0.00 0.00 0.00 0.00 0.00 0.00 0.00 0.00 0.76 0.00 0.00 0.00 0.54 0.00 0.00 0.00 0.00 0.00 0.00 0.80 0.55 0.58 0.00 0.00 0.00 0.97 0.00 0.00 0.00 0.90 0.00 0.00 0.88 0.00 0.97 0.00 0.00 0.55 0.00 0.00 0.00 0.00 0.00 0.00 0.00 0.51
0.00 0.00 0.00 0.74 0.00 0.84 0.71 0.00 0.00 0.00 0.00 0.00 0.00 0.53 0.61 0.85 0.57 0.72 0.00 0.00 0.70 0.52 0.00 0.00 0.00 0.00 0.00 0.00 0.00 0.00 0.00 0.00 0.00 0.00 0.00 0.00 0.75 0.00 0.00 0.00 0.00 0.00 0.00 0.67 0.00 0.00 0.00 0.53 0.00 0.00 0.00 0.92 0.00 0.00 0.00 0.00 0.00 0.00 0.00 0.00 0.00 0.00 0.00 0.79 0.00 0.00 0.92 0.00 0.00 0.00 0.00 0.00 0.90 0.00 0.75 0.97 0.00 0.00 0.94 0.00 0.00 0.00 0.89 0.00 0.00 0.00 0.00 0.00 0.97 0.00 0.00 0.00 0.76 0.00 0.55 0.00 0.00 0.00 0.00 0.00 0.65 0.00 0.00 0.00 0.56 0.00 0.00 0.00 0.53 0.00 0.00 0.00 0.00 0.00 0.00 0.00 0.00 0.00 0.00 0.00 0.78 0.00 0.99 0.00 0.50 0.00 0.00 0.00 0.00 0.00 0.00 0.00 0.00 0.00 0.67 0.00 0.00 0.00 0.64 0.00
0.00 0.00 0.00 0.00 0.00 0.00 0.00 0.92 0.50 0.00 0.00 0.00 0.00 0.00 0.00 0.00 0.00 0.00 0.84 0.00 0.00 0.64 0.00 0.00 0.00 0.00 0.00 0.00 0.00 0.00 0.00 0.00 0.00 0.66 0.00 0.00 0.77 0.00 0.00 0.00 0.00 0.00 0.00 0.00 0.00 0.89 0.00 0.61 0.00 0.00 0.99 0.00 0.94 0.90 0.00 0.00 0.00 0.00 0.00 0.61 0.00 0.00 0.83 0.92 0.00 0.00 0.00 0.00 0.00 0.00 0.00 0.00 0.91 0.00 0.88 0.00 0.00 0.00 0.00 0.00 0.89 0.00 0.00 0.71 0.00 0.00 0.00 0.56 0.00 0.00 0.00 0.00 0.00 0.93 0.00 0.00 0.00 0.00 0.00 0.00 0.00 0.83 0.00 0.00 0.00 0.00 0.00 0.00 0.00 0.98 0.00 0.51 0.79 0.00 0.85 0.90 0.00 0.00 0.00 0.00 0.00 0.00 0.00 0.90 0.00 0.00 0.00 0.00 0.00 0.87 0.57 0.00 0.00 0.73 0.00 0.57 0.00 0.00 0.00 0.00
0.00 0.00 0.00 0.53 0.00 0.66 0.00 0.90 0.00 0.00 0.00 0.00 0.00 0.00 0.85 0.00 0.00 0.00 0.00 0.00 0.58 0.00 0.00 0.00 0.82 0.00 0.00 0.00 0.00 0.00 0.00 0.00 0.87 0.00 0.00 0.90 0.00 0.00 0.00 0.00 0.96 0.00 0.00 0.00 0.00 0.00 0.79 0.00 0.00 0.00 0.00 0.00 0.69 0.00 0.00 0.00 0.00 0.00 0.00 0.00 0.00 0.00 0.00 0.00 0.97 0.71 0.73 0.00 0.00 0.00 0.00 0.77 0.00 0.00 0.00 0.00 0.00 0.00 0.00 0.73 0.00 0.00 0.00 0.00 0.00 0.00 0.75 0.00 1.00 0.83 0.73 0.74 0.00 0.00 0.72 0.94 0.89 0.00 0.00 0.00 0.00 0.00 0.00 0.00 0.93 0.00 0.00 0.00 0.00 0.00 0.00 0.00 0.00 0.00 0.00 0.00 0.00 0.00 0.00 0.00 0.00 0.75 0.96 0.00 0.00 0.00 0.00 0.00 0.95 0.00 0.00 0.00 0.00 0.00 0.00 0.62 0.00 0.51 0.00 0.00
0.00 0.00 0.62 0.92 0.00 0.00 0.00 0.73 0.00 0.00 0.75 0.86 0.00 0.63 0.88 0.00 0.00 0.00 0.00 0.00 0.69 0.00 0.00 0.00 0.70 0.00 0.66 0.00 0.00 0.77 0.00 0.85 0.00 0.00 0.00 0.00 0.00 0.00 0.00 0.00 0.00 0.88 0.94 0.88 0.80 0.00 0.69 0.99 0.00 0.00 0.00 0.00 0.00 0.00 0.00 0.00 0.00 0.00 0.00 0.00 0.00 0.61 0.00 0.00 0.00 0.00 0.00 0.00 0.00 0.00 0.92 0.86 0.62 0.00 0.00 0.89 0.99 0.00 0.00 0.00 0.00 0.00 0.00 0.00 0.00 0.00 0.00 0.00 0.00 0.00 0.00 0.00 0.00 0.64 0.00 0.00 0.00 0.98 0.00 0.00 0.00 0.95 0.00 0.00 0.00 0.00 0.00 0.00 0.00 0.80 0.72 0.00 0.00 0.00 0.00 0.69 0.00 0.00 0.00 0.00 0.92 0.00 0.00 0.73 0.00 0.00 0.52 0.00 0.00 0.00 0.58 0.00 0.00 0.00 0.00 0.00 0.00 0.00 0.00 0.00
0.00 0.72 0.00 0.62 0.00 0.00 0.67 0.00 0.00 0.00 0.00 0.91 0.00 0.00 0.00 0.00 0.00 0.00 0.00 0.00 0.00 0.00 0.00 0.53 0.00 0.00 0.00 0.00 0.00 0.00 0.00 0.00 0.00 0.00 0.54 0.00 0.66 0.00 0.00 0.00 0.00 0.00 0.00 0.00 0.00 0.00 0.00 0.62 0.72 0.00 0.89 0.00 0.00 0.00 0.60 0.00 0.00 0.00 0.00 0.00 0.59 0.00 0.00 0.53 0.00 0.91 0.00 0.71 0.00 0.62 0.00 0.00 0.00 0.00 0.89 0.00 0.00 0.94 0.00 0.00 0.00 0.00 0.00 0.82 0.00 0.51 0.00 0.00 0.00 0.00 0.00 0.00 0.00 0.00 0.00 0.00 0.62 0.00 0.00 0.82 0.00 0.00 0.88 0.80 0.00 0.77 0.00 0.00 0.67 0.00 0.00 0.78 0.00 0.00 0.00 0.00 0.00 0.97 0.00 0.96 0.00 0.99 0.77 0.00 0.00 0.00 0.00 0.00 0.00 0.00 0.91 0.00 0.00 0.00 0.00 0.00 0.00 0.00 0.00 0.00
0.55 0.00 0.00 0.00 0.00 0.00 0.00 0.00 0.74 0.71 0.00 0.94 0.00 0.96 0.00 0.00 0.00 0.00 0.00 0.00 0.00 0.76 0.00 0.00 0.00 0.00 0.89 0.00 0.77 0.00 0.00 0.00 0.00 0.91 0.00 0.00 0.00 0.00 0.00 0.84 0.92 0.00 0.00 0.00 0.63 0.00 0.00 0.00 0.00 0.00 0.00 0.00 0.00 0.00 0.00 0.78 0.00 0.00 0.00 0.70 0.00 0.00 0.76 0.00 0.00 0.00 0.00 0.00 0.77 0.00 0.00 0.00 0.00 0.00 0.86 0.63 0.65 0.00 0.70 1.00 0.00 0.64 0.00 0.00 0.00 0.91 0.00 0.71 0.00 0.00 0.00 0.00 0.00 0.00 0.00 0.00 0.00 0.00 0.00 0.00 0.00 0.00 0.00 0.00 0.00 0.00 0.00 0.00 0.00 0.00 0.00 0.00 0.00 0.00 0.00 0.00 0.00 0.00 0.00 0.00 0.65 0.00 0.00 0.54 0.00 0.00 0.00 0.00 0.00 0.00 0.00 0.00 0.00 0.83 0.00 0.00 0.00 0.00 0.00 0.00
0.00 0.85 0.77 0.00 0.00 0.00 0.55 0.97 0.00 0.53 0.00 0.00 0.00 0.00 0.00 0.00 0.87 0.00 0.51 0.61 0.63 0.00 0.88 0.00 0.00 0.00 0.00 0.66 0.00 0.00 0.00 0.00 0.55 0.00 0.00 0.75 0.00 0.81 0.00 0.00 0.00 0.93 0.00 0.81 0.00 0.67 0.00 0.50 0.67 0.00 0.00 0.77 0.91 0.68 0.00 0.00 0.00 0.76 0.00 0.00 0.00 0.82 0.00 0.00 0.00 0.84 0.00 0.60 0.00 0.00 0.00 0.00 0.00 0.00 0.00 0.00 0.00 0.00 0.70 0.00 0.00 0.00 0.00 0.00 0.00 0.00 0.00 0.00 0.78 0.69 0.00 0.85 0.54 0.00 0.00 0.61 0.00 0.54 0.00 0.55 0.92 0.81 0.00 0.00 0.92 0.00 0.00 0.00 0.00 0.00 0.00 0.00 0.00 0.00 0.00 0.00 0.00 0.00 0.00 0.76 0.61 0.00 0.54 0.82 0.00 0.00 0.00 0.00 0.68 0.96 0.00 0.76 0.00 0.00 0.00 0.00 0.65 0.90 0.00 0.00
0.00 0.00 0.00 0.00 0.00 0.00 0.92 0.00 0.68 0.00 0.00 0.00 0.77 0.00 0.60 0.00 0.00 0.00 0.00 0.00 0.00 0.94 0.00 0.00 0.00 0.96 0.00 0.00 0.00 0.00 0.00 0.00 0.00 0.00 0.77 0.00 0.00 0.00 0.00 0.00 0.90 0.00 0.62 0.00 0.00 0.66 0.00 0.00 0.00 0.90 0.00 0.00 0.00 0.00 0.00 0.00 0.00 0.00 0.00 0.00 0.00 0.98 0.86 0.00 0.00 0.00 0.00 0.00 0.00 0.00 0.00 0.53 0.00 0.00 0.00 0.57 0.00 0.64 0.00 0.00 0.00 0.00 0.00 0.00 0.00 0.00 0.00 0.00 0.00 0.00 0.73 0.67 0.00 0.90 0.00 0.79 0.00 0.69 0.51 0.53 0.00 0.00 0.00 0.70 0.00 0.00 0.00 0.00 0.00 0.00 0.00 0.00 0.00 0.00 0.00 0.94 0.00 0.81 0.00 0.59 0.77 0.00 0.00 0.00 0.00 0.83 0.00 0.00 0.00 0.90 0.00 0.91 0.00 0.00 0.00 0.00 0.00 0.00 0.00 0.62
0.00 0.00 0.00 0.00 0.00 0.00 0.00 0.00 0.00 0.00 0.00 0.00 0.00 0.00 0.00 0.00 0.77 0.52 0.00 0.00 0.00 0.00 0.00 0.00 0.00 0.73 0.00 0.00 0.00 0.90 0.00 0.66 0.00 0.00 0.00 0.00 0.00 0.54 0.00 0.00 0.00 0.00 0.00 0.00 0.00 0.00 0.00 0.00 0.00 0.00 0.00 0.00 0.00 0.00 0.00 0.00 0.00 0.00 0.00 0.00 0.00 0.00 0.87 0.00 0.53 0.00 0.55 0.68 0.83 0.84 0.00 0.00 0.00 0.00 0.00 0.00 0.00 0.00 0.52 0.70 0.00 0.00 0.75 0.00 0.00 0.00 0.00 0.00 0.00 0.00 0.00 0.66 0.76 0.00 0.00 0.00 0.95 0.81 0.00 0.00 0.00 0.00 0.00 0.58 0.00 0.66 0.00 0.00 0.00 0.00 0.00 0.00 0.00 0.00 0.00 0.00 0.74 0.00 0.00 0.94 0.90 0.00 0.00 0.00 0.00 0.00 0.00 0.00 0.00 0.84 0.00 0.00 0.90 0.00 0.00 0.00 0.57 0.00 0.00 0.00
0.00 0.50 0.00 0.93 0.00 0.00 0.00 0.00 0.00 0.00 0.00 0.60 0.00 0.00 0.00 0.00 0.71 0.00 0.00 0.00 0.00 0.00 0.00 0.00 0.80 0.00 0.00 0.00 0.00 0.00 0.00 0.00 0.00 0.00 0.00 0.00 0.00 0.00 0.54 0.00 0.00 0.00 0.52 0.00 0.00 0.53 0.55 0.00 0.58 0.90 0.00 0.00 0.00 0.00 0.00 0.63 0.92 0.88 0.77 0.00 0.00 0.00 0.00 0.00 0.00 0.00 0.00 0.00 0.00 0.00 0.93 0.00 0.00 0.00 0.00 0.00 0.82 0.00 0.00 0.75 0.00 0.00 0.00 0.69 0.00 0.00 0.00 0.00 0.00 0.80 0.00 0.00 0.00 0.90 0.00 0.00 0.00 0.00 0.00 0.86 0.00 0.96 0.66 0.50 0.00 0.00 0.78 0.99 0.00 0.97 0.00 0.00 0.74 0.00 0.00 0.00 0.78 0.00 0.00 0.00 0.00 0.00 0.00 0.00 0.72 0.57 0.00 0.63 0.00 0.00 0.00 0.00 0.51 0.00 0.00 0.00 0.00 0.00 0.00 0.00
0.84 0.51 0.00 0.00 0.00 0.00 0.89 0.00 0.00 0.00 0.00 0.00 0.70 0.00 0.00 0.00 0.00 0.76 0.98 0.00 0.00 0.00 0.00 0.00 0.00 0.90 0.70 0.80 0.00 0.00 0.98 0.59 0.00 0.90 0.00 0.00 0.00 0.00 0.00 0.00 0.00 0.98 0.74 0.00 0.00 0.00 0.68 0.00 0.00 0.00 0.72 0.00 0.00 0.00 0.00 0.00 0.00 0.00 0.79 0.00 0.00 0.00 0.00 0.00 0.00 0.00 0.00 0.00 0.00 0.00 0.00 0.00 0.00 0.00 0.00 0.57 0.00 0.00 0.00 0.00 0.79 0.86 0.00 0.00 0.00 0.52 0.54 0.00 0.00 0.00 0.97 0.00 0.00 0.00 0.00 0.60 0.00 0.00 0.00 0.00 0.00 0.00 0.00 0.00 0.00 0.00 0.00 0.00 0.00 0.00 0.00 0.00 0.00 0.00 0.00 0.83 0.00 0.00 0.00 0.00 0.78 0.00 0.00 0.00 0.00 0.54 0.00 0.00 0.00 0.00 0.00 0.00 0.00 0.00 0.00 0.00 0.00 0.00 0.81 0.00
0.00 0.00 0.00 0.94 0.00 0.00 0.00 0.00 0.00 0.84 0.00 0.83 0.00 0.84 0.00 0.95 0.71 0.00 0.53 0.00 0.00 0.00 0.00 0.00 0.00 0.00 0.96 0.00 0.80 0.68 0.00 0.54 0.88 0.00 0.50 0.00 0.55 0.00 0.00 0.94 0.00 0.97 0.00 0.84 0.57 0.00 0.00 0.64 0.00 0.00 0.00 0.92 0.00 0.73 0.00 0.62 0.00 0.80 0.00 0.00 0.00 0.00 0.00 0.94 0.00 0.00 0.00 0.61 0.00 0.00 0.00 0.00 0.00 0.69 0.00 0.00 0.00 0.00 0.00 0.00 0.00 0.00 0.00 0.00 0.00 0.82 0.00 0.54 0.00 0.00 0.00 0.00 0.93 0.00 0.00 0.76 0.00 0.00 0.00 0.74 0.00 0.00 0.66 0.97 0.00 0.89 0.90 0.00 0.84 0.90 0.00 0.00 0.00 0.00 0.51 0.00 0.00 0.00 0.00 0.00 0.00 0.00 0.00 0.00 0.00 0.00 0.00 0.00 0.00 0.00 0.00 0.00 0.00 0.73 0.00 0.65 0.00 0.00 0.00 1.00
0.00 0.00 0.80 0.71 0.00 0.00 0.00 0.00 0.00 0.00 0.00 0.00 0.64 0.00 0.00 0.00 0.00 0.00 0.00 0.63 0.00 0.00 0.00 0.00 0.00 0.00 0.00 0.66 0.00 0.00 0.00 0.69 0.00 0.00 0.00 0.00 0.00 0.81 0.00 0.00 0.00 0.91 0.00 0.00 0.69 0.59 0.00 0.00 0.83 0.72 0.00 0.00 0.00 0.00 0.00 0.00 0.00 0.00 0.00 0.00 0.00 0.71 0.00 0.00 0.00 0.67 0.00 0.00 0.00 0.00 0.00 0.00 0.61 0.00 0.00 0.00 0.00 0.00 0.00 0.00 0.00 0.00 1.00 0.00 0.71 0.00 0.80 0.00 0.94 0.00 0.00 0.87 0.00 0.00 0.00 0.85 0.58 0.00 0.00 0.00 0.56 0.93 0.00 0.00 0.63 0.92 0.88 0.76 0.00 0.00 0.00 0.00 0.00 0.97 0.00 0.00 0.00 0.00 0.00 0.00 0.84 0.00 0.00 0.00 0.00 0.00 0.00 0.54 0.00 0.00 0.76 0.00 0.00 0.90 0.00 0.00 0.00 0.00 0.00 0.72
0.00 0.00 0.00 0.98 0.00 0.00 0.73 0.00 1.00 0.54 0.00 0.00 0.00 0.00 0.00 0.00 0.00 0.00 0.00 0.00 0.00 0.00 0.00 0.00 0.00 0.00 0.79 0.00 0.00 0.00 0.90 0.00 0.00 0.00 0.00 0.00 0.00 0.00 0.00 0.00 0.00 0.00 0.00 0.00 0.86 0.66 0.00 0.00 0.00 0.00 0.00 0.00 0.00 0.00 0.00 0.00 0.00 0.80 0.00 0.00 0.00 0.00 0.00 0.00 0.00 0.00 0.00 0.00 0.51 0.72 0.56 0.00 0.00 0.00 0.80 0.76 0.00 0.00 0.56 0.78 0.00 0.00 0.64 0.52 0.97 0.00 0.00 0.80 0.00 0.00 0.00 0.84 0.00 0.00 0.00 0.00 0.88 0.94 0.00 0.00 0.00 0.00 0.84 0.00 0.00 0.00 0.00 0.94 0.00 0.00 0.55 0.00 0.00 0.00 0.00 0.00 0.73 0.00 0.00 0.00 0.56 0.00 0.00 0.00 0.00 0.77 0.93 0.00 0.00 0.00 0.00 0.00 0.00 0.00 0.64 0.72 0.00 0.00 0.72 0.00
0.00 0.00 0.00 0.00 0.00 0.79 0.76 0.53 0.80 0.00 0.00 0.00 0.00 0.00 0.00 0.00 0.00 0.00 0.58 0.00 0.80 0.00 0.74 0.00 0.00 0.00 0.00 0.91 0.00 0.00 0.00 0.00 0.00 0.00 0.00 0.95 0.99 0.00 0.92 0.85 0.77 0.00 0.00 0.50 0.00 0.00 0.98 0.00 0.87 0.00 0.00 0.00 0.00 0.00 0.00 0.00 0.00 0.00 0.00 0.00 0.00 0.00 0.00 0.00 0.73 0.00 0.00 0.56 0.00 0.00 0.00 0.68 0.00 0.00 0.94 0.00 0.00 0.00 0.00 0.00 0.82 0.55 0.00 0.00 0.00 0.79 0.00 0.00 0.00 0.76 0.00 0.00 0.00 0.71 0.00 0.00 0.71 0.00 0.00 0.90 0.00 0.60 0.00 0.00 0.00 0.00 0.00 0.00 0.00 0.87 0.88 0.00 0.00 0.00 0.00 0.00 0.00 0.00 0.00 0.00 0.00 0.00 0.68 0.00 0.00 0.00 0.00 0.00 0.00 0.00 0.00 0.00 0.00 0.00 0.00 0.00 0.00 0.00 0.57 0.00
0.00 0.94 0.00 0.00 0.00 0.00 0.00 0.00 0.00 0.00 0.00 0.82 0.00 0.00 0.00 0.00 0.00 0.00 0.00 0.81 0.00 0.00 0.00 0.00 0.00 1.00 0.00 0.00 0.00 0.00 0.00 0.00 0.91 0.00 0.00 0.00 0.91 0.00 0.59 0.00 0.00 0.00 0.00 0.82 0.00 0.00 0.00 0.00 0.81 0.00 0.60 0.00 0.00 0.73 0.00 0.52 0.00 0.00 0.00 0.87 0.00 0.00 0.94 0.00 0.00 0.84 0.00 0.00 0.00 0.00 0.00 0.00 0.00 0.00 0.00 0.00 0.00 0.80 0.00 0.00 0.00 0.75 0.00 0.73 0.00 0.00 0.52 0.55 0.00 0.81 0.00 0.00 0.00 0.00 0.00 0.51 0.00 0.00 0.00 0.00 0.00 0.61 0.00 0.65 0.00 0.00 0.00 0.65 0.00 0.00 0.00 0.00 0.71 0.00 0.00 0.60 0.73 0.00 0.00 0.00 0.00 0.00 0.52 0.00 0.00 0.00 0.00 0.77 0.53 0.00 0.00 0.00 0.00 0.00 0.00 0.00 0.00 0.00 0.57 0.91
0.00 0.59 0.00 0.00 0.99 0.00 0.00 0.00 0.00 0.91 0.00 0.00 0.00 0.00 0.00 0.00 0.74 0.90 0.00 0.00 0.00 0.00 0.63 0.00 0.00 0.80 0.00 0.77 0.56 0.00 0.00 0.00 0.00 0.85 0.00 0.00 0.00 0.00 0.00 0.00 0.00 0.00 0.84 0.00 0.91 0.00 0.00 0.79 0.00 0.00 0.00 0.00 0.00 0.00 0.00 0.00 0.00 0.00 0.00 0.00 0.70 0.00 0.00 0.00 0.00 0.00 0.00 0.98 0.00 0.00 0.00 0.00 0.00 0.00 0.00 0.80 0.00 0.00 0.00 0.92 0.00 0.00 0.00 0.87 0.61 0.75 0.74 0.00 0.00 0.00 0.00 0.00 0.00 0.00 0.00 0.00 0.00 0.00 0.00 0.99 0.00 0.00 0.00 0.72 0.60 0.00 0.00 0.74 0.00 0.00 0.90 0.00 0.89 0.00 0.00 0.91 0.83 0.00 0.00 0.00 0.00 0.00 0.92 0.00 0.60 0.00 0.00 0.00 0.00 0.91 0.00 0.00 0.89 0.00 0.81 0.98 0.00 0.00 0.00 0.83
0.00 0.00 0.00 0.68 0.00 0.00 0.00 0.51 0.00 0.52 0.00 0.00 0.00 0.00 0.88 0.00 0.00 0.94 0.00 0.68 0.00 0.00 0.00 0.00 0.00 0.56 0.00 0.00 0.90 0.00 0.68 0.00 0.00 0.93 0.00 0.00 0.00 0.00 0.95 0.00 0.54 0.00 0.00 0.00 0.70 0.00 0.00 0.00 0.72 0.00 0.00 0.00 0.97 0.92 0.00 0.00 0.00 0.00 0.79 0.52 0.86 0.00 0.00 0.00 0.00 0.00 0.00 0.89 0.00 0.00 0.00 0.00 0.00 0.00 0.54 0.00 0.53 0.57 0.00 0.75 0.00 0.00 0.00 0.00 0.93 0.00 0.00 0.78 0.81 0.00 0.00 0.00 0.76 0.00 0.00 0.00 0.00 0.70 0.00 0.00 0.00 0.00 0.00 0.00 0.00 0.00 1.00 0.00 0.00 0.00 0.00 0.00 0.00 0.00 0.00 0.00 0.00 0.52 0.68 0.00 0.00 0.00 0.00 0.75 0.00 0.00 0.00 0.00 0.00 0.00 0.67 0.53 0.00 0.00 0.00 0.00 0.00 0.68 0.00 0.00
0.00 0.00 0.53 0.00 0.55 0.00 0.00 0.00 0.00 0.00 0.00 0.00 0.00 0.00 0.00 0.91 0.00 0.00 0.76 0.00 0.71 0.00 0.58 0.00 0.00 0.00 0.00 0.95 0.00 0.00 0.56 0.00 0.56 0.00 0.00 0.00 0.00 0.00 0.00 0.00 0.68 0.00 0.00 0.55 0.00 0.00 0.00 0.00 0.00 0.00 0.00 0.00 0.91 0.00 0.00 0.00 0.00 0.00 0.00 0.00 0.97 0.00 0.81 0.93 0.91 0.00 0.00 0.72 0.00 0.00 0.00 0.00 0.76 0.96 0.55 0.00 0.00 0.00 0.00 0.00 0.00 0.00 0.00 0.00 0.00 0.00 0.00 0.00 0.00 0.00 0.00 0.00 0.00 0.00 0.00 0.00 0.00 0.00 0.00 0.90 0.00 0.00 0.00 0.00 0.00 0.53 0.00 0.00 0.00 0.00 0.66 0.52 0.00 0.00 0.00 0.00 0.62 0.77 0.00 0.00 0.00 0.59 0.69 0.82 0.76 0.00 0.60 0.00 0.00 0.00 0.92 0.00 0.00 0.00 0.00 0.00 0.00 0.00 0.00 0.00
0.00 0.00 0.00 0.00 0.00 0.00 0.00 0.89 0.00 0.75 0.71 0.85 0.00 0.00 0.00 1.00 0.00 0.00 0.00 0.52 0.00 0.93 0.00 0.00 0.74 0.00 0.00 0.96 0.94 0.00 0.00 0.00 0.00 0.64 0.00 0.00 0.00 0.00 0.00 0.00 0.00 0.00 0.00 0.00 0.00 0.78 0.00 0.00 0.00 1.00 0.73 0.69 0.00 0.93 0.51 0.85 0.00 0.00 0.00 0.71 0.80 0.69 0.00 0.00 0.00 0.00 0.00 0.91 0.00 0.85 0.81 0.00 0.00 0.50 0.52 0.00 0.00 0.00 0.00 0.00 0.00 0.00 0.00 0.00 0.00 0.00 0.83 0.63 0.80 0.77 0.00 0.00 0.61 0.91 0.00 0.00 0.00 0.00 0.96 0.00 0.00 0.00 0.00 0.00 0.00 0.00 0.54 0.79 0.00 0.00 0.00 0.00 0.00 0.00 0.00 0.00 0.00 0.53 0.00 0.00 0.00 0.96 0.00 0.61 0.00 0.00 0.64 0.00 0.00 0.00 0.00 0.94 0.54 0.00 0.00 0.00 0.60 0.92 0.00 0.00
0.00 0.00 0.00 0.00 0.78 0.00 0.00 0.00 0.00 0.74 0.00 0.00 0.67 0.87 0.00 0.00 0.54 0.86 0.00 0.00 0.00 0.00 0.00 0.00 0.80 0.00 0.64 0.00 0.79 0.94 0.00 0.00 0.00 0.95 0.00 0.86 0.00 0.00 0.00 0.00 0.00 0.00 0.00 0.83 0.00 0.00 0.00 0.00 0.00 0.00 0.69 0.00 0.00 0.00 0.00 0.00 0.00 0.00 0.00 0.00 0.00 0.00 0.84 0.00 0.00 0.00 0.59 0.00 0.00 0.82 0.53 0.00 0.00 0.00 0.00 0.00 0.91 0.00 0.00 0.00 0.00 0.00 0.00 0.68 0.67 0.00 0.00 0.00 0.00 0.00 0.00 0.00 0.00 0.00 0.00 0.00 0.00 0.59 0.00 0.00 0.00 0.00 0.00 0.69 0.52 0.00 0.00 0.00 0.68 0.79 0.00 0.00 0.00 0.00 0.00 0.92 0.61 0.00 0.00 0.00 0.00 0.00 0.00 0.00 0.56 0.00 0.00 0.54 0.53 0.00 0.00 0.64 0.00 0.57 0.92 0.00 0.00 0.67 0.00 0.97
0.00 0.77 0.00 0.00 0.00 0.00 0.00 0.00 0.93 0.00 0.00 0.00 0.00 0.58 0.00 0.00 0.71 0.00 0.57 0.00 0.00 0.00 0.00 0.00 0.00 0.00 0.00 0.00 0.92 0.00 0.00 0.72 0.00 0.00 0.00 0.00 0.00 0.00 0.00 0.00 0.65 0.00 0.65 0.00 0.00 0.79 0.00 0.00 0.00 0.83 0.00 0.77 0.93 0.00 0.94 0.00 0.00 0.00 0.00 0.59 0.84 0.00 0.54 0.00 0.00 0.00 0.00 0.00 0.00 0.00 0.79 0.00 0.98 0.00 0.00 0.00 0.00 0.00 0.57 0.00 0.94 0.64 0.00 0.00 0.00 0.00 0.00 0.00 0.00 0.80 0.00 0.00 0.00 0.96 0.00 0.94 0.00 0.00 0.00 0.00 0.00 0.00 0.00 0.00 0.60 0.00 0.00 0.00 0.53 0.00 0.00 1.00 0.00 0.00 0.00 0.00 0.97 0.00 0.00 0.69 0.00 0.00 0.00 0.65 0.00 0.00 0.00 0.00 0.60 0.54 0.00 0.97 0.62 0.72 0.00 0.00 0.00 0.00 0.71 0.00
0.00 0.59 0.00 0.00 0.00 0.00 0.00 0.00 0.92 0.00 0.00 0.00 0.00 0.00 0.65 0.94 0.00 0.00 0.00 0.00 0.00 0.85 0.00 0.00 0.64 0.00 0.98 0.00 0.00 0.00 0.89 0.00 0.00 0.00 0.00 0.00 0.00 0.00 0.00 0.67 0.00 0.00 0.00 0.00 0.00 0.72 0.00 0.00 0.00 0.00 0.00 0.00 0.00 0.00 0.00 0.87 0.63 0.00 0.00 0.00 0.00 0.00 0.00 0.00 0.00 0.56 0.00 0.00 0.00 0.00 0.00 0.00 0.84 0.00 0.00 0.76 0.00 0.00 0.00 0.00 0.00 0.00 0.00 0.00 0.00 0.00 0.00 0.00 0.00 0.00 0.00 0.00 0.63 0.00 0.00 0.00 0.00 0.00 0.00 0.00 0.00 0.00 0.57 0.00 0.00 0.56 0.00 0.00 0.00 0.82 0.00 0.00 0.00 0.00 0.00 0.00 0.00 0.00 0.00 0.75 0.00 0.00 0.00 0.00 0.86 0.94 0.00 0.00 0.65 0.00 0.00 0.00 0.76 0.70 0.00 0.00 0.00 0.00 0.00 0.00
0.87 0.52 0.00 0.00 0.00 0.83 0.00 0.00 0.00 0.00 0.51 0.00 0.00 0.73 0.00 0.00 0.00 0.85 0.00 0.99 1.00 0.00 0.00 0.61 0.00 0.00 0.99 0.69 0.00 0.00 0.00 0.00 0.00 0.00 0.00 0.00 0.00 0.00 0.00 0.00 0.00 0.00 0.00 0.00 0.00 0.00 0.00 0.00 0.85 0.87 0.00 0.54 0.70 0.00 0.81 0.00 0.00 0.00 0.00 0.00 0.00 0.00 0.00 0.00 0.00 0.55 0.00 0.00 0.00 0.00 0.00 0.00 0.56 0.00 0.00 0.00 0.62 0.81 0.00 0.00 0.00 0.00 0.00 0.00 0.00 0.00 0.94 0.00 0.00 0.85 0.93 0.00 0.00 0.00 0.00 0.90 0.79 0.00 0.00 0.00 0.00 0.00 0.00 0.00 0.00 0.00 0.58 0.00 0.00 0.00 0.00 0.98 0.66 0.00 0.00 0.00 0.68 0.62 0.00 0.00 1.00 0.75 0.00 0.69 0.00 0.00 0.00 0.00 0.98 0.00 0.00 0.00 0.00 0.00 0.00 0.00 0.00 0.00 0.79 0.57
0.62 0.96 0.00 0.97 0.00 0.70 0.00 0.00 0.93 0.00 0.84 0.00 0.00 0.85 0.00 0.65 0.00 0.00 0.00 0.00 0.87 0.00 0.00 0.00 0.00 0.00 0.67 0.00 0.00 0.00 0.90 0.79 0.00 0.00 0.00 0.00 0.56 0.00 0.00 0.87 0.00 0.00 0.00 0.00 0.00 0.00 0.00 0.00 0.00 0.00 0.87 0.00 0.84 0.00 0.00 0.99 0.00 0.68 0.00 0.75 0.00 0.00 0.00 0.00 0.00 0.00 0.00 0.82 0.00 0.00 0.00 0.00 0.00 0.73 0.58 0.00 0.00 0.00 0.00 0.00 0.00 0.00 0.67 0.00 0.00 0.00 0.00 0.00 0.00 0.00 0.00 0.00 0.00 0.00 0.00 0.00 0.00 0.00 0.97 0.00 0.00 0.00 0.00 0.00 0.00 0.00 0.00 0.00 0.00 0.00 0.00 0.00 0.51 0.00 0.00 0.00 0.56 0.00 0.72 0.00 0.00 0.00 0.00 0.00 0.00 0.94 0.00 0.00 0.00 0.00 0.00 0.00 0.00 0.00 0.00 0.00 0.00 0.00 0.00 0.83
0.00 0.61 0.00 0.77 0.88 0.00 0.00 0.73 0.00 0.00 0.00 0.00 0.00 0.00 0.81 0.00 0.00 0.00 0.00 0.00 0.00 0.59 0.00 0.00 0.00 0.00 0.00 0.00 0.00 0.75 0.00 0.00 0.00 0.00 0.82 0.00 0.61 0.00 0.89 0.00 0.00 0.00 0.00 0.67 0.00 0.99 0.00 0.00 0.98 0.00 0.00 0.00 0.00 0.73 0.98 0.00 0.65 0.71 0.91 0.00 0.00 0.00 0.73 0.83 0.60 0.96 0.00 0.00 0.00 0.93 0.00 0.00 0.00 0.00 0.00 0.00 0.00 0.00 0.57 0.00 0.00 0.58 0.00 0.92 0.00 0.71 0.90 0.00 0.00 0.67 0.75 0.85 0.00 0.00 0.53 0.00 0.00 0.00 0.94 0.00 0.00 0.00 0.00 0.00 0.00 0.00 0.00 0.00 0.00 0.00 0.00 0.99 0.00 0.72 0.51 0.00 0.00 0.00 0.00 0.00 0.00 0.00 0.00 0.00 0.00 0.73 0.70 0.00 0.81 0.00 0.80 0.69 0.00 0.81 0.00 0.00 0.00 0.00 0.72 0.00
0.00 0.00 0.00 0.00 0.92 0.00 0.91 0.00 0.00 0.00 0.00 0.00 0.00 0.00 0.00 0.00 0.00 0.80 0.94 0.00 0.63 0.52 0.00 0.00 0.00 0.00 0.84 0.81 0.00 0.00 0.00 0.00 0.88 0.00 0.00 0.00 0.67 0.00 0.60 0.00 0.00 0.90 0.00 0.00 0.00 0.89 0.00 0.00 0.00 0.00 0.60 0.00 0.00 0.98 0.00 0.00 0.00 0.71 0.87 0.00 0.81 0.00 0.00 0.00 0.56 0.00 0.00 0.00 0.00 0.60 0.88 0.00 0.68 0.00 0.74 0.84 0.00 0.68 0.00 0.00 0.00 0.00 0.00 0.00 0.00 0.00 0.00 0.89 0.00 0.00 0.00 0.00 0.00 0.00 0.56 0.00 0.00 0.00 0.00 0.00 0.00 0.63 0.00 0.00 0.00 0.00 0.00 0.00 0.00 0.00 0.00 0.00 0.00 0.00 0.00 0.00 0.00 0.00 0.00 0.00 0.00 0.75 0.00 0.58 0.94 0.00 0.70 0.00 0.00 0.00 0.00 0.51 0.00 0.00 0.80 0.00 0.85 0.00 0.77 0.00
0.00 0.00 0.00 0.54 0.00 0.79 0.00 0.94 0.00 0.00 0.00 0.00 0.00 0.00 0.00 0.00 0.00 0.00 0.51 0.00 0.00 0.00 0.90 0.62 0.00 0.00 0.00 0.00 0.00 0.00 0.95 0.00 0.00 0.81 0.00 0.00 0.00 0.00 0.00 0.00 0.00 0.87 0.00 0.58 0.00 0.00 0.94 0.00 0.00 0.00 0.53 0.00 0.00 0.00 0.00 0.84 0.00 0.73 0.00 0.00 0.00 0.00 0.00 0.00 0.61 0.00 0.00 0.00 0.67 0.00 0.78 0.00 0.00 0.00 0.00 0.91 0.00 0.00 0.00 0.00 0.00 0.00 0.00 0.00 0.00 0.62 0.00 0.00 0.00 0.00 0.00 0.00 0.00 0.00 0.00 0.00 0.00 0.00 0.95 0.74 0.00 0.00 0.00 0.00 0.67 0.00 0.00 0.00 0.82 0.00 0.00 0.00 0.00 0.74 0.62 0.00 0.81 0.00 0.00 0.57 0.00 0.00 0.00 0.00 0.00 0.88 0.00 0.00 0.00 0.00 0.81 0.00 0.00 0.50 0.00 0.00 0.00 0.00 0.00 0.00
0.00 0.00 0.00 0.00 0.00 0.00 0.00 0.80 0.00 0.00 0.83 0.92 0.00 0.91 0.00 0.00 0.00 0.54 0.86 0.00 0.00 0.00 0.00 0.78 0.00 0.00 0.73 0.00 0.00 0.00 0.00 0.00 0.00 0.95 0.00 0.93 0.00 0.74 0.00 0.91 0.53 0.00 0.96 0.00 0.68 0.00 0.00 0.00 0.00 0.00 0.00 0.71 0.00 0.00 0.00 0.58 0.00 0.79 0.00 0.00 0.00 0.00 0.00 0.00 0.00 0.00 0.00 0.00 0.00 0.00 0.00 0.00 0.00 0.51 0.00 0.00 0.00 0.00 0.00 0.00 0.00 0.83 0.00 0.00 0.00 0.00 0.00 0.78 0.00 0.67 0.00 0.00 0.00 0.00 0.00 0.00 0.00 0.00 0.00 0.00 0.00 0.00 0.00 0.00 0.00 0.00 0.00 0.00 0.00 0.00 0.80 0.00 0.00 0.97 0.79 0.00 0.00 0.82 0.00 0.00 0.00 0.84 0.54 0.00 0.65 0.94 0.00 0.00 0.00 0.00 0.68 0.82 0.00 0.00 0.56 0.00 0.00 0.00 0.00 0.64
0.00 0.55 0.80 0.00 0.00 0.73 0.00 0.00 0.00 0.00 0.00 0.97 0.00 0.00 0.00 0.00 0.00 0.00 0.00 0.00 0.00 0.00 0.00 0.82 0.59 0.00 0.76 0.00 0.00 0.00 0.00 0.00 0.00 0.00 0.00 0.00 0.85 0.00 0.00 0.00 0.00 0.00 0.00 0.00 0.00 0.52 0.00 0.84 0.00 0.00 0.00 0.00 0.00 0.00 0.00 0.00 0.00 0.00 0.00 0.00 0.00 0.00 0.00 0.00 0.00 0.00 0.00 0.00 0.72 0.00 0.00 0.00 0.00 0.00 0.00 0.00 0.00 0.00 0.00 0.66 0.00 0.00 0.00 0.00 0.00 0.00 0.58 0.67 0.00 0.00 0.78 0.64 0.00 0.64 0.74 0.00 0.00 0.94 0.00 0.00 0.00 0.00 0.00 0.00 0.00 0.00 0.00 0.00 0.00 0.00 0.75 0.00 0.00 0.00 0.00 0.00 0.61 0.76 0.00 0.00 0.00 0.93 0.00 0.00 0.82 0.00 0.00 0.00 0.98 0.97 0.00 0.00 0.00 0.00 0.82 0.00 0.00 0.00 0.00 0.00
0.00 0.94 0.73 0.57 0.00 0.67 0.00 0.00 0.00 0.00 0.67 0.00 0.00 0.91 0.76 0.96 0.00 0.00 0.00 0.00 0.00 0.00 0.83 0.00 0.00 0.00 0.00 0.00 0.82 0.00 0.99 0.00 0.00 0.00 0.00 0.00 0.00 0.00 0.00 0.00 0.00 0.00 0.00 0.00 0.00 0.00 0.00 0.00 0.00 0.00 0.00 0.62 0.67 0.59 0.00 0.00 0.82 0.53 0.00 0.00 0.00 0.00 0.00 0.00 0.00 0.00 0.00 0.00 0.00 0.00 0.00 0.00 0.00 0.00 0.00 0.00 0.00 0.00 0.00 0.69 0.00 0.00 0.00 0.89 0.00 0.00 0.00 0.00 0.00 0.00 0.00 0.00 0.00 0.00 0.00 0.00 0.00 0.74 0.00 0.00 0.00 0.00 0.00 0.00 0.00 0.76 0.00 0.00 0.53 0.00 0.00 0.00 0.00 0.67 0.00 0.00 0.00 0.00 0.00 0.89 0.83 0.82 0.78 0.56 0.00 0.00 0.00 0.68 0.00 0.00 0.00 0.00 0.00 0.00 0.00 0.00 0.00 0.00 0.00 0.00
