140
0.00 0.00 0.00 0.00 0.85 0.00 0.00 0.00 0.00 0.00 0.00 0.73 0.82 0.00 0.89 0.00 0.00 0.00 0.00 0.00 0.63 0.00 0.95 0.61 0.00 0.93 0.00 0.00 0.00 0.88 0.69 0.93 0.00 0.00 0.00 0.00 0.50 0.00 0.00 0.00 0.00 0.00 0.97 0.89 0.00 0.00 0.77 0.00 0.00 0.00 0.00 0.00 0.57 0.00 0.00 0.00 0.00 0.00 0.00 0.00 0.00 0.00 0.00 0.54 0.00 0.00 0.00 0.91 0.00 0.00 0.00 0.96 0.00 0.00 0.00 0.00 0.00 0.00 0.00 0.00 0.00 0.00 0.72 0.00 0.00 0.00 0.00 0.00 0.00 0.00 0.00 0.00 0.00 0.00 0.89 0.72 0.00 0.00 0.00 0.00 0.00 0.00 0.00 0.00 0.00 0.83 0.55 0.00 0.00 0.00 0.57 0.00 0.00 0.00 0.91 0.80 0.00 0.67 0.00 0.00 0.00 0.00 0.00 0.00 0.00 0.00 0.00 0.00 0.00 0.64 0.00 0.00 0.00 0.00 0.00 0.00 0.00 0.00 0.00 0.51
0.00 0.00 0.00 0.00 0.00 0.00 0.69 0.00 0.00 0.00 0.00 0.00 0.00 0.00 0.00 0.00 0.00 0.81 0.00 0.00 0.00 0.00 0.00 0.99 0.00 0.00 0.00 0.00 0.00 0.00 0.84 0.00 0.98 0.00 0.65 0.90 0.00 0.00 0.00 0.64 0.00 0.00 0.99 0.73 0.00 0.73 0.00 0.91 0.00 0.00 0.00 0.00 0.00 0.55 0.67 0.00 0.00 0.00 0.95 0.00 0.00 0.00 0.00 0.62 0.52 0.00 0.00 0.00 0.00 0.00 0.00 0.00 0.00 0.00 0.00 0.00 0.00 0.00 0.00 0.00 0.00 0.00 0.62 0.64 0.00 0.00 0.89 0.00 0.98 0.00 0.00 0.93 0.00 0.00 0.00 0.00 0.99 0.00 0.00 0.00 0.00 0.63 0.00 0.00 0.00 0.00 0.67 0.00 0.00 0.75 0.00 0.00 0.80 0.00 0.00 0.00 0.00 0.00 0.73 0.00 0.00 0.95 0.55 0.00 0.00 0.00 0.00 0.00 0.00 0.72 0.00 0.00 0.00 0.00 0.00 0.00 0.00 0.00 0.00 0.00
0.00 0.00 0.00 0.00 0.93 0.00 0.92 0.00 0.00 0.68 0.00 0.00 0.00 0.00 0.94 0.00 0.00 0.00 0.00 0.00 0.00 0.00 0.00 0.00 0.00 0.00 0.00 0.00 0.00 0.00 0.98 0.00 0.59 0.63 0.00 0.00 0.00 0.00 0.96 0.00 0.00 0.00 0.00 0.84 0.00 0.00 0.00 0.93 0.00 0.00 0.00 0.00 0.00 0.00 0.00 0.00 0.00 0.00 0.00 0.00 0.00 0.53 0.80 0.00 0.00 0.00 0.00 0.00 0.00 0.95 0.00 0.76 0.00 0.00 0.64 0.84 0.73 0.00 0.00 0.68 0.00 0.00 0.00 0.00 0.00 0.00 0.73 0.00 0.00 0.00 0.00 0.00 0.00 0.97 0.00 0.00 0.00 0.00 0.00 0.00 0.78 0.00 0.00 0.95 0.83 0.66 0.85 0.00 0.00 0.83 0.00 0.00 0.79 0.93 0.75 0.87 0.00 0.00 0.00 0.00 0.00 0.87 0.56 0.67 0.00 0.00 0.00 0.00 0.78 0.00 0.00 0.61 0.00 0.00 0.00 0.00 0.00 0.00 0.00 0.00
0.00 0.00 0.00 0.00 0.00 0.00 0.00 0.00 0.00 0.00 0.00 0.00 0.00 0.56 0.00 0.00 0.00 0.00 0.00 0.00 0.54 0.87 0.00 0.00 0.65 0.00 0.00 0.84 0.00 0.98 0.00 0.00 0.00 0.00 0.00 0.00 0.00 0.00 0.00 0.00 0.64 0.00 0.00 0.00 0.00 0.99 0.00 0.00 0.81 0.58 0.58 0.00 0.00 0.00 0.00 0.00 0.00 0.00 0.00 0.00 0.00 0.00 0.00 0.00 0.00 0.00 0.00 0.56 0.00 0.00 0.89 0.00 0.00 0.00 0.00 0.00 0.00 0.00 0.85 0.92 0.00 0.58 0.00 0.54 0.00 0.00 0.00 0.90 0.53 0.00 0.00 0.00 0.00 0.73 0.00 0.00 0.00 0.00 0.00 0.00 0.00 0.55 0.00 0.00 0.91 0.00 0.00 0.00 0.00 0.74 0.00 0.62 0.00 0.52 0.00 0.00 0.00 0.00 0.56 0.00 0.00 0.00 0.00 0.00 0.00 0.00 0.00 0.00 0.00 0.00 0.98 0.00 0.00 0.00 0.00 0.60 0.00 0.00 0.82 0.00
0.00 0.00 0.00 0.00 0.00 0.00 0.00 0.00 0.00 0.00 0.75 0.00 0.00 0.00 0.00 0.00 0.00 0.00 0.00 0.59 0.00 0.76 0.00 0.00 0.53 0.00 0.00 0.00 0.62 0.00 0.56 0.00 0.61 0.66 0.00 0.00 0.00 0.00 0.00 0.00 0.00 0.00 0.53 0.97 0.00 0.00 0.00 0.00 0.00 0.00 0.00 0.00 0.00 0.00 0.00 0.00 0.96 0.82 0.00 0.00 0.00 0.93 0.00 0.00 0.00 0.82 0.00 0.00 0.00 0.00 0.00 0.00 0.00 0.00 0.00 0.00 0.00 0.00 0.00 0.00 0.00 0.00 0.00 0.00 0.00 0.00 0.90 0.00 0.00 0.54 0.00 0.00 0.00 0.00 0.00 0.00 0.60 0.69 0.57 0.54 0.00 0.00 0.00 0.00 0.00 0.00 0.00 0.00 0.00 0.00 0.00 0.00 0.00 0.64 0.00 0.67 0.00 0.52 0.00 0.00 0.00 0.00 0.84 0.00 0.99 0.00 0.00 0.00 0.00 1.00 0.89 0.00 0.00 0.54 0.76 0.00 0.00 0.00 0.00 0.00
0.52 0.00 0.65 0.00 0.00 0.00 0.00 0.00 0.00 0.00 0.00 0.00 0.00 0.86 0.74 0.00 0.79 0.00 0.71 0.62 0.00 0.00 0.00 0.00 0.00 0.64 0.74 0.88 0.58 0.57 0.00 0.00 0.59 0.00 0.00 0.00 0.00 0.00 0.00 0.00 0.00 0.00 0.00 0.00 0.97 0.00 0.00 0.00 0.00 0.00 0.00 0.00 0.00 0.00 0.00 0.00 0.00 0.95 0.00 0.67 0.00 0.00 0.00 0.00 0.66 0.00 0.00 0.00 0.00 0.00 0.00 0.00 0.00 0.00 0.00 0.58 0.57 0.72 0.00 0.71 0.00 0.00 0.00 0.00 0.00 0.79 0.00 0.00 0.00 0.00 0.73 0.00 0.00 0.00 0.00 0.66 0.00 0.90 0.00 0.00 0.00 0.55 0.81 0.00 0.72 0.00 0.80 0.85 0.95 0.00 0.71 0.64 0.68 0.00 0.00 0.92 0.00 0.00 0.00 0.00 0.00 0.00 0.00 0.00 0.00 0.52 0.00 0.00 0.00 0.00 0.79 0.00 0.00 0.00 0.76 0.00 0.00 0.00 0.00 0.00
0.00 0.00 0.00 0.00 0.00 0.00 0.00 0.00 0.63 0.00 0.00 0.85 0.00 0.00 0.00 0.00 0.00 0.93 0.89 0.75 0.00 0.00 0.00 0.00 0.00 0.86 0.00 0.00 0.00 0.00 0.00 0.00 0.00 0.00 0.00 0.00 0.00 0.00 0.00 0.00 0.00 0.52 0.00 0.00 0.00 0.00 0.00 0.51 0.00 0.54 0.00 0.00 0.54 0.00 0.00 0.00 0.00 0.00 0.00 0.00 0.00 0.00 0.00 0.82 0.00 0.00 0.00 0.82 0.00 0.56 0.00 0.59 0.00 0.51 0.00 0.96 0.00 0.00 0.00 0.00 0.00 0.00 0.00 0.00 0.00 0.00 0.00 0.00 0.00 0.78 0.96 0.00 0.00 0.99 0.67 0.00 0.00 0.00 0.00 0.00 0.00 0.00 0.91 0.00 0.00 0.00 0.00 0.00 0.94 0.94 0.00 0.00 0.00 0.00 0.74 0.00 0.00 0.00 0.00 0.57 0.00 0.00 0.00 0.83 0.57 0.00 0.00 0.00 0.94 0.00 0.00 0.00 0.00 0.00 0.00 1.00 0.00 0.00 0.00 0.00
0.00 0.00 0.00 0.00 0.00 0.00 0.00 0.00 0.53 0.59 0.00 0.00 0.00 0.00 0.00 1.00 0.87 0.00 0.00 0.89 0.00 0.76 0.00 0.00 0.00 0.00 0.00 0.00 0.00 0.00 0.00 0.00 0.00 0.00 0.00 0.00 0.99 0.00 0.00 0.00 0.00 0.00 0.00 0.00 0.00 0.00 0.00 0.00 0.00 0.00 0.00 0.00 0.00 0.00 0.00 0.00 0.00 0.64 0.00 0.00 0.00 0.00 0.00 0.75 0.00 0.00 0.00 0.92 0.00 0.00 0.00 0.00 0.00 0.71 0.00 0.92 0.87 0.00 0.00 0.00 0.00 0.00 0.00 0.00 0.00 0.00 0.00 0.00 0.00 0.77 0.00 0.00 0.00 0.00 0.00 0.00 0.00 0.00 0.00 0.00 0.76 0.00 0.00 0.00 0.00 0.00 0.00 0.00 0.00 0.00 0.00 0.76 0.80 0.00 0.00 0.00 0.00 0.00 0.63 0.00 0.00 0.00 0.00 0.00 0.00 0.00 0.00 0.00 0.00 0.00 0.00 0.55 0.00 0.52 0.00 0.00 0.00 0.69 0.00 0.00
0.63 0.00 0.00 0.00 0.95 0.00 0.00 0.67 0.00 0.00 0.00 0.00 0.00 0.00 0.72 0.00 0.00 0.00 0.00 0.00 0.00 0.00 0.70 0.00 0.00 0.00 0.60 0.76 0.00 0.00 0.00 0.00 0.00 0.00 0.00 0.00 0.00 0.00 0.00 0.00 0.76 0.00 0.00 0.00 0.00 0.00 0.00 0.00 0.92 0.00 0.65 0.00 0.99 0.00 0.00 0.00 0.86 0.52 0.00 0.00 0.00 0.00 0.63 0.00 0.00 0.00 0.74 0.00 0.00 0.00 0.00 0.00 0.00 0.00 0.00 0.00 0.00 0.52 0.66 0.00 0.00 0.00 0.00 0.70 0.97 0.00 0.97 0.00 0.72 0.00 0.00 0.83 0.98 0.62 0.00 0.00 0.00 0.00 0.00 0.00 0.00 0.63 0.00 0.00 0.00 0.00 0.00 0.00 0.00 0.87 0.93 0.00 0.00 0.00 0.00 0.96 0.77 0.87 0.00 0.69 0.59 0.00 0.00 0.57 0.53 0.00 0.00 0.00 0.00 0.00 0.00 0.00 0.00 0.00 0.00 0.00 0.00 0.00 0.00 0.00
0.00 0.00 0.00 0.00 0.74 0.56 0.73 0.65 0.00 0.00 0.00 0.65 0.00 0.00 0.66 0.00 0.00 0.00 0.68 0.00 0.00 0.75 0.56 0.00 0.00 0.00 0.00 0.00 0.00 0.00 0.00 0.00 0.00 0.00 0.00 0.81 0.00 0.00 0.00 0.00 0.00 0.00 0.65 0.00 0.00 0.00 0.00 0.00 0.00 0.57 0.00 0.00 0.00 0.00 0.00 0.72 0.00 0.00 0.00 0.00 0.00 0.00 0.94 0.00 0.00 0.56 0.00 0.00 0.00 0.00 0.00 0.00 0.00 0.00 0.00 0.76 0.62 0.00 0.00 0.00 0.00 0.00 0.00 0.00 0.73 0.00 0.97 0.97 0.92 0.00 0.82 0.64 0.00 0.65 0.00 0.00 0.00 0.00 0.00 0.00 0.00 0.00 0.00 0.00 0.00 0.00 0.00 0.97 0.00 0.00 0.00 0.00 0.00 0.58 0.00 0.00 0.00 0.00 0.60 0.81 0.00 0.00 0.86 0.00 0.00 0.00 0.98 0.00 0.00 0.00 0.00 0.00 0.00 0.00 0.87 0.67 0.64 0.00 0.86 0.00
0.00 0.00 0.00 0.87 0.00 0.00 0.00 0.00 0.79 0.00 0.00 0.00 0.00 0.00 0.00 0.00 0.00 0.00 0.00 0.00 0.00 0.00 0.00 0.00 0.00 0.00 0.00 0.65 0.00 0.00 0.00 0.94 0.00 0.00 0.00 0.00 0.00 0.62 0.00 0.00 0.00 0.00 0.00 0.66 0.00 0.00 0.00 0.80 0.00 0.74 0.82 0.00 0.63 0.00 0.00 0.00 0.00 0.00 0.62 0.00 0.00 0.00 0.00 0.00 0.00 0.75 0.00 0.00 0.00 0.00 0.00 0.00 0.00 0.00 0.00 0.00 0.00 0.77 0.00 0.00 0.00 0.00 0.52 0.00 0.00 0.52 0.00 0.00 0.00 0.70 0.00 0.98 0.98 0.82 0.00 0.00 0.00 0.00 0.00 0.00 0.00 0.00 0.00 0.00 0.00 0.00 0.00 0.00 0.00 0.00 0.00 0.00 0.00 0.00 0.00 0.00 0.92 0.00 0.89 0.00 0.00 0.00 0.00 0.00 0.00 0.00 0.90 0.89 0.00 0.62 0.00 0.00 0.00 0.00 0.80 0.00 0.00 0.00 0.72 0.00
0.00 0.00 0.00 0.00 0.00 0.00 0.00 0.92 0.00 0.00 0.00 0.00 0.00 0.00 0.00 0.00 0.00 0.00 0.00 0.00 0.97 0.00 0.65 0.52 0.00 0.00 0.00 0.80 0.00 0.00 0.00 0.00 0.00 0.00 0.00 0.95 0.00 0.00 0.00 0.00 0.00 0.00 0.00 0.00 0.00 0.00 0.00 0.00 0.96 0.94 0.83 0.00 0.79 0.00 0.00 0.00 0.00 0.00 0.00 0.81 0.00 0.57 0.00 0.00 0.85 0.00 0.79 0.00 0.67 0.00 0.00 0.00 0.00 0.75 0.74 0.00 0.00 0.00 0.98 0.00 0.00 0.00 0.00 0.00 0.99 0.00 0.67 0.00 0.00 0.00 0.98 0.00 0.00 0.00 0.62 0.00 0.00 0.00 0.97 0.82 0.00 0.00 0.00 0.00 0.86 0.00 0.00 0.00 0.00 0.00 0.69 0.00 0.59 0.00 0.00 0.64 0.00 0.00 0.00 0.00 0.00 0.00 0.00 0.00 0.00 0.00 0.00 0.57 0.00 0.00 0.00 0.51 0.65 0.82 0.00 0.92 0.00 0.00 0.00 0.00
0.00 0.00 0.00 0.00 0.89 0.00 0.00 0.00 0.00 0.00 0.82 0.00 0.00 0.00 0.00 0.00 0.00 0.00 0.00 0.89 0.00 0.71 0.00 0.00 0.00 0.70 0.00 0.00 0.00 0.72 0.00 0.00 0.00 0.00 0.87 0.00 0.00 0.00 0.00 0.82 0.00 0.00 0.00 0.00 0.00 0.00 0.00 0.00 0.73 0.00 0.00 0.00 0.00 0.00 0.00 0.00 0.51 0.87 0.52 0.87 0.00 0.00 0.00 0.00 0.00 0.00 0.59 0.00 0.00 0.00 0.00 0.00 0.00 0.00 0.00 0.00 0.00 0.00 0.00 0.00 0.00 0.00 0.00 0.00 0.77 0.65 0.00 0.61 0.00 0.00 1.00 0.00 0.00 0.00 0.00 0.00 0.00 0.89 0.00 0.00 0.00 0.00 0.00 0.00 0.00 0.00 0.57 0.00 0.00 0.72 0.00 0.00 0.00 0.00 0.00 0.00 0.00 0.00 0.00 0.00 0.00 0.00 0.00 0.91 0.00 0.00 0.00 0.00 0.00 0.94 0.81 0.00 0.81 0.00 0.00 0.00 0.00 0.00 0.74 0.00
0.53 0.00 0.00 0.00 0.00 0.00 0.00 0.65 0.00 0.97 0.98 0.00 0.00 0.00 0.56 0.00 0.00 0.00 0.00 0.00 0.00 0.00 0.00 0.00 0.00 0.00 0.00 0.00 0.93 0.00 0.00 0.00 0.00 0.95 0.00 0.00 0.00 0.00 0.00 0.54 0.00 0.71 0.73 0.00 0.00 0.00 0.59 0.00 0.00 0.00 0.00 0.00 0.00 0.62 0.89 0.00 0.00 0.00 0.00 0.00 0.73 0.00 0.00 0.00 0.00 0.00 0.58 0.71 0.00 0.00 0.00 0.00 0.00 0.00 0.00 0.00 0.76 0.00 0.72 0.00 0.00 0.00 0.73 0.55 0.95 0.00 0.00 0.00 0.00 0.92 0.00 0.72 0.00 0.00 0.74 0.64 0.59 0.00 0.97 0.00 0.00 0.00 0.64 0.00 0.00 0.00 0.00 0.00 0.00 0.72 0.00 0.00 0.00 0.00 0.94 0.00 0.00 0.56 0.00 0.00 0.00 0.00 0.00 0.00 0.00 0.80 0.78 0.71 0.81 0.00 0.00 0.00 0.00 0.00 0.70 0.00 0.00 0.00 0.00 0.00
0.75 0.93 0.00 0.93 0.65 0.59 0.00 0.00 0.74 0.00 0.00 0.00 0.00 0.00 0.00 0.00 0.00 0.81 0.00 0.00 0.00 0.50 0.00 0.00 0.54 0.54 0.00 0.69 0.00 0.00 0.00 0.00 0.00 0.00 0.00 0.85 0.00 0.00 0.00 0.00 0.00 0.00 0.00 0.68 0.00 0.64 0.00 0.53 0.00 0.00 0.00 0.00 0.00 0.00 0.00 0.00 0.00 0.00 0.00 0.52 0.73 0.90 0.00 0.00 0.00 0.00 0.00 0.00 0.62 0.00 0.00 0.00 0.00 0.00 0.00 0.63 0.00 0.00 0.00 0.00 0.00 0.89 0.00 0.71 0.85 0.00 0.80 0.00 0.57 0.00 0.00 0.71 0.00 0.00 0.78 0.00 0.00 0.00 0.00 0.00 0.00 0.00 0.99 0.00 0.00 0.00 0.00 0.00 0.00 0.00 0.00 0.80 0.00 0.94 0.00 0.00 0.64 0.00 0.00 0.00 0.00 0.00 0.00 0.00 0.00 0.00 0.00 0.58 0.00 0.00 0.00 0.93 0.00 0.79 0.00 0.00 0.00 0.00 0.00 0.00
0.00 0.00 0.76 0.00 0.00 0.00 0.00 0.00 0.00 0.00 0.77 0.00 0.50 0.00 0.00 0.00 0.00 0.00 0.00 0.00 0.00 0.00 0.00 0.00 0.00 0.00 0.00 0.00 0.00 0.00 0.00 0.00 0.94 0.00 0.00 0.00 0.52 0.00 0.00 0.00 0.00 0.00 0.00 0.00 0.88 0.00 0.00 0.00 0.79 0.79 0.00 0.00 0.00 0.00 0.00 0.00 0.00 0.70 0.99 0.00 0.83 0.00 0.00 0.00 0.00 0.00 0.00 0.00 0.00 0.00 0.58 0.00 0.00 0.64 0.00 0.00 0.00 0.99 0.00 0.00 0.00 0.00 0.99 0.00 0.71 0.00 0.00 0.00 0.71 0.88 0.98 0.00 0.00 0.76 0.00 0.92 0.67 0.00 0.00 0.00 0.00 0.00 0.00 0.00 0.70 0.77 0.00 0.53 0.58 0.00 0.00 0.00 0.00 0.00 0.00 0.00 0.00 0.00 0.00 0.00 0.00 0.00 0.57 0.00 0.97 0.00 0.00 0.00 0.00 0.51 0.00 0.93 0.00 0.50 0.00 0.00 0.00 0.00 0.00 0.91
0.00 0.00 0.51 0.69 0.00 0.00 0.00 0.00 0.00 0.00 0.71 0.00 0.65 0.55 0.00 0.61 0.00 0.00 0.00 0.98 0.00 0.00 0.00 0.00 0.00 0.00 0.51 0.00 0.00 0.67 0.73 0.00 0.00 0.00 0.00 0.79 0.00 0.00 0.00 0.89 0.00 0.00 0.00 0.52 0.00 0.00 0.95 0.00 0.60 0.00 0.00 0.60 0.00 0.00 0.00 0.60 0.00 0.00 0.00 0.92 0.00 0.74 0.71 0.00 0.00 0.00 0.94 0.96 0.00 0.71 0.00 0.66 0.00 0.00 0.00 0.67 0.00 0.00 0.00 0.00 0.00 0.00 0.55 0.00 0.00 0.00 0.00 0.00 0.00 0.00 0.00 0.00 0.00 0.00 0.00 0.00 0.00 0.51 0.71 0.60 0.00 0.00 0.00 0.00 0.00 0.00 0.66 0.00 0.62 0.00 0.00 0.00 0.00 0.91 0.00 0.00 0.00 0.00 0.00 0.00 0.00 0.00 0.00 0.00 0.00 0.00 0.00 0.00 0.00 0.00 0.00 0.00 0.00 0.00 0.00 0.56 0.00 0.00 0.00 0.00
0.00 0.75 0.00 0.69 0.00 0.00 0.00 0.00 0.00 0.90 0.73 0.00 0.00 0.00 0.00 0.00 0.00 0.00 0.72 0.00 0.00 0.96 0.00 0.00 0.00 0.00 0.77 0.00 0.00 0.00 0.97 0.00 0.83 0.00 0.00 0.00 0.87 0.00 0.00 0.00 0.63 0.00 0.60 0.00 0.00 0.00 0.00 0.83 0.00 0.00 0.00 0.00 0.54 0.00 0.00 0.96 0.00 0.00 0.00 0.00 0.00 0.00 0.00 0.00 0.00 0.00 0.00 0.00 0.00 0.00 0.00 0.00 0.00 0.00 0.00 0.00 0.76 0.00 0.00 0.86 0.84 0.00 0.00 0.00 0.00 0.98 0.00 0.00 0.00 0.85 0.00 0.00 0.00 0.00 0.00 0.60 0.00 0.00 0.00 0.00 0.00 0.00 0.64 0.93 0.00 0.00 0.00 0.00 0.83 0.00 0.00 0.00 0.00 0.00 0.00 0.00 0.00 0.00 0.00 0.00 0.00 0.00 0.00 0.59 0.00 0.00 0.00 0.00 0.00 0.00 0.00 0.00 0.00 0.00 0.00 0.85 0.97 0.00 0.00 0.00
0.00 0.00 0.00 0.00 0.00 0.00 0.74 0.00 0.00 0.00 0.00 0.00 0.00 0.00 0.98 0.00 0.98 0.00 0.00 0.52 0.00 0.00 0.00 0.00 0.00 0.00 0.88 0.00 0.56 0.00 0.00 0.00 0.00 0.00 0.00 0.00 0.00 0.00 0.00 0.52 0.68 0.00 0.00 0.55 0.00 0.64 0.00 0.00 0.00 0.00 0.00 0.00 0.00 0.00 0.54 0.00 0.00 0.00 0.83 0.00 0.00 0.98 0.00 0.00 0.00 0.00 0.00 0.00 0.00 0.00 0.00 0.00 0.00 0.63 0.00 0.00 0.00 0.00 0.61 0.00 0.69 0.82 0.00 0.00 0.00 0.00 0.00 0.00 0.00 0.00 0.53 0.00 0.77 0.00 0.00 0.00 0.00 0.00 0.00 0.00 0.00 0.00 0.54 0.00 0.83 0.97 0.00 0.95 0.76 0.00 0.78 0.00 0.00 0.50 0.00 0.00 0.83 0.00 0.00 0.72 0.00 0.00 0.00 0.00 0.68 0.00 0.00 0.00 0.00 0.00 0.00 0.00 0.79 0.63 0.99 0.00 0.00 0.00 0.00 0.00
0.00 0.00 0.00 0.00 0.00 0.00 0.00 0.00 0.00 0.00 0.00 0.00 0.00 0.55 0.00 0.00 0.00 0.00 0.00 0.00 0.74 0.52 0.70 0.00 0.00 0.00 0.00 0.88 0.00 0.00 0.88 0.70 0.83 0.00 0.00 0.73 0.69 0.84 0.00 0.00 0.00 0.00 0.00 0.54 0.00 0.00 0.00 0.00 0.00 0.00 0.00 0.00 0.00 0.00 0.00 0.00 0.00 0.00 0.00 0.00 0.76 0.94 0.00 0.00 0.72 0.00 0.00 0.00 0.00 0.00 0.00 0.00 0.00 0.00 0.00 0.00 0.00 0.00 0.00 0.00 0.00 0.00 0.87 0.00 0.00 0.91 0.00 0.00 0.00 0.00 0.00 0.00 0.84 0.70 0.00 0.00 0.73 0.00 0.00 0.00 0.00 0.00 0.00 0.00 0.84 0.72 0.00 0.90 0.00 0.54 0.00 0.00 0.00 0.00 0.62 0.87 0.00 0.00 0.00 0.00 0.00 0.00 0.00 0.00 0.00 0.59 0.00 0.00 0.00 0.00 0.00 0.61 0.00 0.00 0.00 0.00 0.00 0.00 0.00 0.00
0.00 0.00 0.00 0.00 0.67 0.84 0.71 0.00 0.00 0.00 0.00 0.00 0.52 0.00 0.00 0.00 0.64 0.00 0.00 0.00 0.00 0.00 0.94 0.85 0.00 0.00 0.00 0.00 0.00 0.00 0.00 0.00 0.52 0.00 0.00 0.00 0.00 0.00 0.61 0.00 0.00 0.00 0.00 0.00 0.72 0.00 0.00 0.63 0.00 0.66 0.92 0.00 0.00 0.00 0.00 0.71 0.00 0.00 0.00 0.00 0.00 0.78 0.00 0.00 0.00 0.00 0.00 0.00 0.00 0.00 0.00 0.00 0.00 0.65 0.00 0.00 0.00 0.00 0.00 0.00 0.00 0.75 0.00 0.00 0.58 0.00 0.00 0.00 0.00 0.00 0.00 0.00 0.74 0.00 0.00 0.88 0.00 0.00 0.00 0.00 0.00 0.00 0.00 0.00 0.00 0.00 0.00 0.00 0.00 0.00 0.00 0.00 0.00 0.73 0.00 0.00 0.00 0.00 0.00 0.59 0.00 0.61 0.00 0.00 0.00 0.89 0.00 0.00 0.00 0.00 0.71 0.92 0.80 0.00 0.00 0.00 0.00 0.00 0.00 0.00
0.00 0.00 0.00 0.76 0.00 0.00 0.00 0.00 0.84 0.00 0.00 0.00 0.86 0.00 0.00 0.00 0.00 0.00 0.62 0.00 0.00 0.00 0.67 0.00 0.00 0.93 0.00 0.00 0.00 0.00 0.66 0.67 0.00 0.00 0.00 0.00 0.00 0.00 0.00 0.00 0.00 0.00 0.66 0.00 0.00 0.82 0.00 0.00 0.00 0.58 0.00 0.74 0.00 0.00 0.00 0.00 0.00 0.00 0.00 0.00 0.00 0.00 0.86 0.00 0.00 0.00 0.00 0.00 0.00 0.00 0.89 0.00 0.00 0.55 0.00 0.00 0.00 0.00 0.90 0.00 0.00 0.00 0.00 0.00 0.00 0.75 0.99 0.93 0.00 0.00 0.00 0.00 0.68 0.00 0.00 0.59 0.00 0.00 0.00 0.98 0.00 0.00 0.00 0.00 0.00 0.00 0.00 1.00 0.00 0.00 0.00 0.00 0.00 0.00 0.67 0.54 0.00 0.00 0.00 0.00 0.00 0.83 0.00 0.00 0.00 0.00 0.94 0.00 0.00 0.85 0.58 0.00 0.95 0.00 0.00 0.00 0.75 0.00 0.00 0.00
0.00 0.00 0.00 0.61 0.00 0.00 0.00 0.00 0.00 0.00 0.00 0.00 0.00 0.00 0.00 0.00 0.00 0.64 0.00 0.00 0.00 0.00 0.00 0.00 0.00 0.00 0.00 0.00 0.00 0.00 0.00 0.00 0.00 0.00 0.00 0.51 0.00 0.00 0.55 0.76 0.00 0.54 0.00 0.82 0.00 0.00 0.00 0.00 0.00 0.82 0.00 0.00 0.00 0.75 0.00 0.00 0.00 0.00 0.00 0.00 0.00 0.00 0.00 0.00 0.90 0.00 0.00 0.96 0.57 0.77 0.00 0.00 0.00 0.00 0.00 0.00 0.00 0.00 0.95 0.00 0.00 0.00 0.75 0.00 0.00 0.00 0.00 0.70 0.00 0.00 0.00 0.00 0.00 0.00 0.00 0.77 0.00 0.79 0.98 0.91 0.00 0.00 0.00 0.69 0.57 0.00 0.00 0.56 0.00 0.00 0.87 0.00 0.00 0.00 0.00 0.79 0.87 0.00 0.67 0.00 0.00 0.00 0.00 0.00 0.00 0.00 0.00 0.93 0.00 0.00 0.00 0.00 0.00 0.00 0.00 0.00 0.00 0.00 0.98 0.52
0.00 0.83 0.00 0.00 0.00 0.00 0.55 0.57 0.00 0.88 0.73 0.00 0.00 0.00 0.00 0.00 0.00 0.75 0.00 0.00 0.00 0.00 0.00 0.00 0.90 0.00 0.00 0.73 0.63 0.00 0.00 0.00 0.00 0.00 0.00 0.00 0.00 0.00 0.00 0.00 0.00 0.00 0.90 0.00 0.00 0.83 0.53 0.00 0.00 0.99 0.00 0.81 0.76 0.00 0.00 0.00 0.00 0.00 0.00 0.00 0.00 0.00 0.00 0.00 0.00 0.63 0.00 0.00 0.00 0.00 0.00 0.00 0.00 0.00 0.00 0.00 0.00 0.00 0.00 0.00 0.00 0.00 0.00 0.62 0.00 0.57 0.00 0.00 0.00 0.00 0.00 0.00 0.00 0.75 0.67 0.00 0.73 0.00 0.00 0.00 0.00 0.00 0.00 0.77 0.00 0.79 0.00 0.89 0.00 0.00 0.00 0.00 0.00 0.00 0.00 0.00 0.78 0.00 0.57 0.00 0.00 0.00 0.00 0.00 0.00 0.90 0.00 0.00 0.00 0.00 0.00 0.89 0.00 0.00 0.00 0.00 0.00 0.00 0.00 0.00
0.00 0.00 0.00 0.93 0.00 0.00 0.64 0.00 0.00 0.00 0.00 0.00 0.00 0.00 0.00 0.90 0.00 0.00 0.88 0.00 0.82 0.00 0.00 0.00 0.00 0.70 0.00 0.00 0.00 0.00 0.75 0.00 0.00 0.00 0.00 0.00 0.00 0.00 0.00 0.00 0.76 0.00 0.00 0.00 0.00 0.00 0.00 0.00 0.72 0.00 0.00 0.00 0.58 0.00 0.00 0.00 0.00 0.00 0.00 0.93 0.00 0.66 0.00 0.00 0.00 0.00 0.00 0.00 0.00 0.81 0.00 0.00 0.00 0.71 0.00 0.63 0.00 0.93 0.00 0.00 0.00 0.00 0.00 0.00 0.00 0.89 0.00 0.00 0.00 0.00 0.81 0.65 0.00 0.00 0.00 0.00 0.00 0.00 0.60 0.00 0.00 0.00 0.00 0.00 0.00 0.00 0.00 0.00 0.00 0.00 0.69 0.00 0.00 0.00 0.00 0.00 0.60 0.00 0.00 0.00 0.00 0.00 0.00 0.73 0.00 0.00 0.00 0.00 0.00 0.86 0.00 0.00 0.00 0.83 0.00 0.00 0.00 0.00 0.86 0.00
0.90 0.00 0.00 0.60 0.00 0.00 0.00 0.00 0.58 0.00 0.52 0.00 0.00 0.00 0.00 0.76 0.00 0.00 0.00 0.00 0.00 0.00 0.00 0.00 0.00 0.00 0.00 0.00 0.72 0.69 0.63 0.00 0.60 0.78 0.00 0.97 0.86 0.00 0.99 0.00 0.00 0.00 0.00 0.72 0.00 0.00 0.00 0.58 0.00 0.00 0.00 0.00 0.00 0.00 0.00 0.00 0.70 0.00 0.82 0.00 0.56 0.00 0.00 0.00 0.61 0.00 0.00 0.00 0.00 0.00 0.00 0.00 0.00 0.00 0.80 0.00 0.00 0.00 0.00 0.00 0.00 0.00 0.00 0.00 0.00 0.00 0.70 0.00 0.88 0.78 0.81 0.98 0.00 0.00 0.00 0.00 0.00 0.00 0.00 0.00 0.00 0.00 0.00 0.00 0.57 0.50 0.00 0.00 0.00 0.00 0.56 0.85 0.00 0.00 0.00 0.00 0.54 0.00 0.00 0.00 0.00 0.00 0.00 0.63 0.55 0.00 0.00 0.00 0.00 0.68 0.00 0.00 0.61 0.00 0.00 0.00 0.00 0.00 0.00 0.00
0.00 0.00 0.00 0.00 0.00 0.59 0.00 0.00 0.00 0.00 0.69 0.00 0.00 0.00 0.00 0.00 0.97 0.00 0.00 0.00 0.58 0.00 0.00 0.76 0.00 0.00 0.00 0.00 0.00 0.76 0.84 0.00 0.00 0.00 0.00 0.00 0.00 0.00 0.00 0.00 0.00 0.00 0.76 0.00 0.84 0.00 0.00 0.79 0.00 0.00 0.00 0.00 0.72 0.00 0.00 0.79 0.00 0.89 0.00 0.00 0.00 0.75 0.51 0.00 0.68 0.00 0.00 0.00 0.00 0.00 0.00 0.00 0.00 0.00 0.00 0.66 0.00 0.00 0.67 0.00 0.00 0.73 0.00 0.90 0.00 0.00 0.00 0.00 0.00 0.00 0.00 0.00 0.00 0.00 0.00 0.00 0.00 0.00 0.00 0.00 0.00 0.73 0.00 0.00 0.00 0.63 0.00 0.00 0.00 0.87 0.00 0.00 0.00 0.00 0.65 0.00 0.67 0.00 0.00 0.00 0.00 0.00 0.65 0.00 0.00 0.00 0.00 0.00 0.74 0.67 0.88 0.00 0.00 0.00 0.00 0.00 0.00 0.00 0.00 0.00
0.00 0.72 0.00 0.00 0.97 0.00 0.92 0.00 0.00 0.00 0.00 0.00 0.00 0.77 0.00 0.00 0.00 0.00 0.00 0.77 0.65 0.00 0.00 0.00 0.00 0.00 0.00 0.00 0.00 0.00 0.00 0.00 0.00 0.00 0.00 0.00 0.00 0.00 0.00 0.00 0.00 0.98 0.54 0.00 0.00 0.00 0.00 0.00 0.00 0.00 0.00 0.00 0.00 0.00 0.00 0.00 0.00 0.73 0.00 0.00 0.00 0.00 0.00 0.68 0.00 0.00 0.00 0.00 0.00 0.00 0.00 0.00 0.93 0.00 0.00 0.57 0.66 0.00 0.00 0.70 0.67 0.00 0.68 0.00 0.00 0.80 0.55 0.00 0.64 0.00 0.00 0.00 0.75 0.00 0.00 0.00 0.78 0.00 0.59 0.00 0.74 0.00 0.00 0.00 0.00 0.00 0.00 0.71 0.00 0.00 0.00 0.53 0.73 0.00 0.65 0.55 0.00 0.58 0.00 0.00 0.69 0.51 0.00 0.00 0.00 0.73 0.00 0.00 0.00 0.00 0.00 0.00 0.00 0.00 0.00 0.00 0.00 0.00 0.70 0.00
0.00 0.84 0.00 0.00 0.00 0.00 0.00 0.00 0.00 0.00 0.62 0.00 0.00 0.00 0.97 0.00 0.00 0.83 0.00 0.00 0.64 0.00 0.00 0.00 0.00 0.00 0.00 0.00 0.00 0.00 0.00 0.00 0.00 0.80 0.00 0.87 0.00 0.00 0.00 0.00 0.00 0.00 0.00 0.00 0.00 0.00 0.71 0.00 0.53 0.00 0.00 0.00 0.00 0.00 0.84 0.73 0.00 0.00 0.00 0.00 0.00 0.00 0.00 0.00 0.74 0.87 0.00 0.00 0.00 0.00 0.52 0.84 0.00 0.00 0.00 0.00 0.00 0.00 0.00 0.51 0.62 0.00 0.59 0.00 0.00 0.00 0.65 0.00 0.00 0.00 0.00 0.58 0.00 0.00 0.00 0.52 0.00 0.00 0.00 0.00 0.00 0.00 0.00 0.00 0.00 0.00 0.00 0.00 0.60 0.51 0.00 0.79 0.00 0.00 0.51 0.00 0.00 0.79 0.00 0.00 0.59 0.00 0.00 0.00 0.00 0.00 0.00 0.00 0.00 0.00 0.00 0.00 0.96 0.00 0.00 0.59 0.00 0.00 0.00 0.00
0.00 0.00 0.00 0.00 0.00 0.00 0.00 0.00 0.00 0.87 0.71 0.79 0.00 0.00 0.00 0.00 0.88 0.00 0.00 0.00 0.00 0.00 0.00 0.59 0.60 0.73 0.00 0.00 0.00 0.00 0.00 0.00 0.00 0.92 0.00 0.00 0.00 0.00 0.00 0.00 0.00 0.00 0.00 0.00 0.00 0.00 0.00 0.00 0.00 0.00 0.55 0.00 0.00 0.00 0.75 0.65 0.00 0.91 0.72 0.00 0.00 0.57 0.00 0.00 0.00 0.00 0.91 0.92 0.00 0.00 0.00 0.00 0.00 0.00 0.00 0.56 0.00 0.00 0.00 0.00 0.00 0.00 0.84 0.80 0.87 0.00 0.00 0.71 0.00 0.00 0.73 0.00 0.00 0.00 0.00 0.99 0.00 0.90 0.00 0.00 0.00 0.00 0.00 0.93 0.00 0.00 0.00 0.00 0.00 0.76 0.00 0.70 0.00 0.00 0.00 0.00 0.00 0.00 0.00 0.00 0.00 0.00 0.00 0.86 0.00 0.00 0.00 0.00 0.00 0.00 0.00 0.00 0.00 0.86 0.00 0.00 0.68 0.00 0.00 0.00
0.00 0.00 0.80 0.00 0.00 0.00 0.00 0.00 0.00 0.00 0.00 0.00 0.00 0.00 0.72 0.00 0.00 0.00 0.00 0.00 0.00 0.00 0.00 0.00 0.00 0.00 0.00 0.00 0.00 0.00 0.00 0.00 0.00 0.00 0.00 0.87 0.00 0.00 0.60 0.00 0.00 0.00 0.00 0.00 0.74 0.00 0.78 0.95 0.00 0.71 0.79 0.94 0.00 0.00 0.71 0.00 0.00 0.95 0.00 0.00 0.62 0.00 0.81 0.84 0.00 0.55 0.95 0.00 0.00 0.00 0.00 0.74 0.00 0.00 0.59 0.00 0.00 0.00 0.87 0.00 0.00 0.62 0.00 0.63 0.00 0.00 0.61 0.95 0.00 0.00 0.91 0.00 0.84 0.00 0.00 0.00 0.00 0.00 0.00 0.00 0.00 0.00 0.00 0.56 0.83 0.00 0.79 0.00 0.00 0.97 0.91 0.79 0.00 0.00 0.00 0.00 0.00 0.00 0.87 0.00 0.00 0.00 0.00 0.00 0.00 0.84 0.00 0.62 0.00 0.00 0.00 0.00 0.00 0.00 0.00 0.00 0.00 0.82 0.00 0.00
0.00 0.00 0.00 0.00 0.82 0.00 0.00 0.54 0.00 0.00 0.00 0.00 0.00 0.00 0.00 0.00 0.00 0.00 0.00 0.00 0.00 0.88 0.00 0.95 0.00 0.00 0.00 0.00 0.00 0.00 0.00 0.00 0.00 0.00 0.00 0.00 0.00 0.00 0.00 0.00 0.00 0.00 0.00 0.00 0.00 0.00 0.82 0.00 0.50 0.78 0.00 0.00 0.00 0.63 0.00 0.55 0.74 0.00 0.00 0.00 0.51 0.00 0.00 0.66 0.00 0.00 0.57 0.00 0.00 0.00 0.00 0.72 0.00 0.00 0.00 0.65 0.00 0.00 0.00 0.00 0.00 0.00 0.00 0.00 0.00 0.80 0.00 0.00 0.00 0.00 0.00 0.00 0.00 0.00 0.00 0.77 0.00 0.00 0.00 0.00 0.00 0.00 0.89 0.00 0.00 0.00 0.80 0.00 0.00 0.00 0.94 0.00 0.62 0.00 0.00 0.54 0.63 0.00 0.00 0.97 0.00 0.00 0.90 0.00 0.00 0.53 0.79 0.00 0.00 0.98 0.00 0.00 0.00 0.00 0.00 0.00 0.00 0.63 0.00 0.00
0.00 0.00 0.71 0.00 0.00 0.00 0.00 0.00 0.00 0.60 0.69 0.00 0.00 0.00 0.61 0.60 0.00 0.00 0.00 0.00 0.53 0.70 0.91 0.00 0.00 0.00 0.00 0.72 0.00 0.00 0.00 0.95 0.00 0.72 0.00 0.99 0.00 0.00 0.00 0.00 0.92 0.00 0.00 0.00 0.00 0.00 0.00 0.00 0.00 0.00 0.00 0.00 0.00 0.00 0.96 0.86 0.64 0.70 0.68 0.00 0.00 0.00 0.00 0.00 0.81 0.00 0.00 0.93 0.00 0.00 0.00 0.00 0.00 0.00 0.00 0.00 0.00 0.60 0.50 0.85 0.00 0.00 0.00 0.00 0.00 0.00 0.00 0.00 0.00 0.00 0.00 0.00 0.00 0.00 0.00 0.00 0.87 0.00 0.80 0.00 0.00 0.00 0.00 0.00 0.00 0.00 0.00 0.00 0.85 0.00 0.82 0.00 0.00 0.00 0.86 0.00 0.00 0.00 0.00 0.00 0.81 0.00 0.00 0.93 0.00 0.90 0.00 0.00 0.00 0.00 0.00 0.00 0.72 0.00 0.64 0.00 0.91 0.00 0.00 0.00
0.00 0.00 0.69 0.80 0.00 0.00 0.00 0.00 0.00 0.59 0.56 0.00 0.00 0.00 0.00 0.55 0.82 0.00 0.00 0.00 0.00 0.00 0.00 0.00 0.00 0.63 0.00 0.00 0.64 0.00 0.00 0.00 0.00 0.00 0.51 0.00 0.59 0.00 0.00 0.00 0.00 0.00 0.00 0.63 0.00 0.00 0.00 0.00 0.00 0.92 0.00 0.00 0.00 0.00 0.57 0.00 0.00 0.00 0.00 0.59 0.00 0.00 0.00 0.00 0.00 0.00 0.00 0.00 0.00 0.00 0.00 0.00 0.00 0.00 0.00 0.00 0.79 0.00 0.00 0.00 0.00 0.00 0.00 0.00 0.00 0.80 0.94 0.00 0.00 0.81 0.00 0.81 0.00 0.00 0.00 0.00 0.00 0.91 0.00 0.00 0.65 0.51 0.69 0.00 0.00 0.77 0.69 0.00 0.00 0.00 0.00 0.52 0.00 0.00 0.00 0.65 0.00 0.55 0.73 0.00 0.00 0.91 0.00 0.00 0.00 0.00 0.00 0.00 0.00 0.00 0.00 0.00 0.00 0.00 0.00 0.00 0.00 0.00 0.00 0.00
0.00 0.00 0.00 0.78 0.00 0.78 0.00 0.00 0.00 0.79 0.86 0.64 0.00 0.61 0.00 0.51 0.80 0.00 0.00 0.00 0.00 0.76 0.59 0.00 0.00 0.00 0.00 0.00 0.00 0.00 0.00 0.00 0.00 0.00 0.00 0.00 0.00 0.00 0.82 0.66 0.00 0.00 0.84 0.00 0.96 0.00 0.00 0.00 0.00 0.92 0.00 0.70 0.52 0.00 0.00 0.00 0.00 0.00 0.54 0.00 0.00 0.80 0.00 0.00 0.68 0.00 0.00 0.00 0.63 0.00 0.00 0.00 0.00 0.83 0.00 0.00 0.00 0.00 0.00 0.00 0.00 0.00 0.00 0.00 0.92 0.86 0.00 0.00 0.00 0.60 0.00 0.83 0.00 0.78 0.00 0.00 0.00 0.00 0.00 0.00 0.00 0.00 0.00 0.00 0.00 0.00 0.00 0.00 0.00 0.80 0.00 0.00 0.00 0.00 0.00 0.00 0.00 0.00 0.00 0.00 0.00 0.00 0.00 0.00 0.78 0.00 0.50 0.00 0.50 0.00 0.56 0.00 0.00 0.00 0.00 0.00 0.00 0.00 0.00 0.00
0.61 0.71 0.00 0.81 0.00 0.00 0.00 0.00 0.00 0.00 0.00 0.00 0.00 0.00 0.00 0.00 0.00 0.00 0.65 0.00 0.00 0.00 0.00 0.71 0.00 0.00 0.00 0.00 0.00 0.00 0.00 0.00 0.00 0.00 0.67 0.00 0.59 0.99 0.00 0.00 0.00 0.00 0.00 0.00 0.91 0.64 0.00 0.00 0.73 0.00 0.00 0.00 0.00 0.00 0.00 0.00 0.00 0.00 0.00 0.00 0.00 0.00 0.00 0.00 0.00 0.58 0.00 0.00 0.00 0.88 0.00 0.00 0.00 0.00 0.00 0.00 0.00 0.00 0.00 0.00 0.00 0.00 0.00 0.81 0.00 0.00 0.62 0.00 0.00 0.00 0.55 0.00 0.86 0.00 0.00 0.00 0.00 0.00 0.00 0.00 0.00 0.00 0.00 0.00 0.00 0.00 0.00 0.85 0.00 0.00 0.00 0.00 0.00 0.00 0.00 0.00 0.00 0.00 0.00 0.99 0.84 0.00 0.00 0.00 0.00 0.00 0.00 0.00 0.97 0.00 0.62 0.00 0.00 0.53 0.00 0.00 0.00 0.85 0.00 0.00
0.00 0.99 0.00 0.00 0.00 0.86 0.00 0.00 0.00 0.00 0.85 0.00 0.00 0.54 0.00 0.92 0.00 0.64 0.52 0.00 0.00 0.75 0.00 0.00 0.00 0.76 0.00 0.00 0.81 0.89 0.00 0.00 0.00 0.00 0.00 0.00 0.00 0.00 0.00 0.96 0.00 0.00 0.00 0.77 0.00 0.00 0.00 0.00 0.00 0.00 0.00 0.75 0.58 0.54 0.00 0.00 0.00 0.00 0.00 0.68 0.00 0.00 0.00 0.00 0.00 0.00 0.00 0.00 0.00 0.00 0.00 0.00 0.00 0.00 0.74 0.00 0.00 0.00 0.70 0.62 0.00 0.00 0.00 0.00 0.00 0.74 0.00 0.00 0.00 0.00 0.00 0.00 0.00 0.00 0.00 0.56 0.00 0.70 0.00 0.00 0.61 0.81 0.00 0.00 0.00 0.00 0.00 0.00 0.00 0.00 0.00 0.00 0.89 0.00 0.00 0.00 0.00 0.00 0.57 0.00 0.00 0.00 0.00 0.00 0.00 0.00 0.74 0.00 0.00 0.00 0.00 0.00 0.58 0.00 0.00 0.00 0.00 0.00 0.00 0.00
0.00 0.00 0.00 0.92 0.00 0.00 0.00 0.94 0.00 0.00 0.00 0.66 0.78 0.00 0.00 0.00 0.00 0.00 0.00 0.56 0.00 0.00 0.00 0.00 0.00 0.00 0.00 0.00 0.00 0.73 0.00 0.00 0.93 0.00 0.00 0.00 0.00 0.00 0.00 0.00 0.71 0.00 0.00 0.00 0.00 0.97 0.00 0.61 0.00 0.00 0.00 0.81 0.84 0.00 0.00 0.96 0.00 0.00 0.57 0.00 0.00 0.00 0.00 0.71 0.00 0.00 0.66 0.00 0.00 0.00 0.00 0.76 0.00 0.00 0.00 0.00 0.00 0.00 0.97 0.91 0.00 0.53 0.00 0.00 0.00 0.00 0.00 0.00 0.70 0.95 0.00 0.00 0.00 0.00 0.88 0.00 0.00 0.97 0.59 0.50 0.00 0.78 0.00 0.00 0.00 0.00 0.95 0.00 0.00 0.00 0.00 0.00 0.00 0.77 0.00 0.00 0.00 0.00 0.61 0.00 0.00 0.00 0.00 0.53 0.00 0.00 0.00 0.00 0.00 0.00 0.00 0.00 0.00 0.53 0.00 0.00 0.00 0.00 0.00 0.00
0.00 0.00 0.00 0.00 0.00 0.00 0.69 0.00 0.64 0.00 0.72 0.00 0.00 0.00 0.00 0.00 0.00 0.00 0.00 0.00 0.00 0.00 0.75 0.00 0.00 0.00 0.00 0.00 0.00 0.00 0.00 0.62 0.00 0.00 0.00 0.00 0.00 0.00 0.00 0.00 0.00 0.52 0.00 0.71 0.00 0.00 0.00 0.00 0.00 0.00 0.00 0.00 0.00 0.00 0.00 0.00 0.00 0.82 0.00 0.96 0.00 0.00 0.00 0.00 0.60 0.85 0.00 0.00 0.68 0.00 0.00 0.00 0.00 0.00 0.52 0.70 0.00 0.71 0.64 0.00 0.00 0.00 0.85 0.00 0.00 0.00 0.00 0.00 0.68 0.00 0.00 0.00 0.00 0.00 0.00 0.00 0.80 0.00 0.00 0.00 0.00 0.00 0.00 0.00 0.78 0.00 0.00 0.00 0.00 0.87 0.94 0.00 0.00 0.00 0.00 0.00 0.00 0.00 0.00 0.00 0.00 0.00 0.00 0.00 0.00 0.00 0.00 0.00 0.65 0.00 0.00 0.00 0.00 0.00 0.00 0.00 0.00 0.00 0.00 0.00
0.81 0.00 0.93 0.00 0.00 0.00 0.00 0.00 0.00 0.73 0.71 0.00 0.00 0.00 0.00 0.99 0.00 0.00 0.00 0.00 0.00 0.00 0.57 0.00 0.00 0.00 0.00 0.00 0.00 0.91 0.00 0.00 0.00 0.00 0.00 0.00 0.00 0.00 0.00 0.00 0.63 0.00 0.00 0.00 0.00 0.00 0.00 0.00 0.00 0.00 0.00 0.00 0.00 0.00 0.00 0.00 0.00 0.00 0.74 0.00 0.00 0.00 0.00 0.00 0.00 0.00 0.00 0.00 0.00 0.76 0.94 0.00 0.00 0.00 0.00 0.00 0.00 0.00 0.00 0.00 0.00 0.00 0.00 0.00 0.00 0.00 0.00 0.00 0.88 0.64 0.00 0.00 0.00 0.00 0.00 0.55 0.00 0.00 0.95 0.00 0.00 0.76 0.00 0.00 0.00 0.82 0.84 0.00 0.00 0.00 0.00 0.00 0.00 0.00 0.00 0.00 0.00 0.00 0.60 0.00 0.00 0.00 0.00 0.74 0.00 0.00 0.86 0.00 0.50 0.54 0.68 0.00 0.00 0.00 0.00 0.00 0.00 0.00 0.96 0.68
0.00 0.00 0.79 0.00 0.00 0.00 0.00 0.00 0.00 0.00 0.00 0.00 0.00 0.00 0.87 0.00 0.00 0.93 0.00 0.00 0.99 0.00 0.00 0.00 0.00 0.00 0.59 0.00 0.00 0.57 0.00 0.00 0.00 0.00 0.00 0.63 0.00 0.00 0.00 0.66 0.00 0.00 0.00 0.00 0.00 0.72 0.00 0.00 0.00 0.00 0.00 0.00 0.00 0.00 0.00 0.00 0.00 0.00 0.00 0.00 0.00 0.00 0.00 0.52 0.00 0.00 0.00 0.00 0.00 0.93 0.00 0.00 0.99 0.81 0.00 0.00 0.00 0.00 0.93 0.53 0.94 0.00 0.00 0.00 0.00 0.00 0.00 0.00 0.00 0.00 0.00 0.00 0.00 0.00 0.00 0.00 0.00 0.73 0.00 0.00 0.00 0.00 0.00 0.00 0.00 0.00 0.73 0.97 0.00 0.00 0.92 0.00 0.00 0.00 0.52 0.00 0.59 0.51 0.59 0.00 0.00 0.00 0.00 0.00 0.61 0.00 0.61 0.00 0.00 0.00 0.00 0.00 0.62 0.00 0.00 0.00 0.00 0.00 0.73 0.00
0.64 0.00 0.00 0.00 0.96 0.00 0.00 0.00 0.00 0.00 0.00 0.00 0.00 0.00 0.00 0.00 0.00 0.00 0.00 0.00 0.00 0.00 0.00 0.63 0.59 0.00 0.00 0.00 0.66 0.00 0.00 0.00 0.00 0.00 0.00 0.00 0.00 0.00 0.00 0.75 0.00 0.00 0.00 0.83 0.67 0.00 0.00 0.00 0.00 0.00 0.00 0.00 0.58 0.00 0.00 0.00 0.00 0.67 0.00 0.72 0.00 0.00 0.00 0.00 0.00 0.00 0.00 0.00 0.53 0.00 0.00 0.00 0.00 0.00 0.00 0.00 0.77 0.00 0.70 0.51 0.61 0.00 0.83 0.00 0.77 0.00 0.90 0.00 0.59 0.00 0.00 0.00 0.00 0.61 0.00 0.00 0.00 0.57 0.00 0.88 0.63 0.00 0.00 0.00 0.00 0.51 0.86 0.00 0.79 0.00 0.00 0.00 0.00 0.00 0.00 0.56 0.00 0.00 0.00 0.00 0.00 0.00 0.00 0.00 0.86 0.00 0.00 0.00 0.00 0.00 0.00 0.86 0.00 0.00 0.91 0.88 0.00 0.00 0.00 0.70
0.00 0.00 0.00 0.00 0.83 0.00 0.00 0.00 0.00 0.98 0.00 0.00 0.00 0.66 0.00 0.00 0.98 0.00 1.00 0.00 0.00 0.00 0.00 0.00 0.00 0.00 0.00 0.00 0.00 0.00 0.51 0.00 0.00 0.00 0.00 0.84 0.00 0.00 0.00 0.80 0.77 0.00 0.00 0.00 0.00 0.00 0.00 0.94 0.00 0.00 0.00 0.00 0.00 0.00 0.70 0.67 0.00 0.00 0.00 0.00 0.00 0.00 0.00 0.00 0.00 0.00 0.00 0.00 0.00 0.00 0.00 0.00 0.00 0.00 0.00 0.00 0.96 0.00 0.00 0.00 0.00 0.00 0.00 0.00 0.00 0.00 0.00 0.00 0.00 0.00 0.00 0.00 0.00 0.00 0.64 0.00 0.00 0.00 0.00 0.00 0.00 0.00 0.00 0.00 0.00 0.00 0.00 0.00 0.88 0.00 0.00 0.00 0.00 0.80 0.00 0.00 0.00 0.00 0.00 0.00 0.00 0.00 0.81 0.00 0.00 0.00 0.00 0.67 0.00 0.00 0.00 0.73 0.00 0.00 0.00 0.00 0.57 0.00 0.00 0.00
0.00 0.00 0.00 0.88 0.78 0.60 0.64 0.00 0.00 0.60 0.00 0.00 0.00 0.93 0.00 0.00 0.50 0.00 0.00 0.89 0.00 0.00 0.85 0.73 0.00 0.00 0.00 0.00 0.00 0.00 0.00 0.00 0.00 0.55 0.00 0.63 0.00 0.00 0.00 0.00 0.00 0.00 0.00 0.00 0.00 0.79 0.00 0.00 0.84 0.00 0.00 0.00 0.73 0.00 0.00 0.53 0.00 0.00 0.00 0.86 0.00 0.00 0.00 0.00 0.60 0.00 0.00 0.00 0.00 0.00 0.00 0.00 0.00 0.00 0.00 0.00 0.00 0.95 0.00 0.00 0.00 0.00 0.00 0.00 0.80 0.00 0.75 0.51 0.00 0.00 0.00 0.00 0.00 0.00 0.00 0.00 0.68 0.00 0.50 0.00 0.00 0.90 0.00 0.00 0.00 0.00 0.00 0.00 0.77 0.00 0.84 0.00 0.96 0.00 0.54 0.00 0.00 0.00 0.00 0.67 0.52 0.00 0.00 0.00 0.00 0.00 0.00 0.00 0.00 0.00 0.00 0.63 0.00 0.00 0.00 0.92 0.00 0.00 0.00 0.00
0.00 0.00 0.00 0.59 0.00 0.94 0.00 0.00 0.00 0.57 0.00 0.73 0.00 0.00 0.63 0.00 0.00 0.00 0.00 0.00 0.00 0.00 0.68 0.74 0.00 0.55 0.00 0.00 0.00 0.00 0.00 0.00 0.00 0.69 0.00 0.64 0.00 0.00 0.00 0.69 0.00 0.00 0.62 0.00 0.00 0.00 0.00 0.00 0.80 0.82 0.00 0.00 0.00 0.00 0.00 0.67 0.00 0.00 0.00 0.00 0.00 0.72 0.00 0.00 0.00 0.00 0.00 0.00 0.82 0.00 0.00 0.91 0.00 0.87 0.00 0.71 0.00 0.00 0.00 0.00 0.00 0.00 0.00 0.00 0.00 0.00 0.00 0.00 0.00 0.00 0.00 0.00 0.00 0.76 0.00 0.00 0.00 0.56 0.00 0.00 0.00 0.00 0.00 0.00 0.73 0.00 0.00 0.00 0.00 0.00 0.00 0.76 0.00 0.87 0.00 0.00 0.00 0.77 0.00 0.00 0.94 0.70 0.81 0.91 0.00 0.00 0.00 0.00 0.00 0.00 0.00 0.54 0.00 0.00 0.00 0.00 0.53 0.00 0.51 0.00
0.00 0.00 0.00 0.00 0.00 0.00 0.73 0.00 0.59 0.99 0.65 0.74 0.00 0.56 0.00 0.00 0.00 0.00 0.00 0.00 0.00 0.72 0.00 0.00 0.56 0.70 0.00 0.00 0.99 0.61 0.00 0.00 0.00 0.00 0.00 0.00 0.00 0.00 0.00 0.00 0.00 0.00 0.00 0.00 0.00 0.00 0.00 0.59 0.00 0.00 0.00 0.00 0.00 0.00 0.00 0.00 0.97 0.00 0.00 0.00 0.00 0.00 0.83 0.00 0.00 0.00 0.00 0.00 0.00 0.00 0.00 0.00 0.00 0.00 0.00 0.00 0.00 0.00 0.00 0.00 0.90 0.00 0.00 0.00 0.69 0.00 0.82 0.00 0.00 0.00 0.86 0.00 0.00 0.00 0.00 0.00 0.00 0.58 0.00 0.00 0.00 0.00 0.82 0.00 0.84 0.00 0.00 0.00 0.00 0.00 0.00 0.00 0.00 0.91 0.00 0.00 0.00 0.00 0.00 0.00 0.89 0.00 0.00 0.00 0.00 0.00 0.00 0.00 0.00 0.00 0.89 0.00 0.00 0.00 0.00 0.00 0.00 0.00 0.00 0.80
0.85 0.00 0.63 0.00 0.00 0.00 0.00 0.66 0.00 0.00 0.00 0.00 0.00 0.80 0.00 0.00 0.00 0.82 0.00 0.00 0.56 0.00 0.58 0.00 0.00 0.00 0.00 0.00 0.00 0.00 0.00 0.00 0.00 0.00 0.00 0.00 0.00 0.00 0.00 0.97 0.00 0.00 0.85 0.00 0.80 0.00 0.00 0.95 0.00 0.00 0.00 0.00 0.00 0.00 0.00 0.00 0.00 0.00 0.00 0.00 0.00 0.58 0.00 0.00 0.00 0.68 0.00 0.00 0.00 0.00 0.70 0.00 0.00 0.69 0.82 0.00 0.53 0.79 0.00 0.99 0.00 0.00 0.00 0.00 0.00 0.00 0.00 0.00 0.00 0.65 0.00 0.00 0.00 0.00 0.00 0.00 0.00 0.77 0.00 0.00 0.00 0.00 0.00 0.76 0.00 0.00 0.00 0.00 0.00 0.68 0.00 0.00 0.00 0.99 0.69 0.00 0.00 0.82 0.90 0.00 0.00 0.00 0.00 0.00 0.00 0.93 0.00 0.00 0.00 0.62 0.82 0.00 0.00 0.00 0.00 0.00 0.00 0.00 0.00 0.00
0.00 0.00 0.85 0.00 0.00 0.00 0.00 0.62 0.00 0.99 0.54 0.00 0.00 0.00 0.00 0.00 0.73 0.90 0.00 0.00 0.52 0.89 0.00 0.00 0.00 0.00 0.00 0.00 0.00 0.00 0.00 0.86 0.74 0.00 0.00 0.00 0.00 0.00 0.87 0.00 0.67 0.00 0.00 0.95 0.00 0.85 0.00 0.00 0.98 0.95 0.00 0.00 0.00 0.00 0.00 0.00 0.00 0.00 0.00 0.00 0.00 0.00 0.00 0.50 0.00 0.61 0.00 0.56 0.00 0.00 0.72 0.00 0.00 0.00 0.00 0.00 0.00 0.00 0.55 0.00 0.00 0.00 0.00 0.00 0.00 0.00 0.63 0.00 0.00 0.00 0.00 0.00 0.92 0.00 0.00 0.00 0.00 0.00 0.00 0.00 0.00 0.00 0.00 0.00 0.00 0.00 0.97 0.97 0.00 0.00 0.00 0.00 0.00 0.00 0.00 0.00 0.00 0.00 0.00 0.00 0.95 0.63 0.00 0.80 0.00 0.00 0.00 0.00 0.00 0.00 0.00 0.00 0.00 0.00 0.00 0.00 0.57 1.00 0.00 0.00
0.00 0.00 0.85 0.00 0.00 0.00 0.95 0.00 0.00 0.00 0.00 0.00 0.00 0.00 0.00 0.65 0.00 0.00 0.00 0.00 0.00 0.00 0.87 0.00 0.00 0.00 0.57 0.00 0.00 0.00 0.00 0.00 0.67 0.00 0.00 0.00 0.00 0.72 0.00 0.00 0.00 0.00 0.65 0.80 0.00 0.00 0.00 0.00 0.00 0.00 0.54 0.00 0.00 0.00 0.00 0.80 0.00 0.00 0.00 0.60 0.00 0.94 0.00 0.00 0.00 0.00 0.00 0.00 0.00 0.00 0.00 0.00 0.77 0.00 0.00 0.62 0.00 0.82 0.00 0.00 0.00 0.00 0.00 0.00 0.00 0.00 0.00 0.00 0.92 0.00 0.76 0.86 0.00 0.00 0.90 0.00 0.00 0.00 0.00 0.00 0.00 0.00 0.00 0.00 0.76 0.00 0.77 0.00 0.00 0.00 0.00 0.00 0.00 0.00 0.00 0.00 0.60 0.00 0.00 0.00 0.00 0.00 0.00 0.92 0.00 0.00 0.00 0.00 0.00 0.00 0.70 0.00 0.00 0.00 0.00 0.00 0.96 0.00 0.61 0.00
0.75 0.00 0.00 0.00 0.74 0.00 0.00 0.00 0.00 0.00 0.69 0.61 0.00 0.00 0.73 0.00 0.88 0.00 0.00 0.00 0.00 0.00 0.00 0.76 0.00 0.00 0.00 0.00 0.00 0.00 0.00 0.52 0.00 0.00 0.00 0.90 0.00 0.00 0.00 0.00 0.00 0.00 0.81 0.00 0.00 0.00 0.93 0.81 0.83 0.00 0.00 0.00 0.62 0.73 0.00 0.00 0.00 0.00 0.00 0.00 0.00 0.00 0.00 0.00 0.00 0.00 0.00 0.00 0.00 0.00 0.00 0.00 0.00 0.00 0.00 0.00 0.00 0.00 0.00 0.00 0.00 0.00 0.00 0.96 0.00 0.00 0.00 0.00 0.00 0.00 0.00 0.00 0.00 0.00 0.00 0.00 0.00 0.00 0.00 0.94 0.00 0.00 0.00 0.00 0.00 0.00 0.00 1.00 0.94 0.00 0.00 0.00 0.92 0.00 0.00 0.00 0.00 0.00 0.00 0.00 0.00 0.00 0.00 0.00 0.00 0.00 0.00 0.00 0.00 0.00 0.00 0.00 0.00 0.00 0.00 0.00 0.00 0.00 0.66 0.00
0.00 0.00 0.00 0.00 0.00 0.70 0.00 0.00 0.00 0.00 0.00 0.51 0.89 0.00 0.00 0.00 0.00 0.00 0.00 0.50 0.00 0.80 0.00 0.00 0.00 0.00 0.00 0.00 0.00 0.94 0.00 0.00 0.00 0.00 0.00 0.00 0.00 0.00 0.00 0.95 0.87 0.00 0.00 0.00 0.00 0.00 0.00 0.00 0.00 0.00 0.00 0.00 0.00 0.00 0.00 0.00 0.00 0.00 0.00 0.00 0.79 0.00 0.00 0.00 0.00 0.00 0.00 0.00 0.00 0.73 0.00 0.00 0.00 0.00 0.78 0.00 0.00 0.96 0.00 0.00 0.00 0.53 0.00 0.00 0.00 0.00 0.69 0.00 0.00 0.94 0.78 0.00 0.00 0.80 0.93 0.00 0.78 0.00 0.92 0.68 0.00 0.00 0.00 0.62 0.84 0.00 0.00 0.00 0.75 0.00 0.91 0.00 0.00 0.87 0.78 0.00 0.00 0.00 0.00 0.00 0.57 0.00 0.91 0.00 0.00 0.79 0.98 0.70 0.00 0.00 0.00 0.00 0.00 0.00 0.90 0.82 0.00 0.00 0.00 0.00
0.00 0.00 0.00 0.00 0.93 0.00 0.00 0.00 0.00 0.00 0.00 0.00 0.00 0.00 0.00 0.00 0.92 0.00 0.00 0.00 0.00 0.00 0.00 0.00 0.52 0.51 0.00 0.00 0.89 0.00 0.65 0.00 0.00 0.00 0.00 0.00 0.00 0.00 0.00 0.00 0.73 0.00 0.00 0.00 0.00 0.00 0.00 0.00 0.59 0.78 0.00 0.00 0.00 0.00 0.62 0.76 0.00 0.00 0.00 0.00 0.00 0.00 0.00 0.00 0.00 0.00 0.00 0.00 0.00 0.00 0.00 0.00 0.00 0.00 0.00 0.00 0.00 0.00 0.00 0.00 0.00 0.00 0.53 0.00 0.00 0.00 0.00 0.00 0.00 0.00 0.00 0.59 0.00 0.00 0.85 0.00 0.00 0.00 0.00 0.00 0.00 0.00 0.00 0.77 0.00 0.00 0.00 0.00 0.00 0.00 0.00 0.00 0.00 0.00 0.00 0.90 0.76 0.00 0.00 0.77 0.93 0.81 0.00 0.75 0.00 0.91 0.00 0.00 0.00 0.00 0.00 0.00 0.00 0.00 0.00 0.00 0.00 0.00 0.00 0.79
0.00 0.00 0.00 0.00 0.00 0.00 0.00 0.00 0.00 0.00 0.55 0.00 0.57 0.00 0.79 0.00 0.00 0.00 0.00 0.00 0.99 0.00 0.93 0.64 0.90 0.00 0.00 0.00 0.00 0.00 0.74 0.00 0.00 0.00 0.00 0.00 0.00 0.00 0.00 0.00 0.00 0.00 0.00 0.00 0.00 0.00 0.62 0.00 0.71 0.00 0.00 0.64 0.00 0.00 0.00 0.00 0.00 0.89 0.00 0.00 0.00 0.00 0.00 0.73 0.00 0.00 0.00 0.00 0.00 0.00 0.00 0.73 0.00 0.00 0.00 0.00 0.00 0.00 0.00 0.56 0.00 0.00 0.00 0.00 0.00 0.00 0.00 0.00 0.00 0.00 0.00 0.00 0.00 0.00 0.71 0.00 0.00 0.75 0.00 0.00 0.00 0.00 0.00 0.00 0.00 0.00 0.00 0.96 0.54 0.00 0.64 0.00 0.93 0.00 0.00 0.76 0.00 0.00 0.00 0.59 0.00 0.00 0.00 0.00 0.58 0.00 0.00 0.00 0.69 0.65 0.00 0.00 0.00 0.00 0.60 0.00 0.00 0.00 0.00 0.00
0.00 0.00 0.00 0.00 0.00 0.52 0.64 0.00 0.00 0.00 0.73 0.00 0.00 0.00 0.00 0.00 0.00 0.00 0.00 0.58 0.00 0.00 0.00 0.99 0.00 0.00 0.00 0.83 0.00 0.00 0.00 0.78 0.00 0.00 0.00 0.00 0.00 0.00 0.00 0.00 0.55 0.00 0.00 0.00 0.00 0.00 0.00 0.74 0.00 0.00 0.00 0.00 0.53 0.00 0.00 0.00 0.00 0.00 0.00 0.00 0.00 0.00 0.64 0.92 0.00 0.00 0.00 1.00 0.00 0.00 0.00 0.00 0.00 0.00 0.00 0.00 0.00 0.00 0.00 0.00 0.56 0.00 0.00 0.00 0.58 0.00 0.00 0.88 0.00 0.00 0.00 0.00 0.87 0.73 0.00 0.00 0.00 0.00 0.72 0.00 0.00 0.00 0.77 0.00 0.00 0.00 0.00 0.00 0.00 0.00 0.00 0.00 0.00 0.64 0.00 0.00 0.00 0.00 0.00 0.00 0.00 0.93 0.00 0.00 0.58 0.00 0.95 0.00 0.93 0.00 0.91 0.00 0.00 0.83 0.00 0.00 0.80 0.00 0.98 0.85
0.00 0.00 0.00 0.00 0.86 0.00 0.00 0.00 0.00 0.68 0.00 0.00 0.00 0.00 0.00 0.00 0.00 0.00 0.00 0.00 0.00 0.00 0.00 0.00 0.00 0.00 0.00 0.00 0.88 0.00 0.00 0.00 0.00 0.00 0.00 0.00 0.67 0.96 0.00 0.71 0.00 0.00 0.00 0.91 0.00 0.00 0.94 0.00 0.00 0.00 0.00 0.00 0.00 0.00 0.00 0.00 0.00 0.00 0.00 0.00 0.00 0.70 0.52 0.00 0.00 0.98 0.88 0.00 0.00 0.80 0.00 0.00 0.00 0.00 0.84 0.00 0.78 0.00 0.00 0.00 0.68 0.00 0.89 0.00 0.00 0.00 0.99 0.00 0.00 0.00 0.00 0.77 0.00 0.96 0.00 0.54 0.00 0.00 0.00 0.00 0.00 0.00 0.00 0.00 0.00 0.00 0.00 0.00 0.00 0.00 0.00 0.79 0.00 0.00 0.00 0.00 0.85 0.79 0.00 0.00 0.00 0.00 0.00 0.00 0.00 0.84 0.00 0.00 0.00 0.00 0.00 0.00 0.00 0.00 0.00 0.00 0.00 0.56 0.00 0.00
0.78 0.54 0.75 0.00 0.51 0.55 0.89 0.00 0.00 0.87 0.00 0.00 0.97 0.00 0.00 0.00 0.00 0.00 0.00 0.00 0.00 0.00 0.00 0.66 0.69 0.00 0.00 0.00 0.74 0.00 0.00 0.82 0.00 0.78 0.00 0.64 0.00 0.00 0.00 0.00 0.00 0.00 0.65 0.00 0.00 0.00 0.00 0.00 0.90 0.00 0.00 0.00 0.00 0.00 0.00 0.00 0.00 0.00 0.00 0.00 0.00 0.00 0.00 0.00 0.00 0.00 0.00 0.00 0.87 0.00 0.00 0.00 0.00 0.00 0.00 0.58 0.65 0.00 0.00 0.84 0.00 0.00 0.80 0.00 0.00 0.00 0.00 0.00 0.00 0.00 0.00 0.00 0.00 0.00 0.00 0.00 0.00 0.65 0.00 0.00 0.00 0.82 0.55 0.00 0.90 0.00 0.00 0.54 0.00 0.00 0.89 0.00 0.00 0.00 0.95 0.00 0.57 0.00 0.00 0.00 0.00 0.00 0.00 0.00 0.00 0.00 0.82 0.00 0.00 0.92 0.83 0.00 0.00 0.00 0.00 0.00 0.00 0.00 0.00 0.00
0.00 0.91 0.79 0.00 0.00 0.60 0.55 0.00 0.00 0.00 0.00 0.00 0.83 0.56 0.00 0.55 0.00 0.00 0.00 0.00 0.00 0.00 0.00 0.99 0.76 0.00 0.87 0.00 0.00 0.00 0.95 0.74 0.95 0.00 0.00 0.00 0.89 0.00 0.00 0.00 0.00 1.00 0.00 0.00 0.00 0.00 0.00 0.91 0.00 0.00 0.00 0.00 0.00 0.00 0.00 0.00 0.00 0.84 0.61 0.00 0.00 0.00 0.00 0.00 0.52 0.00 0.78 0.64 0.00 0.53 0.00 0.87 0.00 0.91 0.60 0.00 0.00 0.00 0.82 0.00 0.92 0.00 0.00 0.00 0.00 0.00 0.73 0.00 0.00 0.00 0.00 0.90 0.00 0.95 0.98 0.00 0.00 0.00 0.00 0.57 0.00 0.00 0.00 0.00 0.74 0.59 0.00 0.93 0.00 0.54 0.00 0.00 0.00 0.00 0.00 0.00 0.89 0.00 0.00 0.50 0.00 0.00 0.00 0.00 0.00 0.00 0.00 0.00 0.00 0.64 0.62 0.75 0.55 0.75 0.00 0.00 0.00 0.00 0.00 0.00
0.85 0.00 0.00 0.00 0.60 0.00 0.00 0.00 0.00 0.00 0.00 0.90 0.00 0.00 0.00 0.00 0.00 0.00 0.00 0.00 0.00 0.75 0.00 0.00 0.00 0.00 0.00 0.64 0.00 0.00 0.00 0.84 0.00 0.86 0.00 0.00 0.00 0.00 0.00 0.78 0.92 0.96 0.86 0.00 0.00 0.00 0.00 0.00 0.00 0.00 0.00 0.00 0.00 0.00 0.00 0.00 0.00 0.00 0.00 0.95 0.00 0.00 0.00 0.00 0.00 0.00 0.00 0.00 0.99 0.00 0.00 0.00 0.00 0.00 0.52 0.97 0.00 0.56 0.00 0.00 0.00 0.92 0.66 0.00 0.00 0.00 0.75 0.00 0.00 0.00 0.66 0.00 0.00 0.00 0.00 0.00 0.00 0.95 0.00 0.00 0.00 0.00 0.92 0.00 0.00 0.00 0.97 0.00 0.82 0.66 0.00 0.00 0.00 0.00 0.00 0.77 0.00 0.00 0.00 0.00 0.00 0.00 0.00 0.72 0.65 0.00 0.00 0.00 0.00 0.00 0.00 0.00 0.99 0.00 0.00 0.00 0.00 0.00 0.00 0.00
0.91 0.00 0.00 0.00 0.89 0.00 0.00 0.00 0.00 0.00 0.59 0.98 0.00 0.00 0.51 0.00 0.00 0.75 0.00 0.96 0.00 0.00 0.00 0.81 0.00 0.00 0.00 0.00 0.00 0.00 0.94 0.00 0.00 0.00 0.00 0.00 0.71 0.53 0.00 0.00 0.00 0.00 0.00 0.00 0.00 0.00 0.00 0.00 0.00 0.00 0.00 0.00 0.00 0.00 0.00 0.00 0.00 0.00 0.00 0.00 0.00 0.00 0.00 0.00 0.78 0.87 0.00 0.00 0.00 0.00 0.00 0.00 0.00 0.00 0.00 0.00 0.50 0.00 0.00 0.00 0.00 0.00 0.00 0.71 0.00 0.00 0.00 0.79 0.53 0.00 0.00 0.00 0.00 0.00 0.00 0.00 0.00 0.00 0.00 0.00 0.71 0.00 0.00 0.00 0.00 0.00 0.00 0.74 0.00 0.00 0.00 0.00 0.00 0.00 0.00 0.00 0.00 0.00 0.71 0.00 0.00 0.00 0.00 0.00 0.00 0.77 0.61 0.00 0.00 0.79 0.00 0.00 0.00 0.94 0.00 0.00 0.00 0.00 0.00 0.00
0.00 0.00 0.00 0.00 0.00 0.00 0.00 0.00 0.00 0.00 0.00 0.64 0.00 0.00 0.00 0.00 0.00 0.00 0.00 0.00 0.00 0.69 0.00 0.00 0.00 0.00 0.00 0.00 0.00 0.00 0.83 0.00 0.00 0.53 0.61 0.50 0.92 0.00 0.00 0.00 0.00 0.00 0.00 0.00 0.52 0.00 0.00 0.00 0.00 0.91 0.00 0.00 0.00 0.00 0.00 0.00 0.00 0.50 0.00 0.00 0.00 0.00 0.00 0.00 0.00 0.89 0.00 0.00 0.99 0.66 0.00 0.00 0.00 0.00 0.00 0.97 0.69 0.00 0.96 0.00 0.00 0.00 0.00 0.79 0.00 0.00 0.00 0.55 0.00 0.63 0.00 0.50 0.00 0.00 0.00 0.00 0.93 0.00 0.00 0.00 0.00 0.69 0.00 0.00 0.00 0.00 0.00 0.98 0.00 0.61 0.00 0.00 0.00 0.66 0.00 0.00 0.00 0.64 0.00 0.00 0.00 0.00 0.00 0.00 0.00 0.00 0.00 0.72 0.00 0.79 0.00 0.00 0.00 0.81 0.00 0.00 0.00 0.00 0.00 0.00
0.00 0.00 0.00 0.00 0.00 0.00 0.00 0.00 0.00 0.61 0.00 0.00 0.00 0.00 0.00 0.00 0.00 0.00 0.00 0.00 0.00 0.00 0.00 0.00 0.00 0.00 0.00 0.00 0.00 0.00 0.00 0.00 0.00 0.00 0.00 0.00 0.60 0.00 0.00 0.00 0.00 0.00 0.00 0.00 0.52 0.92 0.00 0.00 0.00 0.51 0.00 0.00 0.00 0.00 0.00 0.00 0.00 0.00 0.00 0.73 0.00 0.00 0.00 0.58 0.00 0.00 0.00 0.00 0.00 0.00 0.62 0.55 0.00 0.64 0.00 0.00 0.69 0.00 0.00 0.00 0.00 0.00 0.00 0.00 0.00 0.00 0.00 0.00 0.00 0.00 0.93 0.00 0.00 0.00 0.00 0.00 0.62 0.00 0.00 0.00 0.00 0.00 0.00 0.00 0.86 0.00 0.00 0.00 0.00 0.00 0.00 0.00 0.00 0.00 0.00 0.00 0.00 0.00 0.00 0.00 0.00 0.00 0.79 0.00 0.00 0.00 0.00 0.00 0.00 0.85 0.55 0.00 0.92 0.00 0.00 0.75 0.00 0.00 0.65 0.00
0.00 0.00 0.00 0.00 0.00 0.84 0.00 0.00 0.97 0.00 0.00 0.00 0.00 0.00 0.00 0.00 0.00 0.00 0.00 0.99 0.00 0.00 0.00 0.87 0.00 0.00 0.79 0.00 0.00 0.00 0.00 0.00 0.79 1.00 0.00 0.00 0.00 0.00 0.00 1.00 0.00 0.00 0.83 0.00 0.90 0.00 0.00 0.99 0.00 0.87 0.00 0.00 0.00 0.00 0.00 0.00 0.00 0.00 0.57 0.00 0.00 0.00 0.00 0.00 0.00 0.00 0.00 0.92 0.00 0.00 0.00 0.00 0.00 0.00 0.00 0.73 0.00 0.51 0.00 0.00 0.00 0.00 0.00 0.00 0.72 0.00 0.00 0.00 0.00 0.00 0.00 0.00 0.86 0.00 0.00 0.00 0.00 0.00 0.00 0.00 0.00 0.00 0.00 0.00 0.00 0.00 0.00 0.00 0.65 0.74 0.00 0.85 0.00 0.00 0.95 0.00 0.00 0.76 0.00 0.00 0.00 0.00 0.00 0.90 0.00 0.00 0.00 0.00 0.00 0.90 0.00 0.00 0.00 0.00 0.54 0.00 0.00 0.76 0.00 0.68
0.68 0.00 0.00 0.00 0.99 0.00 0.00 0.55 0.00 0.63 0.00 0.79 0.00 0.84 0.00 0.00 0.00 0.00 0.00 0.00 0.00 0.00 0.00 0.51 0.00 0.00 0.00 0.00 0.00 0.00 0.00 0.00 0.00 0.00 0.00 0.00 0.00 0.00 0.00 0.00 0.00 0.72 0.65 0.00 0.00 0.00 0.00 0.77 0.00 0.00 0.00 0.00 0.00 0.00 0.00 0.75 0.00 0.80 0.00 0.00 0.00 0.00 0.00 0.00 0.00 0.00 0.00 0.00 0.00 0.00 0.00 0.00 0.00 0.00 0.00 0.00 0.00 0.65 0.00 0.00 0.80 0.00 0.00 0.74 0.60 0.00 0.00 0.00 0.00 0.00 0.00 0.83 0.00 0.00 0.52 0.00 0.62 0.93 0.00 0.00 0.00 0.00 0.70 0.00 0.00 0.79 0.54 0.00 0.00 0.00 0.89 0.77 0.00 0.72 0.00 0.00 0.00 0.00 0.00 0.00 0.00 0.00 0.00 0.00 0.00 0.00 0.00 0.65 0.00 0.00 0.00 0.00 0.00 0.00 0.00 0.00 0.00 0.00 0.78 0.00
0.00 0.00 0.00 0.00 0.00 0.00 0.92 0.00 0.00 0.00 0.00 0.78 0.00 0.00 0.00 0.00 0.00 0.00 0.00 0.00 0.00 0.00 0.00 0.00 0.75 0.00 0.00 0.00 0.74 0.00 0.65 0.00 0.00 0.00 0.00 0.00 0.00 0.00 0.00 0.81 0.00 0.00 0.79 0.00 0.57 0.00 0.00 0.00 0.64 0.00 0.00 0.60 0.00 0.00 0.00 0.00 0.00 0.00 0.00 0.60 0.00 0.64 0.00 0.00 0.00 0.00 0.00 0.98 0.00 0.00 0.00 0.81 0.00 0.00 0.00 0.00 0.00 0.00 0.00 0.00 0.00 0.00 0.00 0.00 0.54 0.67 0.00 0.00 0.00 0.00 0.00 0.60 0.00 0.87 0.00 0.00 0.94 0.00 0.00 0.00 0.00 0.00 0.00 0.00 0.00 0.00 0.00 0.98 0.00 0.88 0.00 0.98 0.00 0.00 0.73 0.00 0.00 0.54 0.76 0.00 0.00 0.00 0.00 0.00 0.00 0.72 0.81 0.00 0.00 0.00 0.00 0.51 0.00 0.00 0.00 0.00 0.00 0.00 0.00 0.00
0.00 0.69 0.00 0.00 0.00 0.00 0.00 0.00 0.00 0.00 0.00 0.67 0.00 0.00 0.00 0.00 0.00 0.00 0.85 0.00 0.94 0.00 0.00 0.00 0.00 0.81 0.00 0.00 0.00 0.00 0.00 0.00 0.00 0.00 0.00 0.00 0.00 0.00 0.52 0.00 0.91 0.00 0.00 0.00 0.00 0.00 0.00 0.74 0.00 0.00 0.00 0.00 0.00 0.00 0.00 0.87 0.00 0.00 0.00 0.00 0.00 0.00 0.00 0.00 0.00 0.00 0.00 0.00 0.00 0.00 0.80 0.62 0.00 0.95 0.00 0.99 0.00 0.00 0.00 0.00 0.00 0.00 0.00 0.73 0.00 0.00 0.00 0.00 0.00 0.54 0.64 0.66 0.00 0.00 0.00 0.87 0.00 0.00 0.00 0.00 0.00 0.00 0.00 0.82 0.00 0.00 0.89 0.91 0.00 0.00 0.00 0.00 0.00 0.57 0.65 0.00 0.00 0.00 0.00 0.60 0.99 0.00 0.00 0.00 0.00 0.00 0.00 0.00 0.53 0.00 0.54 0.00 0.00 0.00 0.86 0.00 0.79 0.66 0.00 0.56
0.00 0.00 0.00 0.00 0.00 0.00 0.00 0.00 0.00 0.00 0.00 0.00 0.00 0.00 0.00 0.00 0.00 0.00 0.85 0.00 0.00 0.00 0.00 0.00 0.00 0.00 0.00 0.88 0.00 0.00 0.00 0.00 0.00 0.00 0.80 0.00 0.00 0.00 0.00 0.78 0.00 0.00 0.00 0.00 0.00 0.00 0.69 0.00 0.92 0.00 0.00 0.86 0.00 0.00 0.00 0.00 0.00 0.74 0.00 0.66 0.00 0.00 0.93 0.00 0.00 0.00 0.00 0.00 0.00 0.00 0.00 0.00 0.00 0.00 0.00 0.00 0.00 0.00 0.81 0.00 0.00 0.77 0.00 0.00 0.00 0.60 0.00 0.62 0.61 0.00 0.00 0.00 0.95 0.00 0.00 0.00 0.00 0.00 0.00 0.00 0.00 0.84 0.00 0.00 0.87 0.00 0.00 0.00 0.00 0.00 0.00 0.00 0.00 0.00 0.00 0.94 0.00 0.00 0.00 0.00 0.00 0.00 0.00 0.00 0.00 0.98 0.00 0.00 0.00 0.00 0.00 0.00 0.00 0.00 0.00 0.00 0.00 0.00 0.00 0.00
0.00 0.00 0.00 0.00 0.00 0.00 0.00 0.96 0.00 0.00 0.00 0.85 0.00 0.72 0.00 0.82 0.00 0.00 0.00 0.00 0.69 0.51 0.81 0.00 0.00 0.00 0.00 0.00 0.00 0.00 0.00 0.00 0.00 0.00 0.00 0.00 0.90 0.00 0.00 0.62 0.00 0.00 0.00 0.00 0.00 0.62 0.00 0.00 0.00 0.00 0.00 0.00 0.00 0.00 0.00 0.00 0.00 0.00 0.72 0.87 0.00 0.00 0.68 0.00 0.00 0.00 0.00 0.00 0.00 0.00 0.00 0.00 0.00 0.55 0.00 0.92 0.00 0.00 0.00 0.00 0.00 0.00 0.00 0.00 0.00 0.00 0.00 0.63 0.00 0.90 0.00 0.66 0.00 0.00 0.00 0.79 0.00 0.95 0.00 0.00 0.00 0.00 0.00 0.00 0.00 0.00 0.00 0.00 0.00 0.00 0.00 0.00 0.74 0.00 0.00 0.00 0.00 0.00 0.00 0.00 0.00 0.00 0.00 0.00 0.00 0.00 0.00 0.00 0.00 0.00 0.00 0.53 0.97 0.00 0.00 0.00 0.00 0.00 0.62 0.00
0.53 0.00 0.00 0.00 0.00 0.00 0.00 0.00 0.74 0.79 0.00 0.00 0.54 0.00 0.96 0.78 0.00 0.88 0.00 0.62 0.00 0.00 0.59 0.95 0.00 0.00 0.00 0.00 0.00 0.00 0.00 0.96 0.00 0.77 0.00 0.00 0.00 0.00 0.81 0.00 0.00 0.00 0.69 0.00 0.00 0.91 0.00 0.00 0.00 0.00 0.70 0.00 0.00 0.90 0.00 0.00 0.00 0.62 0.00 0.00 0.00 0.00 0.00 0.85 0.00 0.00 0.52 0.00 0.00 0.00 0.00 0.00 0.97 0.76 0.00 0.00 0.69 0.00 0.00 0.00 0.00 0.69 0.00 0.98 0.68 0.62 0.00 0.00 0.00 0.00 0.00 0.00 0.00 0.00 0.00 0.00 0.00 0.00 0.59 0.00 0.00 0.00 0.97 0.00 0.00 0.00 0.95 0.00 0.00 0.00 0.00 0.00 0.00 0.59 0.00 0.00 0.00 0.00 0.00 0.00 0.00 0.00 0.00 0.00 0.60 0.52 0.73 0.00 0.80 0.00 0.00 0.00 0.55 0.00 0.00 0.78 0.00 0.00 0.00 0.00
0.00 0.00 0.56 0.00 0.00 0.92 0.00 0.00 0.00 0.00 0.98 0.00 0.00 0.00 0.00 0.00 0.00 0.00 0.87 0.00 0.00 0.00 0.00 0.73 0.00 0.00 0.91 0.00 0.56 0.00 0.00 0.00 0.00 0.00 0.00 0.00 0.00 0.00 0.00 0.00 0.00 0.00 0.00 0.00 0.00 0.00 0.00 0.00 0.00 0.00 0.00 0.00 0.00 0.94 0.00 0.00 0.81 0.00 0.00 0.00 0.69 0.00 0.88 0.60 0.00 0.00 0.00 0.00 0.00 0.00 0.00 0.00 0.00 0.51 0.00 0.00 0.00 0.83 0.00 0.00 0.00 0.00 0.00 0.00 0.00 0.00 0.00 0.94 0.00 0.00 0.00 0.00 0.00 0.91 0.00 0.00 0.00 0.94 0.00 0.00 0.00 0.87 0.52 0.00 0.00 0.00 0.00 0.00 0.00 0.00 0.00 0.00 0.96 0.99 0.00 0.68 0.00 0.00 0.00 0.78 0.82 0.81 0.00 0.00 0.61 0.00 0.73 0.00 0.00 0.00 0.79 0.78 0.65 0.00 0.00 0.86 0.00 0.00 0.00 0.00
0.00 0.00 0.00 0.52 0.88 0.00 0.00 0.00 0.00 0.78 0.00 0.87 0.85 0.00 0.73 0.00 0.00 0.00 0.00 0.00 0.00 0.00 0.00 0.83 0.00 0.00 0.00 0.00 0.72 0.00 0.00 0.00 0.00 0.00 0.00 0.00 0.00 0.00 0.00 0.00 0.00 0.89 0.00 0.00 0.78 0.81 0.00 0.00 0.00 0.00 0.00 0.00 0.00 0.00 0.00 0.95 0.00 0.89 0.71 0.63 0.00 0.00 0.00 0.00 0.00 0.00 0.00 0.62 0.00 0.00 0.00 0.00 0.79 0.00 0.00 0.00 0.00 0.00 0.51 0.00 0.96 0.00 0.00 0.00 0.00 0.00 0.00 0.00 0.81 0.90 0.62 0.78 0.00 0.00 0.00 0.52 0.59 0.00 0.00 0.00 0.00 0.51 0.00 0.00 0.00 0.78 0.00 0.00 0.00 0.00 0.61 0.51 0.00 0.00 0.00 0.00 0.00 0.00 0.00 0.00 0.00 0.00 0.00 0.55 0.00 0.00 0.00 0.00 0.00 0.00 0.00 0.00 0.00 0.00 0.00 0.00 0.00 0.00 0.00 0.00
0.00 0.00 0.00 0.00 0.71 0.00 0.72 0.00 0.00 0.00 0.79 0.00 0.00 0.00 0.89 0.00 0.00 0.00 0.00 0.74 0.50 0.00 0.00 0.00 0.00 0.00 0.00 0.00 0.00 0.00 0.00 0.00 0.91 0.00 0.00 0.90 0.68 0.00 0.00 0.00 0.00 0.00 0.00 0.00 0.00 0.00 0.00 0.54 0.00 0.00 0.00 0.00 0.00 0.91 0.00 0.68 0.00 0.00 0.59 0.94 0.00 0.00 0.00 0.00 0.00 0.54 0.00 0.00 0.00 0.00 0.00 0.00 0.00 0.00 0.81 0.00 0.00 0.00 0.00 0.00 0.00 0.00 0.00 0.00 0.00 0.00 0.00 0.00 0.54 0.75 0.00 0.63 0.00 0.00 0.00 0.00 0.00 0.00 0.59 0.76 0.00 0.00 0.75 0.00 0.00 0.00 0.55 0.00 0.00 0.00 0.00 0.54 0.00 0.00 0.53 0.00 0.00 0.00 0.00 0.00 0.00 0.00 0.00 0.00 0.00 0.51 0.00 0.00 0.00 0.00 0.00 0.00 0.00 0.00 0.00 0.00 0.00 0.00 0.00 0.00
0.00 0.00 0.00 0.00 0.00 0.00 0.00 0.00 0.00 0.00 0.87 0.84 0.00 0.00 0.00 0.00 0.00 0.00 0.00 0.00 0.00 0.00 0.00 0.00 0.00 0.00 0.94 0.00 0.00 0.00 0.00 0.00 0.00 0.00 0.00 0.95 0.00 0.67 0.00 0.00 0.91 0.00 0.00 0.00 0.00 0.00 0.00 0.84 0.00 0.00 0.00 0.00 0.00 0.00 0.00 0.00 0.00 0.00 0.00 0.00 0.00 0.00 0.00 0.00 0.00 0.00 0.00 0.97 0.00 0.00 0.00 0.00 0.73 0.00 0.00 0.00 0.79 0.78 0.00 0.00 0.00 0.00 0.00 0.94 0.00 0.00 0.00 0.98 0.00 0.00 0.81 0.76 0.54 0.00 0.00 0.00 0.00 0.00 0.00 0.59 0.00 0.00 0.00 0.00 0.61 0.00 0.00 0.00 0.00 0.52 0.00 0.00 0.00 0.00 0.00 0.00 0.00 0.00 0.94 0.75 0.00 0.00 0.00 0.73 0.92 0.00 0.00 0.91 0.00 0.00 0.00 0.56 0.00 0.00 0.75 0.00 0.00 0.00 0.00 0.00
0.58 0.00 0.52 0.00 0.86 0.00 0.00 0.00 0.00 0.00 0.00 0.00 0.00 0.00 0.00 0.00 0.94 0.61 0.00 0.00 0.00 0.00 0.00 0.00 0.00 0.00 0.00 0.00 0.00 0.00 0.00 0.00 0.00 0.00 0.00 0.98 0.78 0.00 0.00 0.00 0.89 0.00 0.88 0.00 0.00 0.00 0.00 0.00 0.00 0.00 0.85 0.00 0.00 0.00 0.00 0.00 0.00 0.00 0.00 0.00 0.00 0.00 0.91 0.00 0.00 0.00 0.50 0.00 0.00 0.55 0.00 0.88 0.00 0.58 0.00 0.00 0.00 0.00 0.66 0.00 0.00 0.69 0.00 0.00 1.00 0.00 0.00 0.80 0.00 0.56 0.93 0.00 0.00 0.00 0.62 0.00 0.00 0.57 0.00 0.73 0.00 0.00 0.00 0.00 0.97 0.00 0.00 0.00 0.00 0.00 0.00 0.00 0.67 0.00 0.60 0.00 0.00 0.00 0.00 0.00 0.00 0.59 0.57 0.64 0.00 0.63 0.73 0.00 0.00 0.71 0.00 0.00 0.00 0.00 0.00 0.00 0.00 0.00 0.00 0.00
0.00 0.00 0.00 0.00 0.00 0.00 0.00 0.00 0.00 0.00 0.00 0.00 0.69 0.00 0.00 0.00 0.00 0.00 0.00 0.00 0.00 0.60 0.00 0.00 0.00 0.00 0.00 0.00 0.00 0.00 0.00 0.00 0.00 0.00 0.00 0.00 0.00 0.00 0.70 0.00 0.00 0.00 0.00 0.00 0.00 0.77 0.82 0.00 0.00 0.73 0.00 0.00 0.00 0.00 0.00 0.00 0.00 0.00 0.00 0.50 0.00 0.00 0.00 0.00 0.00 0.00 0.00 0.00 0.00 0.00 0.93 0.00 0.00 0.00 0.00 0.00 0.00 0.00 0.86 0.00 0.00 0.00 0.00 0.74 0.00 0.00 0.00 0.57 0.55 0.00 0.00 0.00 0.80 0.00 0.00 0.00 0.00 0.72 0.00 0.00 0.00 0.00 0.00 0.00 0.00 0.83 0.00 0.97 0.00 0.00 0.78 0.00 0.00 0.63 0.00 0.00 0.00 0.00 0.00 0.68 0.00 0.00 0.00 0.00 0.00 0.54 0.00 0.00 0.00 0.00 0.00 0.94 0.00 0.66 0.86 0.00 0.00 0.00 0.00 0.00
0.00 0.55 0.00 0.88 0.84 0.00 0.00 0.00 0.79 0.00 0.00 0.83 0.00 0.00 0.00 0.51 0.00 0.00 0.00 0.90 0.00 0.00 0.00 0.00 0.00 0.00 0.00 0.00 0.92 0.00 0.00 0.00 0.00 0.00 0.75 0.00 0.00 0.61 0.00 0.93 0.81 0.00 0.00 0.00 0.00 0.79 0.00 0.00 0.56 0.00 0.89 0.00 0.61 0.00 0.00 0.00 0.00 0.00 0.00 0.72 0.00 0.00 0.00 0.00 0.58 0.00 0.87 0.90 0.00 0.00 0.00 0.00 0.00 0.00 0.00 0.00 0.00 0.00 0.00 0.00 0.00 0.00 0.00 0.00 0.00 0.71 0.78 0.82 0.67 0.00 0.00 0.00 0.00 0.00 0.00 0.00 0.00 0.00 0.00 0.00 0.00 0.00 0.00 0.00 0.00 0.00 0.00 0.00 0.00 0.00 0.00 0.70 0.00 0.00 0.79 0.00 0.00 0.00 0.00 0.00 0.00 0.00 0.00 0.00 0.00 0.70 0.00 0.00 0.00 0.76 0.00 0.00 0.00 0.00 0.00 0.00 0.00 0.00 0.00 0.00
0.00 0.00 0.86 0.00 0.00 0.90 0.00 0.52 0.00 0.00 0.58 0.00 0.50 0.97 0.58 0.00 0.00 0.00 0.00 0.75 0.54 0.83 0.00 0.00 0.00 0.80 0.00 0.00 0.00 0.00 0.00 0.00 0.00 0.00 0.00 0.00 0.00 0.00 0.00 0.00 0.89 0.00 0.00 0.00 0.00 0.00 0.00 0.00 0.72 0.00 0.00 0.95 0.76 0.00 0.00 0.00 0.90 0.00 0.00 0.00 0.65 0.00 0.00 0.00 0.83 0.00 0.00 0.00 0.00 0.00 0.71 0.00 0.00 0.00 0.00 0.00 0.00 0.00 0.00 0.00 0.00 0.00 0.00 0.00 0.00 0.58 0.00 0.00 0.00 0.00 0.94 0.00 0.00 0.00 0.00 0.86 0.00 0.00 0.00 0.00 0.00 0.00 0.69 1.00 0.00 0.00 0.00 0.00 0.00 0.00 0.00 0.00 0.00 0.00 0.00 0.00 0.00 0.00 0.77 0.00 0.00 0.00 0.00 0.00 0.00 0.00 0.63 0.00 0.00 0.98 0.00 0.00 0.00 0.58 0.00 0.00 0.00 0.00 0.00 0.00
0.97 0.00 0.88 0.00 0.00 0.00 0.00 0.00 0.00 0.00 0.00 0.00 0.00 0.61 0.00 0.00 0.00 0.00 0.00 0.00 0.00 0.81 0.00 0.00 0.90 0.00 0.00 0.00 0.00 0.00 0.00 0.00 0.00 0.00 0.00 0.65 0.00 0.00 0.00 0.00 0.00 0.00 0.00 0.00 0.93 0.00 0.61 0.00 0.00 0.00 0.00 0.71 0.00 0.90 0.90 0.58 0.00 0.85 0.00 0.00 0.78 0.00 0.00 0.54 0.00 0.00 0.95 0.00 0.00 0.00 0.00 0.61 0.00 0.00 0.53 0.00 0.00 0.00 0.00 0.00 0.00 0.00 0.00 0.00 0.85 0.00 0.00 0.00 0.00 0.00 0.82 0.00 0.73 0.00 0.00 0.00 0.00 0.00 0.00 0.79 0.00 0.00 0.00 0.00 0.00 0.00 0.62 0.00 0.00 0.55 0.00 0.00 0.00 0.00 0.53 0.00 0.00 0.00 0.00 0.56 0.00 0.00 0.00 0.00 0.00 0.00 0.00 0.83 0.00 0.81 0.00 0.00 0.00 0.00 0.00 0.00 0.00 0.75 0.77 0.00
0.00 0.00 0.00 0.00 0.00 0.00 0.00 0.57 0.00 0.00 0.00 0.00 0.00 0.00 0.00 0.00 0.00 0.00 0.00 0.00 0.00 0.00 0.00 0.00 0.00 0.00 0.00 0.00 0.00 0.00 0.00 0.61 0.00 0.00 0.00 0.00 0.00 0.81 0.00 0.00 0.00 0.00 0.00 0.98 0.00 0.00 0.00 0.00 0.80 0.00 0.00 0.00 0.00 0.00 0.00 0.00 0.00 0.00 0.95 0.00 0.00 0.00 0.00 0.00 0.00 0.00 0.00 0.56 0.00 0.00 0.00 0.00 0.50 0.00 0.00 0.00 0.00 0.00 0.00 0.00 0.60 0.67 0.00 0.66 0.00 0.00 0.00 0.00 0.00 0.00 0.00 0.00 0.00 0.79 0.87 0.00 0.00 0.00 0.00 0.62 0.00 0.65 0.00 0.00 0.00 0.00 0.00 0.00 0.00 0.00 0.00 0.00 0.00 0.00 0.00 0.00 0.00 0.00 0.00 0.00 0.00 0.00 0.00 0.90 0.00 0.00 0.00 0.00 0.00 0.00 0.00 0.00 0.97 0.00 0.00 0.67 0.00 0.00 0.00 0.00
0.00 0.00 0.00 0.00 0.88 0.00 0.94 0.00 0.00 0.00 0.00 0.00 0.00 0.00 0.00 0.91 0.54 0.00 0.61 0.66 0.68 0.00 0.00 0.64 0.00 0.00 0.00 0.00 0.00 0.97 0.00 0.00 0.00 0.00 0.00 0.00 0.00 0.00 0.00 0.00 0.00 0.00 0.88 0.00 0.00 0.93 0.00 0.00 0.00 0.66 0.00 0.00 0.00 0.76 0.00 0.00 0.00 0.00 0.00 0.00 0.00 0.00 0.68 0.00 0.00 0.00 0.79 0.87 0.00 0.00 0.00 0.74 0.00 0.74 0.00 0.61 0.62 0.00 0.00 0.00 0.00 0.94 0.00 0.00 0.00 0.00 0.71 0.00 0.63 0.98 0.00 0.00 0.86 0.00 0.79 0.00 0.00 0.64 0.00 0.00 0.00 0.00 0.00 0.72 0.00 0.00 0.00 0.99 0.00 0.00 0.00 0.00 0.56 0.72 0.00 0.00 0.00 0.00 0.00 0.00 0.00 0.00 0.00 0.00 0.81 0.00 0.00 0.00 0.00 0.51 0.83 0.87 0.00 0.00 0.00 0.94 0.00 0.00 0.00 0.00
0.91 0.00 0.00 0.00 0.00 0.00 0.61 0.00 0.00 0.00 0.00 0.00 0.00 0.00 0.00 0.62 0.00 0.00 0.00 0.00 0.00 0.00 0.56 0.00 0.00 0.00 0.00 0.00 0.00 0.00 0.00 0.00 0.00 0.00 0.00 0.00 0.69 0.00 0.00 0.71 0.00 0.95 0.72 0.00 0.55 0.00 0.00 0.00 0.00 0.00 0.00 0.00 0.00 0.00 0.00 0.00 0.00 0.00 0.00 0.00 0.00 0.00 0.00 0.00 0.00 0.00 0.00 0.00 0.00 0.00 0.00 0.00 0.00 0.00 0.00 0.00 0.88 0.80 0.85 0.00 0.00 0.00 0.51 0.00 0.00 0.00 0.00 0.58 0.00 0.00 0.00 0.00 0.00 0.92 0.00 0.00 0.00 0.00 0.00 0.00 0.00 0.00 0.00 0.00 0.00 0.00 0.00 0.00 0.00 0.00 0.55 0.73 0.00 0.00 0.00 0.00 0.00 0.00 0.00 0.76 0.00 0.00 0.00 0.00 0.00 0.00 0.70 0.00 0.00 0.00 0.00 0.00 0.00 0.00 0.00 0.90 0.79 0.00 0.00 0.00
0.00 0.00 0.00 0.56 0.00 0.00 0.50 0.00 0.00 0.00 0.00 0.00 0.00 0.54 0.00 0.00 0.00 0.58 0.00 0.57 0.75 0.00 0.79 0.00 0.66 0.00 0.78 0.00 0.69 0.54 0.97 0.00 0.00 0.00 0.00 0.61 0.00 0.00 0.00 0.00 0.00 0.00 0.00 0.00 0.00 0.00 0.00 0.00 0.00 0.00 0.81 0.00 0.53 0.00 0.00 0.00 0.00 0.00 0.00 0.00 0.00 0.82 0.00 0.00 0.77 0.82 0.84 0.00 0.00 0.00 0.00 0.00 0.00 0.00 0.00 0.81 0.00 0.56 0.88 0.00 0.00 0.52 0.00 0.00 0.00 0.99 0.00 0.00 0.00 0.00 0.80 0.00 0.00 0.00 0.00 0.00 0.00 0.00 0.00 0.00 0.00 0.00 0.00 0.00 0.00 0.00 0.00 0.00 0.00 0.84 0.00 0.00 0.00 0.00 0.00 0.00 0.00 0.00 0.00 0.00 0.00 0.92 0.00 0.75 0.00 0.00 0.00 0.00 0.00 0.00 0.78 0.00 0.00 0.00 0.92 0.00 0.00 0.00 0.00 0.00
0.00 0.00 0.00 0.00 0.56 0.00 0.00 0.00 0.00 0.00 0.60 0.88 0.00 0.78 0.00 0.00 0.00 0.99 0.61 0.00 0.00 0.00 0.60 0.00 0.00 0.65 0.00 0.00 0.00 0.00 0.00 0.00 0.00 0.00 0.00 0.84 0.00 0.00 0.00 0.00 0.00 0.00 0.90 0.00 0.00 0.00 0.00 0.00 0.00 0.00 0.58 0.00 0.00 0.69 0.00 0.00 0.00 0.00 0.00 0.00 0.00 0.00 0.00 0.52 0.00 0.00 0.00 0.00 0.00 0.53 0.00 0.00 0.00 0.65 0.52 0.00 0.68 0.00 0.00 0.00 0.00 0.00 0.00 0.00 0.00 0.00 0.00 0.64 0.78 0.00 1.00 0.75 0.00 0.00 0.78 0.59 0.00 0.00 0.55 0.00 0.00 0.00 0.00 0.00 0.00 0.95 0.00 0.00 0.89 0.00 0.00 0.00 0.00 0.00 0.00 0.00 0.00 0.00 0.00 0.00 0.00 0.69 0.89 0.00 0.00 0.73 0.00 0.00 0.69 0.00 0.00 0.00 0.66 0.80 0.90 0.00 0.00 0.00 0.00 0.00
0.00 0.00 0.00 0.00 0.00 0.89 0.92 0.63 0.00 0.96 0.77 0.00 0.00 0.00 0.00 0.00 0.00 0.00 0.60 0.00 0.00 0.00 0.00 0.00 0.00 0.83 0.00 0.00 0.00 0.00 0.00 0.00 0.00 0.00 0.00 0.92 0.00 0.00 0.00 0.59 0.00 0.00 0.89 0.90 0.00 0.00 0.00 0.00 0.00 0.00 0.00 0.99 0.00 0.00 0.00 0.00 0.00 0.00 0.00 0.00 0.00 0.00 0.00 0.75 0.60 0.00 0.00 0.00 0.00 0.00 0.00 0.00 0.00 0.00 0.00 0.70 0.64 0.00 0.00 0.00 0.00 0.62 0.00 0.00 0.00 0.00 0.00 0.00 0.00 0.00 0.00 0.00 0.81 0.00 0.00 0.00 0.83 0.00 0.00 0.00 0.68 0.00 0.00 0.00 0.76 0.00 0.00 0.92 0.00 0.00 0.00 0.00 0.00 0.00 0.71 0.00 0.52 0.00 0.58 0.00 0.00 0.57 0.51 0.00 0.00 0.00 0.00 0.70 0.00 0.62 0.00 0.00 0.00 0.00 0.00 0.00 0.99 0.00 0.00 0.00
0.00 0.00 0.00 0.00 0.81 0.65 0.00 0.70 0.55 0.00 0.00 0.60 0.00 0.00 0.00 0.61 0.00 0.62 0.00 0.00 0.00 0.00 0.00 0.00 0.00 0.00 0.64 0.00 0.00 0.00 0.00 0.00 0.00 0.00 0.00 0.00 0.00 0.00 0.00 0.00 0.00 0.00 0.00 0.00 0.00 0.00 0.00 0.00 0.00 0.00 0.74 0.00 0.61 0.00 0.00 0.00 0.00 0.00 0.00 0.00 0.00 0.00 0.00 0.00 0.00 0.00 0.79 0.00 0.00 0.71 0.00 0.00 0.00 0.00 0.00 0.00 0.00 0.00 0.96 0.00 0.00 0.00 0.74 0.00 0.00 0.00 0.00 0.00 0.00 0.00 0.00 0.00 0.00 0.00 0.00 0.00 0.00 0.66 0.80 0.00 0.00 0.00 0.00 0.67 0.81 0.00 0.00 0.00 0.00 0.00 0.91 0.00 0.00 0.00 0.00 0.00 0.00 0.59 0.00 0.00 0.00 0.00 0.00 0.00 0.00 0.00 0.00 0.00 0.00 0.00 0.00 0.00 0.74 0.00 0.00 0.00 0.68 0.52 0.00 0.97
0.00 0.00 0.00 0.00 0.00 0.00 0.00 0.00 0.99 0.00 0.00 0.00 0.00 0.00 0.00 0.80 0.00 0.00 0.00 0.00 0.00 0.00 0.00 0.00 0.00 0.00 0.57 0.00 0.00 0.00 0.00 0.00 0.00 0.00 0.00 0.00 0.00 0.00 0.00 0.00 0.00 0.00 0.85 0.00 0.00 0.86 0.93 0.00 0.00 0.81 0.00 0.83 0.00 0.00 0.00 0.00 0.00 0.00 0.00 0.00 0.00 0.00 0.00 0.72 0.00 0.00 0.00 0.00 0.00 0.00 0.00 0.00 0.96 0.00 0.00 0.55 0.81 0.00 0.00 0.00 0.00 0.00 0.00 0.00 0.00 0.00 0.00 0.00 0.00 0.87 0.00 0.00 0.00 0.00 0.00 0.00 0.63 0.00 0.00 0.79 0.00 0.00 0.76 0.00 0.00 0.00 0.00 0.98 0.81 0.00 0.00 0.00 0.00 0.00 0.00 0.00 0.00 0.58 0.00 0.00 0.61 0.87 0.00 0.00 0.00 0.00 0.00 0.00 0.00 0.00 0.00 0.86 0.92 0.76 0.00 0.00 0.00 0.00 0.94 0.80
0.00 0.54 0.00 0.54 0.00 0.00 0.00 0.68 0.76 0.00 0.00 0.00 0.00 0.00 0.00 0.00 0.00 0.00 0.00 0.00 0.00 0.00 0.00 0.00 0.79 0.00 0.00 0.00 0.79 0.00 0.00 0.00 0.00 0.00 0.00 0.00 0.00 0.00 0.00 0.00 0.00 0.00 0.55 0.00 0.00 0.00 0.00 0.00 0.00 0.00 0.00 0.85 0.98 0.84 0.00 0.00 0.00 0.00 0.00 0.00 0.00 0.93 0.00 0.00 0.00 0.64 0.73 0.83 0.00 0.00 0.58 0.65 0.93 0.00 0.00 0.00 0.00 0.00 0.00 0.83 0.78 0.00 0.77 0.57 0.92 0.00 0.65 0.00 0.00 0.82 0.00 0.00 0.00 0.00 0.00 0.52 0.00 0.00 0.00 0.67 0.00 0.00 0.00 0.83 0.99 0.00 0.56 0.00 0.88 0.00 0.00 0.00 0.00 0.00 0.66 0.00 0.00 0.00 0.00 0.00 0.00 0.00 0.00 0.00 0.00 0.00 0.00 0.00 0.00 0.00 0.00 0.00 0.00 0.99 0.59 0.00 0.00 0.00 0.76 0.00
0.00 0.00 0.00 0.00 0.91 0.00 0.89 0.89 0.00 0.00 0.00 0.00 0.63 0.00 0.00 0.00 0.00 0.00 0.57 0.87 0.96 0.00 0.80 0.00 0.00 0.00 0.00 0.55 0.00 0.00 0.00 0.00 0.00 0.00 0.00 0.00 0.00 0.00 0.00 0.74 0.00 0.00 0.00 0.00 0.00 0.00 0.00 0.52 0.00 0.00 0.00 0.00 0.00 0.98 0.96 0.00 0.00 0.00 0.00 0.00 0.00 0.56 0.00 0.00 0.70 0.00 0.84 0.00 0.00 0.00 0.00 0.00 0.58 0.95 0.00 0.00 0.00 0.00 0.00 0.00 0.87 0.00 0.00 0.00 0.00 0.85 0.00 0.00 0.66 0.00 0.00 0.00 0.00 0.00 0.88 0.00 0.97 0.00 0.58 0.00 0.00 0.00 0.00 0.00 0.00 0.00 0.00 0.00 0.91 0.00 0.00 0.94 0.00 0.00 0.70 0.00 0.00 0.00 0.00 0.00 0.00 0.84 0.00 0.00 0.82 0.00 0.00 0.00 0.59 0.00 0.00 0.00 0.00 0.00 0.00 0.76 0.00 0.00 0.00 0.00
0.00 0.00 0.00 0.00 0.00 0.00 0.00 0.94 0.00 0.00 0.54 0.00 0.81 0.91 0.00 0.00 0.82 0.00 0.84 0.00 0.00 0.00 0.00 0.00 0.99 0.00 0.00 0.00 0.00 0.00 0.93 0.00 0.00 0.00 0.00 0.57 0.00 0.00 0.00 0.00 0.00 0.00 0.00 0.00 0.00 0.00 0.58 0.00 0.63 0.00 0.00 0.00 0.00 0.00 0.00 0.00 0.00 0.00 0.65 0.00 0.00 0.86 0.00 0.89 0.00 0.00 0.00 0.00 0.00 0.90 0.00 0.00 0.00 0.00 0.00 0.68 0.00 0.00 0.59 0.00 0.00 0.00 0.70 0.00 0.00 0.00 0.88 0.00 0.00 0.00 0.00 0.60 0.00 0.00 0.00 0.00 0.79 0.89 0.00 0.00 0.00 0.00 0.00 0.57 0.00 0.00 0.00 0.00 0.00 0.00 0.00 0.00 0.00 0.00 0.00 0.66 0.00 0.92 0.00 0.00 0.00 0.00 0.00 0.00 0.00 0.00 0.00 0.00 0.00 0.72 0.00 0.00 0.00 0.00 0.00 0.00 0.00 0.00 0.00 0.00
0.68 0.00 0.00 0.00 0.00 0.00 0.00 0.87 0.00 0.97 0.00 0.75 0.00 0.00 0.00 0.00 0.98 0.00 0.61 0.00 0.00 0.90 0.00 0.00 0.59 0.00 0.00 0.00 0.00 0.00 0.00 0.00 0.00 0.00 0.00 0.00 0.00 0.87 0.00 0.00 0.00 0.00 0.00 0.00 0.00 0.00 0.00 0.00 0.00 0.00 0.64 0.00 0.00 0.53 0.00 0.00 0.78 0.00 0.00 0.93 0.62 0.00 0.69 0.00 0.00 0.86 0.00 0.00 0.00 0.00 0.00 0.00 0.00 0.00 0.00 0.00 0.77 0.00 0.00 0.00 0.73 0.00 0.00 0.00 0.00 0.00 0.00 0.64 0.00 0.00 0.00 0.00 0.00 0.00 0.00 0.00 0.00 0.00 0.00 0.00 0.00 0.00 0.62 0.00 0.00 0.68 0.00 0.00 0.00 0.00 0.00 0.91 0.00 0.00 0.93 0.57 0.00 0.00 0.00 0.00 0.00 0.00 0.74 0.00 0.00 0.00 0.00 0.00 0.00 0.00 0.98 0.00 0.82 0.61 0.00 0.76 0.00 0.00 0.00 0.58
0.98 0.00 0.00 0.00 0.00 0.00 0.00 0.00 0.00 0.00 0.00 0.00 0.73 0.00 0.00 0.00 0.00 0.00 0.88 0.00 0.00 0.52 0.56 0.00 0.58 0.57 0.00 0.00 0.00 0.00 0.00 0.00 0.00 0.00 0.00 0.00 0.00 0.00 0.00 0.00 0.00 0.00 0.00 0.00 0.52 0.00 0.00 0.74 0.00 0.00 0.85 0.00 0.00 0.00 0.00 0.00 0.00 0.87 0.00 0.95 0.00 0.00 0.00 0.00 0.00 0.00 0.63 0.00 0.00 0.00 0.00 0.00 0.00 0.00 0.00 0.00 0.00 0.64 0.00 0.00 0.00 0.71 0.00 0.55 0.00 0.66 0.00 0.00 0.00 0.00 0.00 0.00 0.00 0.00 0.00 0.00 0.00 0.00 0.00 0.00 0.00 0.00 0.00 0.00 0.00 0.64 0.00 0.00 0.00 0.00 0.00 0.00 0.60 0.78 0.62 0.87 0.00 0.00 0.00 0.00 0.00 0.92 0.00 0.00 0.00 0.00 0.00 0.00 0.94 0.00 1.00 0.00 0.00 0.72 0.74 0.00 0.00 0.00 0.60 0.00
0.00 0.77 0.67 0.97 0.54 0.00 0.00 0.00 0.00 0.00 0.00 0.00 0.00 0.00 0.00 0.00 0.00 0.00 0.00 0.00 0.00 0.97 0.00 0.00 0.00 0.00 0.00 0.00 0.00 0.00 0.00 0.59 0.00 0.00 0.00 0.00 0.00 0.00 0.00 0.00 0.58 0.72 0.00 0.00 0.00 0.69 0.00 0.00 0.00 0.00 0.92 0.00 0.00 0.00 0.00 0.00 0.00 0.56 0.00 0.00 0.00 0.00 0.00 0.80 0.75 0.00 0.00 0.87 0.00 0.91 0.00 0.86 0.00 0.00 0.00 0.54 0.00 0.00 0.71 0.00 0.00 0.00 0.00 0.00 0.00 0.00 0.00 0.00 0.89 0.00 0.00 0.00 0.00 0.59 0.87 0.00 0.00 0.00 0.95 0.00 0.00 0.96 0.00 0.00 0.00 0.68 0.00 0.00 0.00 1.00 0.85 0.00 0.00 0.00 0.00 0.82 0.00 0.00 0.64 0.94 0.00 0.00 0.00 0.00 0.00 0.88 0.00 0.00 0.00 0.00 0.00 0.00 0.00 0.00 0.00 0.00 0.00 0.00 0.00 0.00
0.00 0.00 0.00 0.00 0.00 0.00 0.00 0.00 0.00 0.00 0.00 0.81 0.59 0.00 0.00 0.00 0.00 0.00 0.00 0.00 0.00 0.00 0.62 0.00 0.00 0.00 0.00 0.00 0.00 0.00 0.94 0.00 0.00 0.00 0.00 0.81 0.00 0.00 0.72 0.00 0.00 0.00 0.00 0.00 0.61 0.63 0.00 0.00 0.00 0.00 0.00 0.00 0.00 0.00 0.00 0.92 0.00 0.00 0.95 0.73 0.59 0.00 0.00 0.00 0.00 0.00 0.00 0.67 0.75 0.00 0.99 0.00 0.00 0.00 0.00 0.00 0.00 0.00 0.00 0.81 0.00 0.00 0.00 0.68 0.00 0.00 0.00 0.00 0.00 0.00 0.87 0.00 0.97 0.00 0.00 0.00 0.62 0.56 0.00 0.00 0.00 0.00 0.00 0.00 0.00 0.73 0.00 0.00 0.00 0.00 0.81 0.58 0.00 0.00 0.60 0.00 0.94 0.00 0.00 0.78 0.00 0.00 0.00 0.00 0.81 0.79 0.00 0.00 0.58 0.00 0.00 0.00 0.00 0.62 0.00 0.00 0.92 0.00 0.51 0.00
0.00 0.00 0.00 0.00 0.00 0.00 0.60 0.00 0.97 0.00 0.00 0.00 0.00 0.00 0.00 0.83 0.52 0.00 0.56 0.00 0.77 0.00 0.71 0.00 0.00 0.00 0.55 0.00 0.00 0.00 0.00 0.00 0.00 0.98 0.00 0.00 0.00 0.00 0.00 0.00 0.86 0.00 0.77 0.00 0.71 0.00 0.00 0.57 0.00 0.00 0.97 0.00 0.75 0.00 0.00 0.00 0.00 0.00 0.00 0.00 0.73 0.00 0.00 0.00 0.00 0.00 0.60 0.51 0.00 0.00 0.00 0.00 0.80 0.00 0.00 0.00 0.00 0.00 0.00 0.00 0.00 0.00 0.00 0.00 0.00 0.00 0.91 0.99 0.00 0.00 0.00 0.00 0.00 0.87 0.89 0.00 0.00 0.00 0.00 0.00 0.00 0.00 0.00 0.00 0.84 0.00 0.00 0.00 0.00 0.00 0.00 0.00 0.57 0.00 0.00 0.00 0.84 0.61 0.00 0.00 0.00 0.00 0.00 0.00 0.00 0.00 0.63 0.53 0.00 0.00 0.00 0.00 0.00 0.00 0.00 0.00 0.00 0.00 0.00 0.00
0.00 0.00 0.00 0.00 0.00 0.00 0.76 0.52 0.62 0.00 0.00 0.00 0.00 0.83 0.00 0.00 0.00 0.72 0.00 0.00 0.00 0.00 0.00 0.00 0.00 0.00 0.00 0.64 0.00 0.00 0.00 0.00 0.00 0.60 0.59 0.97 0.00 0.61 0.95 0.00 0.00 0.00 0.50 0.00 0.00 0.95 0.00 0.00 0.00 0.83 0.00 0.00 0.73 0.66 0.90 0.00 0.00 0.00 0.00 0.00 0.00 0.00 0.00 0.00 0.00 0.00 0.00 0.00 0.55 0.00 0.00 0.00 0.00 0.00 0.00 0.61 0.00 0.00 0.00 0.00 0.00 0.84 0.68 0.00 0.00 0.88 0.00 0.00 0.00 0.00 0.00 0.00 0.00 0.00 0.00 0.00 0.00 0.00 0.00 0.00 0.85 0.00 0.00 0.95 0.62 0.00 0.00 0.00 0.73 0.00 0.00 0.58 0.00 0.00 0.00 0.00 0.00 0.86 0.00 0.00 0.57 0.00 0.91 0.96 0.00 0.00 0.00 0.00 0.57 0.00 0.00 0.60 0.00 0.00 0.93 0.00 0.00 0.91 0.00 0.00
0.92 0.00 0.68 0.00 0.90 0.00 0.00 0.00 0.00 0.00 0.00 0.00 0.00 0.00 0.53 0.00 0.00 0.00 0.00 0.50 0.00 0.00 0.00 0.00 0.00 0.00 0.00 0.00 0.93 0.90 0.00 0.84 0.00 0.00 0.75 0.00 0.89 0.00 0.82 0.00 0.00 0.71 0.00 0.00 0.00 0.00 0.93 0.00 0.00 0.88 0.00 0.75 0.00 0.00 0.00 0.00 0.00 0.00 0.00 0.52 0.00 0.00 0.61 0.00 0.69 0.51 0.76 0.00 0.00 0.93 0.00 0.64 0.00 0.00 0.00 0.84 0.63 0.00 0.82 0.00 0.00 0.65 0.00 0.00 0.00 0.00 0.93 0.00 0.00 0.00 0.00 0.00 0.00 0.66 0.00 0.00 0.00 0.64 0.00 0.00 0.00 0.00 0.00 0.00 0.00 0.55 0.00 0.00 0.00 0.00 0.00 0.74 0.00 0.00 0.00 0.00 0.00 0.69 0.80 0.00 0.50 0.00 0.00 0.00 0.00 0.00 0.00 0.66 0.00 0.00 0.00 0.00 0.00 0.00 0.00 0.00 0.65 0.00 0.00 0.00
0.00 0.00 0.96 0.00 0.00 0.00 0.00 0.00 0.00 0.00 0.00 0.00 0.93 0.00 0.00 0.00 0.00 0.00 0.00 0.77 0.00 0.00 0.00 0.00 0.00 0.66 0.00 0.57 0.00 0.99 0.83 0.00 0.00 0.00 0.00 0.00 0.00 0.52 0.97 0.00 0.00 0.68 0.00 0.00 0.00 0.62 0.68 0.00 0.00 0.00 0.00 0.00 0.00 0.00 0.00 0.72 0.00 0.00 0.00 0.00 0.00 0.00 0.89 0.00 0.00 0.00 0.99 0.00 0.00 0.00 0.70 0.00 0.00 0.61 0.00 0.00 0.00 0.00 0.62 0.00 0.00 0.00 0.00 0.00 0.00 0.00 0.54 0.00 0.00 0.90 0.00 0.00 0.00 0.61 0.00 0.00 0.00 0.00 0.95 0.60 0.00 0.00 0.00 0.00 0.00 0.00 0.00 0.00 0.00 0.00 0.00 0.89 0.00 0.00 0.73 0.00 0.00 0.00 0.00 0.00 0.00 0.00 0.00 0.91 0.00 0.62 0.59 0.00 0.00 0.00 0.00 0.00 0.00 0.00 0.00 0.70 1.00 0.74 0.00 0.00
0.79 0.87 0.00 0.00 0.00 0.00 0.00 0.00 0.00 0.00 0.00 0.00 0.78 0.00 0.97 0.00 0.00 0.00 0.00 0.00 0.00 0.63 0.00 0.00 0.00 0.00 0.00 0.00 0.00 0.00 0.00 0.93 0.00 0.00 0.00 0.00 0.84 0.00 0.00 0.00 0.00 0.00 0.00 0.65 0.00 0.00 0.00 0.56 0.00 0.00 0.98 0.00 0.00 0.00 0.00 0.00 0.00 0.00 0.00 0.57 0.00 0.59 0.00 0.88 0.00 0.00 0.00 0.00 0.00 0.00 0.00 0.00 0.00 0.00 0.00 0.62 0.00 0.00 0.00 0.00 0.00 0.76 0.00 0.00 0.00 0.00 0.00 0.00 0.00 0.00 0.69 0.00 0.00 0.00 0.00 0.00 0.00 0.00 0.00 0.00 0.00 0.00 0.00 0.71 0.85 0.00 0.70 0.00 0.00 0.00 0.00 0.00 0.00 0.00 0.52 0.00 0.00 0.00 0.00 0.00 0.00 0.00 0.00 0.77 0.00 0.00 0.00 0.00 0.00 0.00 0.91 0.53 0.00 0.00 0.00 0.00 0.00 0.78 0.00 0.64
0.00 0.00 0.00 0.00 0.00 0.00 0.00 0.00 0.00 0.00 0.69 0.00 0.00 0.00 0.00 0.00 0.00 0.81 0.85 0.00 0.00 0.00 0.00 0.59 0.97 0.00 0.00 0.00 0.00 0.00 0.00 0.73 0.00 0.00 0.00 0.00 0.00 0.00 0.00 0.00 0.00 0.85 0.00 0.00 0.00 0.00 0.00 0.81 0.00 0.00 0.00 0.00 0.00 0.00 0.00 0.00 0.00 0.00 0.00 0.00 0.00 0.00 0.00 0.00 0.00 0.00 0.00 0.00 0.00 0.00 0.00 0.88 0.00 0.00 0.00 0.00 0.67 0.00 0.61 1.00 0.00 0.00 0.00 0.66 0.00 0.00 0.00 0.93 0.00 0.64 0.00 0.00 0.00 0.85 0.00 0.00 0.00 0.00 0.70 0.00 0.00 0.00 0.00 0.00 0.00 0.00 0.00 0.92 0.00 0.00 0.00 0.00 0.00 0.00 0.86 0.00 0.00 0.85 0.00 0.00 0.68 0.00 0.00 0.00 0.00 0.00 0.00 0.00 0.00 0.00 0.00 0.00 0.00 0.98 0.00 0.00 0.00 0.00 0.54 0.56
0.60 0.00 0.00 0.00 0.00 0.00 0.00 1.00 0.73 0.00 0.00 0.00 0.00 0.00 0.00 0.00 0.00 0.00 0.86 0.00 0.00 0.00 0.00 0.81 0.00 0.00 0.00 0.62 0.00 0.00 0.00 0.00 0.00 0.81 0.00 0.62 0.00 0.00 0.00 0.00 0.00 0.89 0.00 0.00 0.00 0.74 0.00 0.00 0.00 0.00 0.00 0.00 0.00 0.00 0.00 0.00 0.00 0.00 0.00 0.00 0.00 0.00 0.88 0.60 0.00 0.00 0.00 0.00 0.00 0.00 0.00 0.60 0.00 0.00 0.00 0.00 0.00 0.00 0.00 0.00 0.00 0.00 0.00 0.00 0.92 0.00 0.00 0.00 0.65 0.00 0.00 0.00 0.00 0.00 0.00 0.00 0.00 0.00 0.00 0.00 0.00 0.81 0.00 0.00 0.72 0.00 0.00 0.00 0.99 0.00 0.00 0.00 0.00 0.00 0.00 0.00 0.00 0.00 0.00 0.00 0.00 0.00 0.00 0.62 0.00 0.00 0.00 0.51 0.00 0.65 0.97 0.89 0.00 0.00 0.87 0.51 0.63 0.00 0.00 0.00
0.89 0.67 0.00 0.69 0.00 0.00 0.00 0.00 0.00 0.00 0.00 0.00 0.00 0.00 0.00 0.00 0.69 0.00 0.00 0.00 0.00 0.00 0.00 0.00 0.92 0.00 0.62 0.00 0.87 0.00 0.00 0.00 0.00 0.51 0.00 0.00 0.00 0.00 0.00 0.00 0.74 0.00 0.88 0.00 0.00 0.85 0.00 0.00 0.00 0.00 0.00 0.00 0.00 0.00 0.00 0.00 0.00 0.54 0.00 0.00 0.00 0.00 0.00 0.82 0.79 0.94 0.00 0.00 0.68 0.00 0.00 0.00 0.00 0.00 0.60 0.00 0.91 0.00 0.60 0.00 0.00 0.00 0.87 0.00 0.98 0.00 0.00 0.54 0.79 0.00 0.00 0.00 0.00 0.00 0.00 0.00 0.66 0.00 0.00 0.00 0.59 0.64 0.00 0.50 0.00 0.00 0.00 0.53 0.00 0.00 0.00 0.00 0.63 0.00 0.00 0.00 0.00 0.00 0.54 0.00 0.00 0.00 0.00 0.77 0.73 0.00 0.00 0.00 0.93 0.72 0.75 0.00 0.00 0.00 0.00 0.69 0.00 0.00 0.00 0.00
0.00 0.00 0.00 0.00 0.00 0.00 0.00 0.00 0.61 0.00 0.00 0.00 0.00 0.90 0.00 0.00 0.00 0.00 0.00 0.72 0.00 0.00 0.69 0.00 0.00 0.00 0.00 0.00 0.00 0.00 0.00 0.00 0.00 0.00 0.79 0.00 0.00 0.59 0.00 0.00 0.00 0.00 0.00 0.00 0.00 0.75 0.00 0.83 0.00 0.87 0.00 0.00 0.00 0.00 0.00 0.92 0.00 0.00 0.90 0.85 0.00 0.00 0.00 0.00 0.00 0.00 0.71 0.00 0.00 0.90 0.72 0.00 0.00 0.00 0.00 0.94 0.00 0.00 0.00 0.73 0.81 0.00 0.00 0.00 0.00 0.00 0.00 0.00 0.00 0.00 0.00 0.00 0.00 0.00 0.00 0.00 0.72 0.00 0.00 0.00 0.00 0.00 0.00 0.00 0.00 0.00 0.00 0.00 0.00 0.76 0.00 0.00 0.84 0.00 0.00 0.62 0.00 0.00 0.00 0.00 0.00 0.00 0.00 0.59 0.00 0.00 0.00 0.59 0.00 0.00 0.00 0.00 0.00 0.57 0.61 0.77 0.00 0.00 0.00 0.75
0.00 0.00 0.95 0.93 0.00 0.00 0.00 0.00 0.00 0.00 0.00 0.00 0.00 0.00 0.00 0.00 0.00 0.00 0.00 0.00 0.00 0.00 0.00 0.00 0.00 0.00 0.58 0.00 0.62 0.00 0.00 0.00 0.00 0.00 0.00 0.00 0.00 0.00 0.00 0.70 0.55 0.61 0.00 0.00 0.00 0.00 0.00 0.79 0.72 0.00 0.00 0.00 0.00 0.00 0.00 0.00 0.00 0.00 0.00 0.00 0.00 0.80 0.67 0.00 0.50 0.00 0.76 0.00 0.00 0.00 0.61 0.00 0.00 0.00 0.00 0.00 0.00 0.00 0.00 0.00 0.00 0.00 0.81 0.00 0.00 0.00 0.00 0.00 0.00 0.00 0.00 0.00 0.00 0.00 0.00 0.00 0.00 0.84 0.00 0.00 0.00 0.00 0.00 0.93 0.00 0.00 0.00 0.00 0.00 0.00 0.83 0.56 0.00 0.00 0.00 0.00 0.94 0.00 0.00 0.00 0.00 0.79 0.00 0.00 0.00 0.00 0.00 0.00 0.00 0.59 0.00 0.00 0.55 0.00 0.00 0.00 0.00 0.00 0.00 0.00
0.00 0.00 0.00 0.00 0.69 0.00 0.00 0.77 0.00 0.00 0.00 0.00 0.00 0.79 0.86 0.00 0.00 0.87 0.00 0.00 0.00 0.00 0.00 0.00 0.54 0.00 0.00 0.83 0.00 0.00 0.00 0.00 0.00 0.00 0.00 0.00 0.00 0.00 0.00 0.00 0.00 0.64 0.00 0.00 0.00 0.00 0.61 0.00 0.00 0.00 0.00 0.00 0.81 0.00 0.77 0.00 0.00 0.00 0.85 0.76 0.00 0.00 0.00 0.00 0.00 0.85 0.00 0.00 0.00 0.00 0.00 0.00 0.00 0.00 0.00 0.00 0.00 0.00 0.00 0.00 0.00 0.00 0.00 0.00 0.00 0.00 0.00 0.00 0.00 0.00 0.00 0.00 0.00 0.00 0.78 0.00 0.93 0.57 0.00 0.00 0.00 0.00 0.00 0.77 0.00 0.00 0.00 0.00 0.00 0.00 0.60 0.00 0.00 0.00 0.00 0.00 0.00 0.51 0.00 0.00 0.84 0.53 0.66 0.00 0.00 0.00 0.00 0.00 0.00 0.00 0.00 0.00 0.72 0.00 0.00 0.94 0.67 0.00 0.00 0.00
0.95 0.00 0.86 0.00 0.00 0.00 0.00 0.00 0.00 0.00 0.00 0.00 0.90 0.83 0.00 0.00 0.00 0.00 0.00 0.00 0.00 0.00 0.00 0.00 0.79 0.00 0.00 0.00 0.00 0.81 0.00 0.79 0.00 0.00 0.00 0.00 0.00 0.00 0.00 0.00 0.00 0.00 0.00 0.00 0.00 0.00 0.84 0.00 0.00 0.00 0.00 0.00 0.00 0.00 0.00 0.89 0.00 0.00 0.00 0.00 0.00 0.00 0.00 0.00 0.87 0.00 0.00 0.00 0.69 0.91 0.00 0.52 0.00 0.00 0.00 0.00 0.00 0.66 0.00 0.82 0.00 0.00 0.00 0.00 0.00 0.00 0.00 0.00 0.00 0.86 0.71 0.00 0.00 0.00 0.00 0.00 0.00 0.00 0.00 0.86 0.00 0.00 0.00 0.00 0.00 0.00 0.00 0.00 0.56 0.00 0.00 0.00 0.57 0.00 0.00 0.00 0.00 0.00 0.00 0.00 0.00 0.00 0.00 0.00 0.00 0.00 0.00 0.67 0.00 0.00 0.51 0.00 0.00 0.00 0.00 0.00 0.00 0.00 0.00 0.00
0.00 0.00 0.00 0.55 0.00 0.00 0.51 0.72 0.00 0.00 0.78 0.00 0.00 0.00 0.00 0.00 0.00 0.00 0.00 0.00 0.00 0.00 0.00 0.00 0.00 0.94 0.00 0.53 0.74 0.94 0.00 0.00 0.00 0.72 0.00 0.00 0.56 0.00 0.00 0.00 0.00 0.00 0.00 0.00 0.77 0.00 0.00 0.00 0.00 0.00 0.00 0.00 0.00 0.00 0.00 0.00 0.52 0.57 0.00 0.63 0.97 0.00 0.00 0.00 0.88 0.00 0.00 0.00 0.00 0.00 0.93 0.00 0.67 0.69 0.00 0.80 0.63 0.00 0.00 0.66 0.00 1.00 0.00 0.00 0.00 0.00 0.78 0.00 0.00 0.00 0.00 0.00 0.00 0.00 0.00 0.00 0.00 0.00 0.60 0.00 0.51 0.00 0.00 0.00 0.00 0.00 0.00 0.00 0.76 0.00 0.94 0.00 0.83 0.00 0.00 0.00 0.00 0.76 0.00 0.00 0.00 0.00 0.00 0.70 0.00 0.00 0.00 0.55 0.00 0.00 0.63 0.00 0.71 0.56 0.00 0.93 0.00 0.00 0.00 0.00
0.91 0.88 0.00 0.55 0.00 0.00 0.92 0.59 0.00 0.97 0.00 0.00 0.00 0.00 0.00 0.00 0.00 0.00 0.81 0.75 0.98 0.70 0.00 0.00 0.00 0.74 0.63 0.00 0.00 0.00 0.00 0.00 0.00 0.54 0.00 0.58 0.00 0.00 0.00 0.00 0.00 0.00 0.00 0.00 0.00 0.72 0.00 0.56 0.00 0.83 0.00 0.97 0.91 0.56 0.00 0.00 0.00 0.00 0.00 0.00 0.77 0.00 0.00 0.00 0.00 0.00 0.00 0.00 0.00 0.00 0.00 0.00 0.00 0.00 0.00 0.00 0.99 0.00 0.98 0.00 0.00 0.68 0.00 0.00 0.00 0.00 0.00 0.00 0.00 0.62 0.91 0.00 0.00 0.98 0.00 0.00 0.00 0.62 0.91 0.00 0.65 0.00 0.00 0.00 0.00 0.00 0.00 0.00 0.00 0.00 0.00 0.00 0.00 0.00 0.00 0.00 0.00 0.95 0.00 0.65 0.00 0.00 0.00 0.58 0.00 0.00 0.00 0.85 0.00 0.00 0.00 0.00 0.00 0.00 0.00 0.00 0.00 0.00 0.00 0.00
0.00 0.00 0.00 0.00 0.00 0.00 0.00 0.83 0.00 0.00 0.00 0.00 0.00 0.00 0.00 0.00 0.00 0.83 0.00 0.00 0.00 0.58 0.98 0.00 0.00 0.00 0.00 0.00 0.92 0.00 0.00 0.00 0.00 0.00 0.00 0.00 0.00 0.56 0.00 0.64 0.00 0.89 0.00 0.00 0.00 0.00 0.00 0.00 0.00 0.75 0.00 0.00 0.00 0.00 1.00 0.00 0.00 0.00 0.58 0.00 0.00 0.00 0.00 0.00 0.00 0.00 0.00 0.00 0.71 0.00 0.00 0.00 0.94 0.00 0.00 0.00 0.00 0.00 0.00 0.62 0.00 0.00 0.00 0.00 0.94 0.93 0.00 0.00 0.00 0.00 0.00 0.00 0.00 0.00 1.00 0.00 0.00 0.00 0.00 0.75 0.00 0.00 0.00 0.00 0.83 0.00 0.00 0.93 0.00 0.00 0.00 0.00 0.00 0.00 0.00 0.00 0.00 0.00 0.00 0.00 0.00 0.00 0.00 0.00 0.00 0.00 0.96 0.00 0.00 0.00 0.00 0.88 0.73 0.00 0.66 0.00 0.00 0.00 0.00 0.68
0.89 0.00 0.00 0.00 0.00 0.00 0.00 0.00 0.00 0.00 0.00 0.00 0.00 0.00 0.85 0.00 0.00 0.00 0.00 0.67 0.00 0.00 0.65 0.51 0.00 0.00 0.00 0.00 0.00 0.00 0.00 0.00 0.00 0.00 0.74 0.00 0.00 0.70 0.00 0.85 0.60 0.00 0.97 0.00 0.00 0.00 0.00 0.77 0.73 0.67 0.73 0.00 0.00 0.00 0.99 0.00 0.00 0.00 0.00 0.71 0.00 0.61 0.00 0.68 0.00 0.00 0.00 0.76 0.00 0.00 0.93 0.65 0.00 0.00 0.00 0.70 0.83 0.99 0.00 0.76 0.00 0.00 0.00 0.00 0.00 0.00 0.00 0.00 0.00 0.00 0.00 0.00 0.00 0.00 0.00 0.58 0.00 0.00 0.00 0.00 0.60 0.00 0.00 0.80 0.00 0.00 0.00 0.00 0.58 0.77 0.99 0.00 0.00 0.00 0.57 0.00 0.00 0.00 0.00 0.00 0.00 0.00 0.66 0.00 0.93 0.00 0.00 0.91 0.00 0.00 0.00 0.00 0.94 0.75 0.00 0.00 0.00 0.00 0.00 0.00
0.00 0.00 0.00 0.00 0.00 0.00 0.87 0.95 0.00 0.00 0.00 0.00 0.00 0.61 0.00 0.00 0.00 0.00 0.68 0.00 0.00 0.00 0.00 0.00 0.00 0.82 0.00 0.00 0.60 0.00 0.00 0.00 0.00 0.00 0.00 0.65 0.00 0.00 0.00 0.00 0.00 0.00 0.00 0.72 0.60 0.00 0.00 0.00 0.00 0.00 0.00 0.00 0.00 0.00 0.00 0.00 0.52 0.00 0.00 0.00 0.00 0.00 0.89 0.00 0.00 0.00 0.00 0.00 0.60 0.00 0.00 0.00 0.00 0.00 0.00 0.00 0.00 0.00 0.00 0.00 0.84 0.00 0.00 0.00 0.00 0.97 0.00 0.00 0.00 0.71 0.00 0.00 0.00 0.00 0.65 0.00 0.00 0.90 0.00 0.76 0.90 0.90 0.00 0.00 0.00 0.00 0.00 0.81 0.00 0.00 0.00 0.00 0.00 0.81 0.00 0.00 0.00 0.00 0.59 0.00 0.00 0.00 0.00 0.00 0.00 0.59 0.00 0.68 0.00 0.00 0.00 0.00 0.54 0.00 0.80 0.00 0.00 0.00 0.61 0.00
0.00 0.00 0.00 0.00 0.00 0.95 0.00 0.00 0.00 0.00 0.00 0.00 0.00 0.00 0.00 0.78 0.00 0.00 0.92 0.98 0.00 0.00 0.86 0.00 0.00 0.00 0.00 0.00 0.00 0.61 0.00 0.00 0.00 0.92 0.00 0.00 0.00 0.00 0.52 0.00 0.00 0.72 0.00 0.00 0.00 0.00 0.00 0.00 0.00 0.00 0.00 0.00 0.00 0.00 0.00 0.00 0.00 0.00 0.00 0.00 0.00 0.00 0.00 0.84 0.79 0.00 0.00 0.00 0.00 0.00 0.53 0.00 0.00 0.00 0.65 0.00 0.00 0.00 0.00 0.00 0.00 0.00 0.92 0.00 0.00 0.00 0.00 0.00 0.00 0.55 0.00 0.00 0.79 0.00 0.00 0.00 0.00 0.00 0.00 0.55 0.00 0.00 0.00 0.81 0.00 0.67 0.00 0.00 0.00 0.00 0.74 0.85 0.00 0.00 0.00 0.00 0.00 0.00 0.00 0.51 0.00 0.00 0.00 0.00 0.00 0.56 0.91 0.00 0.00 0.00 0.00 0.00 0.00 0.52 0.00 0.00 0.00 0.00 0.00 0.00
0.00 0.00 0.00 0.00 0.00 0.00 0.00 0.00 0.00 0.80 0.92 0.00 0.00 0.00 0.93 0.81 0.00 0.00 0.00 0.00 0.00 0.00 0.83 0.00 0.00 0.00 0.00 0.00 0.93 0.00 0.00 0.00 0.00 0.00 0.59 0.00 0.00 0.00 0.00 0.00 0.00 0.00 0.00 0.00 0.00 0.00 0.00 0.00 0.57 0.00 0.00 0.00 0.00 0.00 0.00 0.00 0.00 0.00 0.00 0.00 0.00 0.62 0.54 0.00 0.61 0.00 0.63 0.00 0.00 0.00 0.00 0.00 0.53 0.00 0.00 0.00 0.00 0.00 0.00 0.00 0.00 0.89 0.00 0.00 0.88 0.66 0.00 0.00 0.00 0.62 0.91 0.00 0.00 0.00 0.00 0.00 0.00 0.00 0.00 0.81 0.84 0.00 0.00 0.00 0.00 0.00 0.00 0.00 0.00 0.00 0.00 0.00 0.00 0.00 0.00 0.00 0.00 0.00 0.00 0.00 0.87 0.00 0.58 0.00 0.00 0.00 0.88 0.00 0.00 0.00 0.00 0.00 0.00 0.00 0.00 0.78 0.00 0.00 0.96 0.00
0.00 0.00 0.00 0.96 0.00 0.00 0.70 0.00 0.95 0.00 0.00 0.00 0.00 0.00 0.00 0.00 0.00 0.68 0.00 0.00 0.84 0.85 0.98 0.00 0.00 0.78 0.00 0.96 0.00 0.00 0.00 0.62 0.00 0.75 0.00 0.88 0.00 0.00 0.00 0.00 0.00 1.00 0.00 0.51 0.00 0.00 0.00 0.62 1.00 0.94 0.00 0.50 0.92 0.00 0.00 0.00 0.75 0.00 0.99 0.87 0.00 0.56 0.00 0.00 0.00 0.00 0.00 0.00 0.00 0.00 0.54 0.89 0.00 0.00 0.00 0.00 0.00 0.89 0.00 0.00 0.00 0.00 0.52 0.00 0.00 0.00 0.00 0.00 0.00 0.00 0.00 0.00 0.00 0.00 0.00 0.00 0.85 0.00 0.74 0.00 0.00 0.00 0.00 0.00 0.00 0.00 0.00 0.00 0.00 0.00 0.00 0.00 0.00 0.00 0.00 0.92 0.00 0.00 0.89 0.00 0.00 0.00 0.00 0.00 0.00 0.00 0.00 0.00 0.54 0.00 0.00 0.00 0.60 0.00 0.00 0.63 0.00 0.00 0.00 0.00
0.00 0.00 0.00 0.00 0.00 0.00 0.00 0.00 0.00 0.00 0.00 0.00 0.00 0.00 0.00 0.00 0.00 0.00 0.55 0.00 0.69 0.00 0.00 0.00 0.00 0.00 0.00 0.00 0.00 0.00 0.00 0.00 0.00 0.00 0.00 0.00 0.00 0.00 0.52 0.00 0.00 0.00 0.00 0.00 0.00 0.00 0.62 0.00 0.00 0.00 0.75 0.00 0.00 0.00 0.00 0.00 0.00 0.00 0.00 0.00 0.00 0.72 0.00 0.96 0.87 0.00 0.00 0.00 0.00 0.00 0.91 0.00 0.00 0.00 0.00 0.00 0.00 0.00 0.00 0.00 0.00 0.00 0.00 0.00 0.00 0.00 0.91 0.74 0.00 0.00 0.79 0.00 0.93 0.00 0.00 0.00 0.00 0.00 0.00 0.78 0.96 0.00 0.00 0.00 0.00 0.00 0.00 0.81 0.00 0.00 0.74 0.00 0.00 0.83 0.00 0.00 0.69 0.00 0.00 0.00 0.00 0.00 0.00 0.00 0.00 0.68 0.87 0.71 0.00 0.00 0.80 0.00 0.00 0.00 0.00 0.93 0.00 0.00 0.00 0.00
0.00 0.00 0.00 0.00 0.00 0.00 0.00 0.00 0.00 0.00 0.00 0.00 0.00 0.61 0.84 0.00 0.00 0.00 0.00 0.00 0.00 0.00 0.00 0.00 0.00 0.56 0.00 0.00 0.00 0.00 0.00 0.00 0.00 0.00 0.00 0.89 0.00 0.00 0.73 0.00 0.95 0.00 0.00 0.00 0.00 0.00 0.00 0.00 0.00 0.00 0.00 0.00 0.00 0.00 0.00 0.59 0.66 0.00 0.70 0.00 0.00 0.00 0.00 0.58 0.00 0.56 0.00 0.00 0.00 0.00 0.00 0.00 0.00 0.00 0.00 0.00 0.00 0.00 0.00 0.00 0.00 0.00 0.00 0.00 0.00 0.00 0.00 0.00 0.00 0.00 0.00 0.00 0.00 0.00 0.00 0.68 0.59 0.73 0.97 0.00 0.00 0.00 0.00 0.00 0.00 0.00 0.56 0.00 0.96 0.94 0.00 0.00 0.00 0.00 0.00 0.00 0.00 0.00 0.00 0.00 0.00 0.68 0.72 0.00 0.00 0.00 0.00 0.00 0.00 0.00 0.00 0.00 0.00 0.52 0.69 0.00 0.00 0.00 0.00 0.00
0.00 0.00 0.00 0.00 0.00 0.00 0.67 0.00 0.00 0.00 0.00 0.00 0.00 0.00 0.00 0.00 0.91 0.70 0.00 0.00 0.00 0.00 0.00 0.00 0.00 0.00 0.00 0.00 0.00 0.88 0.00 0.82 0.00 0.00 0.00 0.00 0.00 0.00 0.00 0.00 0.00 0.57 0.00 0.00 0.00 0.00 0.00 0.00 0.00 0.00 0.00 0.00 0.00 0.00 0.68 0.00 0.70 0.00 0.00 0.00 0.00 0.79 0.00 0.00 0.00 0.96 0.00 0.85 0.00 0.00 0.00 0.00 0.00 0.00 0.00 0.00 0.00 0.00 0.00 0.00 0.66 0.00 0.00 0.00 0.64 0.00 0.00 0.00 0.00 0.00 0.00 0.00 0.00 0.00 0.00 0.00 0.00 0.00 0.00 0.00 0.00 0.00 0.00 0.00 0.00 0.00 0.00 0.76 0.00 0.00 0.00 0.00 0.00 0.00 0.00 0.00 0.00 0.00 0.00 0.00 0.68 0.00 0.00 0.00 0.00 0.00 0.74 0.00 0.00 0.96 0.00 0.00 0.00 0.00 1.00 0.00 0.00 0.00 0.00 0.00
0.00 0.69 0.00 0.00 0.00 0.00 0.00 0.00 0.00 0.00 0.00 0.00 0.52 0.00 0.00 0.00 0.00 0.00 0.00 0.00 0.00 0.00 0.00 0.00 0.00 0.00 0.00 0.00 0.00 0.00 0.00 0.00 0.00 0.00 0.00 0.00 0.00 0.00 0.00 0.00 0.99 0.00 0.00 0.00 0.00 0.85 0.00 0.89 0.00 0.00 0.71 0.00 0.00 0.00 0.00 0.00 0.00 0.00 0.00 0.00 0.88 0.00 0.00 0.00 0.00 0.00 0.56 0.95 0.00 0.00 0.75 0.00 0.00 0.00 0.60 0.00 0.81 0.00 0.00 0.00 0.00 0.00 0.00 0.00 0.00 0.00 0.00 0.00 0.00 0.00 0.00 0.00 0.60 0.00 0.00 0.00 0.00 0.00 0.00 0.00 0.00 0.00 0.00 0.00 0.84 0.00 0.00 0.00 0.00 0.00 0.52 0.00 0.00 0.00 0.00 0.00 0.00 0.00 0.00 0.65 0.00 0.00 0.00 0.00 0.87 0.85 0.00 0.00 0.76 0.00 0.00 0.00 0.53 0.00 0.00 0.00 0.00 0.00 0.00 0.00
0.00 0.00 0.00 0.00 0.00 0.00 0.74 0.00 0.00 0.00 0.00 0.00 0.88 0.00 0.00 0.00 0.00 0.00 0.00 0.00 0.00 0.00 0.00 0.00 0.00 0.00 0.00 0.00 0.00 0.88 0.00 0.00 0.85 0.00 0.91 0.00 0.00 0.00 0.00 0.00 0.00 0.00 0.62 0.00 0.00 0.00 0.00 0.00 0.00 0.00 0.00 0.60 0.00 0.00 0.00 0.00 0.00 0.85 0.91 0.00 0.00 0.00 0.70 0.00 0.00 0.94 0.00 0.00 0.00 0.00 0.00 0.97 0.00 0.00 0.66 0.00 0.00 0.00 0.00 0.00 0.00 0.00 0.00 0.00 0.00 0.00 0.00 0.00 0.00 0.00 0.00 0.00 0.00 0.00 0.00 0.00 0.53 0.00 0.00 0.00 0.54 0.00 0.00 0.89 0.72 0.86 0.00 0.00 0.00 0.86 0.00 0.00 0.00 0.00 0.76 0.00 0.00 0.00 0.00 0.00 0.00 0.00 0.00 0.00 0.98 0.67 0.72 0.00 0.00 0.00 0.00 0.00 0.00 0.00 0.00 0.83 0.86 0.00 0.00 0.00
0.00 0.00 0.80 0.64 0.00 0.00 0.00 0.00 0.00 0.00 0.00 0.85 0.00 0.00 0.00 0.00 0.00 0.00 0.00 0.71 0.00 0.00 0.00 0.00 0.00 0.96 0.00 0.00 0.00 0.00 0.00 0.00 0.00 0.00 0.00 0.62 0.00 0.00 0.00 0.00 0.00 0.00 0.00 0.00 0.69 0.00 0.00 0.00 0.00 0.00 0.00 0.00 0.00 0.00 0.00 0.00 0.00 0.74 0.00 0.00 0.00 0.00 0.00 0.00 1.00 0.00 0.00 0.79 0.00 0.00 0.00 0.00 0.00 0.00 0.00 0.62 0.00 0.00 0.00 0.00 0.93 0.00 0.89 0.00 0.00 0.00 0.60 0.00 0.84 0.00 0.00 0.00 0.00 0.00 0.00 0.00 0.00 0.00 0.00 0.70 0.00 0.00 0.96 0.00 0.00 0.00 0.00 0.00 0.00 0.99 0.00 0.00 0.57 0.00 0.00 0.00 0.00 0.00 0.00 0.00 0.00 0.00 0.93 0.00 0.79 0.87 0.96 0.00 0.84 0.00 0.00 0.00 0.00 0.89 0.00 0.00 0.00 0.00 0.00 0.00
0.00 0.00 0.00 0.00 0.00 0.00 0.00 0.00 0.00 0.00 0.00 0.80 0.00 0.00 0.94 0.00 0.00 0.00 0.00 0.00 0.00 0.00 0.00 0.00 0.00 0.00 0.00 0.00 0.00 0.00 0.00 0.00 0.00 0.00 0.00 0.00 0.90 0.65 0.00 0.00 0.61 0.00 0.78 0.00 0.00 0.00 0.00 0.00 0.00 0.00 0.00 0.00 0.00 0.62 0.00 0.00 0.00 0.57 0.00 0.00 0.00 0.68 0.00 0.00 0.00 0.00 0.00 0.00 0.00 0.00 0.79 0.00 0.00 0.00 0.94 0.00 0.00 0.00 0.63 0.00 0.00 0.60 0.61 0.00 0.00 0.00 0.00 0.00 0.00 0.00 0.00 0.00 0.78 0.00 0.00 0.68 0.70 0.00 0.00 0.00 0.00 0.00 0.00 0.00 0.54 0.00 0.93 0.00 0.53 0.00 0.00 0.00 0.00 0.71 0.00 0.00 0.00 0.00 0.00 0.00 0.00 0.00 0.00 0.00 0.00 0.00 0.80 0.00 0.00 0.00 0.00 0.00 0.00 0.00 0.00 0.00 0.00 0.00 0.00 0.00
0.00 0.60 0.00 0.00 0.51 0.00 0.00 0.92 0.00 0.00 0.00 0.00 0.00 0.00 0.00 0.00 0.74 0.00 0.00 0.00 0.00 0.00 0.00 0.91 0.00 0.00 0.00 0.84 0.72 0.00 0.00 0.00 0.54 0.00 0.75 0.00 0.00 0.72 0.00 0.00 0.91 0.00 0.00 0.50 0.00 0.81 0.91 0.00 0.00 0.00 0.00 0.00 0.84 0.86 0.00 0.00 0.00 0.00 0.00 0.00 0.00 0.91 0.00 0.57 0.89 0.00 0.00 0.00 0.00 0.00 0.65 0.00 0.00 0.00 0.00 0.00 0.00 0.72 0.00 0.00 0.00 0.00 0.00 0.00 0.00 0.00 0.69 0.84 0.00 0.75 0.64 0.54 0.00 0.00 0.00 0.00 0.00 0.00 0.51 0.00 0.00 0.00 1.00 0.87 0.91 0.00 0.00 0.00 0.97 0.00 0.00 0.96 0.81 0.00 0.00 0.00 0.00 0.00 0.00 0.00 0.00 0.00 0.00 0.00 0.91 0.00 0.00 0.00 0.00 0.00 0.00 0.00 0.00 0.97 0.00 0.00 0.00 0.00 0.00 0.00
0.86 0.00 0.00 0.00 0.00 0.00 0.00 0.95 0.00 0.00 0.66 0.92 0.00 0.00 0.00 0.73 0.65 0.00 0.00 0.00 0.00 0.00 0.00 0.76 0.00 0.00 0.82 0.00 0.00 0.00 0.55 0.70 0.00 0.00 0.00 0.00 0.00 0.00 0.00 0.00 0.00 0.69 0.85 0.00 0.00 0.00 0.00 0.00 0.00 0.00 0.00 0.00 0.00 0.00 0.00 0.00 0.00 0.00 0.00 0.00 0.00 0.00 0.00 0.00 0.00 0.00 0.00 0.00 0.00 0.00 0.00 0.00 0.00 0.56 0.51 0.00 0.00 0.00 0.00 0.00 0.00 0.90 0.00 0.00 0.00 0.00 0.00 0.00 0.00 0.00 0.00 0.00 0.00 0.00 0.00 0.99 0.00 0.00 0.92 0.00 0.00 0.00 0.00 0.00 0.51 0.86 0.00 0.89 0.00 0.98 0.00 0.00 0.00 0.00 0.00 0.00 0.66 0.00 0.00 0.00 0.00 0.00 0.82 0.00 0.00 0.00 0.00 0.69 0.00 0.00 0.00 0.66 0.00 0.00 0.00 0.00 0.69 0.00 0.00 0.00
0.00 0.00 0.00 0.00 0.00 0.97 0.00 0.00 0.00 0.00 0.00 0.91 0.00 0.00 0.00 0.82 0.00 0.54 0.00 0.00 0.00 0.00 0.00 0.00 0.00 0.00 0.00 0.00 0.00 0.00 0.00 0.00 0.00 0.00 0.00 0.00 0.70 0.84 0.00 0.00 0.00 0.00 0.87 0.00 0.00 0.00 0.00 0.00 0.00 0.00 0.00 0.00 0.00 0.89 0.00 0.00 0.00 0.00 0.00 0.00 0.70 0.92 0.00 0.00 0.00 0.00 0.00 0.00 0.00 0.00 0.00 0.00 0.00 0.00 0.00 0.00 0.00 0.00 0.00 0.00 0.00 0.60 0.00 0.00 0.00 0.60 0.52 0.00 0.00 0.00 0.00 0.00 0.00 0.00 0.00 0.00 0.00 0.99 0.81 0.00 0.00 0.00 0.00 0.00 0.71 0.00 0.57 0.00 0.00 0.00 0.00 0.00 0.00 0.00 0.68 0.00 0.00 0.67 0.00 0.00 0.00 0.00 0.00 0.00 0.00 0.00 0.00 0.00 0.00 0.00 0.00 0.91 0.00 0.00 0.00 0.73 0.00 0.00 0.00 0.87
0.00 0.00 0.00 0.65 0.00 0.00 0.00 0.00 0.00 0.00 0.00 0.00 0.66 0.94 0.00 0.00 0.00 0.00 0.60 0.00 0.00 0.57 0.00 0.00 0.00 0.00 0.00 0.57 0.00 0.86 0.00 0.00 0.00 0.00 0.00 0.62 0.00 0.51 0.57 0.00 0.00 0.00 0.00 0.00 0.00 0.84 0.00 0.82 0.00 0.00 0.00 0.81 0.00 0.00 0.00 0.00 0.58 0.00 0.91 0.00 0.00 0.00 0.68 0.00 0.00 0.69 0.00 0.00 0.00 0.72 0.00 0.00 0.80 0.00 0.00 0.00 0.66 0.62 0.00 0.00 0.00 0.62 0.00 0.00 0.00 0.87 0.00 0.00 0.00 0.00 0.70 0.00 0.00 0.00 0.00 0.00 0.00 0.00 0.00 0.00 0.00 0.00 0.00 0.52 0.82 0.93 0.00 0.98 0.00 0.00 0.67 0.00 0.00 0.00 0.00 0.00 0.00 0.00 0.00 0.57 0.00 0.00 0.00 0.00 0.00 0.00 0.00 0.00 0.00 0.00 0.00 0.00 0.00 0.00 0.76 0.00 0.00 0.00 0.00 0.00
0.00 0.64 0.00 0.00 0.00 0.00 0.00 0.00 0.00 0.00 0.00 0.00 0.84 0.69 0.56 0.96 0.90 0.00 0.00 0.00 0.00 0.58 0.00 0.00 0.00 0.00 0.00 0.00 0.00 0.00 0.00 0.00 0.00 0.00 0.00 0.00 0.78 0.00 0.00 0.80 0.00 0.00 0.00 0.00 0.00 0.00 0.00 0.00 0.91 0.00 0.00 0.00 0.00 0.00 0.00 0.00 0.96 0.00 0.00 0.00 0.00 0.00 0.76 0.67 0.00 0.00 0.97 0.00 0.00 0.00 0.00 0.00 0.83 0.00 0.00 0.97 0.00 0.00 0.00 0.00 0.00 0.00 0.00 0.00 0.95 0.00 0.00 0.00 0.00 0.00 0.00 0.00 0.00 0.00 0.00 0.00 0.00 0.00 0.00 0.00 0.00 0.00 0.00 0.98 0.58 0.83 0.91 0.00 0.00 0.00 0.82 0.00 0.00 0.00 0.00 0.00 0.00 0.00 0.00 0.00 0.00 0.00 0.00 0.00 0.00 0.82 0.00 0.00 0.00 0.59 0.00 0.00 0.00 0.00 0.00 0.00 0.00 0.00 0.00 0.00
0.85 0.88 0.00 0.00 0.00 0.73 0.00 0.70 0.00 0.00 0.00 0.00 0.00 0.67 0.85 0.69 0.00 0.00 0.00 0.00 0.60 0.00 0.87 0.00 0.00 0.00 0.00 0.00 0.74 0.00 0.00 0.00 0.81 0.00 0.00 0.63 0.00 0.96 0.00 0.00 0.60 0.00 0.00 0.00 0.00 0.00 0.00 0.00 0.00 0.00 0.00 0.00 0.00 0.00 0.00 0.00 0.73 0.00 0.00 0.00 0.00 0.00 0.00 0.00 0.00 0.00 0.00 0.00 0.00 0.88 0.00 0.00 0.56 0.00 0.00 0.84 0.00 0.00 0.00 0.71 0.00 0.00 0.00 0.00 0.00 0.00 0.00 0.00 0.50 0.00 0.00 0.00 0.72 0.81 0.00 0.00 0.00 0.00 0.00 0.00 0.96 0.00 0.00 0.00 0.98 0.00 0.00 0.00 0.00 0.00 0.00 0.00 0.00 0.00 0.00 0.00 0.00 0.00 0.67 0.00 0.00 0.56 0.00 0.00 0.00 0.00 0.00 0.79 0.00 0.68 0.75 0.00 0.00 0.00 0.69 0.00 0.00 0.00 0.00 0.00
0.00 0.00 0.00 0.00 0.64 0.00 0.00 0.00 0.00 0.00 0.00 0.68 0.00 0.00 0.00 0.00 0.00 0.00 0.00 0.00 0.00 0.00 0.00 0.00 0.00 0.00 0.00 0.56 0.00 0.67 0.00 0.00 0.00 0.00 0.00 0.00 0.00 0.00 0.00 0.00 0.00 0.00 0.00 0.00 0.00 0.00 0.75 0.00 0.52 0.00 0.00 0.00 0.00 0.00 0.83 0.00 0.00 0.00 0.00 0.63 0.00 0.00 0.00 0.00 0.00 0.00 0.78 0.00 0.68 0.00 0.00 0.00 0.00 0.80 0.69 0.00 0.00 0.00 0.00 0.00 0.00 0.00 0.79 0.00 0.00 0.00 0.00 0.54 0.93 0.00 0.00 0.00 0.00 0.00 0.00 0.00 0.00 0.00 0.00 0.00 0.00 0.00 0.00 0.00 0.00 0.00 0.00 0.00 0.00 0.00 0.00 0.00 0.00 0.00 0.95 0.00 0.00 0.00 0.73 0.00 0.65 0.00 0.00 0.00 0.00 0.00 0.00 0.78 0.00 0.00 0.00 0.00 0.00 0.00 0.00 0.00 0.88 0.00 0.00 0.00
0.00 0.00 0.00 0.95 0.00 0.00 0.00 0.97 0.00 0.73 0.00 0.97 0.00 0.00 0.00 0.00 0.00 0.55 0.00 0.00 0.00 0.00 0.00 0.00 0.00 0.00 0.00 0.00 0.71 0.63 0.00 0.00 0.00 0.00 0.53 0.00 0.00 0.00 0.00 0.00 0.00 0.88 0.53 0.00 0.00 0.67 0.00 0.59 0.00 0.00 0.00 0.00 0.00 0.57 0.00 0.81 0.00 0.00 0.00 0.91 0.00 0.00 0.00 0.00 0.90 0.50 0.00 0.00 0.00 0.00 0.00 0.98 0.85 0.00 0.00 0.00 0.00 0.00 0.00 0.00 0.00 0.00 0.00 0.00 0.00 0.00 0.00 0.00 0.00 0.00 0.00 0.00 0.00 0.00 0.00 0.54 0.00 0.00 0.00 0.00 0.00 0.00 0.00 0.00 0.00 0.00 0.00 0.00 0.00 0.74 0.88 0.00 0.00 0.00 0.00 0.00 0.59 0.00 1.00 0.67 0.00 0.76 0.66 0.00 0.00 0.00 0.00 0.00 0.00 0.00 0.00 0.00 0.87 0.00 0.00 0.00 0.00 0.00 0.00 0.54
0.54 0.00 0.93 0.00 0.00 0.00 0.00 0.00 0.00 0.00 0.00 0.00 0.00 0.97 0.00 0.00 0.67 0.00 0.00 0.00 0.77 0.00 0.95 0.00 0.00 0.59 0.00 0.58 0.00 0.00 0.00 0.00 0.76 0.00 0.00 0.00 0.00 0.00 0.00 0.00 0.70 0.00 0.00 0.58 0.00 0.00 0.00 0.00 0.00 0.00 0.00 0.00 0.00 0.00 0.00 0.00 0.00 0.00 0.00 0.00 0.00 0.91 0.00 0.00 0.00 0.00 0.00 0.00 0.00 0.00 0.00 0.74 0.00 0.00 0.00 0.00 0.00 0.84 0.00 0.00 0.00 0.00 0.00 0.00 0.58 0.00 0.97 0.00 0.00 0.00 0.58 0.00 0.00 0.00 0.00 0.00 0.00 0.00 0.00 0.00 0.00 0.99 0.00 0.00 0.92 0.00 0.00 0.00 0.83 0.00 0.88 0.00 0.00 0.00 0.00 0.00 0.00 0.00 0.00 0.00 0.58 0.63 0.73 0.00 0.64 0.00 0.00 0.00 0.56 0.00 0.00 0.00 0.00 0.80 0.00 0.00 0.99 0.00 0.79 0.00
0.00 0.77 0.00 0.00 0.00 0.00 0.00 0.00 0.00 0.51 0.90 0.00 0.00 0.00 0.00 0.00 0.00 0.00 0.51 0.00 0.00 0.93 0.00 0.66 0.00 0.00 0.00 0.51 0.00 0.74 0.59 0.00 0.00 0.79 0.00 0.00 0.00 0.00 0.00 0.00 0.00 0.82 0.00 0.79 0.63 0.00 0.80 0.75 0.60 0.00 0.00 0.00 0.00 0.00 0.00 0.00 0.74 0.00 0.98 0.00 0.00 0.58 0.00 0.00 0.00 0.00 0.00 0.00 0.00 0.00 0.00 0.00 0.64 0.00 0.00 0.00 0.00 0.00 0.00 0.00 0.00 0.00 0.91 0.68 0.69 0.00 0.66 0.00 0.85 0.00 0.00 0.00 0.00 0.00 0.80 0.00 0.00 0.95 0.00 0.00 0.00 0.00 0.68 0.94 0.00 0.00 0.00 0.00 0.00 0.00 0.51 0.00 0.00 0.00 0.71 0.00 0.86 0.00 0.00 0.00 0.00 0.00 0.00 0.00 0.00 0.00 0.00 0.00 0.00 0.00 0.57 0.00 0.67 0.00 0.00 0.00 0.00 0.00 0.00 0.00
0.00 0.00 0.00 0.00 0.00 0.00 0.85 0.00 0.00 0.54 0.77 0.00 0.00 0.00 0.00 0.00 0.00 0.00 0.00 0.00 0.55 0.00 0.97 0.51 0.00 0.00 0.76 0.00 0.00 0.00 0.00 0.00 0.00 0.00 0.80 0.00 0.00 0.00 0.00 0.00 0.92 0.53 0.00 0.00 0.00 0.00 0.00 0.00 0.00 0.00 0.56 0.00 0.00 0.00 0.00 0.61 0.83 0.00 0.00 0.93 0.00 0.00 0.00 0.51 0.73 0.00 0.55 0.81 0.70 0.00 0.00 0.00 0.00 0.00 0.00 0.00 0.00 0.00 0.65 0.99 0.77 0.00 0.00 0.00 0.00 0.00 0.00 0.00 0.00 0.00 0.00 0.00 0.00 0.71 0.00 0.00 0.00 0.78 0.00 0.78 0.00 0.00 0.00 0.61 0.84 0.00 0.00 0.00 0.00 0.00 0.00 0.00 0.00 0.00 0.00 0.00 0.00 0.00 0.00 0.00 0.00 0.00 0.00 0.00 0.00 0.74 0.00 0.00 0.00 0.00 0.00 0.00 0.00 0.00 0.00 0.85 0.00 0.94 0.90 0.62
0.88 0.00 0.00 0.67 0.00 0.00 0.00 0.00 0.72 0.00 0.00 0.54 0.61 0.00 0.00 0.00 0.67 0.00 0.00 0.00 0.00 0.00 0.00 0.00 0.00 0.00 0.00 0.00 0.00 0.00 0.00 0.00 0.73 0.00 0.00 0.00 0.00 0.00 1.00 0.00 0.95 0.00 0.57 0.63 0.00 0.00 0.00 0.00 0.00 0.00 0.00 0.00 0.94 0.00 0.00 0.00 0.00 0.00 0.00 0.85 0.00 0.00 0.00 0.88 0.00 0.80 0.00 0.00 0.00 0.00 0.78 0.00 0.00 0.00 0.00 0.00 0.00 0.00 0.00 0.00 0.00 0.00 0.00 0.00 0.00 0.00 0.00 0.00 0.00 0.00 0.00 0.00 0.82 0.00 0.00 0.00 0.00 0.00 0.00 0.00 0.00 0.00 0.00 0.92 0.00 0.76 0.00 0.58 0.00 0.59 0.00 0.00 0.00 0.00 0.00 0.00 0.00 0.00 0.00 0.00 0.00 0.00 0.00 0.00 0.53 0.00 0.00 0.00 0.00 0.00 0.00 0.00 0.00 0.00 0.00 0.00 0.00 0.00 0.00 0.00
0.61 0.00 0.94 0.00 0.00 0.00 0.00 0.75 0.00 0.00 0.00 0.00 0.00 0.00 0.00 0.00 0.85 0.56 0.79 0.62 0.00 0.00 0.00 0.00 0.00 0.00 0.71 0.00 0.00 0.00 0.00 0.00 0.00 0.00 0.00 0.00 0.00 0.00 0.00 0.00 0.61 0.00 0.00 0.74 0.64 0.75 0.00 0.71 0.00 0.00 0.00 0.00 0.00 0.72 0.00 0.74 0.00 0.00 0.81 0.00 0.64 0.00 0.00 0.61 0.00 0.00 0.00 0.80 0.00 0.84 0.90 0.00 0.58 0.00 0.00 0.00 0.72 0.00 0.00 0.00 0.00 0.00 0.00 0.55 0.00 0.00 0.00 0.73 0.00 0.00 0.00 0.00 0.00 0.00 0.00 0.81 0.00 0.00 0.70 0.00 0.00 0.00 0.00 0.00 0.00 0.00 0.00 0.00 0.00 0.00 0.00 0.98 0.00 0.00 0.00 0.00 0.00 0.00 0.00 0.52 0.00 0.00 0.58 0.90 0.00 0.00 0.61 0.00 0.00 0.88 0.82 0.00 0.00 0.00 0.00 0.00 0.59 0.00 0.00 0.73
0.00 0.75 0.00 0.00 0.99 0.00 0.00 0.00 0.00 0.00 0.00 0.00 0.00 0.00 0.00 0.00 0.00 0.00 0.00 0.00 0.00 0.00 0.00 0.00 0.00 0.00 0.00 0.00 0.00 0.77 0.00 0.00 0.00 0.99 0.00 0.00 0.00 0.77 0.00 0.00 0.00 0.00 0.00 0.00 0.88 0.00 0.98 0.00 0.00 0.00 0.00 0.00 0.00 0.00 0.00 0.00 0.00 0.00 0.00 0.00 0.00 0.00 0.00 0.75 0.90 0.00 0.00 0.00 0.00 0.00 0.00 0.00 0.00 0.00 0.87 0.81 0.60 0.00 0.00 0.00 0.00 0.00 0.00 0.00 0.00 0.00 0.00 0.00 0.00 0.96 0.00 0.83 0.00 0.00 0.00 0.00 0.00 0.86 0.00 0.00 0.54 0.00 0.00 0.00 0.00 0.00 0.00 0.00 0.00 0.00 0.00 0.00 0.00 0.00 0.00 0.00 0.00 0.00 0.00 0.00 0.00 0.00 0.00 0.67 0.00 0.00 0.90 0.00 0.82 0.00 0.00 0.97 0.00 0.00 0.00 0.00 0.00 0.00 0.00 0.00
0.00 0.00 0.00 0.00 0.00 0.00 0.00 0.00 0.00 0.00 0.00 0.00 0.00 0.00 0.00 0.00 0.00 0.00 0.00 0.00 0.00 0.67 0.00 0.00 0.00 0.00 0.52 0.00 0.00 0.00 0.64 0.81 0.00 0.71 0.00 0.86 0.00 0.00 0.00 0.00 0.00 0.00 0.89 0.00 0.00 0.00 0.78 0.99 0.00 0.00 0.65 0.00 0.00 0.53 0.00 0.00 0.00 0.00 0.52 0.00 0.00 0.00 0.00 0.00 0.00 0.85 0.59 0.00 0.50 0.00 0.94 0.00 0.00 0.73 0.00 0.92 0.00 0.00 0.00 0.00 0.00 0.00 0.00 0.66 0.00 0.00 0.00 0.00 0.60 0.00 0.00 0.65 0.51 0.68 0.00 0.00 0.63 0.65 0.00 0.00 0.00 0.00 0.00 0.00 0.00 0.00 0.00 0.00 0.00 0.00 0.00 0.00 0.00 0.00 0.00 0.98 0.00 0.00 0.00 0.00 0.00 0.00 0.00 0.00 0.74 0.00 0.88 0.00 0.00 0.00 0.00 0.00 0.85 0.00 0.97 0.00 0.00 0.00 0.00 0.00
0.00 0.00 0.00 0.00 0.00 0.00 0.00 0.00 0.97 0.00 0.00 0.00 0.54 0.00 0.00 0.00 0.00 0.74 0.00 0.00 0.00 0.00 0.00 0.00 0.64 0.00 0.00 0.00 0.87 0.88 0.00 0.00 1.00 0.00 0.00 0.00 0.00 0.00 0.00 0.00 0.00 0.00 0.00 0.00 0.00 0.70 0.00 0.52 0.62 0.00 0.00 0.00 0.00 0.76 0.00 0.00 0.65 0.00 0.00 0.00 0.00 0.56 0.54 0.00 0.00 0.58 0.00 0.00 0.00 0.00 0.00 0.00 0.00 0.00 0.60 0.91 0.00 0.00 0.00 0.00 0.00 0.00 0.00 0.00 0.00 0.00 0.00 0.00 0.00 0.00 0.00 0.00 0.00 0.00 0.00 0.00 0.00 0.00 0.00 0.00 0.00 0.00 0.00 0.00 0.00 0.00 0.00 0.00 0.00 0.00 0.69 0.00 0.00 0.96 0.88 0.00 0.99 0.00 0.63 0.00 0.00 0.00 0.00 0.00 0.00 0.00 0.00 0.00 0.65 0.00 0.84 0.00 0.00 0.00 0.00 0.00 0.75 0.00 0.00 0.71
0.00 0.88 0.00 0.00 0.00 0.00 0.00 0.00 0.00 0.68 0.91 0.00 0.00 0.00 0.00 0.00 0.77 0.00 0.00 0.81 0.00 0.00 0.00 0.00 0.00 0.00 0.00 0.56 0.00 0.00 0.61 0.00 0.00 0.00 0.00 0.00 0.00 0.00 0.00 0.66 0.00 0.76 0.00 0.00 0.00 0.00 0.53 0.00 0.00 0.00 0.00 0.00 0.00 0.81 0.69 0.82 0.00 0.00 0.00 0.97 0.00 0.00 0.59 0.00 0.87 0.80 0.00 0.90 0.00 0.00 0.00 0.00 1.00 0.00 0.00 0.00 0.00 0.88 0.00 0.00 0.64 0.00 0.00 0.00 0.96 0.00 0.85 0.51 0.00 0.00 0.00 0.73 0.00 0.79 0.00 0.00 0.00 0.00 0.00 0.00 0.00 0.00 0.72 0.00 0.00 0.00 0.00 0.00 0.00 0.00 0.00 0.00 0.00 0.68 0.00 0.00 0.00 0.57 0.51 0.00 0.00 0.00 0.66 0.00 0.00 0.00 0.55 0.79 0.00 0.57 0.00 0.00 0.00 0.00 0.00 0.00 0.00 0.00 0.66 0.00
0.00 0.00 0.00 0.00 0.00 0.00 0.00 0.00 0.00 0.00 0.00 0.00 0.00 0.00 0.00 0.00 0.00 0.00 0.57 0.87 0.00 0.00 0.00 0.00 0.62 0.00 0.00 0.00 0.00 0.69 0.00 0.00 0.72 0.00 0.00 0.00 0.00 0.00 0.57 0.00 0.00 0.00 0.00 0.72 0.59 0.00 0.00 0.00 0.00 0.00 0.00 0.00 0.00 0.00 0.00 0.00 0.94 0.00 0.00 0.57 0.00 0.00 0.79 0.00 0.00 0.00 0.00 0.00 0.00 0.00 0.89 0.00 0.00 0.65 0.00 0.00 0.00 0.00 0.00 0.00 0.00 0.00 0.00 0.00 0.00 0.00 0.00 0.93 0.00 0.00 0.69 0.00 0.00 0.00 0.00 0.00 0.00 0.00 0.76 0.00 0.00 0.80 0.00 0.00 0.00 0.00 0.00 0.00 0.00 0.00 0.00 0.00 0.00 0.00 0.00 0.00 0.00 0.00 0.00 0.00 0.00 0.00 0.00 0.00 0.00 0.00 0.00 0.00 0.00 0.00 0.00 0.61 0.00 0.00 0.78 0.00 0.00 0.00 0.98 0.00
0.00 0.00 0.00 0.00 0.00 0.00 0.80 0.00 0.00 0.00 0.00 0.00 0.00 0.83 0.86 0.00 0.00 0.88 0.00 0.00 0.69 0.71 0.00 0.00 0.00 0.00 0.00 0.00 0.00 0.00 0.00 0.00 0.00 0.00 0.00 0.00 0.00 0.00 0.00 0.00 0.00 0.00 0.53 0.00 0.00 0.95 0.00 0.00 0.00 0.00 0.70 0.00 0.00 0.00 0.00 0.00 0.00 0.00 0.00 0.00 0.00 0.89 0.82 0.00 0.53 0.00 0.00 0.00 0.00 0.00 0.00 0.00 0.00 0.00 0.00 0.00 0.00 0.00 0.00 0.00 0.00 0.00 0.00 0.00 0.00 0.00 0.00 0.00 0.00 0.00 0.51 0.00 0.00 0.00 0.00 0.00 0.00 0.00 0.79 0.00 0.95 0.00 0.00 0.00 0.00 0.00 0.00 0.00 0.00 0.00 0.00 0.00 0.00 0.00 0.00 0.75 0.00 0.00 0.00 0.00 0.00 0.00 0.00 0.00 0.00 0.00 0.00 0.00 0.00 0.98 0.00 0.00 0.00 0.00 0.96 0.92 0.00 0.00 0.00 0.00
0.95 0.00 0.00 0.91 0.00 0.93 0.00 0.00 0.00 0.00 0.00 0.00 0.00 0.00 0.75 0.00 0.00 0.00 0.00 0.00 0.59 0.00 0.00 0.00 0.00 0.00 0.00 0.00 0.00 0.67 0.00 0.00 0.00 0.00 0.92 0.53 0.00 0.51 0.00 0.00 0.00 0.00 0.00 0.00 0.00 0.00 0.00 0.00 0.52 0.00 0.00 0.00 0.00 0.00 0.54 0.00 0.54 0.77 0.00 0.00 0.00 0.00 0.89 0.61 0.73 0.00 0.81 0.00 0.60 0.00 0.00 0.00 0.00 0.76 0.00 0.00 0.00 0.00 0.00 0.00 0.00 0.00 0.00 0.00 0.00 0.00 0.00 0.86 0.00 0.00 0.00 0.75 0.00 0.00 0.00 0.00 0.00 0.89 0.00 0.00 0.59 0.00 0.00 0.00 0.00 0.00 0.00 0.00 0.00 0.00 0.00 0.00 0.00 0.00 0.00 0.00 0.61 0.82 0.00 0.00 0.00 0.68 0.57 0.00 0.00 0.00 0.79 0.00 0.51 0.60 0.90 0.00 0.00 0.00 0.00 0.00 0.00 0.00 0.00 0.00
0.00 0.00 0.00 0.00 0.00 0.00 0.73 0.00 0.00 0.00 0.90 0.00 0.87 0.00 0.00 0.00 0.00 0.00 0.00 0.00 0.00 0.00 0.00 0.00 0.00 0.00 0.00 0.00 0.00 0.00 0.00 0.67 0.00 0.00 0.00 0.00 0.00 0.00 0.00 0.58 0.00 0.00 0.00 0.00 0.00 0.00 0.00 0.00 0.60 0.00 0.00 0.00 0.00 0.00 0.54 0.00 0.00 0.00 0.00 0.00 0.00 0.00 0.00 0.82 0.00 0.00 0.00 0.00 0.00 0.00 0.00 0.00 0.00 0.00 0.00 0.00 0.81 0.00 0.00 0.00 0.00 0.00 0.00 0.00 0.00 0.00 0.00 0.00 0.00 0.76 0.00 0.65 0.00 0.00 0.58 0.00 0.99 0.00 0.00 0.00 0.00 0.69 0.00 0.00 0.00 0.00 0.00 0.89 0.00 0.84 0.00 0.00 0.00 0.00 0.00 0.62 0.00 0.84 0.00 0.00 0.00 0.00 0.00 0.00 0.00 0.00 0.00 0.00 0.00 0.00 0.00 0.84 0.00 0.00 0.83 0.00 0.00 0.94 0.00 0.00
