140
0.00 0.92 0.81 0.00 0.00 0.00 0.00 0.00 0.00 0.00 0.00 0.00 0.00 0.00 0.00 0.73 0.00 0.70 0.00 0.00 0.00 0.00 0.58 0.00 0.00 0.00 0.67 0.00 0.64 0.00 0.00 0.00 0.00 0.00 0.00 0.00 0.60 0.00 0.00 0.00 0.00 0.00 0.76 0.00 0.00 0.64 0.00 0.53 0.00 0.85 0.00 0.98 0.91 0.90 0.68 0.00 0.00 0.91 0.00 0.68 0.00 0.00 0.00 0.00 0.75 0.00 0.00 0.00 0.00 0.00 0.82 0.00 0.97 0.00 0.79 0.00 0.00 0.00 0.00 0.00 0.59 0.00 0.00 0.00 0.00 0.92 0.00 0.00 0.00 0.00 0.00 0.00 0.00 0.00 0.00 0.00 0.00 0.00 0.00 0.00 0.53 0.58 0.00 0.00 0.00 0.00 0.00 0.00 0.00 0.00 0.00 0.00 0.00 0.00 0.00 0.00 0.00 0.00 0.00 0.75 0.96 0.00 0.00 0.00 0.00 0.73 0.00 0.89 0.00 0.58 0.00 0.00 0.00 0.00 0.00 0.00 0.00 0.00 0.00 0.72
0.00 0.00 0.00 0.00 0.70 0.00 0.00 0.87 0.00 0.00 0.00 0.00 0.00 0.00 0.00 0.57 0.00 0.00 0.00 0.90 0.00 0.00 0.92 0.00 0.00 0.00 0.00 0.00 0.94 0.78 0.00 0.00 0.00 0.84 0.00 0.00 0.52 0.81 0.70 0.00 0.00 0.00 0.00 0.72 0.00 0.56 0.81 0.00 0.98 0.00 0.00 0.00 0.00 0.00 0.00 0.00 0.00 0.00 0.59 0.00 0.00 0.00 0.00 0.00 0.00 0.00 0.00 0.00 0.00 0.00 0.00 0.81 0.00 0.00 0.65 0.00 0.82 0.00 0.00 0.78 0.00 0.00 0.00 0.00 0.00 0.00 0.00 0.00 0.00 0.00 0.00 0.00 0.00 0.00 0.00 0.00 0.97 0.00 0.00 0.00 0.00 0.99 0.00 0.00 0.00 0.00 0.00 1.00 0.00 1.00 0.00 0.00 0.00 0.00 0.87 0.69 0.00 0.00 0.00 0.00 0.00 0.70 0.00 0.00 0.00 0.00 0.00 0.71 0.00 0.00 0.00 0.00 0.00 0.55 0.00 0.00 0.00 0.00 0.00 0.00
0.00 0.00 0.00 0.89 0.00 0.58 0.00 0.00 0.88 0.00 0.62 0.00 0.68 0.00 0.64 0.00 0.00 0.00 0.00 0.00 0.00 0.00 0.00 0.00 0.00 0.00 0.00 0.00 0.00 0.55 0.00 0.52 0.00 0.00 0.00 0.00 0.00 0.00 0.00 0.00 0.56 0.00 0.00 0.00 0.00 0.00 0.00 0.00 0.00 0.00 0.00 0.00 0.00 0.69 0.00 0.00 0.00 0.00 0.00 0.00 0.00 0.00 0.00 0.00 0.00 0.85 0.93 0.00 0.77 0.00 0.00 0.97 0.00 0.00 0.00 0.00 0.99 0.00 0.58 0.00 0.00 0.00 0.00 0.00 0.00 0.00 0.00 0.00 0.60 0.00 0.61 0.90 0.68 0.00 0.00 0.00 0.00 0.00 0.00 0.00 0.00 0.00 0.00 0.00 0.78 0.00 0.00 0.00 0.00 0.00 0.00 0.00 0.00 0.00 0.00 0.00 0.63 0.55 0.00 0.61 0.00 0.00 0.00 0.00 0.00 0.00 0.76 0.00 0.00 0.00 0.00 0.00 0.00 0.00 0.00 0.00 0.00 0.00 0.00 0.00
0.72 0.00 0.00 0.00 0.00 0.00 0.00 0.00 0.62 0.00 0.87 0.00 0.00 0.00 0.00 0.00 0.00 0.00 0.00 0.00 0.00 0.00 0.00 0.00 0.00 0.00 0.91 0.00 0.00 0.00 0.92 0.00 0.00 0.00 0.00 0.00 0.00 0.00 0.00 0.00 0.00 0.82 0.00 0.00 0.71 0.00 0.00 0.00 0.00 0.00 0.00 0.00 0.00 0.00 0.00 0.88 0.00 0.00 0.00 0.65 0.00 0.94 0.00 0.00 0.00 0.00 0.95 0.00 0.00 0.00 0.00 0.00 0.00 0.00 0.00 0.89 0.86 0.00 0.74 0.00 0.00 0.00 0.00 0.60 0.00 0.00 0.00 0.00 0.00 0.00 0.00 0.00 0.00 0.00 0.00 0.00 0.84 0.00 0.00 0.88 0.59 0.00 0.00 0.00 0.00 0.00 0.00 0.00 0.84 0.00 0.00 0.00 0.00 0.80 0.00 0.99 0.00 0.00 0.00 0.98 0.00 0.00 0.00 0.00 0.00 0.00 0.00 0.00 0.00 0.72 0.73 0.00 0.00 0.67 0.00 0.81 0.00 0.00 0.00 0.00
0.00 0.00 0.00 0.00 0.00 0.00 0.00 0.00 0.00 0.00 0.00 0.79 0.00 0.00 0.00 0.00 0.00 0.98 0.00 0.64 0.00 0.00 0.00 0.00 0.00 0.83 0.00 0.00 0.00 0.00 0.00 0.71 0.00 0.00 0.00 0.00 0.00 0.00 0.00 0.00 0.00 0.00 0.00 0.00 0.63 0.00 0.00 0.00 0.00 0.71 0.00 0.00 0.98 0.00 0.00 0.00 0.93 0.56 0.00 0.64 0.59 0.00 0.00 0.00 0.00 0.00 0.00 0.00 0.00 0.00 0.00 0.00 0.00 0.00 0.00 0.00 0.00 0.86 0.00 0.00 0.00 0.00 0.78 0.00 0.76 0.00 0.00 0.00 0.00 0.00 0.00 0.00 0.00 0.87 0.62 0.00 0.00 0.00 0.80 0.97 0.00 0.00 0.00 0.79 0.00 0.00 0.00 0.86 0.00 0.00 0.00 0.00 0.00 0.66 0.00 0.88 0.00 0.78 0.00 0.00 0.00 0.94 0.85 0.00 0.00 0.00 0.00 0.69 0.00 0.00 0.00 0.00 0.00 0.72 0.00 0.00 0.00 0.00 0.00 0.00
0.00 0.00 0.00 0.00 0.00 0.00 0.00 0.00 0.00 0.57 0.00 0.00 0.00 0.00 0.00 0.00 0.00 0.00 0.76 0.00 0.69 0.00 0.00 0.00 0.00 0.00 0.00 0.00 0.00 0.00 0.95 0.00 0.00 0.00 0.65 0.86 0.00 0.00 0.00 0.77 0.00 0.00 0.00 0.00 0.69 0.00 0.00 0.00 0.00 0.97 0.00 0.00 0.00 0.00 0.00 0.00 0.68 0.56 0.00 0.00 0.00 0.00 0.00 0.00 0.00 0.00 0.00 0.00 0.00 0.00 0.00 0.00 0.00 0.00 0.00 0.00 0.00 0.00 0.00 0.00 0.00 0.00 0.00 0.00 0.95 0.00 0.00 0.00 0.00 0.00 0.00 0.00 0.00 0.82 0.00 0.61 0.56 0.00 0.00 0.00 0.00 0.00 0.00 0.00 0.00 0.00 0.00 0.00 0.86 0.00 0.00 0.00 0.67 0.00 0.00 0.00 0.00 0.00 0.00 0.00 0.00 0.00 0.00 0.00 0.00 0.00 0.00 0.00 0.00 0.00 0.00 0.00 0.00 0.93 0.00 0.94 0.00 0.00 0.85 0.00
0.72 0.00 0.00 0.68 0.00 0.00 0.00 0.00 0.53 0.00 0.00 0.00 0.00 0.00 0.00 0.00 0.00 0.00 0.00 0.00 0.00 0.00 0.78 0.00 0.81 0.99 0.00 0.00 0.00 0.00 0.00 0.00 0.00 0.53 0.00 0.00 0.00 0.79 0.52 0.00 0.92 0.00 0.00 0.00 0.52 0.00 0.00 0.00 0.00 0.62 0.00 0.58 0.00 0.00 0.00 0.00 0.00 0.75 0.00 0.00 0.00 0.00 0.00 0.00 0.98 0.00 0.00 0.00 0.00 0.00 0.00 0.62 0.00 0.53 0.86 0.00 0.00 0.00 0.00 0.00 0.00 0.00 0.00 0.00 0.00 0.00 0.00 0.00 0.00 0.74 0.00 0.00 0.00 0.00 1.00 0.00 0.00 0.78 0.00 0.00 0.98 0.00 0.00 0.00 0.00 0.00 0.00 0.00 0.00 0.67 0.00 0.00 0.94 0.00 0.00 0.00 0.00 0.00 0.69 0.00 0.00 0.00 0.00 0.00 0.60 0.77 0.00 0.00 0.00 0.82 0.00 0.00 0.00 0.00 0.00 0.80 0.00 0.94 0.00 0.00
0.00 0.91 0.65 0.00 0.00 0.00 0.00 0.00 0.00 0.00 0.00 0.00 0.00 0.00 0.00 0.75 0.00 0.00 0.00 0.77 0.00 0.00 0.00 0.00 0.00 0.00 0.57 0.00 0.00 0.00 0.00 0.71 0.00 0.00 0.00 0.76 0.00 0.00 0.00 0.00 0.00 0.00 0.00 0.00 0.00 0.00 0.00 0.00 0.00 0.00 0.00 0.00 0.00 0.00 0.00 0.00 0.00 0.00 0.00 0.00 0.00 0.81 0.98 0.76 0.00 0.00 0.00 0.00 0.00 0.00 0.00 0.00 0.00 0.00 0.00 0.00 0.00 0.00 0.53 0.73 0.00 0.00 0.00 0.00 0.00 0.00 0.00 0.00 0.00 0.83 0.97 0.00 0.00 0.00 0.00 0.75 0.00 0.00 0.00 0.00 0.00 0.74 0.00 0.00 0.00 0.00 0.00 0.95 0.66 0.00 0.00 0.00 0.00 0.00 0.00 0.00 0.00 0.00 0.00 0.00 0.00 0.92 0.00 0.00 0.00 0.97 0.00 0.00 0.00 0.85 0.00 0.93 0.00 0.00 0.00 0.00 0.00 0.00 0.00 0.00
0.00 0.00 0.00 0.00 0.76 0.60 0.00 0.00 0.00 0.00 0.85 0.99 0.00 0.00 0.00 0.00 0.00 0.00 0.96 0.00 0.00 0.00 0.00 0.00 0.51 0.00 0.00 0.00 0.97 0.00 0.00 0.98 0.00 0.00 0.00 0.00 0.00 0.93 0.00 0.00 0.00 0.00 0.00 0.00 0.00 0.00 0.00 0.00 0.00 0.00 0.00 0.00 0.00 0.00 0.75 0.00 0.62 0.00 0.00 0.00 0.00 0.80 0.00 0.91 0.00 0.00 0.00 0.65 0.00 0.00 0.00 0.00 0.90 0.73 0.00 0.98 0.00 0.68 0.00 0.00 0.00 0.88 0.00 0.00 0.00 0.89 0.52 0.74 0.87 0.00 0.93 0.00 0.00 0.00 0.00 0.00 0.00 0.00 0.00 0.82 0.91 0.00 0.64 0.00 1.00 0.00 0.00 0.00 0.00 0.00 0.00 0.73 0.00 0.00 0.00 0.00 0.00 0.83 0.00 0.65 0.71 0.00 0.00 0.00 0.00 0.00 0.00 0.00 0.51 0.00 0.00 0.00 0.00 0.00 0.00 0.00 0.00 1.00 0.77 0.00
0.66 0.51 0.00 0.00 0.00 0.59 0.00 0.00 0.00 0.00 0.87 0.00 0.65 0.00 0.00 0.96 0.00 0.00 0.00 0.78 0.00 0.00 0.00 0.00 0.58 0.00 0.00 0.00 0.00 0.00 0.80 0.00 0.00 0.00 0.00 0.00 0.00 0.00 0.00 0.61 0.00 0.00 0.00 0.00 0.00 0.00 0.00 0.00 0.00 0.00 0.00 0.96 0.90 0.00 0.00 0.00 0.81 0.00 0.00 0.00 0.00 0.00 0.00 0.00 0.00 0.66 0.00 0.00 0.56 0.00 0.00 0.00 0.00 0.00 0.00 0.00 0.00 0.00 0.82 0.00 0.55 0.00 0.00 0.00 0.00 0.00 0.00 0.00 0.00 0.00 0.00 0.72 0.00 0.00 0.00 0.00 0.60 0.93 0.00 0.00 0.00 0.00 0.00 0.77 0.00 0.53 0.90 0.00 0.00 0.59 0.00 0.66 0.00 0.00 0.00 0.00 0.00 0.00 0.00 0.00 0.00 0.00 0.81 0.00 0.00 0.00 0.00 0.65 0.65 0.00 0.00 0.00 0.81 0.00 0.00 0.00 0.00 0.00 0.00 0.00
0.00 0.00 0.72 0.00 0.57 0.00 0.00 0.00 0.00 0.00 0.00 0.00 0.00 0.00 0.00 0.00 0.00 0.65 0.00 0.00 0.00 0.00 0.00 0.00 0.00 0.00 0.87 0.00 0.90 0.00 0.00 0.00 0.97 0.00 0.00 0.00 0.00 0.71 0.00 0.00 0.90 0.00 0.61 0.00 0.00 0.00 0.00 0.00 0.00 0.00 0.00 0.00 0.00 0.52 0.00 0.00 0.00 0.00 0.00 0.00 0.00 0.00 0.00 0.75 0.00 0.00 0.00 0.74 0.00 0.99 0.00 0.00 0.00 0.00 0.00 0.00 0.00 0.00 0.98 0.00 0.00 0.00 0.98 0.76 0.00 0.88 0.00 0.00 0.00 0.64 0.00 0.00 0.00 0.00 0.00 0.00 0.00 0.00 0.00 0.00 0.00 0.00 0.90 0.00 0.00 0.00 0.00 0.63 0.00 0.00 1.00 0.53 0.00 0.00 0.00 0.00 0.00 0.00 0.00 0.90 0.00 0.89 0.93 0.78 0.00 0.94 0.68 0.00 0.00 0.77 0.00 0.00 0.00 0.65 0.00 0.00 0.00 0.72 0.00 0.00
0.00 0.84 0.54 0.58 0.95 0.70 0.64 0.00 0.00 0.00 0.54 0.00 0.00 0.00 0.00 0.00 0.00 0.64 0.79 0.00 0.00 0.00 0.64 0.00 0.63 0.00 0.00 0.00 0.58 0.00 0.00 0.00 0.00 0.00 0.00 0.00 0.00 0.00 0.00 0.00 0.00 0.93 0.89 0.98 0.00 0.00 0.00 0.00 0.77 0.67 0.00 0.00 0.00 0.00 0.00 0.00 0.00 0.00 0.00 0.00 0.00 0.00 0.00 0.00 0.00 0.00 0.73 0.00 0.00 0.00 0.00 0.00 0.00 0.55 0.79 0.00 0.00 0.00 0.00 0.79 0.00 0.00 0.00 0.00 0.84 0.00 0.00 0.00 0.57 0.00 0.00 0.00 0.00 0.00 0.00 0.00 0.89 0.00 0.00 0.00 0.00 0.00 0.00 0.00 0.00 0.00 0.00 0.00 0.00 0.00 0.00 0.00 0.00 0.00 0.00 0.62 0.00 0.00 0.00 0.00 0.91 0.00 0.67 0.00 0.00 0.72 0.00 0.63 0.00 0.00 0.00 0.00 0.00 0.00 0.93 0.00 0.83 0.00 0.00 0.00
0.00 0.00 0.00 0.00 0.66 0.00 0.00 0.00 0.00 0.00 0.00 0.00 0.00 0.00 0.00 0.00 0.00 0.00 0.00 0.00 0.00 0.00 0.00 0.00 0.52 0.54 0.00 0.00 0.00 0.00 0.00 0.00 0.00 0.00 0.00 0.00 0.00 0.00 0.93 0.00 0.68 0.76 0.00 0.00 0.75 0.00 0.00 0.00 0.00 0.00 0.64 0.00 0.00 0.00 0.57 0.70 0.00 0.00 0.00 0.00 0.61 0.00 0.00 0.00 0.00 0.00 0.77 0.00 0.78 0.00 0.00 0.00 0.00 0.00 0.00 0.00 0.00 0.00 0.89 0.00 0.78 0.00 0.00 0.76 0.00 0.00 0.89 0.00 0.00 0.00 0.00 0.00 0.00 0.00 0.00 0.00 0.00 0.00 0.00 0.85 0.74 0.00 0.00 0.00 0.00 0.00 0.00 0.00 0.00 0.82 0.00 0.00 0.53 0.00 0.91 0.99 0.00 0.00 0.00 0.64 0.99 0.00 0.00 1.00 0.00 0.56 0.94 0.00 0.00 0.71 0.00 0.00 0.00 0.00 0.00 0.00 0.00 0.00 0.00 0.72
0.00 0.00 0.00 0.00 0.00 0.00 0.00 0.00 0.50 0.00 0.00 0.00 0.96 0.00 0.00 0.64 0.00 0.00 0.00 0.00 0.00 0.00 0.88 0.00 0.88 0.00 0.80 0.00 0.87 0.00 0.00 0.00 0.00 0.00 0.00 0.98 0.91 0.61 0.00 0.00 0.00 0.00 0.63 0.00 0.00 0.00 0.00 0.00 0.57 0.59 0.00 0.00 0.00 0.00 0.00 0.00 0.00 0.00 0.00 0.00 0.00 0.00 0.00 0.86 0.00 0.00 0.00 0.00 0.00 0.00 0.95 0.00 0.00 0.70 0.00 0.00 0.00 0.00 0.00 0.00 0.00 0.00 0.00 0.72 0.51 0.00 1.00 0.00 0.00 0.69 0.00 0.00 0.00 0.00 0.00 0.00 0.00 0.92 0.66 0.51 0.00 0.97 0.00 0.00 0.00 0.00 0.00 0.00 0.60 0.00 0.75 0.00 0.00 0.00 0.00 0.00 0.00 0.00 0.00 0.84 0.00 0.00 0.79 0.00 0.84 0.00 0.00 0.00 0.00 0.00 0.00 0.68 0.00 0.97 0.00 0.00 0.00 0.00 0.00 0.00
0.94 0.00 0.84 0.00 0.00 0.00 0.00 0.00 0.00 0.00 0.00 0.00 0.00 0.00 0.00 0.00 0.00 0.00 0.00 0.00 0.60 0.00 0.00 0.00 0.00 0.00 0.00 0.00 0.00 0.76 0.00 0.00 0.00 0.00 0.00 0.00 0.62 0.00 0.00 0.87 0.78 0.00 0.96 0.00 0.00 0.84 0.00 0.00 0.00 0.93 0.00 0.50 0.00 0.00 0.00 0.89 0.00 0.00 0.00 0.00 0.00 0.53 0.00 0.00 0.96 0.00 0.00 0.00 0.00 0.69 0.00 0.00 0.00 0.00 0.63 0.00 0.61 0.00 0.74 0.00 0.00 0.00 0.00 0.00 0.64 0.00 0.00 0.00 0.00 0.00 0.00 0.00 0.00 0.00 0.58 0.00 0.00 0.00 0.00 0.00 0.88 0.00 0.65 0.81 0.00 0.00 0.67 0.00 0.87 0.97 0.64 0.00 0.75 0.00 0.00 0.00 0.00 0.00 0.92 0.00 0.00 0.00 0.00 0.67 0.00 0.58 0.63 0.00 0.00 0.00 0.00 0.97 0.00 0.00 0.00 0.00 0.00 0.92 0.75 0.00
0.00 0.00 0.98 0.00 0.00 0.00 0.00 0.00 0.00 0.00 0.80 0.00 0.00 0.00 0.00 0.00 0.00 0.95 0.58 0.94 0.73 0.00 0.00 0.00 0.94 0.00 0.83 0.00 0.00 0.93 0.00 0.00 0.00 0.00 0.56 0.00 0.00 0.00 0.00 0.00 0.00 0.00 0.78 0.00 0.62 0.00 0.00 0.00 0.00 0.00 0.00 0.83 0.00 0.88 0.00 0.00 0.00 0.00 0.71 0.83 0.00 0.00 0.00 0.00 0.00 0.00 0.00 0.00 0.00 0.00 0.00 0.00 0.60 0.00 0.00 0.70 0.66 0.66 0.00 0.00 0.00 0.00 0.00 0.00 0.00 0.62 0.00 0.00 0.00 0.00 0.67 0.00 0.00 0.00 0.00 0.98 0.00 0.00 0.00 0.00 0.00 0.00 0.00 0.00 0.00 0.00 0.00 0.00 0.00 0.00 0.00 0.00 0.58 0.00 0.00 0.00 0.00 0.00 0.00 0.79 0.00 0.72 0.00 0.00 0.00 0.00 0.00 0.00 0.00 0.00 0.00 0.00 0.62 0.00 0.00 0.00 0.00 0.00 0.00 0.00
0.00 0.00 0.00 0.00 0.00 0.94 0.00 0.00 0.00 0.00 0.73 0.00 0.79 0.00 0.00 0.00 0.00 0.00 0.00 0.92 0.00 0.00 0.00 0.62 0.00 0.00 0.00 0.00 0.00 0.00 0.60 0.74 0.77 0.00 0.00 0.00 0.00 0.00 0.55 0.00 0.00 0.00 0.57 0.73 0.00 0.00 0.93 0.71 0.00 0.00 0.00 0.00 0.00 0.00 0.00 0.88 0.00 0.00 1.00 0.00 0.00 0.63 0.00 0.00 0.00 0.69 0.00 0.00 0.00 1.00 0.00 0.00 0.00 0.00 0.00 0.00 0.00 0.60 0.00 0.00 0.00 0.00 0.00 0.87 0.00 0.00 0.00 0.00 0.00 0.00 0.00 0.00 0.00 0.58 0.00 0.00 0.00 0.00 0.00 0.72 0.00 0.00 0.00 0.00 0.00 0.00 0.00 0.00 0.00 0.00 0.00 0.00 0.00 0.00 0.00 0.00 0.00 0.00 0.00 0.00 0.00 0.00 0.00 0.00 0.00 0.00 0.00 0.00 0.78 0.00 0.00 0.00 0.64 0.92 0.00 0.00 0.00 0.00 0.00 0.00
0.00 0.00 0.00 0.59 0.00 0.51 0.00 0.00 0.00 0.00 0.00 0.00 0.00 0.00 0.00 0.00 0.91 0.00 0.60 0.65 0.82 0.00 0.00 0.85 0.00 0.68 0.00 0.00 0.00 0.00 0.00 0.00 0.00 0.00 0.84 0.00 0.00 0.00 0.00 0.66 0.00 0.00 0.92 0.00 0.78 1.00 0.00 0.54 0.00 0.00 0.00 0.00 0.00 0.76 0.00 0.88 0.73 0.00 0.55 0.00 0.00 0.78 0.59 0.00 0.77 0.00 0.68 0.00 0.00 0.00 0.00 0.00 0.73 0.00 0.00 0.00 0.00 0.00 0.00 0.00 0.00 1.00 0.00 0.00 0.00 0.00 0.00 0.00 0.00 0.89 0.00 0.79 0.00 0.56 0.00 0.54 0.00 0.54 0.86 0.00 0.00 0.00 0.80 0.00 0.81 0.00 0.00 0.00 0.00 0.00 0.00 0.00 0.68 0.00 0.00 0.62 0.00 0.00 0.00 0.00 0.00 0.00 0.00 0.94 0.91 0.00 0.82 0.00 0.00 0.00 0.00 0.00 0.00 0.00 0.00 0.00 0.89 0.00 0.00 0.00
0.00 0.00 0.00 0.00 0.00 0.00 0.53 0.00 0.00 0.00 0.00 0.00 0.00 0.92 0.00 0.00 0.00 0.00 0.00 0.00 0.00 0.00 0.00 0.00 0.00 0.00 0.00 0.56 0.94 0.00 0.80 0.00 0.00 0.81 0.00 0.00 0.00 0.63 0.00 0.00 0.00 0.00 0.00 0.84 0.00 0.00 0.00 0.00 0.00 0.62 0.00 0.00 0.00 0.00 0.00 0.00 0.00 0.93 0.00 0.78 0.00 0.00 0.00 0.00 0.00 0.00 0.00 0.00 0.00 0.00 0.00 0.00 0.00 0.00 0.00 0.00 0.00 0.00 0.00 0.86 0.93 0.00 0.00 0.00 0.00 0.00 0.00 0.00 0.51 0.83 0.00 0.00 0.00 0.00 0.00 0.00 0.00 0.00 0.00 0.00 0.00 0.00 0.00 0.00 0.00 0.78 0.73 0.00 0.58 0.00 0.00 0.00 0.00 0.00 0.00 0.00 0.00 0.00 0.00 0.00 0.00 0.00 0.00 0.90 0.00 0.00 0.51 0.00 0.00 0.00 0.00 0.00 0.00 0.00 0.00 0.90 0.00 0.00 0.52 0.00
0.00 0.72 0.00 0.00 0.00 0.58 0.00 0.60 0.00 0.00 0.58 0.00 0.00 0.68 0.00 0.93 0.00 0.51 0.00 0.00 0.00 0.00 0.00 0.00 0.54 0.00 1.00 0.00 0.70 0.83 0.00 0.00 0.00 0.99 0.63 0.00 0.00 0.00 0.00 0.00 0.00 0.95 0.00 0.00 0.00 0.00 0.00 0.00 0.63 0.82 0.67 0.00 0.00 0.00 0.00 0.00 0.00 0.95 0.00 0.00 0.86 0.00 0.00 0.00 0.00 0.00 0.00 0.00 0.89 0.00 0.00 0.00 0.00 0.00 0.00 0.00 0.52 0.00 0.00 0.72 0.00 0.00 0.00 0.00 0.00 0.67 0.92 0.00 0.00 0.00 0.00 0.00 0.00 0.00 0.00 0.72 0.90 0.00 0.00 0.00 0.00 0.00 0.00 0.84 0.00 0.00 0.00 0.00 0.00 0.00 0.00 0.00 0.78 0.00 0.00 0.00 0.00 0.00 0.00 0.00 0.00 0.00 0.00 0.00 0.00 0.00 0.00 0.00 0.00 0.81 0.00 0.00 0.00 0.00 0.00 0.85 0.82 0.00 0.71 0.77
0.00 0.00 0.00 0.00 0.00 0.00 0.98 0.00 0.00 0.00 0.00 0.00 0.00 0.00 0.00 0.00 0.00 0.00 0.52 0.00 0.00 0.00 0.00 0.00 0.00 0.00 0.00 0.00 0.71 0.00 0.00 0.00 0.00 0.97 0.00 0.00 0.00 0.00 0.00 0.00 0.00 0.00 0.00 0.00 0.00 0.00 0.00 0.91 0.00 0.00 0.00 0.00 0.00 1.00 0.00 0.65 0.00 0.94 0.00 0.00 0.00 0.00 0.00 0.73 0.00 0.00 0.00 0.00 0.00 0.00 0.68 0.70 0.00 0.00 0.00 0.00 0.00 0.00 0.00 0.00 0.00 0.00 0.00 0.00 0.00 0.86 0.00 0.00 0.00 0.74 0.65 0.84 0.00 0.00 0.00 0.00 0.00 0.00 0.00 0.73 0.00 0.00 0.00 0.00 0.00 0.00 0.66 0.00 0.67 0.00 0.00 0.00 0.00 0.53 0.59 0.00 0.00 0.00 0.00 0.00 0.00 0.97 0.00 0.00 0.00 0.00 0.00 0.00 0.00 0.00 0.00 0.00 0.00 0.91 0.55 0.00 0.00 0.00 0.00 0.67
0.62 0.86 0.00 0.93 0.00 0.00 0.00 0.00 0.00 0.00 0.90 0.00 0.00 0.00 0.00 0.00 0.00 0.00 0.00 0.00 0.85 0.00 0.00 0.00 0.00 0.00 0.00 0.00 0.00 0.00 0.80 0.00 0.00 0.00 0.00 0.00 0.00 0.00 0.00 0.51 0.00 0.00 0.00 0.00 0.00 0.00 0.00 0.00 0.00 0.70 0.00 0.00 0.00 0.00 0.66 0.00 0.98 0.00 0.53 0.00 0.00 0.00 0.00 0.00 0.00 0.00 0.00 0.00 0.00 0.00 0.99 0.58 0.00 0.00 0.00 0.00 0.00 0.98 0.66 0.00 0.00 0.00 0.00 0.00 0.00 0.00 0.00 0.67 0.00 0.00 0.00 0.56 0.53 0.00 0.00 0.00 0.00 0.00 0.78 0.00 0.00 0.00 0.00 0.00 0.00 0.00 0.81 0.00 0.00 0.00 0.95 0.92 0.00 0.00 0.00 0.00 0.00 0.00 0.00 0.86 0.92 0.00 0.67 0.00 0.00 0.97 0.53 0.00 0.00 0.00 0.00 0.00 0.77 0.00 0.00 0.00 0.00 0.00 0.00 0.00
0.00 0.80 0.00 0.00 0.57 0.00 0.00 0.00 0.00 0.00 0.00 0.93 0.00 0.00 0.00 0.00 0.00 0.00 0.00 0.00 0.00 0.00 0.00 0.56 0.00 0.64 0.00 0.00 0.79 0.00 0.00 0.00 0.00 0.00 0.00 0.00 0.00 0.00 0.00 0.00 0.00 0.00 0.00 0.85 0.84 0.98 0.00 0.67 0.00 0.00 0.00 0.00 0.97 0.00 0.00 0.00 0.91 0.00 0.00 0.00 0.00 0.00 0.00 1.00 0.68 0.00 0.00 0.00 0.00 0.00 0.00 0.00 0.62 0.51 0.00 0.00 0.00 0.00 0.00 0.00 0.00 0.00 0.56 0.00 0.00 0.00 0.00 0.00 0.00 0.00 0.53 0.00 0.84 0.00 0.00 0.54 0.00 0.00 0.00 0.00 0.00 0.00 0.00 0.00 0.00 0.00 0.00 0.77 0.00 0.84 0.00 0.96 0.65 0.00 0.00 0.00 0.00 0.00 0.00 0.00 0.00 0.00 0.00 0.00 0.94 0.64 0.00 0.00 0.00 0.56 0.00 0.00 0.00 0.00 0.00 0.00 0.00 0.00 0.68 0.00
0.00 0.00 0.00 0.00 0.00 0.00 0.00 0.00 0.00 0.79 0.00 0.59 0.00 0.00 0.53 0.00 0.00 0.00 0.00 0.57 0.00 0.69 0.00 0.00 0.00 0.00 0.00 0.00 0.68 0.62 0.00 0.00 0.69 0.00 0.89 0.79 0.00 0.00 0.00 0.00 0.00 0.00 0.00 0.56 0.00 0.81 0.00 0.00 0.00 0.00 0.00 0.00 0.00 0.00 0.00 0.00 0.00 0.00 0.90 0.61 0.00 0.94 0.00 0.00 0.00 0.00 0.00 0.00 0.76 0.00 0.00 0.00 0.00 0.00 0.93 0.00 0.00 0.76 0.00 0.85 0.00 0.00 0.00 0.00 0.00 0.00 0.84 0.00 0.00 0.00 0.00 0.00 0.00 0.00 0.64 0.00 0.00 0.66 0.97 0.00 0.00 0.00 0.00 0.00 0.00 0.00 0.00 0.87 0.67 0.00 0.00 0.64 0.00 0.88 0.00 0.00 0.00 0.70 0.00 0.00 0.00 0.00 0.00 0.00 0.00 0.00 0.00 0.75 0.00 0.00 0.00 0.00 0.88 0.00 0.00 0.81 0.00 0.00 0.00 0.00
0.00 0.53 0.00 0.00 0.00 0.00 0.80 0.00 0.60 0.00 0.00 0.51 0.00 0.60 0.50 0.00 0.00 0.00 0.00 0.66 0.00 0.58 0.00 0.00 0.00 0.00 0.00 0.00 0.00 0.52 0.00 0.00 0.63 0.00 0.00 0.00 0.87 0.00 0.83 0.00 0.00 0.00 0.00 0.90 0.00 0.69 0.97 0.00 0.80 0.00 0.00 0.00 0.00 0.00 0.00 0.00 0.72 0.00 0.00 0.53 0.00 0.00 0.00 0.00 0.00 0.00 0.78 0.99 0.00 0.00 0.00 0.00 0.00 0.00 0.00 0.00 0.00 0.00 0.00 0.00 0.00 0.61 0.00 0.00 0.00 0.00 0.00 0.93 0.00 0.00 0.00 0.00 0.78 0.00 0.00 0.00 0.00 0.00 0.00 0.00 0.00 0.80 0.00 0.00 0.00 0.64 0.87 0.00 0.00 0.81 0.00 0.00 0.54 0.00 0.00 0.51 0.00 0.00 0.00 0.00 0.00 0.00 0.00 0.00 0.89 0.00 0.00 0.84 0.00 0.00 0.00 0.00 0.00 0.91 0.00 0.00 0.00 0.00 0.00 0.74
0.00 0.00 0.00 0.00 0.00 0.00 0.00 0.00 0.00 0.00 0.00 0.00 0.97 0.00 0.00 0.85 0.00 0.00 0.81 0.00 0.92 0.00 0.00 0.00 0.00 0.00 0.00 0.52 0.00 0.00 0.00 0.00 0.00 0.67 0.00 0.00 0.68 0.00 0.90 0.00 0.00 0.00 0.00 0.00 0.00 0.63 0.00 0.87 0.93 0.00 0.00 0.98 0.00 0.00 0.00 0.00 0.00 0.00 0.00 0.00 0.00 0.00 0.00 0.51 0.00 0.00 0.00 0.86 0.51 0.90 0.00 0.00 0.00 0.00 0.00 0.00 0.84 0.00 0.00 0.00 0.00 0.00 0.00 0.00 0.00 0.00 0.00 0.00 0.00 0.00 0.88 0.00 0.00 0.00 0.00 0.00 0.00 0.77 0.63 0.00 0.77 0.00 0.00 0.00 0.53 0.00 0.00 0.00 0.00 0.00 0.00 0.00 0.00 0.59 0.76 0.00 0.88 0.00 0.00 0.00 0.57 0.00 0.81 0.00 0.00 0.57 0.00 0.00 0.71 0.00 0.00 0.83 0.00 0.00 0.00 0.00 0.00 0.00 0.00 0.55
0.00 1.00 0.56 0.00 0.00 0.00 0.00 0.00 0.00 0.72 0.00 0.00 0.00 0.00 0.80 0.00 0.00 0.00 0.75 0.00 0.00 0.73 0.61 0.00 0.00 0.00 0.00 0.00 0.00 0.00 0.00 0.64 0.58 0.75 0.00 0.00 0.00 0.00 0.00 0.00 0.00 0.58 0.00 0.00 0.00 0.90 0.00 0.68 0.65 0.00 0.00 0.00 0.00 0.00 0.00 0.00 0.00 0.79 0.00 0.87 0.00 0.00 0.63 0.00 0.00 0.74 0.00 0.00 0.00 0.00 0.00 0.00 0.00 0.77 0.66 0.52 0.00 0.00 0.00 0.57 0.00 0.00 0.00 0.97 0.00 0.00 0.67 0.00 0.00 0.00 0.50 0.60 0.00 0.00 0.00 0.00 0.00 0.00 0.87 0.00 0.00 0.91 0.00 0.00 0.78 0.00 0.00 0.00 0.00 0.00 0.00 0.00 0.68 0.00 0.00 0.00 0.00 0.00 0.00 0.00 0.00 0.00 0.00 0.00 0.00 0.52 0.00 0.00 0.00 0.00 0.00 0.00 0.56 0.00 0.00 0.00 0.68 0.00 0.00 0.00
0.00 0.00 0.00 0.00 0.00 0.00 0.77 0.00 0.00 0.73 0.00 0.00 0.00 0.00 0.00 0.00 0.00 0.92 0.00 0.00 0.00 0.72 0.00 0.91 0.00 0.00 0.00 0.00 0.77 0.00 0.00 0.93 0.00 0.00 0.00 0.00 0.00 0.00 0.00 0.00 0.00 0.00 0.00 0.67 0.00 0.00 0.00 0.00 0.00 0.00 0.00 0.00 0.57 0.00 0.00 0.00 0.00 0.00 0.54 0.00 0.00 0.00 0.00 0.00 0.00 0.00 0.00 0.00 0.00 0.00 0.00 0.00 0.00 0.67 0.00 0.76 0.00 0.00 0.00 0.00 0.81 0.00 0.62 0.00 0.76 0.00 0.77 0.66 0.00 0.00 0.00 0.00 0.00 0.00 0.52 0.00 0.00 0.95 0.00 0.00 0.00 0.00 0.00 0.86 0.00 0.00 0.00 0.79 0.54 0.00 0.00 0.00 0.00 0.00 0.67 0.00 0.56 0.00 0.88 0.00 0.00 0.00 0.00 0.00 0.00 0.00 0.00 0.00 0.00 0.00 0.00 0.00 0.00 0.00 0.00 0.86 0.78 0.00 0.00 0.00
0.00 0.00 0.00 0.00 0.00 0.00 0.00 0.00 0.00 0.00 0.00 0.00 0.00 0.00 0.00 0.78 0.00 0.00 0.00 0.00 0.00 0.00 0.00 0.00 0.00 0.00 0.00 0.00 0.00 0.00 0.00 0.00 0.00 0.00 0.00 0.00 0.00 0.00 0.00 0.79 0.76 0.00 0.00 0.00 0.00 0.00 0.00 0.00 0.00 0.70 0.00 0.00 0.00 0.00 0.00 0.79 0.00 0.00 0.92 0.00 0.57 0.00 0.00 0.00 0.00 0.80 0.00 0.87 0.00 0.00 0.00 0.00 0.55 0.00 0.00 0.59 0.00 0.00 0.00 0.00 0.00 0.00 0.00 0.00 0.00 0.00 0.00 0.00 0.00 0.00 0.00 0.51 0.00 0.00 0.66 0.00 0.00 0.00 0.00 0.00 0.00 0.61 0.65 0.00 0.00 0.00 0.00 0.00 0.00 0.00 0.00 0.00 0.00 0.96 0.00 0.00 0.00 0.00 0.00 0.00 0.00 0.00 0.00 0.00 0.68 0.79 0.00 0.00 0.00 0.74 0.00 0.00 0.00 0.00 0.00 0.00 0.00 0.00 0.00 0.00
0.00 0.00 0.00 0.00 0.00 0.00 0.51 0.79 0.00 0.00 0.00 0.00 0.00 0.00 0.83 0.00 0.80 0.86 0.00 0.00 0.00 0.00 0.00 0.00 0.00 0.00 0.00 0.00 0.76 0.00 0.00 0.00 0.53 0.89 0.00 0.00 0.00 0.00 0.80 0.00 0.00 0.60 0.00 0.00 0.00 0.89 0.00 0.00 0.00 0.00 0.00 0.00 0.00 0.00 0.00 0.00 0.00 0.56 0.00 0.00 0.00 0.00 0.00 0.00 0.00 0.00 0.00 0.00 0.86 0.00 0.00 0.67 0.00 0.00 0.00 0.00 0.00 0.00 0.75 0.00 0.78 0.00 0.70 0.00 0.79 0.00 0.61 0.00 0.00 0.00 0.00 0.00 0.00 0.00 0.77 0.85 0.00 0.00 0.00 0.93 0.00 0.00 0.54 0.00 0.00 0.60 0.00 0.00 0.81 1.00 0.00 0.00 0.91 0.00 0.79 0.00 0.00 0.00 0.00 0.00 0.00 0.00 0.55 0.00 0.00 0.00 0.52 0.00 0.95 0.00 0.00 0.00 0.76 0.00 0.00 0.00 0.00 0.00 0.76 0.00
0.72 0.00 0.00 0.00 0.92 0.00 0.00 0.00 0.00 0.00 0.00 0.00 0.00 0.00 0.00 0.00 0.00 0.00 0.00 0.00 0.88 0.77 0.00 0.00 0.00 0.00 0.00 0.00 0.00 0.00 0.00 0.00 0.79 0.92 0.68 0.00 0.94 0.00 0.00 0.00 0.00 0.00 0.61 0.00 0.00 0.60 0.00 0.00 0.00 0.85 0.00 0.00 0.79 0.00 0.00 0.00 0.00 0.00 0.00 0.00 0.00 0.00 0.00 0.00 0.00 0.00 0.00 0.00 0.00 0.00 0.00 0.00 0.00 0.00 0.00 0.68 0.00 0.00 0.00 0.00 0.00 0.00 0.00 0.00 0.74 0.59 0.00 0.00 0.00 0.00 0.00 0.00 0.00 0.58 0.00 0.00 0.00 0.00 0.00 0.00 0.00 0.00 0.00 0.00 0.00 0.00 0.00 0.00 0.57 0.00 0.62 0.00 0.00 0.00 0.00 0.00 0.00 0.57 0.00 0.00 0.00 0.00 0.53 0.00 0.00 0.00 0.00 0.00 0.00 0.00 0.00 0.00 0.00 0.74 0.00 0.00 0.00 0.00 0.98 0.00
0.00 0.00 0.54 0.00 0.00 0.00 0.00 0.00 0.71 0.00 0.88 0.00 0.59 0.00 0.00 0.00 0.00 0.00 0.82 0.93 0.00 0.00 0.00 0.00 0.96 0.00 0.52 0.00 0.00 0.78 0.79 0.00 0.00 0.00 0.00 0.00 0.00 0.00 0.00 0.70 0.00 0.00 0.00 0.95 0.00 0.68 0.00 0.00 0.00 0.00 0.00 0.00 0.00 0.00 0.77 0.60 0.00 0.00 0.00 0.00 0.62 0.64 0.00 0.87 0.00 0.00 0.51 0.00 0.00 0.90 0.00 0.91 0.00 0.00 0.00 0.83 0.00 0.81 0.00 0.90 0.00 0.00 0.00 0.00 0.93 0.00 0.00 0.00 0.00 0.55 0.90 0.79 0.79 0.00 0.76 0.00 0.60 0.85 0.00 0.00 0.00 0.94 0.00 0.00 0.00 0.57 0.00 0.79 0.00 0.00 0.00 0.00 0.00 0.00 0.00 0.00 0.00 0.00 0.00 0.67 0.00 0.00 0.90 0.51 0.00 0.00 0.00 0.00 0.00 0.00 0.00 1.00 0.00 0.00 0.50 0.00 0.00 0.00 0.00 0.00
0.00 0.00 0.00 0.00 0.00 0.72 0.00 0.00 0.00 0.00 0.00 0.00 0.56 0.00 0.00 0.00 0.00 0.86 0.00 0.00 0.00 0.00 0.00 0.00 0.00 0.00 0.00 0.00 0.00 0.00 0.00 0.00 0.00 0.66 0.00 0.00 0.00 0.00 0.84 0.00 0.99 0.55 0.00 0.00 0.00 0.66 0.00 0.00 0.00 0.00 0.00 0.00 0.00 0.00 0.89 0.00 0.83 0.56 0.00 0.00 0.72 0.69 0.70 0.53 0.00 0.00 0.00 0.00 0.00 0.00 0.00 0.00 0.00 0.00 0.00 0.00 0.00 0.00 0.00 0.00 0.00 0.00 0.00 0.00 0.00 0.00 0.00 0.95 0.00 0.00 0.00 0.59 0.00 0.00 0.00 0.00 0.00 0.00 0.00 0.93 0.00 0.00 0.00 0.00 0.00 0.77 0.00 0.00 0.00 0.00 0.00 0.00 0.83 0.71 0.00 0.00 0.00 1.00 0.91 0.00 0.00 0.00 0.00 0.00 0.00 0.76 0.00 0.00 0.00 0.00 0.00 0.00 0.00 0.85 0.00 0.64 0.00 0.00 0.00 0.00
0.58 0.00 0.00 0.00 0.00 0.00 0.00 0.00 0.00 0.58 0.00 0.00 0.80 0.00 0.84 0.00 0.00 0.00 0.00 0.00 0.00 0.76 0.66 0.00 0.58 0.00 0.71 0.00 0.00 0.00 0.00 0.93 0.00 0.00 0.00 0.00 0.00 0.00 0.88 0.88 0.00 0.00 0.56 0.78 0.00 0.00 0.56 0.00 0.00 0.00 0.00 0.00 0.00 0.00 0.00 0.00 0.00 0.00 0.00 0.00 0.98 0.00 0.00 0.00 0.00 0.00 0.00 0.00 0.00 0.00 0.00 0.00 0.00 0.00 0.70 0.00 0.97 0.00 0.00 0.00 0.00 0.81 0.00 0.97 0.00 0.00 0.55 0.00 0.00 0.00 0.83 0.82 0.00 0.00 0.95 0.00 0.00 0.00 0.00 0.00 0.00 0.00 0.98 0.00 0.00 0.00 0.55 0.79 0.00 0.00 0.00 0.75 0.00 0.67 0.00 0.00 0.00 0.97 0.00 0.00 0.00 0.00 0.00 0.00 0.00 0.00 0.00 0.83 0.00 0.00 0.00 0.00 0.00 0.00 0.00 0.00 0.00 0.00 0.00 0.00
0.00 0.00 0.00 0.00 0.00 0.00 0.69 0.00 0.00 0.00 0.00 0.00 0.00 0.63 0.00 0.00 0.00 0.00 0.00 0.72 0.00 0.52 0.00 0.00 0.66 0.00 0.00 0.93 0.00 0.58 0.00 0.00 0.72 0.00 0.00 0.00 0.00 0.00 0.00 0.84 0.00 0.00 0.00 0.99 0.00 0.00 0.50 0.00 0.00 0.00 0.00 0.00 0.00 0.00 0.00 0.00 0.00 0.00 0.00 0.00 0.00 0.68 0.00 0.00 0.00 0.00 0.66 0.00 0.80 0.00 0.00 0.00 0.00 0.00 0.00 0.00 0.00 0.00 0.00 0.00 0.00 0.00 0.90 0.71 0.00 1.00 0.00 0.00 0.00 0.00 0.00 0.75 0.00 0.00 0.00 0.00 0.00 0.00 0.00 0.91 0.00 0.50 0.00 0.00 0.93 0.00 0.00 0.00 0.00 0.00 0.92 0.00 0.00 0.00 0.00 1.00 0.00 0.00 0.00 0.00 0.00 0.00 0.00 0.60 0.00 0.00 0.00 0.00 0.00 0.83 0.00 0.00 0.00 0.00 0.00 0.00 0.00 0.00 0.00 0.00
0.00 0.00 0.00 0.00 0.00 0.00 0.00 0.69 0.94 0.00 0.00 0.00 0.00 0.00 0.97 0.00 0.88 0.00 0.00 0.00 0.00 0.00 0.00 0.00 0.00 0.00 0.00 0.00 0.00 0.00 0.00 0.00 0.00 0.00 0.52 0.00 0.00 0.00 0.00 0.00 0.00 0.00 0.00 0.00 0.72 0.00 0.00 0.00 0.00 0.00 0.00 0.00 0.00 0.00 0.00 0.00 0.00 0.00 0.00 0.68 0.00 0.00 0.00 0.00 0.00 0.00 0.00 0.00 0.66 0.00 0.62 0.00 0.88 0.00 0.00 0.00 0.00 0.00 0.00 0.00 0.00 0.00 0.00 0.97 0.82 0.00 0.00 0.92 0.00 0.00 0.00 0.00 0.00 0.00 0.00 0.00 0.00 0.00 0.00 0.00 0.00 0.58 0.00 0.71 0.00 0.00 0.00 0.00 0.95 0.00 0.00 0.72 0.88 0.00 0.00 0.54 0.00 0.00 0.00 0.00 0.95 0.67 0.00 0.94 0.00 0.00 0.60 0.00 0.00 0.00 0.00 0.00 0.00 0.00 0.00 0.98 0.00 0.00 0.00 0.00
0.00 0.99 0.00 0.00 0.86 0.00 0.00 0.00 0.00 0.00 0.00 0.00 0.00 0.95 0.00 0.00 0.00 0.00 0.00 0.87 0.97 0.55 0.00 0.82 0.00 0.96 0.00 0.67 0.00 0.00 0.98 0.00 0.00 0.00 0.00 0.00 0.00 0.00 0.00 0.00 0.00 0.00 0.00 0.00 0.00 0.00 0.72 0.77 0.00 0.00 0.00 0.00 0.93 0.94 0.00 0.00 0.00 0.00 0.90 0.00 0.00 0.00 0.65 0.00 0.00 0.00 0.00 0.00 0.00 0.00 0.00 0.00 0.00 0.00 0.00 0.00 0.00 0.00 0.00 0.00 0.00 0.00 0.00 0.55 0.00 0.00 0.00 0.00 0.00 0.00 0.87 0.69 0.72 0.00 0.00 0.00 0.00 0.00 0.00 0.00 0.00 0.00 0.00 0.00 0.00 0.00 0.00 0.00 0.00 0.00 0.00 0.00 0.00 0.00 0.00 0.00 0.72 0.00 0.59 0.00 0.00 0.00 0.00 0.00 0.00 0.00 0.00 0.59 0.00 0.00 0.00 0.00 0.96 0.00 0.00 0.00 0.83 0.00 0.00 0.85
0.61 0.00 0.00 0.00 0.00 0.00 0.00 0.00 0.00 0.00 0.00 0.85 0.00 0.70 0.00 0.00 0.00 0.58 0.00 0.00 0.00 0.00 0.00 0.00 0.00 0.00 0.66 0.00 0.00 0.00 0.00 0.00 0.66 0.00 0.00 0.00 0.00 0.00 0.00 0.00 0.00 0.00 0.00 0.92 0.00 0.00 0.72 0.00 0.00 0.00 0.50 0.00 0.92 0.84 0.00 0.00 0.00 0.86 0.00 0.60 0.00 0.00 0.90 0.00 0.00 0.00 0.00 0.00 0.00 0.61 0.00 0.00 0.00 0.56 0.00 0.98 0.00 0.00 0.70 0.00 0.00 0.00 0.00 0.57 0.00 0.00 0.00 0.00 0.00 0.00 0.00 0.00 0.00 0.93 0.00 0.00 0.00 0.95 0.00 0.00 0.00 0.83 0.64 0.00 0.00 0.00 0.00 0.00 0.00 0.00 0.00 0.00 0.00 0.88 0.00 0.00 0.00 0.00 0.00 0.00 0.00 0.87 0.80 0.00 0.00 0.00 0.78 0.00 1.00 0.90 0.82 0.00 0.53 0.00 0.00 0.00 0.00 0.00 0.00 0.00
0.00 0.99 0.00 0.00 0.00 0.00 0.50 0.00 0.00 0.00 0.00 0.83 0.00 0.00 0.00 0.00 0.00 0.00 0.83 0.53 0.00 0.00 0.00 0.00 0.00 0.00 0.00 0.00 0.00 0.00 0.53 0.00 0.00 0.00 0.00 0.00 0.00 0.00 0.00 0.00 0.00 0.00 0.96 0.00 0.85 0.00 0.00 0.00 0.00 0.00 0.00 0.00 0.00 0.89 0.00 0.00 0.00 0.00 0.00 0.94 0.00 0.00 0.00 0.00 0.00 0.78 0.00 0.00 0.00 0.00 0.00 0.00 0.92 0.59 0.00 0.00 0.00 0.00 0.00 0.00 0.00 0.00 0.70 0.00 0.00 0.54 0.00 0.00 0.00 0.00 0.00 0.92 0.00 0.00 0.00 0.00 0.00 0.00 0.00 0.00 0.00 0.00 0.00 0.00 0.83 0.00 0.00 0.00 0.74 0.00 0.00 0.00 0.00 0.00 0.00 0.00 0.00 0.00 0.00 0.00 0.00 0.00 0.00 0.00 0.00 0.00 0.00 0.00 0.99 0.00 0.00 0.00 0.00 0.00 0.95 0.00 0.00 0.00 0.00 0.00
0.80 0.00 0.00 0.00 0.54 0.00 0.00 0.00 0.00 0.00 0.73 0.66 0.83 0.00 0.00 0.00 0.55 0.00 0.00 0.75 0.54 0.00 0.95 0.00 0.00 0.91 0.00 0.68 0.00 0.00 0.00 0.00 0.00 0.00 0.00 0.00 0.00 0.00 0.00 0.00 0.95 0.00 0.00 0.77 0.00 0.00 0.00 0.76 0.00 0.00 0.79 0.00 0.00 0.00 0.00 0.00 0.00 0.00 0.00 0.00 0.00 0.76 0.88 0.00 0.84 0.00 0.00 0.00 0.00 0.00 0.00 0.00 0.96 0.00 0.00 0.00 0.98 0.78 0.00 0.92 0.00 0.00 0.00 0.82 0.00 0.00 0.00 0.00 0.00 0.00 0.88 0.00 0.78 0.00 0.00 0.00 0.00 0.00 0.00 0.00 0.00 0.51 0.00 0.00 0.00 0.00 0.00 0.00 0.00 0.00 0.80 0.00 0.00 0.00 0.00 0.00 0.97 0.80 0.76 0.00 0.00 0.00 0.85 0.00 0.63 0.90 0.71 0.00 0.00 0.00 0.00 0.00 0.00 0.00 0.57 0.88 0.66 0.00 0.00 0.67
0.00 0.00 0.00 0.00 0.00 0.00 0.00 0.00 0.00 0.00 0.00 0.00 0.00 0.00 0.00 0.00 0.00 0.00 0.00 0.00 0.00 0.00 0.77 0.00 0.00 0.00 0.00 0.00 0.00 0.99 0.65 0.00 0.00 0.75 0.00 0.82 0.84 0.00 0.00 0.00 0.00 0.00 0.00 0.00 0.00 0.00 0.00 0.00 0.00 0.00 0.00 0.00 0.00 0.94 0.00 0.85 0.00 0.00 0.00 0.00 0.00 0.00 0.79 0.00 0.00 0.00 0.00 0.80 0.00 0.00 0.65 0.00 0.00 0.00 0.92 0.94 0.00 0.00 0.00 0.00 0.00 0.00 0.00 0.00 0.00 0.00 0.00 0.00 0.00 0.00 0.00 0.00 0.00 0.00 0.00 0.00 0.00 0.00 0.00 0.00 0.00 0.51 0.00 0.00 0.87 0.00 0.00 0.00 0.76 0.00 0.00 0.00 0.00 0.00 0.93 0.00 0.89 0.87 0.00 0.00 0.60 0.00 0.00 0.51 0.65 0.00 0.00 0.00 0.00 0.00 0.00 0.00 0.00 0.00 0.00 0.00 0.00 0.00 0.93 0.52
0.00 0.00 0.00 0.00 0.82 0.00 0.00 0.00 0.79 0.89 0.75 0.95 0.94 0.00 0.00 0.00 0.00 0.74 0.00 0.72 0.00 0.00 0.00 0.00 0.00 0.00 0.00 0.00 0.00 0.00 0.00 0.00 0.97 0.00 0.00 0.00 0.00 0.90 0.63 0.00 0.00 0.00 0.00 0.00 0.00 0.81 0.00 0.00 0.00 0.89 0.00 0.84 0.00 0.00 0.00 0.00 0.00 0.00 0.76 0.55 0.00 0.00 0.00 0.00 0.00 0.00 0.00 0.00 0.00 0.86 0.00 0.85 0.92 0.00 0.00 0.00 0.00 0.75 0.00 0.89 0.00 0.00 0.00 0.80 0.00 0.00 0.53 0.00 0.00 0.00 0.53 0.00 0.00 0.00 0.00 0.00 0.81 0.00 0.73 0.98 0.00 0.00 0.00 0.00 0.00 0.00 0.00 0.00 0.00 0.00 0.00 0.82 0.00 0.67 0.00 0.00 0.00 0.00 0.00 0.00 0.00 0.00 0.00 0.52 0.71 0.00 0.00 0.00 0.00 0.00 0.00 0.00 0.00 0.00 0.86 0.79 0.00 0.00 0.00 0.78
0.00 0.00 0.00 0.00 0.00 0.00 0.76 0.00 0.00 0.00 0.00 0.00 0.00 0.71 0.00 0.51 0.98 0.00 0.00 0.00 0.00 0.00 0.00 0.00 0.00 0.00 0.00 0.00 0.88 0.00 0.00 0.00 0.00 0.00 0.00 0.00 0.51 0.00 0.00 0.90 0.00 0.94 0.00 0.00 0.97 0.00 0.00 0.00 0.00 0.00 0.00 0.00 0.00 0.86 0.00 0.00 0.00 0.00 0.59 0.00 0.00 0.00 0.00 0.77 0.66 0.00 0.00 0.00 0.00 0.00 0.00 0.00 0.00 0.00 0.00 0.00 0.00 0.65 0.90 0.00 0.00 0.00 0.99 0.00 0.00 0.51 0.00 0.00 0.00 0.61 0.91 0.00 0.86 0.00 0.00 0.76 0.00 0.91 0.00 0.00 0.00 0.61 0.00 0.00 0.60 0.00 0.00 0.00 0.00 0.63 0.66 0.00 0.88 0.99 0.00 0.00 0.00 0.00 0.00 0.86 0.00 0.00 0.87 0.00 0.00 0.00 0.00 0.00 0.00 0.00 0.00 0.00 0.00 0.00 0.00 0.00 0.00 0.78 0.00 0.00
0.00 0.00 0.00 0.00 0.61 0.00 0.00 0.54 0.94 0.00 0.00 0.00 0.80 0.00 0.00 0.73 0.00 0.74 0.00 0.00 0.00 0.00 0.60 0.00 0.81 0.97 0.00 0.00 0.00 0.51 0.00 0.00 0.90 0.00 0.00 0.00 0.00 0.00 0.00 0.55 0.65 0.00 0.00 0.00 0.00 0.00 0.00 0.00 0.00 0.64 0.00 0.00 0.00 0.00 0.68 0.00 0.00 0.00 0.74 0.00 0.00 0.67 0.00 0.51 0.00 0.00 0.00 0.00 0.00 0.66 0.95 0.00 0.00 0.52 0.00 0.00 0.00 0.97 0.00 0.00 0.00 0.00 0.00 0.00 0.00 0.00 0.00 0.00 0.00 0.93 0.00 0.52 0.00 0.00 0.00 0.00 0.00 0.00 0.00 0.00 0.00 0.00 0.00 0.00 0.00 0.93 0.00 0.00 0.00 0.00 0.62 0.00 0.58 0.00 0.00 0.00 0.00 0.00 0.68 0.00 0.00 0.00 0.00 0.83 0.00 0.00 0.00 0.00 0.00 0.00 0.00 0.88 0.00 0.00 0.83 0.00 0.00 0.00 0.00 0.79
0.00 0.00 0.00 0.00 0.00 0.00 0.00 0.50 0.00 0.00 0.00 0.81 0.86 0.00 0.00 0.00 0.00 0.00 0.00 0.00 0.98 0.55 0.00 0.00 0.00 0.00 0.58 0.00 0.78 0.59 0.00 0.70 0.00 0.00 0.94 0.00 0.00 0.00 0.66 0.00 0.00 0.00 0.00 0.00 0.00 0.00 0.00 0.00 0.00 0.00 0.00 0.00 0.00 0.00 0.00 0.00 0.00 0.00 0.00 0.00 0.00 0.67 0.00 0.00 0.00 0.00 0.00 0.00 0.78 0.00 0.00 0.00 0.00 0.99 0.00 0.00 0.64 0.00 0.00 0.00 0.67 0.00 0.00 0.00 0.00 0.00 0.00 0.00 0.00 0.00 0.00 0.00 0.00 0.00 0.00 0.00 0.00 0.00 0.00 0.00 0.00 0.00 0.91 0.00 0.00 0.76 0.00 0.00 0.00 0.00 0.60 0.00 0.00 0.00 0.00 0.00 0.00 0.85 0.00 0.00 0.00 0.00 0.00 0.68 0.00 0.00 0.00 0.00 0.00 0.00 0.65 0.00 0.00 0.00 0.00 0.00 0.00 0.00 0.00 0.00
0.00 0.00 0.00 0.00 0.00 0.00 0.00 0.00 0.00 0.00 0.00 0.54 0.00 0.82 0.00 0.00 0.00 0.77 0.00 0.00 0.75 0.00 0.00 0.00 0.00 0.00 0.00 0.58 0.00 0.00 0.66 0.00 0.63 0.00 0.75 0.00 0.00 0.00 0.00 0.00 0.00 0.00 0.00 0.00 0.00 0.00 0.00 0.00 0.00 0.00 0.00 0.00 0.54 0.00 0.00 0.68 0.00 0.00 0.00 0.00 0.00 0.85 0.00 0.00 0.00 0.00 0.90 0.55 0.67 0.00 0.94 0.00 0.00 0.00 0.00 0.00 0.94 0.00 0.00 0.00 0.62 0.00 0.00 0.00 0.95 0.00 0.72 0.00 0.50 0.00 0.00 0.91 0.52 0.00 0.00 0.00 0.00 0.83 0.00 0.00 0.00 0.00 0.00 0.51 0.00 0.00 0.00 0.00 0.00 0.00 0.00 0.00 0.00 0.00 0.00 0.80 0.83 0.00 0.00 0.00 0.00 0.91 0.00 0.68 0.00 0.00 0.00 0.75 0.00 0.70 0.58 0.00 0.76 0.00 0.89 0.00 0.00 0.65 0.00 0.00
0.00 0.57 0.00 0.00 0.60 0.00 0.95 0.00 0.00 0.00 0.00 0.70 0.00 0.00 0.00 0.00 0.00 0.00 0.00 0.00 0.00 0.57 0.84 0.86 0.00 0.00 0.00 0.00 0.00 0.00 0.50 0.00 0.00 0.00 0.00 0.00 0.00 0.00 0.00 0.98 0.76 0.00 0.00 0.64 0.00 0.00 0.00 0.65 0.00 0.00 0.00 0.87 0.00 0.00 0.74 1.00 0.00 0.00 0.00 0.00 0.72 0.00 0.78 0.81 0.00 0.94 0.00 0.82 0.00 0.00 0.00 1.00 0.00 0.00 0.00 0.00 0.00 0.76 0.00 0.80 0.00 0.00 0.00 0.00 0.00 0.00 0.00 0.00 0.00 0.87 0.00 0.00 0.00 0.00 0.00 0.00 0.00 0.00 0.00 0.76 0.00 0.00 0.89 0.68 0.00 0.00 0.00 0.81 0.72 0.00 0.00 0.91 0.85 0.75 0.00 0.00 0.78 0.77 0.00 0.73 0.00 0.96 0.00 0.00 0.00 0.63 0.00 0.00 0.00 0.00 0.00 0.00 0.61 0.00 0.00 0.00 0.00 0.00 0.00 0.00
0.00 0.94 0.00 0.00 0.80 0.00 0.00 0.00 0.00 0.00 0.00 0.79 0.00 0.00 0.00 0.00 0.00 0.00 0.00 0.00 0.99 0.69 0.00 0.00 0.00 0.52 0.00 0.00 0.00 0.00 0.00 0.00 0.00 0.00 0.00 0.72 0.00 0.00 0.00 0.00 0.00 0.00 0.00 0.70 0.00 0.00 0.00 0.00 0.00 0.00 0.71 0.00 0.00 0.00 0.00 0.00 0.00 0.00 0.00 0.73 0.00 0.00 0.57 0.00 0.00 0.00 0.00 0.00 0.00 0.00 0.00 0.00 0.00 0.00 0.88 0.00 0.00 0.64 0.00 0.63 0.00 0.67 0.00 0.00 0.00 0.00 0.89 0.00 0.71 0.00 0.00 0.00 0.00 0.00 0.71 0.00 0.00 0.00 0.86 0.00 0.00 0.00 0.00 0.75 0.00 0.00 0.00 0.00 0.00 0.00 0.00 0.00 0.00 0.00 0.00 0.00 0.73 0.00 0.00 0.00 0.00 0.80 0.00 0.00 0.00 0.00 0.82 0.00 0.00 0.00 0.00 0.00 0.00 0.00 0.00 0.00 0.00 0.00 0.00 0.00
0.00 0.00 0.95 0.00 0.00 0.00 0.00 0.69 0.00 0.00 0.00 0.00 0.00 0.00 0.00 0.69 0.00 0.00 0.00 0.00 0.00 0.00 0.00 0.00 0.00 0.00 0.63 0.00 0.69 0.00 0.00 0.00 0.00 0.64 0.00 0.00 0.00 0.00 0.00 0.78 0.00 0.00 0.00 0.56 0.00 0.00 0.77 0.00 0.00 0.89 0.00 0.00 0.00 0.00 0.00 0.00 0.00 0.00 0.00 0.76 0.76 0.82 0.00 0.00 0.00 0.57 0.00 0.00 0.00 0.00 0.00 0.00 0.00 0.00 0.00 0.00 0.76 0.00 0.00 0.00 0.56 0.67 0.00 0.00 0.00 0.00 0.00 0.00 0.00 0.00 0.00 0.00 0.00 0.00 0.00 0.00 0.00 0.97 0.88 0.00 0.00 0.00 0.00 0.00 0.00 0.00 0.00 0.00 0.00 0.00 0.00 0.00 0.00 0.00 0.00 0.00 0.00 0.00 0.00 0.00 0.53 0.00 0.00 0.00 0.52 0.00 0.00 0.00 0.98 0.00 0.00 0.00 0.00 0.00 0.59 0.00 0.80 0.85 0.00 0.00
0.00 0.71 0.00 0.00 0.00 0.00 0.00 0.00 0.00 0.00 0.99 0.00 0.00 0.00 0.00 0.86 0.00 0.00 0.98 0.00 0.00 0.00 0.00 0.00 0.00 0.00 0.00 0.67 0.00 0.58 0.00 0.00 0.00 0.00 0.00 0.00 0.00 0.00 0.82 0.00 0.00 0.00 0.00 0.00 0.00 0.00 0.70 0.00 0.00 0.00 0.87 0.00 0.00 0.00 0.00 0.00 0.00 0.00 0.00 0.00 0.00 0.00 0.00 0.00 0.00 0.00 0.00 0.00 0.00 0.00 0.00 0.00 0.00 0.00 0.83 0.74 0.00 0.00 0.00 0.00 0.00 0.00 0.00 0.00 0.00 0.65 0.00 0.00 0.00 0.60 0.00 0.00 0.00 0.00 0.00 0.00 0.00 0.00 0.00 0.00 0.00 0.00 0.00 0.00 0.53 0.00 0.00 0.00 0.00 0.00 0.00 0.68 0.00 0.00 0.00 0.00 0.00 0.00 0.00 0.00 0.00 0.98 0.00 0.00 0.00 0.00 0.00 0.00 0.00 0.00 0.00 0.00 0.00 0.00 0.72 0.00 0.00 0.00 0.00 0.00
0.00 0.00 0.00 0.00 0.00 0.00 0.00 0.00 0.00 0.00 0.00 0.66 0.00 0.00 0.87 0.00 0.70 0.00 0.00 0.00 0.00 0.00 0.00 0.00 0.85 0.00 0.62 0.00 0.00 0.00 0.00 0.00 0.00 0.00 0.52 0.73 0.00 0.00 0.00 0.00 0.55 0.00 0.00 0.00 0.00 1.00 0.00 0.00 0.00 0.00 0.00 0.00 0.00 0.00 0.00 0.00 0.00 0.53 0.00 0.00 0.00 0.00 0.00 0.00 0.00 0.53 0.00 0.00 0.00 0.00 0.00 0.00 0.51 0.50 0.00 0.00 0.00 0.00 0.00 0.00 0.98 0.00 0.00 0.00 0.78 0.77 0.00 0.00 0.00 0.00 0.56 0.00 0.00 0.00 0.00 0.78 0.00 0.00 0.00 0.51 0.00 0.83 0.00 0.00 0.00 0.00 0.00 0.88 0.00 0.00 0.00 0.83 0.00 0.00 0.00 0.00 0.00 0.57 0.00 0.00 0.00 0.00 0.00 0.00 0.00 0.95 0.00 0.00 0.00 0.00 0.00 0.75 0.00 0.00 0.70 0.00 0.00 0.00 0.00 0.00
0.78 0.00 0.00 0.00 0.00 0.00 0.00 0.00 0.00 0.00 0.00 0.00 0.00 0.82 0.00 0.00 0.00 0.00 0.00 0.00 0.00 0.00 0.00 0.00 0.00 0.00 0.00 0.00 0.00 0.90 0.60 0.00 0.00 0.00 0.91 0.00 0.92 0.00 0.00 0.00 0.00 0.00 1.00 0.00 0.00 0.00 0.00 0.00 0.00 0.65 0.00 0.00 0.00 0.00 0.00 0.00 0.00 0.00 0.00 0.00 0.00 0.00 0.00 0.00 0.00 0.00 0.00 0.00 0.00 0.92 0.00 0.00 0.00 0.00 0.00 0.66 0.00 0.00 0.00 0.00 0.00 0.00 0.00 0.00 0.00 0.00 0.00 0.61 0.00 0.00 0.00 0.63 0.00 0.56 0.91 0.84 0.00 0.00 0.00 0.00 0.00 0.77 0.00 0.00 0.00 0.00 0.94 0.00 0.00 0.00 0.00 0.00 0.00 0.00 0.00 0.00 0.69 0.00 0.00 0.00 0.00 0.00 0.00 0.00 0.66 0.00 0.65 0.00 0.00 0.00 0.00 0.52 0.00 0.00 0.00 0.00 0.00 0.00 0.00 0.00
0.00 0.00 0.00 0.00 0.00 0.00 0.92 0.00 0.00 0.00 0.81 0.00 0.00 0.98 0.00 0.00 0.00 0.00 0.00 0.69 0.00 0.00 0.00 0.00 0.00 0.00 0.00 0.00 0.00 0.00 0.00 0.00 0.00 0.90 0.00 0.00 0.00 0.00 0.00 0.00 0.00 0.60 0.00 0.00 0.00 0.00 0.00 0.00 0.00 0.69 0.73 0.00 0.00 0.00 0.83 0.00 0.93 0.00 0.00 0.00 0.00 0.00 0.00 0.00 0.00 0.00 0.55 0.00 0.00 0.00 0.00 0.00 0.79 0.78 1.00 0.00 0.00 0.00 0.81 0.00 0.00 0.00 0.00 0.00 0.00 0.00 0.92 0.95 0.00 0.00 0.00 0.00 0.00 0.87 0.00 0.00 0.00 0.00 0.65 0.00 0.00 0.71 0.00 0.00 0.00 0.00 0.00 0.00 0.00 0.00 0.00 0.00 0.00 0.00 0.00 0.00 0.00 0.94 0.86 0.00 0.00 0.00 0.00 0.66 0.00 0.00 0.00 0.00 0.00 0.98 0.63 0.00 0.00 0.00 0.54 0.00 0.00 0.00 0.83 0.00
0.00 0.00 0.75 0.66 0.00 0.65 0.95 0.00 0.00 0.00 0.76 0.00 0.00 0.00 0.00 0.00 0.68 0.00 0.87 0.00 0.81 0.72 0.00 0.00 0.00 0.00 0.55 0.98 0.00 0.00 0.00 0.00 0.63 0.00 0.78 0.00 0.00 0.00 0.00 0.00 0.00 0.00 0.00 0.86 0.00 0.00 0.00 0.94 0.83 0.00 0.00 0.00 0.66 0.00 0.00 0.00 0.00 0.59 0.00 0.60 0.00 0.00 0.72 0.00 0.00 0.59 0.00 0.00 0.00 0.00 0.00 0.00 0.00 0.00 0.00 0.00 0.00 0.00 0.00 0.00 0.00 0.00 0.00 0.00 0.57 0.00 0.00 0.00 0.72 0.00 0.00 0.62 0.00 0.00 0.00 0.00 0.00 0.00 0.00 0.00 0.00 0.00 0.00 0.93 0.00 0.00 0.00 0.00 0.00 0.00 0.00 0.00 0.00 0.00 0.00 0.98 0.00 0.00 0.00 0.00 0.00 0.00 0.61 0.00 0.00 0.00 0.00 0.00 0.00 0.00 0.97 0.00 0.00 0.70 0.00 0.00 0.00 0.00 0.00 0.00
0.00 0.00 0.00 0.00 0.00 0.64 0.00 0.00 0.00 1.00 0.00 0.00 0.94 0.00 0.00 0.00 0.00 0.00 0.00 0.00 0.00 0.00 0.00 0.85 0.00 0.00 0.91 0.00 0.00 0.73 0.00 0.86 1.00 0.00 0.00 0.65 0.00 0.00 0.00 0.95 0.00 0.00 0.00 0.00 0.00 0.00 0.00 0.00 0.00 0.00 0.00 0.00 0.00 0.62 0.00 0.00 0.00 0.00 0.81 0.00 0.00 0.00 0.76 0.82 0.00 0.00 0.77 0.00 0.00 0.00 0.00 0.00 0.00 0.00 0.99 0.00 0.63 0.00 0.68 0.00 0.00 0.00 0.00 0.00 0.00 0.00 0.00 0.00 0.00 0.00 0.00 0.00 0.68 0.55 0.00 0.00 0.00 0.81 0.65 0.00 0.00 0.91 0.00 0.00 0.00 0.53 0.00 0.00 0.00 0.94 0.00 0.00 0.00 0.00 0.00 0.00 0.00 0.91 0.00 0.00 0.00 0.00 0.00 0.00 0.00 0.00 0.98 0.87 0.00 0.00 0.00 0.00 0.00 0.86 0.97 0.96 0.00 0.00 0.00 0.00
0.74 0.00 0.69 0.00 0.00 0.00 0.74 0.67 0.00 0.00 0.00 0.97 0.00 0.00 0.00 0.00 0.95 0.80 0.00 0.00 0.57 0.00 0.00 0.00 0.52 0.00 0.00 0.00 0.64 0.00 0.00 0.00 0.94 0.00 0.00 0.00 0.00 0.00 0.00 0.00 0.61 0.00 0.00 0.00 0.00 0.68 0.00 0.00 0.00 0.57 0.00 0.77 0.00 0.00 0.00 0.00 0.00 0.00 0.00 0.00 0.00 0.00 0.00 0.00 0.65 0.72 0.00 0.00 0.00 0.00 0.52 0.00 0.00 0.00 0.98 0.00 0.00 0.00 0.81 0.00 0.00 0.00 0.00 0.00 0.00 0.00 0.94 0.82 0.00 0.00 0.00 0.00 0.00 0.00 0.00 0.00 0.00 0.00 0.00 0.00 0.00 0.00 0.00 0.68 0.00 0.00 0.00 0.00 0.00 0.00 0.00 0.90 0.00 0.00 0.00 0.83 0.00 0.00 0.00 0.00 0.00 0.00 0.95 0.89 0.00 0.00 0.00 0.00 0.00 0.00 0.00 0.00 0.00 0.00 0.00 0.00 0.00 0.53 0.00 0.00
0.60 0.65 0.00 0.00 0.00 0.00 0.98 0.00 0.00 0.86 0.80 0.93 0.00 0.00 0.00 0.00 0.00 0.00 0.60 0.00 0.00 0.00 0.00 0.00 0.00 0.00 0.00 0.00 0.00 0.00 0.00 0.00 0.51 0.00 0.00 0.00 0.00 0.00 0.60 0.00 0.00 0.00 0.00 0.00 0.00 0.82 0.00 0.00 0.00 0.00 0.00 0.00 0.99 0.99 0.00 0.73 0.00 0.00 0.76 0.00 0.76 0.00 0.00 0.00 0.00 0.00 0.69 0.94 0.00 0.00 0.00 0.00 0.00 0.00 0.00 0.00 0.00 0.00 0.00 0.00 0.73 0.00 0.00 0.90 0.00 0.00 0.00 0.00 0.80 0.00 0.00 0.00 0.00 0.82 0.00 0.00 0.00 0.00 0.00 0.00 0.00 0.59 0.00 0.52 0.00 0.00 0.00 0.00 0.00 0.00 0.00 0.68 0.00 0.85 0.63 0.61 0.00 0.00 0.00 0.00 0.00 0.98 0.87 0.69 0.00 0.65 0.00 0.00 0.00 0.00 0.00 0.00 0.98 0.00 0.00 0.00 0.00 0.00 0.00 0.00
0.00 0.00 0.59 0.00 0.00 0.00 0.00 0.00 0.00 0.00 0.00 0.00 0.00 0.79 0.00 0.00 0.00 0.00 0.94 0.92 0.87 0.80 0.97 0.00 0.00 0.00 0.00 0.56 0.00 0.00 0.00 0.00 0.00 0.00 0.00 0.00 0.00 0.00 0.00 0.00 0.00 0.63 0.00 0.00 0.00 0.00 0.00 0.00 0.00 0.00 0.00 0.00 0.00 0.00 0.00 0.00 0.00 0.00 0.00 0.76 0.00 0.00 0.00 0.00 0.00 0.00 0.65 0.00 0.00 0.00 0.96 0.00 0.00 0.00 0.80 0.00 0.00 0.00 0.00 0.00 0.00 0.86 0.91 0.00 0.00 0.00 0.91 0.00 0.00 0.00 0.97 0.98 0.68 0.00 0.62 0.00 0.00 0.00 0.00 0.00 0.00 0.00 0.68 0.73 0.00 0.89 0.00 0.92 0.00 0.00 0.00 0.82 0.00 0.00 0.00 0.00 0.00 0.00 0.91 0.00 0.00 0.81 0.00 0.00 0.00 0.73 0.00 0.00 0.00 0.00 0.00 0.00 0.00 0.00 0.00 0.74 0.00 0.00 0.64 0.00
0.00 0.00 0.00 0.00 0.00 0.00 0.00 0.00 0.00 0.67 0.00 0.00 0.00 0.00 0.00 0.00 0.00 0.00 0.00 0.00 0.00 0.00 0.00 0.00 0.97 0.00 0.90 0.00 0.00 0.00 0.66 0.00 0.00 0.00 0.78 0.00 0.00 0.00 0.00 0.00 0.00 0.89 0.00 0.00 0.65 0.00 0.94 0.66 0.00 0.00 0.00 0.00 0.00 0.54 0.52 0.73 0.00 0.53 0.00 0.00 0.00 0.00 0.00 0.74 0.00 0.00 0.55 0.83 0.00 0.00 0.00 0.00 0.00 0.00 0.00 0.00 0.00 0.00 0.00 0.00 0.56 0.00 0.00 0.00 0.82 0.00 0.00 0.00 0.86 0.00 0.00 0.56 0.00 0.00 0.00 0.00 0.00 0.00 0.00 0.00 0.00 0.00 0.00 0.00 0.60 0.00 0.00 0.65 0.00 0.00 0.00 0.00 0.82 0.58 0.00 0.00 0.00 0.00 0.00 0.00 0.00 0.00 0.00 0.00 0.66 0.00 0.00 0.00 0.00 0.77 0.00 0.00 0.00 0.84 0.00 0.00 0.00 0.00 0.00 0.52
0.00 0.69 0.00 0.89 0.55 0.63 0.00 0.79 0.00 0.00 0.00 0.65 0.00 0.00 0.00 0.00 0.00 0.00 0.00 0.00 0.00 0.00 0.00 0.00 0.00 0.00 0.00 0.00 0.00 0.00 0.64 0.00 0.00 0.00 0.00 0.00 0.00 0.00 0.97 0.83 0.94 0.00 0.94 0.00 0.00 0.00 0.00 0.00 0.00 0.00 0.00 0.62 0.00 0.81 0.00 0.00 0.00 0.00 0.00 0.00 0.66 0.00 0.66 0.50 0.00 0.00 0.00 0.00 0.77 0.79 0.00 0.00 0.00 0.61 0.00 0.00 0.00 0.90 0.00 0.99 0.00 0.00 0.00 0.00 0.00 0.00 0.50 0.00 0.00 0.76 0.95 0.00 0.00 0.53 0.77 0.00 0.00 0.00 0.00 0.00 0.77 0.00 0.00 0.00 0.00 0.00 0.00 0.00 0.00 0.00 0.00 0.94 0.00 0.00 0.00 0.00 0.00 0.00 0.00 0.53 0.66 0.00 0.00 0.00 0.00 0.00 0.00 0.68 0.00 0.00 0.00 0.59 0.00 0.00 0.00 0.89 0.00 0.00 0.00 0.00
0.00 0.00 0.00 0.00 0.00 0.00 0.65 0.57 0.00 0.00 0.00 0.00 0.00 0.00 0.70 0.00 0.51 0.51 0.00 0.00 0.00 0.00 0.00 0.00 0.00 0.00 0.00 0.00 0.00 0.00 0.00 0.00 0.00 0.00 0.00 0.00 0.90 0.92 0.74 0.00 0.00 0.00 0.00 0.00 0.00 0.00 0.00 0.55 0.52 0.00 0.72 0.00 0.00 0.00 0.00 0.00 0.00 0.55 0.00 0.00 0.00 0.56 0.00 0.00 0.00 0.00 0.00 0.00 0.00 0.83 0.00 0.00 0.00 0.00 0.00 0.00 0.00 0.00 0.00 0.00 0.00 0.00 0.00 0.00 0.00 0.00 0.99 0.00 0.81 0.00 0.00 0.00 0.00 0.00 0.00 0.00 0.00 0.00 0.00 0.00 0.00 0.00 0.00 0.00 0.00 0.00 0.00 0.00 0.00 0.00 0.86 0.00 0.00 0.65 0.00 0.77 0.00 0.00 0.00 0.00 0.00 0.00 0.00 0.00 0.00 0.00 0.00 0.00 0.00 0.60 0.00 0.00 0.00 0.00 0.87 0.00 0.00 0.83 0.00 0.00
0.88 0.00 0.63 0.83 0.00 0.92 0.00 0.91 0.67 0.00 0.00 0.00 0.00 0.00 0.00 0.00 0.91 0.93 0.00 0.00 0.84 0.00 0.00 0.00 0.00 0.00 0.00 0.00 0.64 0.00 0.00 0.00 0.00 0.00 0.00 0.58 0.00 0.00 0.00 0.00 0.00 0.00 0.00 0.00 0.58 0.00 0.00 0.00 0.00 0.00 0.00 0.00 0.00 0.00 0.00 0.82 0.97 0.00 0.63 0.00 0.00 0.00 0.00 0.00 0.00 0.00 0.00 0.00 1.00 0.00 0.00 0.79 0.00 0.00 0.00 0.00 0.00 0.00 0.00 0.55 0.69 0.00 0.00 0.55 0.00 0.67 0.00 0.51 0.00 0.00 0.00 0.00 0.00 0.00 0.00 0.00 0.00 0.00 0.00 0.00 0.77 0.89 0.00 0.77 0.00 0.81 0.00 0.81 0.64 0.00 0.00 0.76 0.00 0.00 0.00 0.00 0.00 0.00 0.95 0.00 0.70 0.00 0.00 0.00 0.00 0.00 0.70 0.00 0.00 0.00 0.00 0.00 0.00 0.00 0.00 0.00 0.82 0.00 0.00 0.00
0.00 0.86 0.85 0.00 0.00 0.00 0.00 0.00 0.00 0.72 0.00 0.00 0.00 0.00 0.00 0.00 0.73 0.00 0.00 0.00 0.00 0.00 0.00 0.68 0.00 0.00 0.00 0.00 0.00 0.00 0.54 0.00 0.00 0.91 0.00 0.00 0.00 0.00 0.00 0.00 0.00 0.00 0.00 0.95 0.82 0.00 0.00 0.73 0.00 0.00 0.00 0.00 0.00 0.00 0.00 0.00 0.84 0.00 0.00 0.00 0.95 0.00 0.00 0.00 0.00 0.00 0.00 0.00 0.00 0.00 0.97 0.66 0.89 0.00 0.00 0.00 0.00 0.00 0.67 0.00 0.85 0.78 0.00 0.00 0.99 0.00 0.00 0.65 0.00 0.00 0.00 0.00 0.00 0.00 0.00 0.56 0.00 0.00 0.00 0.00 0.95 0.00 0.97 0.00 0.00 0.00 0.00 0.00 0.00 0.00 0.00 0.00 0.00 0.00 0.00 0.00 0.69 0.00 0.00 0.00 0.00 0.00 0.00 0.00 0.50 0.76 0.66 0.00 0.00 0.00 0.00 0.00 0.79 0.00 0.00 0.74 0.00 0.96 0.00 0.85
0.00 0.54 0.00 0.00 0.00 0.78 0.65 0.75 0.00 0.00 0.68 0.00 0.96 0.71 0.00 0.00 0.00 0.00 0.00 0.00 0.00 0.00 0.73 0.00 0.00 0.00 0.00 0.00 0.00 0.00 0.00 0.00 0.00 0.00 0.00 0.00 0.00 0.00 0.00 0.00 0.00 0.00 0.00 0.00 0.00 0.00 0.00 0.00 0.75 0.00 0.98 0.00 0.71 0.00 0.00 0.93 0.00 0.00 0.71 0.98 0.00 0.61 0.00 0.00 0.00 0.00 0.96 0.00 0.00 0.00 0.71 0.00 0.55 0.00 0.00 0.59 0.00 0.00 0.00 0.00 0.62 0.00 0.00 0.00 0.00 0.74 0.75 0.00 0.00 0.00 0.64 0.76 0.68 0.00 0.00 0.00 0.00 0.00 0.00 0.00 0.00 0.63 0.69 0.00 0.00 0.00 0.00 0.00 0.00 0.00 0.00 0.00 0.67 0.00 0.00 0.00 0.00 0.00 0.00 0.00 0.00 0.51 0.00 0.00 0.00 0.00 0.00 0.00 0.00 0.00 0.00 0.00 0.51 0.51 0.60 0.00 0.00 0.00 0.00 0.00
0.00 0.00 0.00 0.00 0.00 0.00 0.51 0.00 0.00 0.00 0.87 0.00 0.63 0.00 0.65 0.00 0.00 0.80 0.00 0.00 0.00 0.00 0.00 0.00 0.63 0.95 0.00 0.95 0.00 0.00 0.00 0.00 0.00 0.82 0.00 0.00 0.56 0.00 0.00 0.00 0.00 0.00 0.00 0.00 0.83 0.98 0.00 0.00 0.00 0.00 0.00 0.00 0.00 0.63 0.00 0.74 0.00 0.00 0.00 0.00 0.00 0.00 0.00 0.00 0.00 0.00 0.00 0.00 0.00 0.00 0.00 0.96 0.00 0.00 0.00 0.00 0.00 0.00 0.00 0.00 0.00 0.00 0.00 0.00 0.00 0.00 0.00 0.00 0.00 0.96 0.00 0.00 0.00 0.00 0.90 0.00 0.00 0.96 0.00 0.00 0.00 0.00 0.00 0.50 0.00 0.00 0.00 0.98 0.00 0.00 0.75 0.53 0.00 0.00 0.00 0.00 0.00 0.00 0.64 0.00 0.88 0.00 0.00 0.00 0.00 0.00 0.95 0.00 0.00 0.00 0.00 0.00 0.00 0.00 0.00 0.60 0.50 0.00 0.00 0.71
0.00 0.00 0.00 0.00 0.95 0.00 0.00 0.00 0.00 0.00 0.00 0.52 0.69 0.00 0.00 0.00 0.67 0.00 0.97 0.00 0.00 0.00 0.00 0.00 0.00 0.00 0.60 0.00 0.00 0.00 0.00 0.00 0.00 0.00 0.00 0.98 0.73 0.00 0.00 0.00 0.00 0.88 0.00 0.00 0.00 0.00 0.61 0.00 0.00 0.72 0.00 0.00 0.00 0.84 0.00 0.00 0.00 0.00 0.00 0.00 0.00 0.00 0.00 0.84 0.00 0.00 0.93 0.00 0.00 0.00 0.00 0.00 0.00 0.00 0.00 0.00 0.00 0.00 0.00 0.00 0.00 0.00 0.00 0.53 0.00 0.59 0.00 0.00 0.00 0.00 0.00 0.51 0.00 0.77 0.00 0.61 0.00 0.94 0.00 0.00 0.00 0.00 0.91 0.00 0.00 0.00 0.00 0.00 0.00 0.57 0.00 0.00 0.00 0.98 0.00 0.00 0.00 0.00 0.51 0.00 0.00 0.00 0.00 0.00 0.88 0.00 0.00 0.00 0.79 0.00 0.00 0.00 0.00 0.00 0.00 0.00 0.00 0.00 0.54 0.00
0.00 0.00 0.00 0.57 0.00 0.52 0.00 0.00 0.00 0.00 0.00 0.00 0.00 0.00 0.00 0.51 0.74 0.00 0.87 0.00 0.74 0.00 0.98 0.00 0.00 0.00 0.00 0.00 0.52 0.00 0.00 0.00 0.00 0.00 0.00 0.00 0.87 0.00 0.00 0.00 0.00 0.00 0.71 0.00 0.00 0.63 0.00 0.00 0.00 0.00 0.00 0.65 0.00 0.00 0.00 0.00 0.00 0.00 0.00 0.67 0.00 0.00 0.00 0.00 0.90 0.00 0.00 0.57 0.90 0.00 0.00 0.00 0.00 0.69 0.00 0.00 0.00 0.00 0.00 0.00 0.57 0.00 0.00 0.00 0.00 0.00 0.91 0.00 0.59 0.00 0.94 0.00 0.00 0.00 0.93 0.00 0.00 0.00 0.97 0.93 0.00 0.00 0.97 0.00 0.00 0.00 0.00 0.00 0.00 0.00 0.97 0.00 0.00 0.00 0.00 0.00 0.76 0.00 0.00 0.00 0.70 0.00 0.96 0.00 0.00 0.00 0.00 0.00 0.00 0.00 0.00 0.95 0.00 0.89 0.00 0.00 0.00 0.00 0.66 0.00
0.77 0.00 0.00 0.74 0.95 0.00 0.00 0.00 0.00 0.00 0.00 0.00 0.00 0.00 0.00 0.00 0.00 0.00 0.00 0.00 0.00 0.00 0.00 0.00 0.58 0.00 0.00 0.00 0.00 0.00 0.00 0.00 0.00 0.00 0.00 0.65 0.00 0.00 0.63 0.00 0.00 0.00 0.00 0.00 0.52 0.00 0.00 0.00 0.00 0.00 0.62 0.00 0.00 0.00 0.00 0.00 0.00 0.00 0.71 0.00 0.00 0.00 0.00 0.00 0.00 0.00 0.00 0.00 0.00 0.00 0.00 0.82 0.00 0.00 0.00 0.00 0.00 0.00 0.00 0.00 0.00 0.00 0.00 0.00 0.00 0.00 0.00 0.00 0.88 0.00 0.00 0.00 0.00 0.00 0.00 0.00 0.00 0.00 0.73 0.95 0.00 0.00 0.73 0.00 0.00 0.00 0.00 0.81 0.00 0.00 0.00 0.00 0.00 0.98 0.00 0.00 0.00 0.00 0.00 0.00 0.00 0.00 0.00 0.00 0.00 0.00 0.00 0.67 0.00 0.00 0.00 0.00 0.61 0.00 0.00 0.70 0.00 0.00 0.00 0.00
0.00 0.79 0.00 0.84 0.00 0.00 0.51 0.00 0.00 0.00 0.74 0.00 0.93 0.00 0.00 0.00 0.00 0.00 0.00 0.73 0.00 0.60 0.00 0.00 0.00 0.00 0.00 0.00 0.00 0.00 0.00 0.00 0.00 0.00 0.85 0.00 0.00 0.00 0.00 0.83 0.00 0.93 0.00 0.00 0.00 0.67 0.00 0.00 0.00 0.00 0.00 0.50 0.00 0.90 0.00 0.00 0.00 0.00 0.00 0.00 0.00 0.00 0.00 0.57 0.00 0.69 0.00 0.00 0.00 0.00 0.00 0.88 0.00 0.00 0.00 0.00 0.60 0.00 0.83 0.00 0.00 0.00 0.00 0.00 0.00 0.00 0.64 0.00 0.00 0.00 0.00 0.00 0.00 0.55 0.00 0.00 0.00 0.00 0.00 0.00 0.00 0.93 0.00 0.00 0.00 0.00 0.00 0.00 0.00 0.00 0.00 0.00 0.54 0.00 0.00 0.00 0.00 0.00 0.00 0.00 0.00 0.00 0.00 0.00 0.00 0.00 0.00 0.86 0.00 0.00 0.00 0.00 0.77 0.00 0.00 0.00 0.00 0.60 0.00 0.00
0.00 0.00 0.00 0.00 0.00 0.64 0.00 0.00 0.66 0.00 0.00 0.00 0.00 0.96 0.66 0.00 0.50 0.00 0.00 0.00 0.00 0.00 0.00 0.84 0.00 0.82 0.66 0.00 0.00 0.00 0.00 0.00 0.00 0.00 0.00 0.00 0.91 0.74 0.00 0.00 0.00 0.00 0.78 0.00 0.73 0.00 0.00 0.67 0.89 0.00 0.00 0.00 0.00 0.00 0.56 0.00 0.00 0.77 0.00 0.00 0.00 0.00 0.00 0.00 0.00 0.00 0.00 0.00 0.00 0.00 0.00 0.00 0.00 0.00 0.00 0.51 0.00 0.00 0.00 0.00 0.00 0.00 0.00 0.00 0.00 0.00 0.00 0.00 0.91 0.00 0.97 0.96 0.00 0.00 0.62 0.00 0.00 0.00 0.00 0.00 0.00 0.00 0.67 0.00 0.00 0.00 0.00 0.00 0.00 0.00 0.00 0.00 0.00 0.00 0.00 0.00 0.00 0.00 0.00 0.00 0.00 0.00 0.00 0.78 0.00 0.00 0.00 0.95 0.88 0.99 0.88 0.00 0.00 0.00 0.00 0.00 0.00 0.00 0.00 0.00
0.00 0.00 0.00 0.00 0.00 0.82 0.00 0.00 0.00 0.00 0.00 0.00 0.00 0.00 0.99 0.00 0.00 0.00 0.00 0.73 0.00 0.00 0.00 0.96 0.00 0.00 0.00 0.00 0.00 0.00 0.00 0.75 0.00 0.00 0.00 0.00 0.00 0.52 0.00 0.77 0.00 0.00 0.00 0.61 0.67 0.00 0.00 0.91 0.00 0.83 0.60 0.00 0.00 0.00 0.96 0.00 0.55 0.86 0.00 0.00 0.00 0.00 0.00 0.00 0.00 0.81 0.00 0.00 0.00 0.00 0.00 0.00 0.00 0.00 0.00 0.00 0.00 0.00 0.69 0.00 0.00 0.90 0.00 0.00 0.00 0.00 0.00 0.00 0.61 0.00 0.00 0.00 0.00 0.64 0.81 0.00 0.59 0.00 0.00 0.00 0.95 0.00 0.00 0.00 0.78 0.00 0.00 0.99 0.00 0.62 0.00 0.52 0.00 0.00 0.00 0.90 0.00 0.00 0.00 0.00 0.00 0.00 0.00 0.00 0.00 0.00 0.92 0.00 0.00 0.00 0.00 0.00 0.00 0.00 0.00 0.87 0.00 0.00 0.00 0.00
0.00 0.00 0.84 0.00 0.00 0.67 0.80 0.00 0.00 0.70 0.00 0.00 0.00 0.64 0.80 0.00 0.00 0.00 0.00 0.86 0.00 0.00 0.00 0.68 0.00 0.00 0.99 0.00 0.00 0.00 0.00 0.00 0.00 0.00 0.89 0.00 0.00 0.00 0.00 0.00 0.91 0.00 0.00 0.00 0.00 0.92 0.00 0.00 0.00 0.00 0.00 0.00 0.00 0.00 0.87 0.00 0.00 0.00 0.00 0.00 0.00 0.00 0.00 0.00 0.00 0.00 0.00 0.00 0.53 0.00 0.00 0.00 0.51 0.82 0.00 0.00 0.00 0.79 0.00 0.91 0.00 0.00 0.00 0.00 0.00 0.00 0.69 0.63 0.00 0.00 0.00 0.00 0.00 0.00 0.00 0.00 0.00 0.00 0.00 0.90 0.00 0.55 0.00 0.00 0.00 0.00 0.00 0.00 0.00 0.00 0.00 0.70 0.00 0.00 0.00 0.00 0.00 0.00 0.00 0.00 0.00 0.00 0.00 0.00 0.51 0.00 0.00 0.55 0.00 0.77 0.00 0.00 0.00 0.00 0.93 0.00 0.00 0.77 0.00 0.64
0.00 0.00 0.00 0.83 0.00 0.00 0.00 0.00 0.00 0.00 0.00 0.00 0.00 0.00 0.00 0.00 0.52 0.00 0.00 0.71 0.00 0.74 0.00 0.00 0.74 0.00 0.00 0.69 0.00 0.73 0.00 0.00 1.00 0.54 0.52 0.00 0.00 0.00 0.00 0.00 0.69 0.00 0.00 0.00 0.00 0.84 0.00 0.00 0.00 0.00 0.00 0.00 0.00 0.00 0.00 0.00 0.00 0.00 0.00 0.00 0.00 0.00 0.00 0.00 0.00 0.00 0.00 0.71 0.00 0.00 0.00 0.00 0.00 0.00 0.00 0.72 0.82 0.00 0.00 0.61 0.00 0.00 0.00 0.85 0.00 0.78 0.00 0.00 0.00 0.00 0.00 0.00 0.00 0.00 0.00 0.00 0.00 0.00 0.00 0.93 0.00 0.00 0.00 0.00 0.00 0.00 0.70 0.00 0.00 0.00 0.00 1.00 0.00 0.00 0.96 0.00 0.00 0.00 0.00 0.00 0.00 0.00 0.00 0.00 0.00 0.00 0.00 0.00 0.87 0.00 0.00 0.00 0.00 0.00 0.00 0.00 0.84 0.00 0.72 0.00
0.00 0.00 0.00 0.00 0.00 0.00 0.00 0.67 0.00 0.00 0.00 0.00 0.00 0.00 0.00 0.00 0.00 0.00 0.00 0.00 0.74 0.00 0.67 0.00 0.00 0.00 0.00 0.00 0.70 0.00 0.00 0.00 0.00 0.00 0.53 0.00 0.60 0.89 0.00 0.00 0.00 0.00 0.00 0.00 0.00 0.00 0.00 0.00 0.00 0.51 0.00 0.00 0.00 0.00 0.00 0.72 0.00 0.00 0.68 0.60 0.00 0.00 0.00 0.00 0.00 0.00 0.93 0.00 0.00 0.00 0.00 0.00 0.00 0.00 0.59 0.00 0.00 0.00 0.00 0.00 0.00 0.00 0.00 0.00 0.00 0.00 0.00 0.00 0.88 0.00 0.00 0.63 0.98 0.00 0.00 0.00 0.00 0.00 0.87 0.00 0.00 0.00 0.00 0.00 0.80 0.83 0.00 0.00 0.00 0.00 0.75 0.00 0.00 0.73 0.00 0.00 0.00 0.00 0.00 0.82 0.00 0.00 0.86 0.00 0.00 0.00 0.00 0.00 0.00 0.00 0.00 0.52 0.00 0.00 0.00 0.00 0.00 0.73 0.00 0.98
0.57 0.00 0.51 0.00 0.00 0.00 0.93 0.52 0.00 0.00 0.00 0.00 0.00 0.00 0.00 0.00 0.00 0.00 0.00 0.70 0.00 0.00 0.61 0.00 0.63 0.00 0.00 0.59 0.00 0.00 0.93 0.84 0.00 0.00 0.00 0.00 0.00 0.00 0.00 0.81 0.54 0.00 0.00 0.00 0.00 0.00 0.87 0.00 0.00 0.67 0.00 0.00 0.00 0.50 0.00 0.00 0.93 0.00 0.00 0.00 0.00 0.66 0.00 0.51 0.67 0.00 0.00 0.00 0.82 0.00 0.00 0.87 0.81 0.00 0.00 0.00 0.00 0.00 0.00 0.63 0.70 0.92 0.00 0.88 0.00 0.00 0.70 0.00 0.00 0.89 0.00 0.94 0.00 0.00 0.00 0.76 0.58 0.74 0.00 0.00 0.00 0.00 0.00 0.00 0.00 0.70 0.00 0.00 0.94 0.72 0.91 0.69 0.00 0.70 0.00 0.00 0.00 0.00 0.00 0.68 0.87 0.00 0.71 0.00 0.00 0.73 0.99 0.00 0.85 0.00 0.00 0.72 0.72 0.99 0.00 0.00 0.00 0.00 0.00 0.58
0.97 0.74 0.00 0.00 0.00 0.00 0.00 0.00 0.00 0.00 0.00 0.00 0.65 0.91 0.00 0.00 0.00 0.54 0.85 0.00 0.00 0.00 0.00 0.00 0.85 0.00 0.90 0.00 0.00 0.00 0.00 0.00 0.00 0.00 0.00 0.00 0.68 0.74 0.00 0.00 0.00 0.00 1.00 0.00 1.00 0.62 0.00 0.73 0.00 0.00 0.00 0.00 0.00 0.97 0.00 0.00 0.55 0.00 0.53 0.00 0.00 0.00 0.00 0.00 0.00 0.00 0.00 0.00 0.00 0.00 0.00 0.00 0.00 0.78 0.00 0.00 0.00 0.00 0.86 0.67 0.00 0.55 0.00 0.00 0.66 0.00 0.00 0.00 0.00 0.00 0.00 0.00 0.69 0.00 0.00 0.00 0.00 0.00 0.00 0.66 0.63 0.00 0.00 0.00 0.00 0.00 0.00 0.00 0.00 0.00 0.00 0.00 0.00 0.00 0.00 0.00 0.00 0.00 0.00 0.63 0.00 0.00 0.00 0.00 0.00 0.00 0.91 0.00 0.00 0.00 0.00 0.00 0.57 0.00 0.60 0.00 0.80 0.00 0.00 0.00
0.00 0.00 0.00 0.90 0.00 0.00 0.00 0.00 0.00 0.00 0.00 0.00 0.00 0.00 0.00 0.00 0.64 0.83 0.00 0.00 0.00 0.00 0.00 0.54 0.00 0.00 0.00 0.00 0.00 0.00 0.00 0.64 0.63 0.00 0.00 0.85 0.00 0.91 0.57 0.71 0.00 0.00 0.00 0.00 0.00 0.00 0.73 0.00 0.00 0.00 0.72 0.00 0.00 0.00 0.75 0.95 0.00 0.00 0.00 0.71 0.00 0.00 0.00 0.00 0.00 0.00 0.00 0.54 0.93 0.00 0.00 0.00 0.00 0.00 0.00 0.74 0.00 0.00 0.00 0.74 0.00 0.85 0.64 0.00 0.00 0.80 0.57 0.92 0.00 0.00 0.00 0.00 0.00 0.00 0.00 0.70 0.00 0.00 0.00 0.00 0.00 0.00 0.00 0.00 0.00 0.00 0.59 0.00 0.00 0.00 0.55 0.00 0.00 0.00 0.00 0.00 0.00 0.00 0.00 0.00 0.00 0.78 0.00 0.90 0.00 0.00 0.00 0.00 0.00 0.00 0.00 0.56 0.00 0.97 0.57 0.00 0.00 0.74 0.00 0.00
0.78 0.00 0.53 0.75 0.00 0.00 0.00 0.00 0.00 0.00 0.00 0.00 0.00 0.00 0.00 0.00 0.00 0.88 0.00 0.00 0.00 0.00 0.00 0.61 0.00 0.00 0.83 0.00 0.00 0.88 0.00 0.73 0.00 0.00 0.00 0.00 0.00 0.68 0.00 0.00 0.00 0.00 0.60 0.90 0.00 0.00 0.78 0.00 0.00 0.00 0.00 0.00 0.00 0.00 0.00 0.00 0.00 0.00 0.00 0.00 0.00 0.00 0.00 0.00 0.00 0.82 0.00 0.61 0.00 0.00 0.00 0.00 0.00 0.00 0.00 0.75 0.00 0.00 0.00 0.00 0.88 0.00 0.00 0.67 0.00 0.00 0.00 0.00 0.00 0.00 0.00 0.00 0.98 0.00 0.00 0.00 0.00 0.66 0.70 0.00 0.00 0.00 0.00 0.00 0.00 0.00 0.00 0.00 0.00 0.54 0.00 0.52 0.00 0.00 0.00 0.68 0.00 0.00 0.00 0.00 0.99 0.52 0.00 0.00 0.50 0.51 0.00 0.00 0.00 0.00 0.00 0.56 0.00 0.00 0.98 0.87 0.00 0.00 0.00 0.00
0.00 0.00 0.00 0.00 0.00 0.00 0.00 0.59 0.00 0.00 0.00 0.85 0.00 0.00 0.00 0.90 0.00 0.00 0.00 0.00 0.00 0.00 0.00 0.70 0.84 0.00 0.00 0.00 0.00 0.00 0.00 0.00 0.00 0.00 0.00 0.00 0.89 0.00 0.72 0.00 0.00 0.00 0.00 0.51 0.00 0.00 0.92 0.87 0.00 0.00 0.00 0.00 0.95 0.69 0.00 0.00 0.58 0.00 0.00 0.00 0.57 0.89 0.00 0.00 0.00 0.00 0.99 0.00 0.00 0.00 0.00 0.00 0.70 0.00 0.00 0.63 0.89 0.94 0.00 0.00 0.00 0.00 0.00 0.00 0.00 0.00 0.00 0.00 0.55 0.00 0.00 0.00 0.00 0.00 0.00 0.00 0.00 0.91 0.00 0.00 0.00 0.00 0.00 0.00 0.00 0.63 0.00 0.00 0.00 0.00 0.72 0.00 0.00 0.00 0.00 0.00 0.00 0.00 0.00 0.00 0.00 0.00 0.00 0.00 0.00 0.00 0.00 0.00 0.63 0.00 0.00 0.00 0.00 0.00 0.00 0.00 0.00 0.00 0.00 0.57
0.00 0.72 0.00 0.99 0.00 0.73 0.00 0.00 0.00 0.00 0.00 0.76 0.00 0.86 0.00 0.00 0.00 0.00 0.70 0.00 0.00 0.00 0.00 0.77 0.75 0.00 0.00 0.72 0.00 0.00 0.00 0.00 0.51 0.00 0.00 0.00 0.00 0.00 0.00 0.00 0.93 0.00 0.00 0.00 0.00 0.00 0.00 0.00 0.89 0.74 0.00 0.00 0.00 0.00 0.00 0.75 0.00 0.00 0.00 0.00 0.00 0.00 0.00 0.86 0.00 0.00 0.00 0.00 0.00 0.00 0.00 0.71 0.00 0.00 0.00 0.00 0.00 0.00 0.00 0.00 0.00 0.00 0.00 0.00 0.00 0.00 0.74 0.00 0.00 0.84 0.00 0.00 0.00 0.69 0.72 0.00 0.00 0.00 0.00 0.78 0.00 0.00 0.51 0.00 0.00 0.00 0.00 0.96 0.82 0.69 0.00 0.94 0.00 0.69 0.68 0.94 0.00 0.00 0.00 0.00 0.00 0.00 0.00 0.61 0.00 0.00 0.00 0.00 0.00 0.69 0.00 0.00 0.00 0.82 0.96 0.00 0.00 0.00 0.84 0.00
0.00 0.00 0.87 0.00 0.00 0.84 0.00 0.00 0.56 0.00 0.00 0.62 0.00 0.00 0.00 0.00 0.00 0.00 0.85 0.00 0.00 0.00 0.00 0.00 0.99 0.00 0.55 0.00 0.00 0.00 0.00 0.00 0.00 0.66 0.00 0.00 0.00 0.00 0.00 0.71 0.76 0.00 0.93 0.00 0.00 0.00 0.00 0.00 0.00 0.00 0.89 0.00 0.77 0.87 0.00 0.00 0.92 0.75 0.50 0.00 0.00 0.00 0.00 0.86 0.88 0.81 0.00 0.00 0.00 0.00 0.00 0.00 0.00 0.00 0.00 0.00 0.00 0.00 0.62 0.00 0.00 0.00 0.00 0.00 0.00 0.00 0.94 0.00 0.00 0.00 0.00 0.00 0.00 0.00 0.00 0.82 0.00 0.00 0.00 0.51 0.00 0.81 0.00 0.00 0.93 0.00 0.00 0.00 0.00 0.00 0.69 0.00 0.00 0.00 0.00 0.00 0.70 0.00 0.00 0.80 0.00 0.00 0.00 0.00 0.00 0.00 0.00 0.60 0.00 0.54 0.94 0.00 0.00 0.00 0.00 0.00 0.56 0.74 0.00 0.00
0.00 0.00 0.00 0.00 0.00 0.00 0.00 0.00 0.00 0.00 0.00 0.00 0.00 0.00 0.70 0.00 0.00 0.56 0.00 0.00 0.00 0.00 0.00 0.97 0.00 0.00 0.00 0.00 0.00 0.00 0.89 0.00 0.00 0.82 0.96 0.00 0.81 0.00 0.00 0.00 0.00 0.00 0.00 0.00 0.00 0.00 0.92 0.99 0.00 0.00 0.00 0.00 0.00 0.00 0.00 0.00 0.00 0.00 0.60 0.73 0.00 0.00 0.00 0.00 0.00 0.00 0.00 0.00 0.00 0.55 0.87 0.00 0.00 0.64 0.00 0.56 0.00 0.00 0.00 0.00 0.00 0.00 0.93 1.00 0.00 0.00 0.98 0.00 0.00 0.81 0.00 0.00 0.00 0.00 0.00 0.00 0.00 0.00 0.82 0.00 0.00 0.00 0.00 0.00 0.00 0.00 0.00 0.52 0.00 0.54 0.00 0.84 0.73 0.98 0.00 0.99 0.63 0.00 0.00 0.58 0.55 0.60 0.00 0.00 0.00 0.00 0.00 0.00 0.00 0.00 0.00 0.00 0.00 0.00 0.00 0.89 0.00 0.00 0.00 0.00
0.00 0.00 0.74 0.72 0.97 0.72 0.89 0.00 0.00 0.00 0.00 0.99 0.00 0.00 0.00 0.00 0.00 0.00 0.00 0.00 0.80 0.64 0.00 0.00 0.86 0.00 0.00 0.64 0.96 0.00 0.00 0.00 0.00 0.00 0.00 0.00 0.00 0.00 0.00 0.00 0.00 0.00 0.00 0.00 0.00 0.00 0.00 0.00 0.00 0.54 0.00 0.00 0.00 0.92 0.00 0.00 0.00 0.00 0.00 0.00 0.97 0.72 0.00 0.00 0.00 0.00 0.00 0.00 0.00 0.00 0.74 0.00 0.64 0.00 0.97 0.00 0.00 0.00 0.00 0.00 0.00 0.00 0.00 0.00 0.00 0.00 0.00 0.00 0.00 0.00 0.52 0.00 0.00 0.00 0.00 0.00 0.00 0.00 0.00 0.00 0.00 0.00 0.98 0.00 0.00 0.00 0.61 0.00 0.00 0.00 0.57 0.00 0.00 0.00 0.00 0.00 0.00 0.00 0.00 0.00 0.00 0.00 0.00 0.60 0.00 0.00 0.00 0.00 0.00 0.00 0.00 0.00 0.00 0.00 0.00 0.00 0.00 0.00 0.61 0.00
0.00 0.63 0.00 0.00 0.00 0.00 0.99 0.00 0.75 0.93 0.00 0.69 0.00 0.00 0.00 0.00 0.00 0.00 0.00 0.76 0.00 0.00 0.60 0.56 0.95 0.00 0.00 0.76 0.00 0.89 0.00 0.00 0.00 0.00 0.00 0.00 0.00 0.00 0.91 0.83 0.00 0.00 0.00 0.83 0.00 0.00 0.00 0.00 0.00 0.94 0.00 0.00 0.00 0.00 0.00 0.00 0.00 0.00 0.00 0.00 0.00 0.00 0.00 0.00 0.00 0.00 0.00 0.00 0.69 0.00 0.00 0.00 0.00 0.00 0.00 0.00 0.00 0.51 0.00 0.00 0.00 0.00 0.00 0.00 0.85 0.00 0.00 0.00 0.00 0.00 0.00 0.52 0.00 0.00 0.00 0.00 0.00 0.00 0.00 0.00 0.00 0.00 0.87 0.00 0.00 0.67 0.00 0.00 0.91 0.00 0.00 0.00 0.00 0.00 0.00 0.86 0.00 0.73 0.57 0.58 0.00 0.00 0.00 0.00 0.00 0.00 0.61 0.00 0.00 0.00 0.00 0.00 0.00 0.00 0.00 0.00 0.00 0.65 0.00 0.00
0.00 0.00 0.00 0.00 0.00 0.00 0.00 0.95 0.00 0.00 0.00 0.80 0.00 1.00 0.00 0.53 0.79 0.00 0.00 0.00 0.00 0.00 0.00 0.00 0.00 0.53 0.73 0.00 0.00 0.00 0.63 0.00 0.00 0.00 0.00 0.00 0.00 0.00 0.00 0.00 0.00 0.99 0.00 0.00 0.00 0.00 0.98 0.72 0.00 0.00 0.00 0.00 0.00 0.76 0.00 0.00 0.77 0.00 0.00 0.00 0.00 0.87 0.53 0.00 0.00 0.74 0.00 0.00 0.71 0.00 0.00 0.00 0.00 0.00 0.00 0.00 0.00 0.85 0.00 0.00 0.94 1.00 0.00 0.00 0.00 0.00 0.00 0.00 0.00 0.00 0.00 0.00 0.86 0.00 0.00 0.00 0.00 0.00 0.00 0.00 0.00 0.00 0.00 0.00 0.00 0.00 0.00 0.00 0.91 0.00 0.00 0.00 0.00 0.00 0.00 0.00 0.00 0.00 0.57 0.00 0.00 0.00 0.00 0.00 0.00 0.00 0.97 0.94 0.00 0.00 0.00 0.00 0.00 0.90 0.00 0.00 0.00 0.00 0.00 0.00
0.00 0.00 0.00 0.67 0.00 0.66 0.95 0.00 0.00 0.54 0.79 0.65 0.00 0.87 0.00 0.00 0.00 0.00 0.00 0.00 0.64 0.00 0.00 0.91 0.00 0.00 0.00 0.88 0.00 0.00 0.00 0.00 0.00 0.63 0.00 0.00 0.00 0.00 0.00 0.00 0.00 0.00 0.00 0.00 0.00 0.64 0.00 0.00 0.00 0.00 0.93 0.00 0.77 0.50 0.66 0.00 0.00 0.00 0.95 0.84 0.00 0.00 0.52 0.00 0.00 0.66 0.72 0.00 0.00 0.83 0.00 0.00 0.66 0.00 0.00 0.00 0.82 0.00 0.00 0.00 0.72 0.00 0.87 0.00 0.00 0.00 0.76 0.00 0.00 0.00 0.00 0.00 0.00 0.00 0.92 0.00 0.00 0.00 0.00 0.00 0.00 0.00 0.64 0.00 0.00 0.54 0.00 0.00 0.00 0.00 0.00 0.00 0.00 0.00 0.00 0.00 0.00 0.64 0.00 0.00 0.00 0.00 0.00 0.00 0.90 0.00 0.00 0.00 0.00 0.00 0.00 0.00 0.94 0.00 0.00 0.00 0.00 0.00 0.00 0.00
0.00 0.00 0.84 0.79 0.00 0.00 0.00 0.00 0.55 0.00 0.00 0.98 0.00 0.68 0.00 0.68 0.77 0.00 0.00 0.00 0.00 0.00 0.00 0.00 0.00 0.00 0.00 0.71 0.00 0.57 0.63 0.54 0.00 0.00 0.00 0.90 0.78 0.00 0.00 0.00 0.00 0.00 0.83 0.00 0.00 0.54 0.00 0.00 0.54 0.00 0.00 0.00 0.00 0.00 0.00 0.80 0.00 0.00 0.00 0.96 0.00 0.00 0.70 0.00 0.00 0.00 0.00 0.93 0.00 0.98 0.94 0.00 0.00 0.00 0.00 0.00 0.00 0.84 0.00 0.72 0.69 0.00 0.00 0.00 0.00 0.73 0.00 0.00 0.00 0.62 0.97 0.72 0.00 0.00 0.00 0.00 0.61 0.00 0.00 0.00 0.00 0.00 0.00 0.00 0.00 0.00 0.00 0.89 0.00 0.00 0.00 0.00 0.86 0.00 0.00 0.00 0.86 0.00 0.87 0.00 0.00 0.00 0.00 0.00 0.00 0.00 0.00 0.50 0.00 0.00 0.62 0.00 0.00 0.53 0.00 0.00 0.00 0.00 0.00 0.00
0.00 0.00 0.94 0.00 0.92 0.00 0.00 0.00 0.00 0.62 0.00 0.00 0.00 0.97 0.00 0.00 0.00 0.00 0.00 0.00 0.66 0.00 0.00 0.00 0.53 0.00 0.00 0.00 0.00 0.00 0.00 0.00 0.00 0.00 0.00 0.00 0.00 0.00 0.80 0.00 0.98 0.00 0.00 0.00 0.00 0.00 0.00 0.00 0.00 0.00 0.00 0.00 0.00 0.00 0.00 0.00 0.00 0.00 0.00 0.00 0.89 0.00 0.00 0.00 0.00 0.00 0.82 0.89 0.00 0.00 0.00 0.00 0.57 0.00 0.00 0.00 0.66 0.00 0.00 0.00 0.65 0.00 0.00 0.65 0.00 0.81 0.00 0.00 0.00 0.00 0.00 0.92 0.00 0.00 0.00 0.00 0.73 0.00 0.00 0.96 0.86 0.00 0.00 0.00 0.00 0.00 0.00 0.00 0.00 0.71 0.00 0.00 0.00 0.00 0.00 0.53 0.00 0.00 0.00 0.00 0.56 0.00 0.60 0.00 0.00 0.00 0.77 0.00 0.00 0.00 0.00 0.80 0.00 0.00 0.00 0.00 0.00 0.00 0.00 0.00
0.64 0.00 0.00 0.00 0.00 0.00 0.71 0.00 0.00 0.00 0.00 0.00 0.00 0.00 0.82 0.00 0.00 0.00 0.00 0.00 0.59 0.00 0.00 0.00 0.00 0.00 0.00 0.00 0.00 0.88 0.00 0.00 0.83 0.90 0.00 0.61 0.00 0.00 0.00 0.00 0.00 0.00 0.00 0.00 0.00 0.00 0.00 0.00 0.00 0.00 0.00 0.00 0.00 0.00 0.00 0.00 0.00 0.00 0.85 0.00 0.00 0.00 0.00 0.00 0.00 0.00 0.00 0.00 0.75 0.00 0.00 0.00 0.00 0.83 0.00 0.00 0.00 0.00 0.00 0.53 0.00 0.00 0.00 0.00 0.00 0.76 0.00 0.55 0.00 0.00 0.70 0.00 0.97 0.73 0.00 0.82 0.00 0.00 0.00 0.00 0.55 0.52 0.00 0.00 0.00 0.00 0.58 0.00 0.00 0.00 0.00 0.00 0.00 0.00 0.00 0.67 0.00 0.00 0.00 0.00 0.68 0.00 0.00 0.78 0.00 0.96 0.00 0.00 0.00 0.00 0.00 0.00 0.00 0.00 0.00 0.00 0.00 0.00 0.00 0.00
0.00 0.00 0.62 0.00 0.00 0.58 0.00 0.00 0.00 0.00 0.89 0.00 0.00 0.00 0.96 0.00 0.00 0.00 0.89 0.00 0.74 0.00 0.00 0.00 0.00 0.98 0.00 0.00 0.58 0.00 0.00 0.62 0.00 0.00 0.87 0.00 0.00 0.00 0.00 0.00 0.00 0.60 0.00 0.00 0.00 0.00 0.00 0.00 0.00 0.00 0.00 0.00 0.00 0.00 0.76 0.78 0.00 0.00 0.74 0.00 0.00 0.00 0.51 0.00 0.00 0.00 0.00 0.00 0.00 0.97 0.00 0.00 0.58 0.00 0.00 0.00 0.00 0.00 0.00 0.00 0.87 0.00 0.00 0.00 0.95 0.78 0.00 0.00 0.00 0.00 0.59 0.00 0.00 0.00 0.00 0.00 0.84 0.00 0.00 0.00 0.00 0.77 0.00 0.00 0.00 0.00 0.00 0.00 0.00 0.00 0.00 0.00 0.00 0.61 0.00 0.00 0.00 0.00 0.67 0.00 0.00 0.00 0.00 0.75 0.00 0.00 0.00 0.00 0.00 0.00 0.00 0.00 0.00 0.00 0.00 0.00 0.00 0.00 0.00 0.88
0.56 0.00 0.00 0.89 0.00 0.00 0.67 0.73 0.00 0.00 0.66 0.00 0.00 0.99 0.00 0.00 0.00 0.00 0.00 0.00 0.00 0.67 0.00 0.00 0.00 0.00 0.00 0.00 0.00 0.00 0.00 0.00 0.00 0.00 0.00 0.00 0.58 0.00 0.96 0.00 0.00 0.91 0.83 0.00 0.00 0.74 0.00 0.80 0.00 0.00 0.84 0.00 0.00 0.00 0.00 0.00 0.00 0.96 0.00 0.00 0.97 0.00 0.00 0.00 0.73 0.88 0.00 0.63 0.00 0.00 0.54 0.00 0.00 0.97 0.00 0.00 0.00 0.65 0.00 0.00 0.51 0.77 0.00 0.00 0.00 0.79 0.54 0.00 0.00 0.00 0.00 0.00 0.00 0.00 0.00 0.00 0.00 0.00 0.74 0.00 0.00 0.00 0.00 0.00 0.51 0.00 0.84 0.00 0.00 0.00 0.00 0.57 0.70 0.53 0.00 0.00 0.75 0.00 0.00 0.00 0.00 0.00 0.00 0.00 0.00 0.00 0.00 0.00 0.00 0.00 0.00 0.00 0.00 0.57 0.00 0.00 0.00 0.00 0.55 0.00
0.89 0.00 0.00 0.82 0.00 0.00 0.00 0.00 0.00 0.55 0.00 0.00 0.85 0.00 0.00 0.00 0.00 0.84 0.00 0.00 0.00 0.00 0.00 0.00 0.00 0.00 0.00 0.00 0.00 0.00 0.00 0.00 0.00 0.00 0.00 0.65 0.81 0.00 0.68 0.00 0.00 0.00 0.53 0.00 0.00 0.00 0.00 0.86 0.92 0.00 0.00 0.00 0.00 0.00 0.54 0.00 0.00 0.00 0.72 0.00 0.00 0.00 0.00 0.00 0.00 0.98 0.00 0.00 0.00 0.91 0.00 0.00 0.00 1.00 0.00 0.00 0.00 0.00 0.00 0.89 0.00 0.00 0.51 0.00 0.00 0.66 0.88 0.81 0.00 0.78 0.00 0.00 0.00 0.64 0.00 0.70 0.67 0.00 0.81 0.00 0.00 0.00 0.00 0.70 0.00 0.00 0.89 0.56 0.00 0.00 0.00 0.00 0.66 0.00 0.66 0.00 0.00 0.00 0.00 0.00 0.00 0.00 0.00 0.00 0.00 0.00 0.00 0.00 0.79 0.00 0.00 0.75 0.60 0.00 0.00 0.00 0.00 0.00 0.00 0.00
0.00 0.00 0.00 0.00 0.00 0.00 0.00 0.00 0.00 0.00 0.00 0.00 0.00 0.00 0.00 0.75 0.69 0.00 0.00 0.00 0.00 0.00 0.73 0.00 0.00 0.79 0.00 0.00 0.00 0.00 0.00 0.00 0.00 0.61 0.00 0.00 0.00 0.00 0.00 0.00 0.00 0.60 0.00 0.00 0.00 0.00 0.00 0.00 1.00 0.00 0.00 0.82 0.54 0.73 0.00 0.96 0.95 0.00 0.00 0.00 0.00 0.70 0.60 0.00 0.00 0.00 0.00 0.55 0.93 0.00 0.78 0.00 0.00 0.00 0.83 0.00 0.69 0.00 0.86 0.91 0.00 0.00 0.00 0.00 0.00 0.97 0.00 0.89 0.00 0.00 0.00 0.00 0.00 0.00 0.00 0.56 0.00 0.00 0.92 0.00 0.00 0.00 0.72 0.00 0.60 0.52 0.90 0.00 0.00 0.00 0.00 0.00 0.00 0.00 0.90 0.00 0.00 0.56 0.00 0.00 0.00 0.57 0.00 0.00 0.00 0.61 0.00 0.00 0.00 0.00 0.00 0.00 0.87 0.89 0.00 0.00 0.00 0.00 0.00 0.00
0.00 0.00 0.00 0.00 0.57 0.00 0.00 0.00 0.00 0.00 0.93 0.00 0.73 0.00 0.00 0.00 0.00 0.00 0.00 0.00 0.96 0.00 0.00 0.00 0.00 0.00 0.00 0.61 0.00 0.00 0.00 0.00 0.56 0.00 0.00 0.00 0.71 0.58 0.00 0.00 0.91 0.00 0.50 0.00 0.00 0.00 0.65 0.68 0.00 0.00 0.00 0.00 0.00 0.00 0.00 0.00 0.93 0.00 0.00 0.00 0.00 0.00 0.00 0.66 0.00 0.00 0.00 0.98 0.00 0.00 0.71 0.91 0.00 0.00 0.00 0.00 0.55 0.00 0.00 0.00 0.00 0.00 0.00 0.00 0.00 0.77 0.00 0.00 0.00 0.00 0.72 0.00 0.98 0.00 0.00 0.00 0.00 0.00 0.00 0.00 0.00 0.00 0.00 0.00 0.00 0.00 0.00 0.71 0.00 0.00 0.66 0.00 0.00 0.00 0.00 0.81 0.00 0.00 0.00 0.00 0.00 0.00 0.60 0.55 0.00 0.00 0.00 0.00 0.00 0.00 0.74 0.00 0.00 0.00 0.00 0.00 0.00 0.00 0.00 0.00
0.73 0.54 0.00 0.00 0.00 0.96 0.82 0.00 0.00 0.00 0.57 0.00 0.00 0.00 0.00 0.00 0.00 0.00 0.00 0.00 0.00 0.00 0.00 0.00 0.00 0.00 0.00 0.77 0.85 0.80 0.00 0.00 0.00 0.00 0.00 0.00 0.00 0.00 0.80 0.00 0.86 0.00 0.00 0.00 0.00 0.00 0.00 0.69 0.64 0.00 0.00 0.00 0.00 0.00 0.00 0.00 0.00 0.00 0.00 0.72 0.00 0.00 0.82 0.55 0.00 0.00 0.00 0.00 0.66 0.00 0.00 0.76 0.96 0.82 0.00 0.68 0.00 0.00 0.67 0.00 0.00 0.00 0.00 0.00 0.00 0.00 0.00 0.00 0.00 0.74 0.00 0.00 0.00 0.00 0.00 0.00 0.60 0.61 0.00 0.52 0.00 0.00 0.00 0.82 0.00 0.00 0.59 0.00 0.51 0.00 0.00 0.00 0.00 0.00 0.00 0.00 0.00 0.00 0.00 0.00 0.57 0.00 0.00 0.60 0.00 0.79 0.00 0.00 0.65 0.69 0.00 0.00 0.00 0.00 0.00 0.00 0.00 0.99 0.54 0.74
0.00 0.90 0.00 0.51 0.73 0.00 0.00 0.96 0.00 0.00 0.00 0.00 0.00 0.00 0.00 0.00 0.90 0.00 0.91 0.00 0.75 0.00 0.00 0.00 0.00 0.00 0.00 0.00 0.00 0.00 0.92 0.00 0.00 0.00 0.00 0.00 0.89 0.68 0.99 0.00 0.00 0.00 0.00 0.00 0.00 0.00 0.75 0.00 0.00 0.00 0.00 0.00 0.00 0.00 0.00 0.00 0.00 0.00 0.00 0.00 0.78 1.00 0.00 0.00 0.00 0.94 0.00 0.00 0.00 0.00 0.00 0.00 0.00 0.63 0.00 0.00 0.00 0.00 0.00 0.00 0.00 0.91 0.00 0.58 0.99 0.00 0.00 0.00 0.00 0.50 0.72 0.00 0.00 0.00 0.90 0.00 0.00 0.00 0.76 0.00 0.00 0.00 0.78 0.00 0.00 0.00 0.00 0.00 0.00 0.00 0.00 0.00 0.99 0.00 0.00 0.00 0.00 0.00 0.00 0.00 0.00 0.00 0.00 0.00 0.83 0.00 0.00 0.85 0.00 0.00 0.00 0.00 0.51 0.51 0.00 0.00 0.65 0.00 0.00 0.00
0.00 0.00 0.00 0.89 0.93 0.79 0.64 0.54 0.00 0.00 0.00 0.91 0.00 0.00 0.00 0.00 0.52 0.00 0.00 0.00 0.59 0.00 0.00 0.00 0.00 0.00 0.00 0.92 0.00 0.00 0.00 0.00 0.00 0.00 0.00 0.00 0.00 0.00 0.00 0.00 0.00 0.00 0.00 0.00 0.00 0.51 0.00 0.00 0.92 0.00 0.00 0.83 0.00 0.00 0.00 0.00 0.00 0.00 0.00 0.00 0.00 0.00 0.00 0.00 0.00 0.53 0.80 0.00 0.00 0.00 0.00 0.00 0.86 0.87 0.00 0.00 0.00 0.00 0.00 0.94 0.00 0.00 0.00 0.00 0.68 0.00 0.00 0.00 0.00 0.00 0.00 0.00 0.70 0.98 0.00 0.00 0.00 0.00 0.00 0.00 0.00 0.00 0.00 0.00 0.00 0.00 0.87 0.00 0.52 0.92 0.00 0.00 0.00 0.00 0.00 0.00 0.00 0.00 0.76 0.00 0.00 0.90 0.91 0.00 0.00 0.00 0.70 0.00 0.00 0.00 0.94 0.85 0.00 0.00 0.00 0.00 0.00 0.00 0.85 0.00
0.00 0.00 0.66 0.00 0.00 0.00 0.00 0.00 0.95 0.00 0.00 0.00 0.00 0.00 0.75 0.00 0.78 0.00 0.90 0.00 0.82 0.83 0.83 0.00 0.00 0.00 0.00 0.00 0.00 0.00 0.00 0.78 0.00 0.89 0.82 0.00 0.00 0.00 0.00 0.00 0.00 0.00 0.00 0.00 0.00 0.00 0.00 0.00 0.89 0.00 0.00 0.00 0.61 0.00 0.00 0.00 0.00 0.00 0.00 0.00 0.00 0.00 0.00 0.00 0.55 0.00 0.00 0.00 0.73 0.00 0.00 0.00 0.00 0.69 0.00 0.00 0.00 0.74 0.78 0.00 0.00 0.72 0.00 0.00 0.00 0.00 0.00 0.00 0.00 0.00 0.00 0.99 0.00 0.00 0.65 0.00 0.00 0.00 0.00 0.00 0.75 0.00 0.52 0.00 0.58 0.00 0.00 0.00 0.00 0.00 0.00 0.00 0.00 0.89 0.00 0.00 0.00 0.00 0.00 0.81 0.56 0.00 0.00 0.00 0.59 0.00 0.00 0.00 0.00 0.00 0.00 0.00 0.00 0.00 0.00 0.00 0.00 0.00 0.96 0.00
0.75 0.76 0.62 0.00 0.51 0.00 0.93 0.00 0.00 0.00 0.00 0.00 0.00 0.94 0.52 0.00 0.00 0.00 0.00 0.00 0.00 0.00 0.00 0.00 0.00 0.74 0.53 0.00 0.00 0.00 0.00 0.00 0.00 0.00 0.00 0.00 0.65 0.00 0.00 0.60 0.99 0.00 0.00 0.00 0.00 0.00 0.00 0.68 0.55 0.00 0.00 0.80 0.71 0.00 0.00 0.00 0.71 0.00 0.00 0.98 0.63 0.00 0.00 0.00 0.00 0.00 0.00 0.00 0.00 0.00 0.63 0.00 0.00 0.00 0.75 0.59 0.00 0.00 0.93 0.00 0.00 0.00 0.69 0.00 0.55 0.00 0.00 0.00 0.66 0.89 0.00 0.00 0.00 0.00 0.00 0.00 0.79 0.00 0.00 0.00 0.00 0.90 0.00 0.00 0.00 0.00 0.00 0.79 0.00 0.00 0.00 0.00 0.00 0.00 0.00 0.00 0.00 0.00 0.00 0.78 0.00 0.00 0.00 0.84 0.00 0.00 0.00 0.00 0.95 0.00 0.00 0.00 0.00 0.00 0.91 0.64 0.00 0.83 0.61 0.00
0.91 0.00 0.00 0.00 0.51 0.00 0.95 0.00 0.70 0.68 0.00 0.00 0.00 0.00 0.00 0.00 0.00 0.00 0.00 0.00 0.00 0.93 0.79 0.82 0.00 0.00 0.00 0.00 0.00 0.00 0.00 0.67 0.00 0.00 0.00 0.68 0.54 0.00 0.00 0.00 0.00 0.00 0.00 0.00 0.00 0.86 0.00 0.00 0.75 0.00 0.00 0.00 0.63 0.00 0.00 0.82 0.97 0.00 0.00 0.00 0.00 0.56 0.00 0.00 0.00 0.00 0.00 0.00 0.00 0.00 0.00 0.00 0.78 0.00 0.00 0.00 0.00 0.00 0.00 0.00 0.00 0.00 0.00 0.00 0.00 0.00 0.00 0.84 0.00 0.00 0.98 0.00 0.00 0.00 0.00 0.00 0.00 0.84 0.94 0.00 0.00 0.00 0.00 0.00 0.86 0.98 0.00 0.58 0.00 0.00 0.76 0.68 0.00 0.89 0.00 0.98 0.00 0.58 0.00 0.00 0.00 0.00 0.00 0.00 0.00 0.00 0.00 0.00 0.00 0.00 0.00 0.00 0.00 0.54 0.00 0.00 0.00 0.00 0.00 0.00
0.00 0.00 0.00 0.80 0.87 0.00 0.00 0.00 0.71 0.62 0.00 0.00 0.00 0.00 0.00 0.83 0.00 0.96 0.64 0.00 0.00 0.00 0.00 0.00 0.57 0.58 0.00 0.00 0.00 0.00 0.87 0.00 0.00 0.00 0.00 0.00 0.00 0.96 0.00 0.00 0.00 0.00 0.00 0.00 0.74 0.00 0.00 0.00 0.00 0.00 0.00 0.00 0.79 0.00 0.00 0.00 0.00 0.00 0.00 0.00 0.53 0.00 0.00 0.00 0.00 0.00 0.00 0.00 0.00 0.00 0.57 0.00 0.57 0.00 0.00 0.00 0.00 0.58 0.00 0.00 0.00 0.00 0.00 0.00 0.00 0.00 0.00 0.00 0.00 0.00 0.00 0.00 0.00 0.00 0.67 0.00 0.00 0.00 0.90 0.00 0.00 0.00 0.00 0.00 0.00 0.00 0.00 0.00 0.00 0.00 0.00 0.67 0.51 0.00 0.00 0.00 0.00 0.61 0.00 0.00 0.83 0.00 0.56 1.00 0.00 0.00 0.70 0.00 0.00 0.00 0.00 0.00 0.00 0.00 0.00 0.00 0.00 0.86 0.00 0.00
0.00 0.71 0.00 0.00 0.00 0.00 0.95 0.62 0.00 0.00 0.00 0.00 0.00 0.00 0.00 0.00 0.00 0.00 0.00 0.77 0.58 0.00 0.00 0.00 0.00 0.00 0.00 0.00 0.87 0.00 0.85 0.72 0.52 0.00 0.70 0.00 0.00 0.00 0.00 0.66 0.63 0.00 0.00 0.94 0.00 0.73 0.00 0.00 0.00 0.00 0.00 0.00 0.00 0.00 0.00 0.00 0.00 0.00 0.00 0.00 0.78 0.00 0.00 0.77 0.00 0.00 0.00 0.00 0.00 0.00 0.99 0.87 0.95 0.00 0.00 0.00 0.00 0.50 0.00 0.00 0.00 0.00 0.00 0.00 0.00 0.00 0.00 0.00 0.00 0.76 0.61 0.00 0.00 0.00 0.56 0.00 0.00 0.77 0.00 0.00 0.85 0.00 0.00 0.65 0.00 0.00 0.00 0.00 0.00 0.00 0.00 0.00 0.67 0.00 0.00 0.00 0.95 0.00 0.00 0.00 0.69 0.00 0.00 0.00 0.00 0.00 0.00 0.00 0.00 0.53 0.69 0.00 0.00 0.00 0.00 0.77 0.00 0.79 0.00 0.00
0.00 0.96 0.00 0.88 0.00 0.00 0.99 0.00 0.83 0.00 0.00 0.66 0.00 0.00 0.00 0.00 0.00 0.00 0.00 0.00 0.00 0.00 0.00 0.00 0.00 0.00 0.00 0.91 0.67 0.00 0.00 0.00 0.00 0.00 0.72 0.00 0.52 0.94 0.00 0.00 0.00 0.00 0.00 0.00 0.00 0.00 0.94 0.66 0.00 0.00 0.79 0.00 0.00 0.00 0.00 0.00 0.00 0.00 0.00 0.00 0.85 0.00 0.68 0.97 0.71 0.00 0.53 0.00 0.95 0.00 0.00 0.76 0.00 0.00 0.00 0.00 0.00 0.96 0.00 0.00 0.76 0.00 0.00 0.00 0.00 0.78 0.00 0.59 0.00 0.00 0.00 0.00 0.00 0.00 0.00 0.00 0.98 0.00 0.59 0.00 0.00 0.89 0.00 0.00 0.00 0.83 0.00 0.00 0.75 0.95 0.00 0.00 0.71 0.59 0.64 0.00 0.00 0.00 0.64 0.00 0.00 0.00 0.00 0.00 0.00 0.78 0.62 0.69 0.00 0.00 0.00 0.00 0.00 0.00 0.00 0.00 0.00 0.00 0.00 0.00
0.81 0.00 0.00 0.00 0.00 0.00 0.00 0.76 0.00 0.93 0.00 0.00 0.53 0.00 0.00 0.00 0.00 0.64 0.00 0.00 0.00 0.00 0.00 0.71 0.00 0.00 0.00 0.00 0.81 0.00 0.67 0.00 0.00 0.00 0.00 0.00 0.00 0.00 0.00 0.00 0.00 0.92 0.86 0.83 0.93 0.00 0.00 0.00 0.00 0.00 0.58 0.53 0.00 0.00 0.00 0.00 0.00 0.00 0.00 0.00 0.00 0.00 0.89 0.00 0.00 0.63 0.64 0.00 0.00 0.00 0.59 0.66 0.00 0.00 0.00 0.66 0.00 0.00 0.00 0.79 0.00 0.00 0.00 0.00 0.00 0.00 0.00 0.00 0.95 0.95 0.00 0.00 0.50 0.00 0.89 0.00 0.91 0.00 0.52 0.00 0.86 0.00 0.90 0.00 0.93 0.00 0.84 0.00 0.00 0.00 0.51 0.00 0.00 0.67 0.00 0.00 0.00 0.00 0.97 0.00 0.00 0.00 0.00 0.00 0.00 0.00 0.82 0.00 0.00 0.00 0.00 0.56 0.00 0.00 0.00 0.00 0.00 0.00 0.00 0.00
0.00 0.75 0.77 0.00 0.00 0.00 0.87 0.00 0.60 0.00 0.75 0.00 0.68 0.88 0.00 0.92 0.00 0.00 0.00 0.00 0.00 0.00 0.00 0.00 0.00 0.00 0.00 0.00 0.00 0.00 0.00 0.00 0.00 0.00 0.68 0.00 0.57 0.93 0.00 0.00 0.00 0.00 0.75 0.68 0.00 0.00 0.00 0.00 0.00 0.97 0.00 0.74 0.00 0.00 0.00 0.00 0.00 0.00 0.00 0.86 0.66 0.00 0.00 0.00 0.00 0.00 0.54 0.00 0.00 0.00 0.61 0.00 0.00 0.00 0.00 0.00 0.00 0.57 0.00 0.00 0.00 0.00 0.63 0.00 0.00 0.00 0.00 0.75 0.00 0.00 0.00 0.00 0.00 0.00 0.95 0.00 0.00 0.00 0.00 0.00 0.00 0.00 0.78 0.00 0.00 0.00 0.00 0.00 0.72 0.00 0.63 0.00 0.00 0.00 0.60 0.00 0.00 0.00 0.00 0.00 0.82 0.00 0.00 0.84 0.00 0.00 0.00 0.00 0.00 0.00 0.00 0.00 0.00 0.00 0.00 0.00 0.86 0.00 0.00 0.00
0.85 0.00 0.00 0.00 0.00 0.89 0.00 0.00 0.00 0.00 0.00 0.00 0.00 0.78 0.00 0.00 0.00 0.00 0.00 0.00 0.00 0.00 0.00 0.00 0.00 0.00 0.00 0.00 0.00 0.00 0.00 0.92 0.00 0.00 0.00 0.79 0.00 0.00 0.00 0.66 0.00 0.00 0.00 0.00 0.72 0.00 0.00 0.00 0.00 0.00 0.00 0.00 0.73 0.00 0.63 0.00 0.00 0.00 0.00 0.00 0.00 0.00 0.00 0.64 0.00 0.51 0.00 0.00 0.00 0.00 0.00 0.00 0.00 0.00 0.00 0.66 0.00 0.90 0.00 0.00 0.00 0.62 0.00 0.00 0.00 0.00 0.60 0.00 0.00 0.00 0.51 0.65 0.00 0.75 0.00 0.00 0.00 0.00 0.00 0.00 0.00 0.00 0.00 0.00 0.00 0.00 0.00 0.66 0.00 0.00 0.00 0.00 0.87 0.00 0.00 0.00 0.00 0.00 0.00 0.00 0.85 0.00 0.00 0.00 0.00 0.00 0.00 0.61 0.56 0.00 0.00 0.00 0.00 0.00 0.85 0.00 0.00 0.63 0.00 0.00
0.00 0.00 0.00 0.00 0.00 0.00 0.89 0.68 0.00 0.00 0.00 0.00 0.00 0.00 0.00 0.69 0.96 0.00 0.00 0.00 0.00 0.00 0.00 0.54 0.00 0.88 0.00 0.00 0.90 0.00 0.00 0.00 0.00 0.00 0.00 0.00 0.00 0.98 0.00 0.00 0.00 0.00 0.76 0.00 0.00 0.00 0.00 0.00 0.00 0.00 0.00 0.00 0.96 0.00 0.00 0.00 0.00 0.00 0.58 0.84 0.00 0.00 0.00 0.94 0.00 0.00 0.00 0.00 0.00 0.00 0.00 0.91 0.00 0.71 0.00 0.88 0.00 0.00 0.00 0.00 0.00 0.00 0.00 0.00 0.00 0.00 0.00 0.00 0.00 0.00 0.00 0.93 0.94 0.00 0.76 0.00 0.00 0.72 0.00 0.00 0.00 0.00 0.00 0.74 0.00 0.00 0.00 0.56 0.00 0.00 0.00 0.00 0.00 0.52 0.00 0.88 0.00 0.00 0.00 0.00 0.90 0.89 0.00 0.00 0.00 0.00 0.00 0.00 0.00 0.00 0.00 0.00 0.00 0.00 0.86 0.61 0.00 0.73 0.00 0.00
0.00 0.00 0.90 0.00 0.00 0.00 0.00 0.00 0.00 0.00 1.00 0.00 0.00 0.00 0.73 0.00 0.00 0.00 0.61 0.00 0.82 0.00 0.00 0.00 0.00 0.00 0.00 0.00 0.57 0.00 0.00 0.00 0.76 0.00 0.58 0.00 0.00 0.00 0.00 0.00 0.00 0.00 0.00 0.52 0.00 0.60 0.58 0.00 0.77 0.00 0.00 0.00 0.00 0.00 0.00 0.00 0.63 0.00 0.00 0.00 0.00 0.00 0.95 0.00 0.00 0.74 0.00 0.00 0.00 0.00 0.00 0.00 0.00 0.73 0.00 0.82 0.00 0.00 0.75 0.00 0.87 0.00 0.77 0.00 0.79 0.00 0.00 0.89 0.00 0.00 0.00 0.00 0.00 0.92 0.00 0.00 0.54 0.00 0.00 0.00 0.00 0.83 0.00 0.00 0.00 0.71 0.53 0.00 0.00 0.91 0.00 0.00 0.00 0.00 0.00 0.00 0.00 0.00 0.00 0.00 0.00 0.00 0.00 0.00 0.78 0.89 0.00 0.00 0.00 0.00 0.00 0.93 0.00 0.00 0.00 0.00 0.00 0.00 0.00 0.00
0.91 0.00 0.54 0.00 0.00 0.00 0.00 0.00 0.90 0.96 0.00 0.61 0.00 0.82 0.00 0.65 0.00 0.00 0.00 0.00 0.00 0.00 0.71 0.00 0.00 0.00 0.00 0.00 0.00 0.75 0.00 0.61 0.00 0.00 0.00 0.00 0.00 0.52 0.00 0.00 0.00 0.00 0.00 0.00 0.68 0.00 0.00 0.63 0.00 0.00 0.00 0.00 0.00 0.00 0.00 0.00 0.00 0.00 0.00 0.00 0.00 0.00 0.00 0.00 0.00 0.00 0.55 0.00 0.00 0.00 0.84 0.76 0.00 0.00 0.00 0.00 0.75 0.99 0.00 0.00 0.00 0.00 0.96 0.00 0.68 0.00 0.00 0.00 0.62 0.52 0.00 0.00 0.50 0.61 0.00 0.00 0.00 0.82 0.00 0.00 0.00 0.60 0.00 0.00 0.00 0.00 0.00 0.88 0.00 0.00 0.00 0.00 0.00 0.00 0.00 0.00 0.00 0.00 0.50 0.00 0.00 0.92 0.00 0.00 0.00 0.00 0.00 0.00 0.88 0.00 0.00 0.00 0.00 0.00 0.00 0.74 0.00 0.00 0.00 0.00
0.00 0.00 0.00 0.00 0.93 0.00 0.00 0.00 0.60 0.00 0.82 0.00 0.00 0.00 0.91 0.00 0.00 0.00 0.00 0.00 0.00 0.00 0.00 0.00 0.00 0.00 0.00 0.00 0.00 0.00 0.60 0.00 0.00 0.00 0.00 0.91 0.00 0.84 0.87 0.00 0.00 0.00 0.00 0.00 0.00 0.00 0.00 0.00 0.00 0.96 0.00 0.99 0.00 0.53 0.65 0.00 0.00 0.83 0.00 0.00 0.00 0.00 0.70 0.56 0.00 0.00 0.52 0.00 0.00 0.00 0.69 0.00 0.00 0.00 0.00 0.54 0.56 0.00 0.57 0.00 0.00 0.00 0.00 0.87 0.00 0.00 0.00 0.00 0.89 0.00 0.00 0.00 0.86 0.81 0.00 0.00 0.00 0.00 0.00 0.65 0.00 0.00 0.00 0.00 0.67 0.00 0.00 0.00 0.00 0.00 0.69 0.00 0.00 0.00 0.95 0.00 0.81 0.00 0.00 0.89 0.00 0.00 0.00 0.00 0.85 0.55 0.00 0.00 0.00 0.00 0.00 0.68 0.00 0.00 0.00 0.00 0.00 0.76 0.00 0.00
0.75 0.62 0.00 0.00 0.00 0.00 0.00 0.00 0.00 0.00 0.00 0.00 0.00 0.00 0.00 0.00 0.92 0.00 0.00 0.00 0.00 0.00 0.58 0.00 0.00 0.00 0.00 0.00 0.00 0.00 0.00 0.97 0.00 0.79 0.00 0.00 0.00 0.00 0.00 0.97 0.00 0.00 0.00 0.00 0.60 0.00 0.70 0.00 0.00 0.00 0.82 0.00 0.00 0.00 0.00 0.00 0.00 0.00 0.00 0.00 0.00 0.00 0.71 0.00 0.00 0.00 0.00 0.00 0.00 0.00 0.00 0.00 0.00 0.00 0.00 0.00 0.00 0.00 0.89 0.00 0.00 0.00 0.00 0.00 0.00 0.81 0.00 0.00 0.00 0.00 0.00 0.00 0.00 0.00 0.00 0.70 0.95 0.00 0.00 0.00 0.00 0.00 0.76 0.00 0.00 0.00 0.00 0.00 0.00 0.00 0.00 0.00 0.00 0.70 0.00 0.00 0.00 0.00 0.00 0.00 0.00 0.00 0.00 0.00 0.00 0.00 0.00 0.00 0.00 0.00 0.78 0.78 0.00 0.00 0.00 0.00 0.68 0.00 0.00 0.00
0.00 0.55 0.00 0.70 0.00 0.00 0.51 0.00 0.92 0.56 0.00 0.00 0.00 0.00 0.78 0.00 0.00 0.00 0.00 0.00 0.00 0.00 0.00 0.00 0.00 0.00 0.00 0.00 0.00 0.00 0.00 0.00 0.00 0.00 0.00 0.62 0.00 0.00 0.00 0.00 0.90 0.00 0.00 0.00 0.00 0.00 0.00 0.00 0.00 0.00 0.00 0.00 0.70 0.00 0.87 0.00 0.00 0.93 0.00 0.00 0.72 0.00 0.91 0.00 0.00 0.00 0.00 0.00 0.00 0.00 0.00 0.51 0.00 0.00 0.00 0.00 0.00 0.00 0.00 0.00 0.00 0.00 0.00 0.00 0.00 0.00 0.00 0.00 0.00 0.00 0.92 0.00 0.00 0.00 0.00 0.64 0.00 0.78 0.00 0.00 0.00 0.00 0.00 0.00 0.00 0.00 0.00 0.00 0.00 0.00 0.92 0.00 0.00 0.00 0.00 0.55 0.58 0.00 0.73 0.00 0.00 0.00 0.00 0.00 0.50 0.00 0.00 0.00 0.00 0.00 0.83 0.56 0.00 0.00 0.00 0.69 0.00 0.00 0.88 0.51
0.00 0.81 0.74 0.52 0.00 0.00 0.00 0.00 0.78 0.00 0.00 0.00 0.00 0.00 0.00 0.00 0.71 0.00 0.00 0.00 0.78 0.00 0.00 0.00 0.00 0.00 0.00 0.00 0.00 0.00 0.92 0.56 0.77 0.00 0.64 0.00 0.00 0.00 0.51 0.96 0.00 0.00 0.00 0.00 0.00 0.62 0.00 0.00 0.00 0.00 0.75 0.00 0.92 0.59 0.78 0.00 0.87 0.00 0.00 0.00 0.57 0.58 0.00 0.00 0.00 0.00 0.00 0.00 0.72 0.00 0.00 0.00 0.00 0.64 0.00 0.76 0.72 0.00 0.00 0.00 0.82 0.00 0.00 0.00 0.00 0.00 0.00 0.00 0.59 0.00 0.00 0.00 0.00 0.00 0.00 0.00 0.90 0.00 0.00 0.00 0.00 0.00 0.00 0.00 0.74 0.60 0.59 0.00 0.00 0.00 0.51 0.83 0.00 0.96 0.00 0.00 0.00 0.00 0.00 0.00 0.00 0.00 0.00 0.00 0.00 0.00 0.00 0.00 0.00 0.52 0.00 0.83 0.00 0.71 0.92 0.00 0.00 0.00 0.93 0.79
0.00 0.00 0.00 0.63 0.00 0.00 0.00 0.00 0.00 0.00 0.00 0.00 0.61 0.00 0.00 0.00 0.00 0.00 0.00 0.00 0.00 0.94 0.75 0.00 0.00 0.00 0.00 0.00 0.70 0.00 0.58 0.55 0.00 0.74 0.00 0.68 0.80 0.00 0.00 0.00 0.00 0.89 0.97 0.00 0.00 0.00 0.52 0.00 0.55 0.00 0.00 0.55 0.54 0.00 0.00 0.54 0.68 0.00 0.00 0.00 0.74 0.64 0.00 0.00 0.00 0.00 0.00 0.66 0.00 0.00 0.00 0.00 0.00 0.00 0.91 0.00 0.86 0.00 0.00 0.00 0.00 0.00 0.00 0.00 0.00 0.00 0.00 0.00 0.00 0.00 0.00 0.00 0.00 0.00 0.60 0.00 0.00 0.00 0.00 0.00 0.00 0.00 0.83 0.00 0.00 0.00 0.00 0.00 0.00 0.00 0.00 0.00 0.87 0.00 0.00 0.00 0.76 0.72 0.00 0.00 0.00 0.00 0.00 0.00 0.72 0.00 0.00 0.00 0.00 0.00 0.00 0.00 0.00 0.00 0.59 0.00 0.00 0.00 0.00 0.00
0.88 0.00 0.00 0.94 0.00 0.00 0.00 0.00 0.00 0.57 0.00 0.00 0.00 0.00 0.00 0.00 0.00 0.88 0.89 0.00 0.00 0.00 0.64 0.00 0.00 0.00 0.00 0.00 0.00 0.77 0.00 0.00 0.00 1.00 0.00 0.00 0.73 0.00 0.00 0.67 0.00 0.65 0.00 0.70 0.00 0.00 0.00 0.00 0.00 0.64 0.00 0.77 0.82 0.81 0.00 0.00 0.70 0.00 0.00 0.54 0.00 0.00 0.50 0.00 0.00 0.00 0.00 0.00 0.00 0.74 0.00 0.00 0.00 0.75 0.92 0.99 0.00 0.00 0.00 0.81 0.00 0.61 0.00 0.71 0.00 0.00 0.00 0.00 0.00 0.00 0.55 0.00 0.00 0.66 0.87 0.96 0.00 0.79 0.00 0.00 0.52 0.00 0.00 0.00 0.00 0.00 0.00 0.00 0.98 0.00 0.56 0.00 0.64 0.00 0.00 0.00 0.00 0.94 0.98 0.00 0.00 0.00 0.00 0.00 0.00 0.00 0.00 0.00 0.00 0.00 0.00 0.00 0.00 0.50 0.56 0.00 0.00 0.00 0.95 0.00
0.83 0.00 0.60 0.81 0.00 0.00 0.98 0.00 0.00 0.00 0.68 0.00 0.79 0.00 0.00 0.00 0.00 0.00 0.00 0.00 0.94 0.00 0.00 0.00 0.82 0.00 0.00 0.00 0.00 0.00 0.00 0.57 0.95 0.00 0.00 0.00 0.00 0.00 0.00 0.00 0.00 0.00 0.00 0.00 0.00 0.00 0.00 0.00 0.56 0.00 0.97 0.00 0.00 0.00 0.00 0.00 0.00 0.00 0.65 0.00 0.00 0.00 0.00 0.00 0.00 0.63 0.00 0.93 0.00 0.62 0.00 0.00 0.62 0.00 0.87 0.00 0.00 0.65 0.00 0.00 0.00 0.00 0.00 0.00 0.00 0.00 0.00 0.90 0.00 0.00 0.75 0.00 0.00 0.97 0.00 0.00 0.00 0.00 0.00 0.00 0.74 0.79 0.00 0.92 0.56 0.88 0.58 0.00 0.63 0.83 0.00 0.00 0.00 0.69 0.60 0.00 0.00 0.00 0.00 0.00 0.00 0.00 0.93 0.00 0.00 0.00 0.00 0.00 0.58 0.00 0.00 0.95 0.00 0.00 0.00 0.00 0.00 0.00 0.00 0.00
0.00 0.00 0.00 0.90 0.00 0.88 0.59 0.00 0.00 0.00 0.00 0.00 0.53 0.00 0.00 0.00 0.00 0.57 0.62 0.00 0.00 0.00 0.00 0.00 0.00 0.00 0.00 0.00 0.00 0.00 0.00 0.61 0.64 0.91 0.90 0.00 0.00 0.00 0.00 0.00 0.67 0.00 0.00 0.00 0.00 0.00 0.70 0.83 0.94 0.00 0.63 0.00 0.00 0.00 0.00 0.00 0.00 0.00 0.00 0.00 0.00 0.00 0.92 0.00 0.00 0.00 0.61 0.00 0.00 0.00 0.52 0.53 0.00 0.00 0.00 0.00 0.00 0.69 0.00 0.00 0.00 0.89 0.00 0.86 0.00 0.00 0.75 0.51 0.00 0.00 0.00 0.00 0.67 0.00 0.85 0.00 0.82 0.00 0.00 0.00 0.00 0.00 0.00 0.00 0.00 0.00 0.00 0.00 0.00 0.00 0.00 0.88 0.00 0.00 0.00 0.00 0.00 0.89 0.00 0.77 0.00 0.96 0.00 0.00 0.00 0.00 0.00 0.74 0.00 0.00 0.00 0.00 0.70 0.00 0.00 0.00 0.00 0.00 0.00 0.00
0.00 0.00 0.00 0.00 0.00 0.00 0.00 0.00 0.00 0.62 0.00 0.00 0.00 0.00 0.67 0.00 0.00 0.00 0.00 0.00 0.99 0.00 0.00 0.00 0.00 0.73 0.00 0.00 0.00 0.00 0.00 0.00 0.00 0.00 0.00 0.00 0.93 0.00 0.00 0.00 0.00 0.00 0.61 0.87 0.00 0.00 0.00 0.00 0.00 0.00 0.00 0.00 0.00 0.00 0.00 0.00 0.77 0.00 0.00 0.00 0.00 0.00 0.00 0.78 0.00 0.00 0.00 0.00 0.00 0.00 0.00 0.54 0.00 0.00 0.00 0.00 0.00 0.00 0.00 0.00 0.00 0.92 0.00 0.00 0.00 0.00 0.00 0.00 0.00 0.00 0.98 0.00 0.00 0.89 0.00 0.00 0.72 0.96 0.00 0.00 0.00 0.00 0.99 0.00 0.00 0.00 0.00 0.00 0.00 0.00 0.58 0.00 0.81 0.00 0.00 0.00 0.00 0.00 0.92 0.75 0.00 0.00 0.93 0.98 0.00 0.00 0.00 0.00 0.00 0.00 0.00 0.00 0.95 0.64 0.00 0.00 0.75 0.00 0.83 0.00
0.60 0.00 0.65 0.00 0.00 0.00 0.00 0.00 0.00 0.82 0.00 0.00 0.83 0.00 0.00 0.00 0.00 0.00 0.00 0.00 0.00 0.00 0.00 0.00 0.00 0.66 0.00 0.84 0.00 0.00 0.00 0.54 0.65 0.00 0.00 0.00 0.00 0.00 0.00 0.00 0.00 0.00 0.89 0.00 0.00 0.00 0.00 0.00 0.00 0.00 0.00 0.00 0.00 0.00 0.00 0.52 0.00 0.73 0.00 0.00 0.00 0.77 0.59 0.00 0.00 0.00 0.00 0.00 0.00 0.00 0.00 0.00 0.00 0.00 0.00 0.00 0.00 0.00 0.00 0.00 0.00 0.00 0.00 0.00 0.00 0.00 0.00 0.00 0.00 0.00 0.00 0.00 0.00 0.00 0.00 0.00 0.00 0.77 0.00 0.00 0.00 0.00 0.00 0.00 0.00 0.00 0.00 0.00 0.00 0.00 0.00 0.00 0.00 0.00 0.00 0.00 0.00 0.65 0.00 0.00 0.00 0.00 0.00 0.00 0.00 0.00 0.00 0.00 0.00 0.00 0.00 0.60 0.91 0.00 0.00 0.00 0.00 0.64 0.80 0.00
0.00 0.00 0.00 0.00 0.00 0.00 0.00 0.00 0.95 0.00 0.00 0.97 0.00 0.00 0.00 0.00 0.00 0.00 0.00 0.00 1.00 0.00 0.00 0.00 0.00 0.00 0.88 0.00 0.00 0.59 0.00 0.00 0.00 0.00 0.00 0.00 0.54 0.00 0.00 0.66 0.00 0.00 0.00 0.53 0.98 0.00 0.00 0.00 0.00 0.00 0.59 0.00 0.00 0.00 0.65 0.00 0.00 0.00 0.96 0.00 0.79 0.95 0.00 0.00 0.00 0.79 0.00 0.00 0.00 0.00 0.00 0.69 0.00 0.00 0.58 0.00 0.00 0.00 0.79 0.00 0.95 0.00 0.00 0.00 0.00 0.00 0.00 0.00 0.00 0.00 0.00 0.00 0.00 0.00 0.00 0.00 0.00 0.00 0.00 0.00 0.00 0.00 0.00 0.53 0.00 0.59 0.99 0.79 0.00 0.00 0.00 0.00 0.00 0.00 0.76 0.00 0.00 0.00 0.00 0.00 0.00 0.00 0.90 0.00 0.51 0.00 0.69 0.93 0.00 0.00 0.70 0.00 0.00 0.92 0.00 0.00 0.00 0.00 0.00 0.00
0.00 0.00 0.86 0.00 0.00 0.54 0.95 0.00 0.00 0.59 0.00 0.00 0.00 0.00 0.00 0.69 0.00 0.00 0.61 0.00 0.58 0.00 0.00 0.00 0.00 0.00 0.00 0.00 0.00 0.00 0.00 0.89 0.52 0.00 0.98 0.00 0.00 0.00 0.00 0.00 0.00 0.00 0.00 0.00 0.00 0.00 0.00 0.00 0.57 0.00 0.00 0.00 0.00 0.71 0.00 0.00 0.00 0.56 0.00 0.00 0.00 0.00 0.73 0.72 0.00 0.00 0.00 0.00 0.00 0.00 0.00 0.00 0.52 0.00 0.00 0.64 0.00 0.69 0.00 0.00 0.00 0.00 0.00 0.00 0.91 0.00 0.00 0.00 0.77 0.00 0.00 0.00 0.00 0.00 0.67 0.00 0.90 0.00 0.00 0.55 0.00 0.00 0.00 0.00 0.00 0.00 0.00 0.76 0.75 0.00 0.00 0.00 0.00 0.00 0.00 0.00 0.68 0.00 0.00 0.00 0.00 0.00 0.00 0.00 0.00 0.00 0.73 0.00 0.00 0.00 0.00 0.00 0.58 0.00 0.00 0.80 0.00 0.00 0.91 0.90
0.00 0.00 0.00 0.00 0.00 0.00 0.00 0.60 0.00 0.00 0.00 0.00 0.78 0.00 0.57 0.00 0.00 0.00 0.00 0.00 0.52 0.00 0.00 0.58 0.00 0.00 0.67 0.00 0.00 0.00 0.78 0.00 0.00 0.00 0.00 0.00 0.00 0.00 0.00 0.87 0.71 0.00 0.00 0.75 0.56 0.00 0.70 0.00 0.00 0.00 0.00 0.00 0.00 0.00 0.00 0.00 0.91 0.00 0.00 0.55 0.00 0.00 0.00 0.00 0.87 0.00 0.00 0.00 0.90 0.00 0.86 0.00 0.75 0.00 0.00 0.00 0.00 0.90 0.00 0.00 0.00 0.00 0.71 0.00 0.00 0.00 0.84 0.00 0.53 0.00 0.00 0.00 0.00 0.00 0.00 0.00 0.00 0.00 0.00 0.51 0.00 0.00 0.00 0.84 0.00 0.00 0.85 0.00 0.00 0.00 0.00 0.00 0.00 0.00 0.85 0.00 0.00 0.00 0.00 0.00 0.00 0.00 0.00 0.00 0.79 0.00 0.00 0.00 0.00 0.00 0.00 0.00 0.00 0.00 0.00 0.00 0.00 0.00 0.00 0.00
0.59 0.00 0.00 0.59 0.00 0.00 0.00 0.00 0.80 0.00 0.00 0.00 0.68 0.00 0.00 0.00 0.00 0.00 0.00 0.00 0.66 0.62 0.00 0.00 0.00 0.00 0.00 0.00 0.00 0.00 0.00 0.69 0.00 0.00 0.00 0.00 0.00 0.74 0.00 0.00 0.00 0.00 0.00 0.00 0.00 0.88 0.83 0.00 0.00 0.00 0.00 0.00 0.00 0.80 0.00 0.00 0.00 0.00 0.00 0.00 0.87 0.00 0.82 0.00 0.62 0.00 0.00 0.00 0.00 0.00 0.69 0.00 0.82 0.00 0.00 0.00 0.00 0.56 0.00 0.00 0.00 0.00 0.00 0.00 0.62 0.00 0.00 0.00 0.00 0.00 0.00 0.00 0.00 0.00 0.00 0.00 0.00 0.00 0.92 0.00 0.00 0.80 0.00 0.00 0.67 0.00 0.83 0.00 0.00 0.69 0.00 0.64 0.00 0.00 0.00 0.00 0.87 0.00 0.00 0.69 0.00 0.00 0.00 0.95 0.00 0.00 0.90 0.72 0.00 0.00 0.00 0.00 0.00 0.00 0.00 0.00 0.00 0.00 0.00 0.00
0.00 0.00 0.00 0.90 0.85 0.00 0.96 0.00 0.00 0.00 0.00 0.00 0.00 0.00 0.00 0.00 0.00 0.00 0.00 0.94 0.00 0.00 0.78 0.84 0.00 0.00 0.00 0.51 0.00 0.98 0.00 0.00 0.69 0.51 0.00 0.00 0.00 0.00 0.00 0.00 0.00 0.90 0.00 0.00 0.78 0.00 0.00 0.00 0.00 0.00 0.00 0.00 0.00 0.82 0.00 0.00 0.00 0.00 0.69 0.99 0.69 0.00 0.00 0.00 0.00 0.58 0.78 0.00 0.00 0.00 0.85 0.00 0.00 0.00 0.82 0.00 0.60 0.00 0.00 0.00 0.00 0.00 0.00 0.00 0.00 0.00 0.00 0.00 0.00 0.74 0.00 0.00 0.85 0.00 0.00 0.00 0.50 0.50 0.00 0.00 0.00 0.00 0.00 0.00 0.75 0.00 0.53 0.00 0.00 0.59 0.00 0.00 0.00 0.00 0.00 0.00 0.00 0.00 0.00 0.00 0.00 0.00 0.76 0.00 0.00 0.94 0.51 0.00 0.80 0.00 0.96 0.00 0.99 0.00 0.00 0.00 0.72 0.00 0.00 0.00
0.00 0.93 0.00 0.00 0.00 0.00 0.00 0.00 0.00 0.58 0.00 0.94 0.00 0.00 0.84 0.00 0.00 0.00 0.00 0.00 0.00 0.00 0.00 0.00 0.00 0.00 0.00 0.69 0.00 0.00 0.00 0.00 0.74 0.00 0.00 0.00 0.00 0.00 0.00 0.00 0.00 0.00 0.00 0.00 0.00 0.00 0.00 0.00 0.00 0.00 0.56 0.00 0.00 0.00 0.00 0.95 0.90 0.00 0.00 0.93 0.00 0.00 0.00 0.94 0.83 0.00 0.00 0.78 0.00 0.00 0.00 0.00 0.00 0.00 0.00 0.00 0.00 0.00 0.58 0.00 0.00 0.00 0.00 0.00 0.00 0.00 0.00 0.00 0.00 0.00 0.00 0.00 0.00 0.00 0.00 0.00 0.00 0.00 0.00 0.00 0.00 0.00 0.00 0.53 0.00 0.00 0.00 0.74 0.74 0.00 0.00 0.00 0.00 0.00 0.00 0.00 0.00 0.00 0.00 0.00 0.00 0.00 0.64 0.88 0.00 0.00 0.00 0.00 0.00 0.00 0.00 0.00 0.91 0.75 0.00 0.00 0.00 1.00 0.00 0.00
0.00 0.00 0.00 0.00 0.00 0.00 0.00 0.00 0.00 0.00 0.00 0.00 0.00 0.96 0.00 0.00 0.00 0.00 0.00 0.00 0.00 0.00 0.00 0.00 0.00 0.00 0.00 0.00 0.00 0.00 0.74 0.99 0.00 0.00 0.00 0.00 0.50 0.00 0.00 0.00 0.00 0.99 0.00 0.00 0.90 0.73 0.00 0.00 0.86 0.00 0.00 0.00 0.00 0.56 0.00 0.63 0.86 0.00 0.00 0.00 0.00 0.51 0.00 0.65 0.00 0.00 0.00 0.00 0.00 0.00 0.85 0.53 0.00 0.00 0.00 0.00 0.00 0.00 0.00 0.00 0.00 0.72 0.00 0.00 0.00 0.00 0.00 0.00 0.00 0.00 0.89 0.00 0.00 0.00 0.76 0.92 0.66 0.00 0.00 0.00 0.00 0.00 0.00 0.00 0.00 0.00 0.00 0.00 0.00 0.00 0.00 0.00 0.00 0.00 0.00 0.00 0.00 0.00 0.00 0.00 0.84 0.00 0.00 0.95 0.00 0.00 0.00 0.00 0.00 0.00 0.00 0.00 0.94 0.00 0.00 0.00 0.00 0.00 0.00 0.00
0.00 0.00 0.00 0.00 0.00 0.00 0.00 0.00 0.00 0.00 0.00 0.00 0.00 0.00 0.00 0.79 0.00 0.62 0.00 0.00 0.00 0.78 0.00 0.00 0.00 0.00 0.94 0.00 0.00 0.00 0.00 0.53 0.00 0.77 0.00 0.00 0.55 0.00 0.00 0.00 0.00 0.00 0.00 0.00 0.61 0.00 0.00 0.00 0.72 0.00 0.00 0.00 0.65 0.00 0.71 0.00 0.00 0.93 0.00 0.00 0.88 0.00 0.69 0.00 0.00 0.00 0.75 0.00 0.00 0.54 0.00 0.00 0.00 0.00 0.00 0.00 0.96 0.00 0.00 0.84 0.79 0.00 0.00 0.61 0.00 0.00 0.00 0.86 0.84 0.00 0.52 0.00 0.00 0.00 0.00 0.00 0.00 0.00 0.00 0.00 0.00 0.72 0.00 0.00 0.00 0.90 0.00 0.00 0.00 0.00 0.00 0.67 0.00 0.00 0.00 0.00 0.00 0.00 0.00 0.55 0.00 0.00 0.00 0.00 0.00 0.00 0.00 0.00 0.00 0.00 0.58 0.00 0.97 0.00 0.00 0.92 0.00 0.00 0.00 0.00
0.00 0.00 0.00 0.00 0.00 0.00 0.00 0.00 0.00 0.00 0.82 0.00 0.00 0.00 0.00 0.00 0.00 0.00 0.00 0.00 0.00 0.00 0.00 0.97 0.00 0.00 0.00 0.00 0.00 0.76 0.00 0.00 0.00 0.76 0.00 0.65 0.00 0.00 0.00 0.00 0.00 0.62 0.00 0.00 0.00 0.00 0.00 0.00 0.00 0.00 0.00 0.00 0.96 0.00 0.00 0.00 0.00 0.00 0.00 0.52 0.00 0.00 0.84 0.00 0.00 0.61 0.00 0.00 0.00 0.00 0.80 0.68 0.63 0.00 0.80 0.00 0.00 0.00 0.00 0.00 0.00 0.00 0.00 0.00 0.00 0.00 0.00 0.00 0.00 0.00 0.00 0.00 0.00 0.00 0.00 0.00 0.00 0.87 0.63 0.83 0.00 0.00 0.00 0.00 0.96 0.00 0.00 0.00 0.00 0.99 0.00 0.00 0.62 0.00 0.00 0.67 0.00 0.00 0.00 0.00 0.79 0.00 0.98 0.00 0.52 0.00 0.55 0.00 0.00 0.00 0.00 0.00 0.00 0.00 0.00 0.00 0.53 0.00 0.00 0.96
0.00 0.00 0.00 0.00 0.00 0.00 0.00 0.78 0.00 0.00 0.00 0.98 0.00 0.00 0.00 0.00 0.52 0.00 0.00 0.00 0.00 0.00 0.00 0.00 0.00 0.00 0.00 0.00 0.97 0.00 0.00 0.00 0.00 0.00 0.00 0.00 0.93 0.00 0.83 0.00 0.66 0.00 0.00 0.00 0.00 0.52 0.00 0.88 0.00 0.00 0.00 0.72 0.00 0.00 0.00 0.00 0.00 0.76 0.00 0.00 0.00 0.00 0.00 0.63 0.00 0.00 0.85 0.00 0.00 0.84 0.00 0.00 0.00 0.00 0.00 0.66 0.00 0.00 0.81 0.83 0.67 0.00 0.00 0.00 0.00 0.00 0.00 0.00 0.65 0.57 0.00 0.98 0.00 0.00 0.00 0.00 0.00 0.00 0.00 0.00 0.00 0.00 0.00 0.00 0.00 0.00 0.00 0.52 0.83 0.88 0.90 0.00 0.00 0.62 0.68 0.99 0.00 0.62 0.81 0.00 0.99 0.00 0.00 0.00 0.00 0.00 0.00 0.00 0.00 0.00 0.00 0.00 0.00 0.00 0.00 0.00 0.00 0.53 0.00 0.00
0.70 0.00 0.00 0.00 0.82 0.69 0.00 0.00 0.00 0.68 0.00 0.00 0.00 0.96 0.95 0.00 0.00 0.00 0.00 0.53 0.00 0.00 0.00 0.00 0.00 0.00 0.00 0.00 0.00 0.00 0.00 0.95 0.00 0.00 0.00 0.00 0.70 0.86 0.00 0.00 0.00 0.65 0.00 0.00 0.00 0.53 0.00 0.00 0.00 0.00 0.00 0.00 0.00 0.00 0.00 0.00 0.00 0.00 0.00 0.50 0.00 0.62 0.00 0.00 0.00 0.00 0.00 0.00 0.00 0.78 0.97 0.00 0.00 0.00 0.65 0.00 0.00 0.99 0.00 0.00 0.00 0.00 0.00 0.00 0.00 0.00 0.00 0.00 0.00 0.97 0.00 0.00 0.00 0.00 0.00 0.00 0.80 0.96 0.00 0.00 0.00 0.00 0.96 0.00 0.00 0.00 0.00 0.00 0.00 0.00 0.00 0.00 0.58 0.00 0.00 0.00 0.00 0.00 0.59 0.58 0.00 0.00 0.00 0.00 0.00 0.00 0.00 0.00 0.00 0.00 0.00 0.00 0.00 0.00 0.00 0.00 0.89 0.00 0.00 0.00
0.87 0.00 0.00 0.00 0.00 0.00 0.00 0.00 0.00 0.82 0.00 0.00 0.00 0.00 0.00 0.00 0.00 0.00 0.00 0.83 0.62 0.00 0.97 0.00 0.51 0.00 0.00 0.00 0.00 0.00 0.00 0.00 0.00 0.87 0.00 0.00 0.00 0.00 0.00 0.00 0.63 0.00 0.00 0.00 0.00 0.00 0.00 0.00 0.00 0.00 0.79 0.85 0.00 0.00 0.93 0.00 0.00 0.88 0.00 0.00 0.00 0.00 0.00 0.00 0.65 0.88 0.00 0.63 0.00 0.75 0.84 0.00 0.00 0.65 0.00 0.00 0.62 0.00 0.00 0.00 0.00 0.00 0.00 0.00 0.00 0.81 0.00 0.00 0.00 0.00 0.76 0.00 0.00 0.00 0.87 0.00 0.84 0.92 0.00 0.00 0.00 0.00 0.00 0.92 0.00 0.00 0.00 0.95 0.99 0.00 0.00 0.00 0.97 0.00 0.00 0.00 0.00 0.00 0.00 0.00 0.00 0.00 0.00 0.00 0.00 0.00 0.00 0.75 0.00 0.00 0.00 0.82 0.71 0.00 0.00 0.00 0.00 0.00 0.00 0.84
0.00 0.00 0.00 0.00 0.00 0.77 0.00 0.00 0.00 0.00 0.00 0.00 0.00 0.00 0.00 0.00 0.70 0.00 0.00 0.00 0.00 0.00 0.00 0.83 0.00 0.00 0.00 0.00 0.00 0.00 0.00 0.00 0.00 0.00 0.00 0.00 0.79 0.00 0.00 0.00 0.61 0.00 0.00 0.00 0.00 0.00 0.00 0.00 0.00 0.00 0.00 0.00 0.00 0.59 0.00 0.00 0.00 0.54 0.00 0.00 0.00 0.00 0.00 0.00 0.74 0.00 0.00 0.94 0.00 0.00 0.00 0.63 0.77 0.00 0.00 0.00 0.00 0.00 0.00 0.00 0.69 0.00 0.78 0.00 0.00 0.00 0.00 0.95 0.00 0.00 0.00 0.00 0.00 0.91 0.97 0.00 0.00 0.00 0.00 0.81 0.00 0.00 0.00 0.00 0.00 0.00 0.74 0.00 0.00 0.53 0.00 0.00 0.00 0.00 0.74 0.00 0.00 0.85 0.00 0.00 0.00 0.00 0.00 0.00 0.00 0.00 0.00 0.00 0.00 0.60 0.00 0.00 0.74 0.00 0.67 0.88 0.81 0.97 0.82 0.65
0.00 0.00 0.00 0.00 0.87 0.52 0.00 0.00 0.00 0.00 0.00 0.00 0.00 0.84 0.00 0.00 0.00 0.00 0.95 0.00 0.00 0.00 0.89 0.00 0.00 0.00 0.00 0.94 0.00 0.00 0.00 0.00 0.00 0.86 0.00 0.73 0.00 0.00 0.00 0.00 0.00 0.00 0.00 0.00 0.00 0.90 0.00 0.67 0.64 0.00 0.00 0.00 0.00 0.00 0.00 0.95 0.00 0.00 0.00 0.64 0.75 0.97 0.00 0.00 0.00 0.54 0.00 0.00 0.00 0.00 0.00 0.52 0.00 0.00 0.00 0.00 0.92 0.00 0.00 0.00 0.00 0.00 0.00 0.00 0.00 0.00 0.00 0.00 0.97 0.00 0.00 0.00 0.79 0.00 0.00 0.00 0.00 0.00 0.00 0.00 0.88 0.54 0.00 0.00 0.65 0.00 0.85 0.65 0.00 0.00 0.00 0.00 0.00 0.00 0.00 0.00 0.00 0.00 0.00 0.00 0.58 0.00 0.00 0.00 0.00 0.00 0.67 0.00 0.00 0.00 0.00 0.00 0.00 0.00 0.00 0.00 0.00 0.71 0.84 0.00
0.90 0.00 0.94 0.00 0.00 0.00 0.00 0.00 0.00 0.69 0.00 0.56 0.00 0.00 0.00 0.00 0.00 0.65 0.00 0.00 0.00 0.00 0.00 0.66 0.00 0.00 0.53 0.00 0.00 0.00 0.76 0.00 0.52 0.00 0.00 0.00 0.00 0.00 0.00 0.57 0.99 0.00 0.00 0.00 0.00 0.00 0.00 0.00 0.00 0.00 0.00 0.00 0.00 0.75 0.88 0.00 0.00 0.00 0.00 0.68 0.00 0.00 0.75 0.00 0.00 0.00 0.00 0.00 0.00 0.00 0.00 0.00 0.00 0.74 0.00 0.00 0.96 0.00 0.00 0.00 0.88 0.00 0.00 0.00 0.51 0.00 0.00 0.51 0.00 0.00 0.00 0.00 0.00 0.72 0.81 0.00 0.00 0.00 0.00 0.00 0.00 0.66 0.00 0.86 0.00 0.00 0.00 0.00 0.92 0.00 0.00 0.85 0.56 0.00 0.00 0.00 0.00 0.00 0.00 0.00 0.00 0.55 0.79 0.00 0.00 0.00 0.00 0.00 0.51 0.66 0.00 0.00 0.00 0.00 0.00 0.00 0.00 0.00 0.00 0.00
0.00 0.00 0.65 0.00 0.00 0.00 0.00 0.00 0.87 0.00 0.00 0.00 0.00 0.77 0.83 0.00 0.00 0.00 0.74 0.81 0.00 0.75 0.00 0.00 0.00 0.00 0.00 0.00 0.87 0.00 0.00 0.00 0.00 0.00 0.00 0.00 0.00 0.00 0.52 0.00 0.00 0.00 0.00 0.00 0.58 0.00 0.00 0.00 0.81 0.00 0.00 0.00 0.00 0.00 0.00 0.00 0.00 0.00 0.00 0.00 0.00 0.00 0.00 0.00 0.00 0.00 0.55 0.00 0.00 0.95 0.00 0.00 0.93 0.00 0.00 0.66 0.00 0.00 0.00 0.00 0.00 0.00 0.00 0.82 0.00 0.00 0.00 0.00 0.62 0.00 0.93 0.00 0.71 0.00 0.00 0.00 0.00 0.83 0.00 0.00 0.00 0.00 0.84 0.61 0.00 0.00 0.00 0.52 0.00 0.00 0.00 0.00 0.90 0.00 0.00 0.00 0.00 0.74 0.00 0.00 0.00 0.00 0.00 0.83 0.00 0.84 0.72 0.00 0.74 0.00 0.99 0.00 0.89 0.00 0.00 0.00 0.00 0.00 0.00 0.00
0.00 0.52 0.00 0.00 0.00 0.00 0.77 0.00 0.96 0.00 0.00 0.00 0.00 0.00 0.00 0.00 0.00 0.00 0.60 0.00 0.00 0.74 0.00 0.61 0.00 0.00 0.97 0.00 0.00 0.69 0.00 0.98 0.73 0.00 0.74 0.00 0.00 0.90 0.00 0.94 0.66 0.00 0.00 0.00 0.00 0.00 0.00 0.00 0.00 0.00 0.00 0.00 0.00 0.00 0.00 0.00 0.00 0.00 0.00 0.00 0.00 0.00 0.00 0.00 0.97 0.00 0.00 0.00 0.00 0.86 0.00 0.00 0.00 0.00 0.00 0.00 0.00 0.61 0.00 0.00 0.00 0.00 0.00 0.00 0.00 0.00 0.00 0.00 0.00 0.00 0.00 0.00 0.00 0.00 0.00 0.00 0.00 0.00 0.96 0.00 0.73 0.99 0.00 0.00 0.00 0.00 0.00 0.00 0.00 0.00 0.00 0.00 0.00 0.00 0.00 0.00 0.00 0.00 0.00 0.00 0.00 0.00 0.00 0.00 0.00 0.00 0.52 0.60 0.00 0.00 0.00 0.00 0.54 0.00 0.00 0.00 0.00 0.00 0.00 0.00
0.00 0.00 0.00 0.00 0.00 0.00 0.00 0.00 0.62 0.84 0.00 0.00 0.00 0.00 0.00 0.00 0.61 0.00 0.00 0.00 0.00 0.00 0.00 0.82 0.00 0.00 0.00 0.00 0.00 0.00 0.00 0.00 0.00 0.67 0.61 0.00 0.00 0.84 0.00 0.64 0.00 0.00 0.00 0.00 0.00 0.75 0.00 0.00 0.00 0.00 0.68 0.00 0.00 0.00 0.00 0.00 0.00 0.00 0.65 0.00 0.00 0.00 0.00 0.00 0.00 0.00 0.67 0.00 0.00 0.00 0.00 0.65 0.93 0.50 0.91 0.00 0.00 0.00 0.00 0.75 0.00 0.65 0.00 0.00 0.00 0.00 0.00 0.00 0.00 0.00 0.00 0.00 0.00 0.00 0.00 0.00 0.00 0.00 0.00 0.00 0.00 0.00 0.73 0.00 0.67 0.83 0.00 0.00 0.00 0.00 0.00 0.00 0.95 0.00 0.00 0.00 0.00 0.00 0.00 0.79 0.00 0.79 0.00 0.00 0.96 0.73 0.00 0.00 0.00 0.00 0.00 0.00 0.00 0.00 0.95 0.00 0.00 0.00 0.00 0.00
0.63 0.00 0.00 0.00 0.95 0.00 0.00 0.00 0.82 0.00 0.97 0.00 0.00 0.00 0.00 0.00 0.00 0.00 0.97 0.84 0.00 0.93 0.73 0.00 0.00 0.00 0.00 0.00 0.00 0.00 0.00 0.92 0.86 0.00 0.00 0.00 0.00 0.00 0.00 0.00 0.00 0.00 0.85 0.00 0.00 0.67 0.00 0.00 0.00 0.00 0.00 0.00 0.00 0.91 0.00 0.00 0.00 0.00 0.91 0.00 0.00 0.00 0.00 0.00 0.00 0.00 0.66 0.53 0.00 0.00 0.98 0.00 0.00 0.00 0.00 0.00 0.00 0.00 0.00 0.00 0.83 0.00 0.59 0.00 0.55 0.66 0.71 0.00 0.00 0.00 0.00 0.00 0.00 0.00 0.00 0.00 0.00 0.00 0.00 0.00 0.00 0.00 0.96 0.00 0.00 0.00 0.00 0.00 0.76 0.00 0.00 0.00 0.00 0.00 0.00 0.00 0.91 0.69 0.00 0.97 0.00 0.70 0.63 0.00 0.00 0.00 0.00 0.51 0.00 0.96 0.00 0.00 0.77 0.81 0.00 0.00 0.00 0.00 0.00 0.00
0.00 0.64 0.00 0.00 0.00 0.00 0.00 0.00 0.00 0.00 0.00 0.00 0.00 0.00 0.00 0.00 0.00 0.00 0.00 0.61 0.00 0.00 0.00 0.00 0.00 0.00 0.00 0.71 0.00 0.00 0.85 0.00 0.77 0.00 0.00 0.00 0.00 0.00 0.00 0.00 0.00 0.52 0.00 0.00 0.00 0.00 0.00 0.00 0.00 0.00 0.00 0.73 0.00 0.00 0.00 0.61 0.00 0.00 0.00 0.00 0.00 0.00 0.00 0.00 0.00 0.97 0.00 0.90 0.00 0.00 0.00 0.00 0.00 0.00 0.00 0.00 0.00 0.00 0.00 0.00 0.00 0.00 0.76 0.00 0.66 0.00 0.00 0.00 0.00 0.00 0.00 0.00 0.70 0.71 0.51 0.00 0.00 0.52 0.00 0.00 0.00 0.00 0.00 0.71 0.00 0.81 0.00 0.53 0.00 0.57 0.65 0.00 0.00 0.00 0.62 0.00 0.00 0.00 0.00 0.00 0.00 0.00 0.00 0.00 0.00 0.00 0.00 0.87 0.00 0.00 0.00 0.00 0.00 0.00 0.00 0.58 0.00 0.00 0.00 0.62
0.00 0.89 0.00 0.00 0.00 0.00 0.00 0.00 0.00 0.92 0.00 0.84 0.00 0.00 0.00 0.00 0.00 0.00 0.00 0.78 0.79 0.51 0.00 0.98 0.00 0.00 0.00 0.00 0.00 0.00 0.00 0.00 0.00 0.00 0.00 0.00 0.57 0.00 0.00 0.00 0.68 0.90 0.00 0.00 0.00 0.00 0.00 0.00 0.00 0.00 0.00 0.60 0.00 0.61 0.00 0.54 0.00 0.00 0.00 0.96 0.00 0.99 0.00 0.00 0.00 0.00 0.00 0.85 0.89 0.00 0.95 0.00 0.00 0.00 0.92 0.00 0.00 0.82 0.00 0.00 0.00 0.00 0.00 0.00 0.00 0.00 0.00 0.00 0.00 1.00 0.00 0.00 0.00 0.75 0.00 0.00 0.00 0.79 0.55 0.54 0.00 0.00 0.00 0.00 0.00 0.00 0.00 0.00 0.00 0.00 0.00 0.00 0.00 0.00 0.00 0.00 0.00 0.00 0.00 0.00 0.69 0.52 0.00 0.00 0.99 0.62 0.00 0.00 0.00 0.54 0.75 0.00 0.00 0.00 0.00 0.00 0.00 0.00 0.00 0.00
