140
0.00 0.00 0.00 0.96 0.96 0.00 0.00 0.00 0.00 0.00 0.00 0.00 0.00 0.00 0.00 0.84 0.00 0.00 0.00 0.00 0.68 0.00 0.00 0.00 0.00 0.00 0.00 0.00 0.00 0.84 0.00 0.00 0.73 0.97 0.00 0.00 0.00 0.00 0.00 0.66 0.00 0.97 0.00 0.00 0.00 0.00 0.72 0.66 0.73 0.00 0.00 0.00 0.00 0.00 0.97 0.00 0.96 0.00 0.00 0.00 0.69 0.00 0.00 0.00 0.00 0.00 0.86 0.00 0.00 0.00 0.77 0.71 0.66 0.00 0.53 0.00 0.00 0.78 0.00 0.52 0.00 0.00 0.00 0.00 0.87 0.00 0.00 0.00 0.00 0.00 0.00 0.00 0.00 0.00 0.80 0.89 0.00 0.00 0.00 0.00 0.84 0.00 0.85 0.00 0.90 0.00 0.00 0.98 0.00 0.00 0.00 0.61 0.00 0.00 0.00 0.00 0.00 0.91 0.00 0.53 0.53 0.53 0.87 0.00 0.00 0.00 0.00 0.00 0.00 0.00 0.00 0.00 0.00 0.00 0.00 0.00 0.89 0.83 0.72 0.00
0.00 0.00 0.00 0.80 0.00 0.00 0.00 0.00 0.00 0.00 0.00 0.00 0.00 0.00 0.00 0.70 0.00 0.58 0.00 0.00 0.00 0.00 0.00 0.00 0.00 0.00 0.00 0.00 0.00 0.00 0.00 0.00 0.00 0.93 0.00 0.00 0.00 0.00 0.00 0.00 0.00 0.79 0.00 0.69 0.72 0.00 0.00 0.56 0.00 0.00 0.00 0.00 0.00 0.00 0.00 0.00 0.00 0.00 0.00 0.69 0.00 0.00 0.00 0.00 0.58 0.00 0.00 0.00 0.66 0.00 0.73 0.00 0.00 0.00 0.00 0.00 0.00 0.00 0.96 0.60 0.00 0.00 0.00 0.00 0.00 0.85 0.00 0.00 0.66 0.00 0.64 0.00 0.00 0.00 0.00 0.00 0.00 0.00 0.75 0.00 0.00 0.00 0.00 0.98 0.00 0.99 0.00 0.00 0.00 0.00 0.00 0.00 0.00 0.00 0.00 0.00 0.00 0.00 0.00 0.97 0.00 0.00 0.00 0.00 0.94 0.81 0.97 0.00 0.75 0.00 0.00 0.00 0.00 0.63 0.00 0.61 0.00 0.00 0.58 0.72
0.73 0.00 0.00 0.60 0.76 0.58 0.00 0.00 0.00 0.86 0.64 0.00 0.00 0.00 0.00 0.70 0.00 0.66 0.00 0.00 0.00 0.00 0.00 0.00 0.00 0.53 0.68 0.00 0.00 0.00 0.70 0.00 0.60 0.00 0.00 0.00 0.57 0.00 0.79 0.00 0.00 0.00 0.00 0.85 0.00 0.00 0.00 0.00 0.00 0.87 0.00 0.00 0.76 0.53 0.00 0.97 0.00 0.00 0.00 0.99 0.00 0.00 0.00 0.00 0.00 0.00 0.00 0.00 0.00 0.00 0.00 0.00 0.00 0.92 0.00 0.92 0.00 0.00 0.00 0.00 0.00 0.00 0.78 0.51 0.00 0.61 0.72 0.00 0.00 0.00 0.00 0.00 0.00 0.00 0.00 0.00 0.00 0.94 0.89 0.81 0.00 0.00 0.00 0.00 0.00 0.97 0.00 0.00 0.00 0.00 0.00 0.00 0.00 0.00 0.00 0.00 0.71 0.00 0.00 0.00 0.61 0.80 0.00 0.00 0.00 0.00 0.00 0.00 0.64 0.00 0.00 0.00 0.00 0.00 0.00 0.00 0.00 0.00 0.59 0.00
0.00 0.00 0.97 0.00 0.61 0.00 0.98 0.00 0.00 0.76 0.00 0.00 0.00 0.00 0.87 0.52 0.00 0.00 0.00 0.00 0.00 0.98 0.00 0.00 0.77 0.00 0.83 0.00 0.00 0.00 0.00 0.00 0.00 0.00 0.00 0.00 0.69 0.00 0.00 0.62 0.00 0.00 0.00 0.00 0.00 0.60 0.65 0.00 0.86 0.00 0.00 0.00 0.00 0.00 0.00 0.63 0.00 0.00 0.60 0.00 0.00 0.00 0.00 0.73 0.00 0.00 0.00 0.00 0.00 0.00 0.00 0.00 0.00 0.00 0.00 0.00 0.00 0.00 0.00 0.00 0.00 0.71 0.00 0.00 0.00 0.00 0.53 0.00 0.97 0.00 0.00 0.00 0.55 0.00 0.00 0.00 0.00 0.00 0.00 0.00 0.00 0.00 0.00 0.53 0.00 0.00 0.67 0.00 0.00 0.00 0.00 0.63 0.72 0.74 0.00 0.00 0.00 0.00 0.00 0.00 0.00 0.70 0.00 0.00 0.00 0.59 0.00 0.00 0.00 0.00 0.00 0.00 0.00 0.00 0.00 0.83 0.00 0.00 0.00 0.00
0.99 0.00 0.75 0.00 0.00 0.00 0.00 0.00 0.00 0.00 0.00 0.00 0.65 0.00 0.00 0.00 0.00 0.00 0.00 0.00 0.00 0.00 0.66 0.00 0.00 0.00 0.00 0.00 0.81 0.00 0.00 0.00 0.00 0.00 0.00 0.00 0.00 0.00 0.00 0.00 0.00 0.00 0.00 0.51 0.00 0.00 0.83 0.00 0.00 0.91 0.74 0.00 0.91 0.97 0.00 0.00 0.00 0.00 0.00 0.72 0.00 0.00 0.73 0.00 0.54 0.67 0.00 0.00 0.00 0.00 0.00 0.00 0.00 0.00 0.00 0.73 0.00 0.65 0.00 0.72 0.00 0.00 0.90 0.00 0.00 0.00 0.00 0.00 0.00 0.00 0.00 0.00 0.76 0.00 0.00 0.00 0.00 0.00 0.00 0.00 0.00 0.58 0.00 0.00 0.00 0.00 0.00 0.00 0.00 0.00 0.00 0.93 0.00 0.97 0.82 0.00 0.79 0.00 0.00 0.00 0.00 0.00 0.00 0.00 0.00 0.90 0.82 0.00 0.97 0.00 0.00 0.00 0.00 0.00 0.63 0.00 0.00 0.54 0.00 0.00
0.00 0.00 0.00 0.00 0.79 0.00 0.00 0.00 0.00 0.75 0.00 0.00 0.00 0.00 0.00 0.78 0.89 0.00 0.00 0.00 0.86 0.00 0.00 0.00 0.00 0.00 0.00 0.00 0.00 0.61 0.00 0.00 0.51 0.00 0.00 0.00 0.83 0.00 0.00 0.00 0.94 0.00 0.00 0.97 0.00 0.00 0.00 0.00 0.00 0.00 0.00 0.81 0.98 0.86 0.00 0.00 0.00 0.00 0.00 0.00 0.00 0.00 0.00 0.00 0.77 0.78 0.00 0.72 0.00 0.00 0.00 0.00 0.93 0.00 0.00 0.57 0.86 0.00 0.96 0.00 0.00 0.58 0.00 0.00 0.00 0.62 0.00 0.00 0.00 0.00 0.00 0.00 0.00 0.00 0.00 0.53 0.00 0.78 0.54 0.00 0.00 0.00 0.64 0.00 0.00 0.70 0.00 0.00 0.00 0.50 0.00 0.73 0.97 0.67 0.00 0.00 0.00 0.86 0.52 0.00 0.00 0.57 0.00 0.00 0.00 0.00 0.00 0.69 0.99 0.00 0.00 0.00 0.00 0.00 0.00 0.00 0.54 0.80 0.00 0.00
0.00 0.75 0.00 0.00 0.00 0.00 0.00 0.00 0.59 0.00 0.00 0.78 0.00 0.00 0.00 0.00 0.00 0.00 0.00 0.00 0.00 0.00 0.00 0.00 0.60 0.00 0.00 0.00 0.00 0.00 0.00 0.00 0.00 0.00 0.00 0.86 0.00 0.80 0.00 0.00 0.00 0.82 0.00 0.00 0.00 0.52 0.00 0.00 0.97 0.00 0.00 0.00 0.84 0.00 0.00 0.00 0.00 0.00 0.00 0.63 0.00 0.00 0.00 0.00 0.00 0.00 0.00 0.00 0.78 0.00 0.00 0.00 0.00 0.00 0.00 0.00 0.00 0.00 0.00 0.00 0.00 1.00 0.00 0.56 0.00 0.00 0.00 0.00 0.00 0.00 0.00 0.77 0.00 0.00 0.00 0.00 0.00 0.86 0.00 0.00 0.00 0.00 0.00 0.00 0.00 0.00 0.00 0.00 0.00 0.00 0.00 0.00 0.00 0.00 0.00 0.00 0.00 0.00 0.00 0.00 0.00 0.00 0.00 0.00 0.55 0.84 0.86 0.00 0.00 0.00 0.00 0.99 0.96 0.00 0.00 0.00 0.00 0.00 0.00 0.70
0.00 0.00 0.00 0.00 0.83 0.00 0.00 0.00 0.00 0.00 0.81 0.89 0.00 0.00 0.90 0.71 0.00 0.85 0.99 0.00 0.00 0.85 0.67 0.69 0.00 0.00 0.00 0.55 0.00 0.00 0.00 0.00 0.00 0.00 0.00 0.00 0.00 0.00 0.99 0.00 0.00 0.00 0.75 0.51 0.00 0.00 0.00 0.60 0.00 0.00 0.00 0.00 0.51 0.68 0.00 0.00 0.00 0.84 0.00 0.00 0.00 0.67 0.00 0.78 0.00 0.00 0.52 0.00 0.00 0.00 0.00 0.72 0.00 0.00 0.73 0.99 0.00 0.91 0.92 0.00 0.00 0.77 0.00 0.00 0.00 0.00 0.00 0.00 0.00 0.94 0.50 0.00 0.84 0.00 0.00 0.00 0.00 0.59 0.69 0.00 0.00 0.81 0.56 0.69 0.00 0.00 0.00 0.00 0.00 0.00 0.00 0.70 0.00 0.00 0.00 0.00 0.74 0.00 0.00 0.00 0.70 0.00 0.00 0.74 0.00 0.00 0.00 0.00 0.60 0.00 0.61 0.00 0.00 0.94 0.00 0.00 0.00 0.00 0.00 0.00
0.00 0.00 0.00 0.00 0.00 0.00 0.00 0.00 0.00 0.00 0.76 0.00 0.53 0.95 0.00 0.00 0.00 0.00 0.00 0.72 0.00 0.00 0.00 0.51 0.00 0.00 0.00 0.00 0.00 0.00 0.00 0.90 0.00 0.00 0.93 0.00 0.00 0.00 0.00 0.00 0.00 0.00 0.92 0.00 0.53 0.00 0.74 0.00 0.00 0.00 0.00 0.00 0.00 0.00 0.00 0.00 0.00 0.61 0.61 0.00 0.71 0.00 0.00 0.00 0.00 0.95 0.00 0.77 0.00 0.00 0.00 0.00 0.00 0.00 0.00 0.00 0.00 0.00 0.75 0.91 0.00 0.95 0.00 0.00 0.83 0.00 0.00 0.00 0.00 0.00 0.00 0.00 0.00 0.94 0.00 0.00 0.00 0.00 0.50 0.55 0.00 0.00 0.00 0.00 0.00 0.00 0.00 0.00 0.00 0.84 0.00 0.00 0.00 0.00 0.00 0.00 0.00 0.00 0.00 0.99 0.00 0.00 0.00 0.00 0.52 0.00 0.00 0.00 0.00 0.00 0.00 0.89 0.00 0.94 0.00 0.86 0.00 0.66 0.00 0.00
0.00 0.00 0.72 0.60 0.72 0.00 0.00 0.53 0.00 0.00 0.67 0.00 0.00 0.86 0.96 0.00 0.00 0.00 0.00 0.00 0.00 0.00 0.00 0.00 0.00 0.00 0.00 0.71 0.00 0.99 0.00 0.79 0.98 0.00 0.68 0.00 0.87 0.58 0.95 0.00 0.00 0.00 0.00 0.00 0.00 0.78 0.82 0.00 0.00 0.00 0.00 0.00 0.00 0.00 0.00 0.00 0.63 0.00 0.00 0.63 0.00 0.00 0.54 0.00 0.00 0.00 0.78 0.88 0.00 0.74 0.00 0.00 0.00 0.00 0.00 0.00 0.00 0.00 0.71 0.00 0.00 0.00 0.97 0.00 0.00 0.58 0.00 0.00 0.00 0.00 0.00 0.00 0.00 0.00 0.93 0.00 0.00 0.00 0.00 0.00 0.00 0.82 0.00 0.00 0.00 0.00 0.65 0.00 0.00 0.57 0.00 0.68 0.00 0.00 0.66 0.00 0.72 0.60 0.00 0.00 0.00 0.71 0.00 0.00 0.55 0.00 0.00 0.00 0.00 0.00 0.95 0.84 0.83 0.00 0.64 0.00 0.87 0.00 0.00 0.00
0.00 0.00 0.00 0.00 0.00 0.00 0.00 0.00 0.00 0.00 0.00 0.00 0.00 0.00 0.00 0.93 0.00 0.00 0.00 0.00 0.96 0.00 0.00 0.71 0.00 0.00 0.00 0.89 0.00 0.00 0.00 0.00 0.00 0.00 0.60 0.00 0.00 0.00 0.61 0.00 0.72 0.61 0.00 0.00 0.00 0.00 0.00 0.00 0.79 0.00 0.00 0.99 0.00 0.56 0.00 1.00 0.54 0.00 0.55 0.00 0.81 0.00 0.00 0.00 0.69 0.00 0.00 0.93 0.54 0.00 0.00 0.00 0.00 0.00 0.00 0.70 0.95 0.88 0.58 0.66 0.00 0.00 0.00 0.00 0.00 0.00 0.74 0.93 0.00 0.00 0.00 0.64 0.00 0.00 0.00 0.00 0.00 0.77 0.00 0.00 0.00 0.53 0.00 0.00 0.00 0.00 0.00 0.00 0.00 0.97 0.52 0.00 0.00 0.97 0.98 0.79 0.00 0.92 0.00 0.00 0.00 0.00 0.00 0.75 0.84 0.00 0.97 0.00 0.51 0.60 0.89 0.00 0.92 0.00 0.00 0.55 0.64 0.00 0.93 0.00
0.00 0.00 0.94 0.00 0.61 0.00 0.00 0.00 0.00 0.00 0.00 0.00 0.00 0.00 0.00 0.00 0.00 0.00 0.64 0.00 0.00 0.95 0.00 0.00 0.00 0.00 0.00 0.00 0.00 0.00 0.00 0.00 0.57 0.00 0.00 0.00 0.63 0.00 0.00 0.00 0.00 0.77 0.97 0.00 0.00 0.00 0.65 0.67 0.00 0.00 0.00 0.00 0.00 0.00 0.00 0.00 0.00 0.54 0.00 0.00 0.00 0.00 0.00 0.61 0.00 0.00 0.00 0.00 0.00 0.61 0.00 0.00 0.58 0.00 0.81 0.98 0.00 0.92 0.00 0.00 0.00 0.00 0.59 0.00 0.00 0.00 0.76 0.00 0.54 0.00 0.00 0.00 0.00 0.00 0.71 0.88 0.00 0.00 0.00 0.00 0.00 0.77 0.00 0.00 0.00 0.82 0.52 0.00 0.00 0.60 0.00 0.79 0.00 0.00 0.84 0.00 0.00 0.00 0.00 0.98 0.84 0.00 0.00 0.00 0.92 0.00 0.71 0.00 0.00 0.00 0.00 0.00 0.66 0.00 0.00 0.00 0.89 0.00 0.00 0.56
0.00 0.00 0.00 0.00 0.90 0.96 0.85 0.00 0.00 0.72 0.00 0.65 0.00 0.00 0.00 0.00 0.00 0.60 0.00 0.00 0.00 0.00 0.00 0.00 0.93 0.00 0.00 0.00 0.00 0.00 0.00 0.65 0.00 0.69 0.00 0.00 0.00 0.99 0.73 0.00 0.00 0.00 0.00 0.81 0.00 0.82 0.00 0.00 0.00 0.00 0.00 0.00 0.00 0.00 0.00 0.00 0.00 0.00 0.00 0.00 0.00 0.70 0.00 0.00 0.00 0.51 0.00 0.91 0.00 0.00 0.00 0.00 0.00 0.00 0.94 0.00 0.00 0.00 0.00 0.74 0.00 0.00 0.82 0.70 0.83 0.00 0.00 0.00 0.91 0.00 0.00 0.00 1.00 0.94 0.51 0.00 0.00 0.00 0.00 0.00 0.00 0.00 0.00 0.73 0.00 0.00 0.00 0.00 0.00 0.00 0.00 0.00 0.00 0.00 0.00 0.00 0.96 0.58 0.00 0.00 0.00 0.00 0.00 0.00 0.00 0.00 0.00 0.00 0.00 0.00 0.00 0.00 0.00 0.72 0.96 0.00 0.00 0.00 0.66 0.92
0.77 0.00 0.73 0.00 0.00 0.85 0.00 0.52 0.00 0.00 0.74 0.00 0.97 0.00 0.00 0.75 0.00 0.53 0.70 0.00 0.00 0.00 0.00 0.76 0.56 0.86 0.00 0.00 0.94 0.00 0.00 0.00 0.00 0.00 0.57 0.95 0.64 0.00 0.00 0.00 0.00 0.00 0.00 0.00 0.00 0.00 0.90 0.00 0.97 0.58 0.00 0.00 0.00 0.00 0.00 0.00 0.00 0.00 0.00 0.00 0.68 0.00 0.00 0.55 0.87 0.00 0.00 0.00 0.61 0.52 0.00 0.00 0.00 0.00 0.00 0.00 0.00 0.00 0.00 0.00 0.00 0.00 0.00 0.00 0.00 0.70 0.00 0.00 0.00 0.00 0.00 0.00 0.00 0.00 0.70 0.00 0.00 0.00 0.85 0.87 0.56 0.71 0.00 0.00 0.00 0.00 0.85 0.60 0.74 0.00 0.00 0.59 0.88 0.69 0.65 0.00 0.00 0.94 0.00 0.00 0.00 0.60 0.00 0.00 0.00 0.00 0.00 0.00 0.00 0.00 0.00 0.00 0.00 0.76 0.00 0.51 0.52 0.73 0.95 0.00
0.00 0.00 0.00 0.83 0.00 0.52 0.00 0.00 0.00 0.00 0.00 0.00 0.00 0.00 0.00 0.00 0.00 0.00 0.00 0.55 0.00 0.00 0.00 0.74 0.00 0.00 0.00 0.00 0.00 0.55 0.00 0.00 0.00 0.72 0.00 0.00 0.00 0.00 0.00 0.00 0.00 0.51 0.00 0.00 0.00 0.72 0.00 0.00 0.00 0.00 0.70 0.00 0.00 0.00 0.00 0.00 0.00 0.00 0.00 0.86 0.00 0.76 0.68 0.00 0.70 0.00 0.00 0.00 0.98 0.00 0.00 0.66 0.00 0.00 0.00 0.00 0.62 0.00 0.00 0.00 0.00 0.00 0.60 0.00 0.00 0.00 0.00 0.72 0.00 0.00 0.00 0.00 0.69 0.00 0.00 0.00 0.00 0.00 0.00 0.61 0.00 0.00 0.00 0.00 0.00 0.00 0.69 0.00 0.56 0.00 0.00 0.00 0.00 0.00 0.60 0.76 0.00 0.96 0.77 0.00 0.00 0.00 0.00 0.00 0.00 0.00 0.00 0.00 0.87 0.00 0.00 0.00 0.00 0.52 0.70 0.00 0.00 0.00 0.00 0.89
0.66 0.93 0.87 0.00 0.00 0.00 0.00 0.61 0.00 0.76 0.00 0.00 0.00 0.00 0.00 0.00 0.00 0.00 0.67 0.00 0.00 0.00 0.00 0.83 0.00 0.00 0.00 0.00 0.00 0.00 0.00 0.00 0.90 0.00 0.00 0.00 0.00 0.96 0.00 0.00 0.00 0.00 0.00 0.00 0.81 0.00 0.00 0.82 0.82 0.00 0.78 0.00 0.00 0.00 0.00 0.00 0.00 0.65 0.00 0.00 0.00 0.00 0.84 0.58 0.00 0.00 0.00 0.00 0.74 0.00 0.00 0.00 0.52 0.00 0.00 0.00 0.00 0.00 0.84 0.66 0.00 0.76 0.00 0.00 0.00 0.00 0.00 0.00 0.00 0.56 0.00 0.86 0.00 0.81 0.65 0.00 0.00 1.00 0.00 0.72 0.00 0.00 0.00 0.00 0.00 0.00 0.00 0.57 0.00 0.67 0.00 0.69 0.00 0.00 0.78 0.00 0.72 0.00 0.00 0.00 0.00 0.00 0.00 0.78 0.00 0.70 0.00 0.00 0.68 0.00 0.00 0.00 0.52 0.00 0.98 0.57 0.00 0.00 0.00 0.62
0.00 0.97 0.00 0.00 0.89 0.83 0.00 0.00 0.57 0.00 0.00 0.00 0.00 0.00 0.00 0.00 0.00 0.00 0.00 0.00 0.00 0.00 0.92 0.00 0.00 0.00 0.00 0.00 0.00 0.00 0.89 0.00 0.00 0.92 0.00 0.00 0.53 0.00 0.00 0.00 0.00 0.00 0.00 0.00 0.00 0.00 0.00 0.66 0.99 0.00 0.00 0.87 0.00 0.00 0.00 0.00 0.00 0.00 0.00 0.00 0.62 0.00 0.00 0.85 0.00 0.00 0.00 0.00 0.88 0.00 0.00 0.00 0.97 0.00 0.00 0.53 0.00 0.00 0.00 0.00 0.53 0.00 0.00 0.00 0.00 0.00 0.99 0.74 0.00 0.62 0.00 0.00 0.51 0.00 0.00 0.00 0.00 0.00 0.00 0.79 0.00 0.00 0.00 0.00 0.66 0.00 0.00 0.00 0.91 0.00 0.00 0.00 0.97 0.76 0.00 0.00 0.50 0.00 0.00 0.00 0.61 0.00 0.53 0.93 0.63 0.64 0.57 0.64 0.00 0.00 0.00 0.00 0.00 0.00 0.00 0.53 0.00 0.00 0.50 0.63
0.00 0.00 0.60 0.00 0.51 0.93 0.71 0.00 0.00 0.00 0.00 0.00 0.56 0.58 0.62 0.00 0.00 0.00 0.00 0.96 0.00 0.75 0.86 0.00 0.00 0.00 0.00 0.71 0.00 0.00 0.00 0.00 0.93 0.00 0.71 0.70 0.00 0.00 0.00 0.00 0.82 0.51 0.00 0.00 0.55 0.85 0.00 0.00 0.00 0.00 0.89 0.00 0.00 0.70 0.00 0.00 0.00 0.00 0.73 0.89 0.00 0.00 0.00 0.00 0.66 0.00 0.00 0.81 0.00 0.00 0.00 0.00 0.00 0.62 0.79 0.00 0.99 0.00 0.50 0.00 0.00 0.00 0.64 0.88 0.60 0.00 0.00 0.00 0.92 0.00 0.00 0.00 0.53 0.96 0.00 0.00 0.00 0.71 0.00 0.83 0.51 0.87 0.00 0.00 0.00 0.00 0.00 0.00 0.89 0.93 0.00 0.81 0.00 0.00 0.00 0.00 0.00 0.00 0.00 0.60 0.00 0.81 0.00 0.00 0.00 0.00 0.62 0.00 0.00 0.00 0.52 0.00 0.00 0.00 0.00 0.63 0.00 0.00 0.62 0.00
0.00 0.00 0.00 0.62 0.00 0.00 0.88 0.00 0.00 0.00 0.00 0.00 0.00 0.00 0.00 0.00 0.00 0.00 0.00 0.00 0.81 0.00 0.00 0.00 0.00 0.00 0.55 0.88 0.00 0.95 0.00 0.00 0.00 0.00 0.57 0.00 0.00 0.88 0.52 0.00 0.86 0.66 0.00 0.00 0.00 0.00 0.00 0.00 0.55 0.00 0.75 0.00 0.00 0.61 0.69 0.00 0.63 0.00 0.00 0.71 0.00 0.68 0.00 0.00 0.86 0.58 0.61 0.00 0.55 0.00 0.61 0.60 0.00 0.00 0.00 0.00 0.00 0.66 0.51 0.00 0.00 0.00 0.00 0.67 0.00 0.00 0.96 0.00 0.00 0.00 0.00 0.00 0.00 0.97 0.86 0.00 0.00 0.71 0.00 0.74 0.00 0.80 0.00 0.00 0.00 0.00 0.00 0.00 0.00 0.65 0.00 0.00 0.00 0.54 0.99 0.00 0.00 0.76 0.00 0.76 0.62 0.74 0.00 0.00 0.00 0.00 0.77 0.75 0.00 0.00 0.00 0.00 0.86 0.00 0.00 0.00 0.00 0.00 0.74 0.00
0.00 0.00 0.00 0.00 0.82 0.74 0.00 0.00 0.58 0.00 0.00 0.00 0.84 0.00 0.00 0.00 0.00 0.00 0.00 0.00 0.00 0.65 0.61 0.00 0.00 0.00 0.00 0.75 0.00 0.91 0.00 0.00 0.00 0.00 0.00 0.00 0.00 0.00 0.00 0.00 0.00 0.00 0.00 0.00 0.87 0.00 0.88 0.00 0.00 0.93 0.00 0.51 0.00 0.00 0.53 0.85 0.00 0.00 0.00 0.95 0.00 0.00 0.73 0.00 0.00 0.00 0.00 0.00 0.00 0.00 0.57 0.00 0.85 0.00 0.00 0.00 0.00 0.00 0.61 0.00 0.00 0.00 0.00 0.00 0.00 0.89 0.00 0.00 0.00 0.00 0.00 0.00 0.00 0.92 0.00 0.00 0.00 0.00 0.00 0.00 0.00 0.00 0.00 0.00 0.68 0.65 0.00 0.00 0.00 0.00 0.00 0.62 0.00 0.00 0.00 0.00 0.00 0.80 0.00 0.70 0.00 0.00 0.00 0.00 0.00 0.00 0.00 0.00 0.00 0.76 0.00 0.00 0.00 0.63 0.64 0.00 0.00 0.91 0.00 0.00
0.00 0.00 0.00 0.00 0.00 0.00 0.00 0.00 0.00 0.00 0.00 0.00 0.92 0.93 0.00 0.00 0.00 0.00 0.00 0.00 0.00 0.77 0.00 0.00 0.00 0.00 0.00 0.00 0.00 0.00 0.00 0.00 0.58 0.00 0.86 0.00 0.00 0.00 0.00 0.00 0.00 0.00 0.00 0.00 0.61 0.00 0.00 0.00 0.00 0.00 0.00 0.00 0.00 0.78 0.00 0.00 0.00 0.00 0.00 0.00 0.00 0.95 0.93 0.00 0.00 0.00 0.00 0.00 0.00 0.00 0.00 0.00 0.00 0.00 0.00 0.00 0.00 0.00 0.00 0.62 0.00 0.93 0.00 0.00 0.00 0.00 0.92 0.66 0.00 0.00 0.00 0.91 0.70 0.00 0.00 0.86 0.86 0.00 0.00 0.00 0.00 0.00 0.80 0.00 0.00 0.00 0.74 0.72 0.96 0.00 0.00 0.00 0.63 0.00 0.00 0.54 0.00 0.78 0.00 0.00 0.00 0.00 0.00 0.00 0.00 0.00 0.00 0.00 0.00 0.72 0.00 0.97 0.00 0.00 0.00 0.00 0.00 0.72 0.00 0.00
0.00 0.55 0.00 0.00 0.00 0.00 0.00 0.00 0.00 0.72 0.00 0.00 0.00 0.00 0.00 0.00 0.00 0.00 0.00 0.75 0.00 0.00 0.00 0.82 0.00 0.00 0.00 0.00 0.00 0.95 0.00 0.00 0.00 0.00 0.00 0.88 0.00 0.00 0.00 0.00 0.00 0.00 0.00 0.87 0.00 0.82 0.80 0.77 0.00 0.53 0.00 0.92 0.00 0.00 0.00 0.00 0.00 0.99 0.00 0.65 0.00 0.92 0.00 0.00 0.00 0.00 0.00 0.00 0.00 0.00 0.00 0.00 0.55 0.00 0.00 0.58 0.00 0.84 0.00 0.00 0.00 0.80 0.00 0.00 0.00 0.00 0.00 0.00 0.65 0.68 0.00 0.00 0.00 0.00 0.00 0.00 0.00 0.00 0.00 0.73 0.00 0.00 0.00 0.00 0.00 0.00 0.81 0.00 0.00 0.00 0.00 0.00 0.00 0.00 0.00 0.00 0.00 0.00 0.00 0.00 0.00 0.00 0.00 0.99 0.00 0.00 0.00 0.91 0.00 0.72 0.00 0.00 0.00 0.00 0.00 0.00 0.00 0.00 0.84 0.50
0.00 0.00 0.00 0.92 0.00 0.94 0.00 0.00 0.00 0.00 0.70 0.00 0.00 0.00 0.00 0.00 0.00 0.00 0.00 0.00 0.00 0.00 0.00 0.00 0.00 0.00 0.00 0.00 0.72 0.00 0.00 0.00 0.00 0.00 0.00 0.87 0.00 0.00 0.00 0.00 0.83 0.00 0.00 0.00 0.00 0.00 0.00 0.00 0.00 0.00 0.55 0.65 0.84 0.67 0.00 0.00 0.00 0.00 0.00 0.00 0.00 0.00 0.00 0.00 0.00 0.00 0.00 0.00 0.00 0.00 0.00 0.00 0.73 0.75 0.00 0.00 0.00 0.60 0.00 0.00 0.00 0.00 0.00 0.00 0.00 0.79 0.00 0.00 0.65 0.00 0.00 0.00 0.84 0.00 0.00 0.00 0.97 0.00 0.65 0.00 0.00 0.00 0.00 0.00 0.00 0.71 0.00 0.00 0.00 0.00 0.79 0.00 0.00 0.00 0.00 0.00 0.00 0.00 0.89 0.77 0.00 0.00 0.61 0.00 0.00 0.00 0.00 0.00 0.00 0.00 0.00 0.00 0.57 0.55 0.00 0.00 0.55 0.62 0.00 0.00
0.00 0.59 0.00 0.63 0.00 0.82 0.89 0.00 0.00 0.00 0.00 0.00 0.91 0.99 0.00 0.96 0.00 0.00 0.00 0.00 0.00 0.55 0.00 0.00 0.00 0.00 0.00 0.55 0.00 0.00 0.00 0.51 0.00 0.00 0.00 0.00 0.85 0.00 0.00 0.00 0.97 0.55 0.00 0.00 0.00 0.00 0.00 0.94 0.00 0.00 0.77 0.69 0.50 0.00 0.00 0.00 0.00 0.00 0.00 0.65 0.00 0.00 0.00 0.00 0.00 0.00 0.00 0.00 0.00 0.00 0.00 0.82 0.00 0.00 0.00 0.00 0.00 0.00 0.00 0.51 0.55 0.60 0.53 0.00 0.00 0.00 0.00 0.00 0.52 0.00 0.00 0.00 0.00 0.00 0.00 0.97 0.00 0.00 0.00 0.76 0.00 0.00 0.00 0.00 0.87 0.99 0.00 0.00 0.98 0.00 0.00 0.00 0.00 0.00 0.00 0.00 0.00 0.74 0.00 0.73 0.00 0.00 0.66 0.00 0.00 0.00 0.00 0.00 0.00 0.00 0.00 0.00 0.00 0.57 0.00 0.00 0.00 0.00 0.00 0.56
0.00 0.00 0.00 0.00 0.00 0.00 0.00 0.00 0.00 0.00 0.00 0.00 0.91 0.00 0.00 0.00 0.72 0.80 0.00 0.00 0.00 0.95 0.98 0.00 0.00 0.00 0.00 0.00 0.73 0.00 0.00 0.00 0.00 0.00 0.00 0.00 0.00 0.00 0.56 0.91 0.00 0.60 0.00 0.75 0.76 0.00 0.00 0.76 0.00 0.00 0.92 0.00 0.00 1.00 0.00 0.00 0.00 0.00 0.00 0.00 0.73 0.00 0.83 0.00 0.00 0.00 0.00 0.00 0.00 0.00 0.98 0.54 0.00 0.00 0.00 0.00 0.00 0.00 0.00 0.00 0.68 0.00 0.00 0.57 0.56 0.00 0.00 0.75 0.00 0.00 0.00 0.00 0.52 0.00 0.00 0.00 0.00 0.00 0.00 0.00 0.00 0.00 0.71 0.00 0.67 0.00 0.00 0.89 0.00 0.83 0.97 0.54 0.00 0.00 0.00 0.64 0.00 0.80 0.00 0.00 0.00 0.00 0.52 0.00 0.00 0.00 0.99 0.00 0.53 0.00 0.00 0.00 0.00 0.00 0.75 0.00 0.00 0.00 0.00 0.00
0.71 0.00 0.00 0.96 0.96 0.00 0.00 0.00 0.00 0.00 0.00 0.00 0.00 0.00 0.63 0.89 0.00 0.53 0.00 0.00 0.92 0.00 0.88 0.81 0.00 0.00 0.00 0.00 0.00 0.67 0.00 0.00 0.00 0.58 0.00 0.00 0.00 0.00 0.00 0.00 0.00 0.00 0.75 0.00 0.81 0.00 0.00 0.88 0.00 0.00 0.56 0.00 0.77 0.00 0.00 0.00 0.57 0.00 0.00 0.00 0.00 0.00 0.00 0.00 0.00 0.58 0.00 0.00 0.00 0.00 0.61 0.00 0.00 0.00 0.00 0.74 0.00 0.88 0.00 0.75 0.00 0.00 0.00 0.00 0.00 0.96 0.00 0.60 0.00 0.00 0.00 0.93 0.60 0.00 0.89 0.00 0.00 0.00 0.00 0.00 0.00 0.86 0.00 0.00 0.00 0.00 0.00 0.00 0.00 0.00 0.00 0.00 0.00 0.00 0.64 0.86 0.00 0.00 0.00 0.00 0.00 0.00 0.00 0.00 0.00 0.00 0.00 0.00 0.00 0.00 0.98 0.54 0.69 0.00 0.00 0.00 0.00 0.00 0.00 0.00
0.00 0.00 0.00 0.81 0.00 0.00 0.65 0.00 0.00 0.00 0.00 0.00 0.00 0.00 0.00 0.00 0.00 0.00 0.00 0.00 0.00 0.00 0.53 0.98 0.00 0.00 0.00 0.00 0.90 0.00 0.85 0.00 0.80 0.00 0.96 0.00 0.00 0.63 0.00 0.00 0.86 0.96 0.00 0.00 0.95 0.00 0.00 0.51 0.56 0.60 0.00 0.00 0.77 0.70 0.00 0.00 0.00 0.75 0.00 0.00 0.90 0.53 0.00 0.00 0.66 0.83 0.00 0.00 0.77 0.00 0.00 0.00 0.00 0.00 0.00 0.00 0.96 0.00 0.00 0.00 0.00 0.79 0.59 0.00 0.78 0.68 0.97 0.00 0.00 0.00 0.82 0.00 0.00 0.00 0.55 0.00 0.00 0.00 0.00 0.00 0.00 0.00 0.56 0.00 0.82 0.00 0.64 0.00 0.00 0.00 0.00 0.00 0.00 0.00 0.72 0.00 0.00 0.00 0.00 0.00 0.74 0.59 0.00 0.58 0.00 0.00 0.00 0.00 0.00 0.77 0.00 0.00 0.73 0.00 0.00 0.84 0.00 0.00 0.00 0.00
0.00 0.00 0.00 0.00 0.00 0.95 0.00 0.00 0.72 0.67 0.00 0.00 0.00 0.00 0.00 0.00 0.00 0.00 0.00 0.00 0.00 0.00 0.00 0.00 0.00 0.70 0.00 0.00 0.00 0.00 0.00 0.68 0.00 0.99 0.93 0.00 0.00 0.00 0.55 0.00 0.91 0.73 0.00 0.00 0.00 0.00 0.00 0.00 0.92 0.00 0.00 0.00 0.00 0.00 0.95 0.00 0.00 0.00 0.00 0.00 0.00 0.00 0.00 0.00 0.00 0.00 0.72 0.64 0.75 0.00 0.00 0.00 0.72 0.65 0.00 0.00 0.00 0.00 0.84 0.00 0.64 0.00 0.92 0.88 0.00 0.00 0.00 0.00 0.00 0.97 0.70 0.00 0.00 0.00 0.00 0.00 0.00 0.00 0.00 0.81 0.00 0.00 0.00 0.64 0.00 0.00 0.00 0.00 0.00 0.00 0.59 0.00 0.00 0.94 0.00 0.95 0.88 0.00 0.64 0.54 0.00 0.93 0.00 0.84 0.00 0.00 0.00 0.00 0.00 0.00 0.00 0.63 0.00 0.78 0.00 0.00 0.79 0.00 0.00 0.00
0.00 0.52 0.00 0.93 0.00 0.00 0.00 0.00 0.00 0.00 0.92 0.84 0.00 0.00 0.00 0.80 0.00 0.00 0.00 0.00 0.00 0.00 0.00 0.70 0.78 0.00 0.00 0.00 0.00 0.00 0.00 0.67 0.00 0.00 0.00 0.81 0.00 0.00 0.51 0.00 0.63 0.00 0.00 0.00 0.00 0.00 0.00 0.00 0.77 0.75 0.00 0.00 0.00 0.00 0.00 0.00 0.00 0.00 0.88 0.54 0.97 0.00 0.00 0.00 0.00 0.85 0.00 0.67 0.00 0.00 0.00 0.97 0.72 0.00 0.85 0.00 0.00 0.00 0.53 0.00 0.00 0.00 0.00 0.00 0.00 0.00 0.00 0.00 0.00 0.66 0.00 0.00 0.00 0.00 0.00 0.00 0.00 0.58 0.00 0.00 0.59 0.00 0.83 0.00 0.00 0.00 0.79 0.00 0.83 0.00 0.00 0.84 0.00 0.00 0.00 0.00 0.00 0.00 0.00 0.00 0.00 0.00 0.86 0.00 0.80 0.00 0.99 0.00 0.00 0.00 0.00 0.96 0.00 0.00 0.94 0.00 0.00 0.00 0.00 0.00
0.00 0.77 0.00 0.79 0.00 0.00 0.00 0.79 0.00 0.00 0.55 0.00 0.00 0.00 1.00 0.60 0.00 0.00 0.00 0.00 0.00 0.00 0.55 0.52 0.67 0.85 0.00 0.83 0.00 0.00 0.00 0.00 0.00 0.00 0.00 0.82 0.00 0.00 0.00 0.00 1.00 0.00 0.00 0.75 0.00 0.00 0.00 0.00 0.97 0.94 0.00 0.94 0.00 0.73 0.00 0.00 0.94 0.66 0.00 0.00 0.00 0.00 0.00 0.00 0.62 0.00 0.88 0.00 0.00 0.63 0.00 0.00 0.00 0.93 0.00 0.00 0.00 0.00 0.00 0.64 0.00 0.00 0.00 0.77 0.51 0.90 0.74 0.00 0.00 0.51 0.00 0.00 0.00 0.00 0.00 0.86 0.52 0.00 0.00 0.00 0.00 0.00 0.00 0.00 0.00 0.00 0.00 0.00 0.00 0.00 0.00 0.00 0.65 0.86 0.00 0.79 0.59 0.00 0.00 0.00 0.50 0.87 0.73 0.00 0.69 0.00 0.00 0.00 0.87 0.00 0.00 0.00 0.00 0.00 0.51 0.00 0.00 0.00 0.00 0.00
0.62 0.00 0.55 0.00 0.00 0.00 0.85 0.00 0.78 0.00 0.00 0.93 0.87 0.00 0.00 0.00 0.00 0.00 0.00 0.00 0.00 0.00 0.00 0.00 0.00 0.54 0.00 0.00 0.00 0.00 0.00 0.93 0.64 0.00 0.00 0.00 0.00 0.00 0.00 0.62 0.00 0.00 0.00 0.00 0.00 0.00 0.81 0.00 0.00 0.00 0.61 0.00 0.00 0.00 0.00 0.00 0.00 0.00 0.70 0.00 0.00 0.00 0.54 0.88 0.00 0.00 0.83 0.00 0.00 0.00 0.00 0.00 0.00 0.00 0.71 0.53 0.00 0.00 0.00 0.95 0.00 0.00 0.69 0.00 0.00 0.00 0.00 0.00 0.00 0.62 0.00 0.00 0.00 0.00 0.00 0.52 0.98 0.00 0.71 0.86 0.00 0.00 0.75 0.68 0.51 0.98 0.83 0.00 0.00 0.90 0.00 0.72 0.00 0.00 0.00 0.83 0.00 0.58 0.00 0.00 0.91 0.00 0.00 0.90 0.00 0.00 0.00 0.00 0.00 0.00 0.61 0.89 0.88 0.00 0.00 0.00 0.00 0.58 0.00 0.95
0.74 0.99 0.00 0.99 0.00 0.00 0.00 0.00 0.88 0.00 0.50 0.00 0.63 0.57 0.00 0.56 0.00 0.00 0.00 0.87 0.00 0.00 0.00 0.93 0.67 0.00 0.00 0.73 0.00 0.00 0.00 0.00 0.92 0.83 0.58 0.00 0.00 0.84 0.00 0.00 0.00 0.00 0.00 0.00 0.00 0.92 0.00 0.00 0.00 0.00 0.00 0.00 0.00 0.64 0.00 0.00 0.00 0.00 0.78 0.00 0.00 0.00 0.00 0.00 0.00 0.00 0.76 0.00 0.80 0.00 0.58 0.00 0.00 0.00 0.00 0.00 0.59 0.75 0.00 0.00 0.00 0.88 0.00 0.70 0.00 0.00 0.00 0.85 0.00 0.00 0.86 0.00 0.00 0.00 0.00 0.00 0.00 0.00 0.57 0.00 0.00 0.00 0.00 0.85 0.00 0.83 0.00 0.00 0.64 0.64 0.00 0.00 0.00 0.89 0.00 0.00 0.00 0.00 0.71 0.00 0.77 0.00 0.00 0.76 0.00 0.00 0.81 0.00 0.00 0.00 0.00 0.00 0.00 0.00 0.00 0.00 0.00 0.00 0.00 0.85
0.00 0.70 0.00 0.00 0.00 0.51 0.00 0.99 0.00 0.00 0.00 0.00 0.00 0.00 0.00 0.00 0.00 0.00 0.00 0.60 0.00 0.00 0.00 0.00 0.00 0.00 0.00 0.72 0.67 0.00 0.82 0.87 0.00 0.55 0.99 0.52 0.00 0.00 0.78 0.00 0.00 0.00 0.00 0.00 0.00 0.00 0.00 0.00 0.68 0.95 0.81 0.92 0.89 0.00 0.00 0.77 0.00 0.78 0.00 0.00 0.00 0.00 0.00 0.00 0.84 0.00 0.70 0.00 0.50 0.00 0.61 0.00 0.00 0.88 0.00 0.00 0.00 0.00 0.00 0.00 0.00 0.00 0.00 0.00 0.86 0.00 0.00 0.00 0.00 0.63 0.00 0.00 0.93 0.00 0.00 0.00 0.00 0.00 0.88 0.00 0.00 0.00 0.00 0.70 0.76 0.00 0.00 0.00 0.69 0.00 0.00 0.00 0.75 0.89 0.00 0.65 0.93 0.00 0.00 0.00 0.00 0.00 0.00 0.00 0.00 0.66 0.62 0.00 0.00 0.84 0.00 0.00 0.00 0.00 0.00 0.00 0.00 0.00 0.87 0.00
0.00 0.00 0.00 0.79 0.00 0.00 0.00 0.00 0.00 0.00 0.00 0.67 0.85 0.00 0.67 0.00 0.00 0.00 0.00 0.00 0.00 0.00 0.00 0.92 0.00 0.00 0.00 0.97 0.00 0.75 0.57 0.00 0.00 0.00 0.00 0.00 0.60 0.00 0.00 0.00 0.63 0.00 0.00 0.61 0.67 0.00 0.85 0.00 0.00 0.00 0.00 0.00 0.00 0.00 0.00 0.00 0.00 0.00 0.00 0.00 0.00 0.00 0.00 0.00 0.00 0.00 0.00 0.00 0.61 0.00 0.96 0.00 0.00 0.00 0.00 0.52 0.00 0.91 0.00 0.00 0.00 0.00 0.00 0.00 0.61 0.00 0.00 0.00 0.00 0.00 0.00 0.91 0.00 0.00 0.00 0.94 0.00 0.00 0.00 0.00 0.00 0.89 0.00 0.00 0.78 0.00 0.00 0.00 0.78 0.00 0.60 0.00 0.00 0.00 0.00 0.00 0.00 0.00 0.00 0.00 0.00 0.00 0.00 0.58 0.65 0.75 0.00 0.00 0.00 0.00 0.00 0.53 0.62 0.00 0.00 0.00 0.00 0.00 0.00 0.00
0.00 0.96 0.00 0.00 0.00 0.00 0.00 0.78 0.68 0.55 0.93 0.00 0.94 0.00 0.00 0.97 0.00 0.00 0.00 0.00 0.00 0.00 0.58 0.00 0.00 0.00 0.00 0.55 0.00 0.00 0.00 0.00 0.00 0.00 0.00 0.00 0.00 0.70 0.81 0.97 0.00 0.67 0.00 0.00 0.00 0.00 0.00 0.83 0.00 0.78 0.00 0.00 0.00 0.00 0.00 0.77 0.00 0.64 0.81 0.00 0.00 0.00 0.00 0.00 0.00 0.00 0.00 0.00 0.00 0.98 0.00 0.00 0.00 0.00 0.00 0.00 0.00 0.83 0.00 0.98 0.00 0.00 0.00 0.00 0.00 0.00 0.93 0.00 0.73 0.00 0.99 0.00 0.00 0.00 0.00 0.00 0.00 0.00 0.00 0.00 0.00 0.00 0.00 0.00 0.00 0.00 0.00 0.00 0.00 0.00 0.00 0.00 0.00 0.00 0.94 0.00 0.55 0.00 0.00 0.96 0.00 0.00 0.84 0.00 0.00 0.96 0.00 0.66 0.00 0.00 0.00 0.00 0.97 0.72 0.59 0.00 0.00 0.00 0.00 0.54
0.56 0.00 0.00 0.00 0.00 0.00 0.00 0.00 0.00 0.00 0.00 0.00 0.00 0.00 0.99 0.00 1.00 0.00 0.00 0.00 0.00 0.00 0.94 0.00 0.00 0.58 0.00 0.59 0.74 0.00 0.00 0.00 0.00 0.00 0.82 0.00 0.00 0.60 0.00 0.00 0.00 0.00 0.58 0.00 0.00 0.00 0.00 0.00 0.00 0.84 0.99 0.00 0.00 0.00 0.00 0.00 0.82 0.00 0.55 0.00 0.00 0.00 0.00 0.73 0.75 0.74 0.00 0.00 0.00 0.00 0.00 0.87 0.00 0.00 0.94 0.93 0.00 0.65 0.00 0.57 0.00 0.99 0.00 0.00 0.00 0.00 0.00 0.00 0.00 0.00 0.00 0.00 0.00 0.00 0.00 0.00 0.76 0.00 0.98 0.00 0.00 0.00 0.00 0.87 0.00 0.00 0.77 0.00 0.00 0.96 0.00 0.00 0.00 0.00 0.00 0.00 0.83 0.93 0.00 0.00 0.57 0.54 0.00 0.00 0.67 0.88 0.00 0.00 0.63 0.00 0.63 0.00 0.59 0.00 0.00 0.00 0.00 0.00 0.00 0.87
0.00 0.00 0.96 0.00 0.00 0.00 0.97 0.00 0.80 0.00 0.00 0.00 0.00 0.00 0.00 0.59 0.00 0.59 0.94 0.90 0.00 0.71 0.00 0.00 0.00 0.62 0.00 0.51 0.00 0.00 0.00 0.00 0.99 0.00 0.00 0.54 0.00 0.00 0.00 0.63 0.00 0.58 0.94 0.00 0.00 0.76 0.00 0.00 0.00 0.00 0.95 0.72 0.00 0.83 0.00 0.50 0.82 0.00 0.00 0.65 0.00 0.71 0.00 0.00 0.00 0.00 0.00 0.00 0.00 0.57 0.00 0.00 0.00 0.00 0.00 0.79 0.00 0.00 0.00 0.00 0.00 0.00 0.00 0.00 0.00 0.00 0.00 0.00 0.00 0.00 0.00 0.00 0.98 0.93 0.00 0.00 0.00 0.57 0.00 0.00 0.00 0.92 0.71 0.00 0.00 0.00 0.00 0.00 0.89 0.00 0.76 0.93 0.85 0.00 0.72 0.00 0.88 0.99 0.00 0.91 0.62 0.67 0.00 0.84 0.69 0.00 0.00 0.89 0.00 0.00 0.62 0.66 0.00 0.64 0.00 0.00 0.00 0.00 0.00 0.00
0.59 0.00 0.00 0.69 0.00 0.00 0.00 0.00 0.95 0.00 0.00 0.95 0.96 0.00 0.82 0.95 0.00 0.00 0.00 0.68 0.00 0.00 0.00 0.00 0.00 0.00 0.00 0.00 0.00 0.00 0.00 0.00 0.00 0.00 0.00 0.00 0.00 0.00 0.85 0.00 0.00 0.00 0.76 0.00 0.00 0.00 0.97 0.61 0.00 0.57 0.00 0.00 0.00 0.00 0.00 0.00 0.00 0.00 0.00 0.00 0.00 0.65 0.00 0.00 0.00 0.65 0.00 0.00 0.00 0.90 0.00 0.00 0.00 0.52 0.00 0.00 0.00 0.00 0.00 0.00 0.00 0.53 0.00 0.00 0.00 0.00 0.00 0.00 0.00 0.00 0.00 0.00 0.98 0.00 0.00 0.93 0.00 0.00 0.00 0.67 0.85 0.00 0.00 0.00 0.00 0.00 0.00 0.00 0.00 0.00 0.00 0.00 0.00 0.00 0.92 0.00 0.00 0.00 0.77 0.56 0.00 0.57 0.00 0.00 0.00 0.00 0.00 0.00 0.00 0.00 0.77 0.55 0.84 0.00 0.00 0.00 0.00 0.00 0.00 0.00
0.00 0.00 0.00 0.00 0.93 0.00 0.00 0.00 0.73 0.79 0.00 0.00 0.00 0.00 0.00 0.00 0.00 0.00 0.00 0.00 0.00 0.00 0.86 0.00 0.00 0.00 0.00 0.00 0.00 0.00 0.00 0.00 0.54 0.00 0.51 0.00 0.00 0.00 0.00 0.77 0.00 0.00 0.00 0.00 0.00 0.00 0.79 0.00 0.84 0.00 0.00 0.00 0.00 0.00 0.00 0.99 0.00 0.00 0.00 0.92 0.00 0.00 0.83 0.00 0.00 0.84 0.00 0.95 0.00 0.00 0.00 0.00 0.00 0.00 0.00 0.77 0.71 0.96 0.00 0.00 0.00 0.91 0.96 0.00 0.00 0.00 0.00 0.70 0.00 0.00 0.00 0.61 0.59 0.00 0.83 0.00 0.00 0.00 0.00 0.00 0.00 0.00 0.00 0.00 0.83 0.00 0.75 0.79 0.00 0.00 0.00 0.54 0.00 0.98 0.00 0.00 0.00 0.00 0.88 0.00 0.00 0.51 0.00 0.81 0.59 0.00 0.00 0.00 0.00 0.00 0.99 0.00 0.00 0.00 0.00 0.00 0.00 0.53 0.00 0.00
0.00 0.00 0.00 0.56 0.00 0.00 0.00 0.55 0.67 0.00 0.00 0.00 0.73 0.00 0.00 0.00 0.00 0.00 0.59 0.00 0.00 0.00 0.69 0.00 0.00 0.86 0.00 0.79 0.00 0.00 0.00 0.00 0.00 0.00 0.00 0.82 0.00 0.00 0.00 0.00 0.00 0.00 0.80 0.00 0.00 0.00 0.00 0.00 0.00 0.00 0.00 0.00 0.83 0.00 0.00 0.98 0.00 0.00 0.77 0.00 0.00 0.66 0.00 0.68 0.00 0.72 0.00 0.62 0.00 0.53 0.00 0.00 0.00 0.51 0.00 0.00 0.00 0.00 0.00 0.89 0.00 0.00 0.00 0.00 0.00 0.00 0.00 0.00 0.00 0.00 0.00 0.00 0.00 0.91 0.00 0.00 0.00 0.00 0.00 0.00 0.00 0.00 0.95 0.00 0.00 0.00 0.00 0.00 0.67 0.00 0.00 0.00 0.00 0.72 0.00 0.69 0.00 0.00 0.00 0.00 0.00 0.00 0.00 0.72 0.00 0.00 0.00 0.79 0.54 0.00 0.00 0.00 0.00 0.00 0.00 0.00 0.77 0.86 0.00 0.00
0.00 0.00 0.00 0.60 0.90 0.00 0.00 0.00 0.77 0.75 0.00 0.00 0.00 0.00 0.85 0.73 0.00 0.00 0.00 0.00 0.00 0.00 0.00 0.00 0.00 0.00 0.00 0.00 0.94 0.00 0.81 0.00 0.00 0.79 0.81 0.00 0.75 0.56 0.00 0.00 0.00 0.00 0.00 0.00 0.00 0.00 0.00 0.00 0.00 0.00 0.00 0.00 0.00 0.00 0.00 0.00 0.00 0.99 0.00 0.00 0.92 0.00 0.00 0.00 0.00 0.00 0.00 0.00 0.00 0.00 0.52 0.00 0.00 0.00 0.00 0.00 0.00 0.83 0.70 0.00 0.00 0.55 0.70 0.00 0.00 0.00 0.00 0.00 0.00 0.89 0.00 0.00 0.00 0.00 0.00 0.00 0.00 0.00 0.00 0.65 0.00 0.00 0.00 0.00 0.00 0.00 0.61 0.00 0.00 0.00 0.50 0.00 0.00 0.64 0.00 0.00 0.00 0.79 0.78 0.00 0.96 0.57 0.57 0.00 0.00 0.00 0.00 0.77 0.00 0.00 0.00 0.00 0.00 0.00 0.00 0.00 0.00 0.00 0.58 0.00
0.00 0.00 0.00 0.00 0.00 0.94 0.00 0.00 0.00 0.00 0.00 0.00 0.00 0.55 0.00 0.91 0.00 0.00 0.00 0.00 0.00 0.00 0.00 0.00 0.00 0.00 0.00 0.00 0.00 0.56 0.00 0.57 0.00 0.00 0.00 0.00 0.00 0.51 0.00 0.00 0.00 0.00 0.00 0.00 0.00 0.51 0.68 0.00 0.00 0.54 0.00 0.00 0.52 0.00 0.00 0.00 0.86 0.70 0.00 0.00 0.00 0.00 0.60 0.75 0.00 0.00 0.00 0.00 0.00 0.00 0.00 0.97 0.69 0.00 0.00 0.00 0.00 0.00 0.00 0.00 0.83 0.00 0.00 0.00 0.57 0.00 0.00 0.73 0.74 0.00 0.00 0.00 0.00 0.00 0.53 0.91 0.94 0.00 0.56 0.00 0.00 0.00 0.00 0.64 0.00 1.00 0.00 0.00 0.00 0.00 0.00 0.00 0.00 0.54 0.00 0.00 0.00 0.00 0.00 0.96 0.00 0.97 0.00 1.00 0.00 0.85 0.00 0.00 0.00 0.00 0.00 0.00 0.94 0.00 0.00 0.00 0.00 0.00 0.54 0.00
0.00 0.00 0.87 0.00 0.00 0.00 0.00 0.85 0.70 0.00 0.00 0.00 0.87 0.00 0.00 0.00 0.00 0.00 0.79 0.00 0.00 0.00 0.00 0.00 0.00 0.00 0.00 0.53 0.00 0.00 0.00 0.00 0.00 0.00 0.00 0.76 0.63 0.00 0.00 0.00 0.00 0.59 0.00 0.00 0.00 0.00 0.00 0.00 0.00 0.00 0.00 0.00 0.51 0.00 0.82 0.00 0.87 0.00 0.61 0.93 0.53 0.00 0.00 0.00 0.00 0.00 0.00 0.00 0.00 0.00 0.00 0.00 0.92 0.00 0.00 0.00 0.89 0.00 0.00 0.71 0.00 0.99 0.74 0.77 0.00 0.00 0.00 0.79 0.00 0.00 0.88 0.66 0.00 0.00 0.00 0.88 0.00 0.00 0.95 0.00 0.00 0.00 0.68 0.65 0.00 0.81 0.00 0.00 0.67 0.00 0.00 0.00 0.00 0.00 0.00 0.00 0.88 0.00 0.66 0.00 0.00 0.00 0.00 0.00 0.00 0.00 0.00 0.54 0.86 0.00 0.00 0.00 0.91 0.00 0.00 0.00 0.00 0.86 0.00 0.68
0.00 0.00 0.00 0.00 0.00 0.00 1.00 0.00 0.85 0.77 0.00 0.00 0.00 0.00 0.00 0.00 0.00 0.00 0.00 0.00 0.00 0.00 0.00 0.00 0.00 0.00 0.51 0.00 0.00 0.00 0.00 0.00 0.94 0.00 0.00 0.00 0.00 0.00 0.92 0.51 0.00 0.00 0.00 0.00 0.00 0.00 0.00 0.00 0.00 0.00 0.00 0.00 0.00 0.00 0.00 0.00 0.00 0.00 0.00 0.55 0.95 0.00 0.00 0.00 0.00 0.00 0.00 0.00 0.66 0.00 0.64 0.00 0.77 0.98 0.00 0.00 0.00 0.64 0.00 0.00 0.00 0.00 0.00 0.00 0.77 0.00 0.00 0.00 0.76 0.00 0.00 0.00 0.97 0.00 0.00 0.00 0.68 0.00 0.00 0.83 0.00 0.00 0.00 0.00 0.95 0.00 0.55 0.96 0.74 0.00 0.00 0.00 0.78 0.00 0.00 0.00 0.00 0.78 0.00 0.00 0.78 0.00 0.00 0.00 0.00 0.64 0.00 0.61 0.00 0.00 0.00 0.00 0.97 0.00 0.00 0.96 0.00 0.00 0.00 0.00
0.00 0.00 0.00 0.00 0.00 0.00 0.00 0.00 0.00 0.00 0.99 0.00 0.00 0.00 0.62 0.00 0.86 0.85 0.00 0.64 0.00 0.59 0.00 0.00 0.65 0.00 0.97 0.69 0.00 0.00 0.00 0.00 0.00 0.82 0.61 0.00 0.97 0.00 0.00 0.81 0.00 0.00 0.00 0.00 0.00 0.00 0.00 0.00 0.00 0.00 0.00 0.00 0.69 0.00 0.00 0.00 0.00 0.00 0.63 0.00 0.00 0.00 0.74 0.00 0.00 0.00 0.00 0.00 0.00 0.75 0.00 0.00 0.00 0.62 0.57 0.00 0.00 0.00 0.00 0.00 0.77 0.71 0.00 0.75 0.00 0.00 0.00 0.66 0.00 0.00 0.96 1.00 0.77 0.00 0.00 0.87 0.00 0.00 0.66 0.00 0.00 0.00 0.00 0.00 0.53 0.00 0.00 0.00 0.00 0.55 0.00 0.00 0.00 0.00 0.00 0.00 0.00 0.00 0.00 0.00 0.82 0.00 0.00 0.00 0.00 0.00 0.00 0.00 0.00 0.00 0.00 0.00 0.53 0.99 0.00 0.00 0.79 0.60 0.00 0.00
0.94 0.00 0.00 0.00 0.00 0.00 0.00 0.00 0.00 0.00 0.57 0.00 0.70 0.96 0.97 0.00 0.00 0.00 0.00 0.91 0.00 0.00 0.00 0.00 0.00 0.00 0.00 0.00 0.74 0.62 0.00 0.65 0.00 0.00 0.00 0.00 0.84 0.73 0.84 0.00 0.00 0.56 0.52 0.00 0.00 0.00 0.76 0.00 0.00 0.00 0.00 0.00 0.00 0.00 0.00 0.00 0.00 0.00 0.00 0.00 0.00 0.00 0.00 0.00 0.00 0.00 0.00 0.00 0.84 0.00 0.00 0.69 0.00 0.59 0.00 0.00 0.00 0.60 0.53 0.00 0.00 0.91 0.00 0.00 0.00 0.00 0.00 0.00 0.00 0.00 0.79 0.00 0.00 0.00 0.00 0.00 0.00 0.00 0.00 0.00 0.00 0.00 0.52 0.00 0.72 0.00 0.00 0.00 0.00 0.00 0.00 0.00 0.00 0.00 0.00 0.00 0.00 0.00 0.75 0.00 0.00 0.00 0.00 0.54 0.00 0.00 0.00 0.90 0.00 0.00 0.00 0.90 0.00 0.00 0.00 0.00 0.00 0.00 0.00 0.00
0.00 0.00 0.78 0.00 0.00 0.94 0.00 0.00 0.00 0.00 0.00 0.00 0.71 0.71 0.00 0.00 0.00 0.00 0.00 0.00 0.00 0.00 0.00 0.00 0.52 0.00 0.00 0.00 0.00 0.97 0.00 0.97 0.00 0.96 0.00 0.00 0.00 0.97 0.00 0.73 0.00 0.81 0.00 0.00 0.61 0.00 0.00 0.00 0.73 0.00 0.00 0.63 0.00 0.78 0.00 0.92 0.00 0.00 0.00 0.00 0.00 0.95 0.00 0.85 0.00 0.00 0.00 0.00 0.00 0.00 0.00 0.00 0.00 0.00 0.00 0.72 0.00 0.00 0.00 0.00 0.79 0.00 0.82 0.00 0.00 0.62 0.60 0.00 0.00 0.54 0.00 0.55 0.00 0.00 0.00 0.79 0.00 0.00 0.00 0.00 0.00 0.00 0.00 0.00 0.00 0.00 0.00 0.00 0.00 0.00 0.00 0.00 0.00 0.00 0.00 0.00 0.00 0.00 0.00 0.00 0.00 0.00 0.00 0.00 0.77 0.63 0.00 0.85 0.00 0.00 0.56 0.00 0.00 0.00 0.00 0.96 0.00 0.55 0.00 0.00
0.97 0.00 0.71 0.00 0.00 0.63 0.00 0.61 0.00 0.00 0.00 0.00 0.00 0.00 0.00 0.69 0.94 0.65 0.71 0.00 0.00 0.00 0.00 0.00 0.00 0.00 0.00 0.00 0.00 0.00 0.00 0.00 0.00 0.00 0.00 0.00 0.79 0.00 0.00 0.00 0.00 0.00 0.70 0.00 0.00 0.98 0.00 0.00 0.00 0.00 0.00 0.77 0.87 0.00 0.00 0.58 0.00 0.00 0.00 0.79 0.00 0.00 0.52 0.00 0.70 0.00 0.00 0.00 0.00 0.00 0.66 0.00 0.00 0.00 0.00 0.00 0.00 0.00 0.00 0.53 0.00 0.00 0.00 0.00 0.00 0.00 0.00 0.00 0.00 0.00 0.51 0.00 0.65 0.00 0.00 0.65 0.00 0.00 0.62 0.00 0.69 0.00 0.00 0.00 0.67 0.00 0.62 0.83 0.00 1.00 0.00 0.00 0.00 0.00 0.00 0.00 0.50 0.60 0.00 0.00 0.52 0.00 0.00 0.00 0.00 0.00 0.57 0.00 0.54 0.00 0.00 0.73 0.58 0.00 0.55 0.00 0.00 0.00 0.00 0.00
0.00 0.00 0.00 0.00 0.00 0.00 0.00 0.62 0.00 0.00 0.00 0.66 0.00 0.00 0.00 0.52 0.77 0.00 0.00 0.69 0.00 0.00 0.00 0.00 0.00 0.74 1.00 0.00 0.00 0.00 0.00 0.00 0.98 0.00 0.00 0.00 0.91 0.00 0.00 0.55 0.00 0.00 0.94 0.56 0.00 0.00 0.00 0.81 0.00 0.58 0.00 0.00 0.00 0.00 0.00 0.60 0.00 0.73 0.77 0.00 0.00 0.76 0.00 0.00 0.00 0.76 0.00 0.00 0.00 0.00 0.00 0.00 0.00 0.00 0.00 0.00 0.00 0.00 0.00 0.00 0.00 0.00 0.00 0.00 0.00 0.00 0.94 0.00 0.00 0.99 0.00 0.00 0.00 0.00 0.86 0.00 0.00 0.63 0.00 0.00 0.00 0.00 0.00 0.00 0.57 0.00 0.65 0.00 0.00 0.85 0.96 0.82 0.00 0.00 0.50 0.00 0.95 0.68 0.00 0.00 0.00 0.85 0.00 0.00 0.00 0.00 0.00 0.00 0.00 0.00 0.00 0.00 0.00 0.88 0.00 0.00 0.00 0.00 0.93 0.00
0.00 0.00 0.83 0.67 0.00 0.88 0.00 0.00 0.00 0.00 0.00 0.00 0.00 0.00 0.84 0.00 0.00 0.51 0.00 0.00 0.00 0.98 0.00 0.00 0.00 0.89 0.00 0.00 0.00 0.00 0.79 0.91 0.86 0.00 0.00 0.00 0.98 0.00 0.72 0.79 0.00 0.00 0.84 0.91 0.00 0.00 0.00 0.00 0.00 0.00 0.00 0.73 0.87 0.00 0.00 0.00 0.00 0.00 0.83 0.00 0.00 0.00 0.55 0.78 0.00 0.00 0.00 0.00 0.00 0.00 0.00 0.00 0.74 0.00 0.00 0.97 0.00 0.80 0.75 0.00 0.00 0.61 0.99 0.00 0.00 0.00 0.00 0.66 0.00 0.00 0.00 0.00 0.85 0.00 0.00 0.00 0.00 0.00 0.00 0.00 0.00 0.00 0.88 0.92 0.64 0.00 0.00 0.62 0.00 0.53 0.65 0.00 0.00 0.00 0.00 0.00 0.94 0.00 0.00 0.00 0.00 0.00 0.00 0.00 0.00 0.68 0.00 0.00 0.53 0.00 0.00 0.57 0.00 0.00 0.00 0.57 0.00 0.00 0.00 0.00
0.00 0.00 0.00 0.56 0.00 0.00 0.00 0.00 0.93 0.75 0.00 0.00 0.65 0.00 0.00 0.00 0.72 0.55 0.00 0.00 0.00 0.00 0.00 0.00 0.00 0.92 0.00 0.00 0.89 0.00 0.00 0.00 0.00 0.00 0.71 0.51 0.00 0.00 0.00 0.00 0.00 0.00 0.00 0.00 0.00 0.00 0.00 0.00 0.66 0.00 0.00 0.52 0.00 0.00 0.00 0.79 0.84 0.00 0.00 0.00 0.89 0.78 0.00 0.00 0.00 0.00 0.00 0.00 0.00 0.90 0.00 0.00 0.00 0.00 0.00 0.90 0.00 0.00 0.00 0.00 0.96 0.00 0.00 0.00 0.00 0.00 0.00 0.00 0.84 0.77 0.70 0.00 0.65 0.00 0.00 0.00 0.78 0.00 0.00 0.98 0.00 0.00 0.58 0.00 0.00 0.89 0.00 0.00 0.85 0.00 0.00 0.00 0.00 0.57 0.75 0.00 0.51 0.75 0.77 0.95 0.00 0.00 0.00 0.00 0.00 0.00 0.00 0.00 0.00 0.00 0.68 0.79 0.00 0.77 0.00 0.86 0.00 0.75 0.00 0.00
0.00 0.91 0.00 0.00 0.00 0.00 0.00 0.00 0.60 0.98 0.00 0.00 0.00 0.00 0.93 0.00 0.00 0.79 0.00 0.00 0.00 0.53 0.00 0.00 0.00 0.00 0.00 0.00 0.00 0.00 0.91 0.00 0.56 0.00 0.51 0.00 0.00 0.00 0.00 0.98 0.00 0.00 0.00 0.93 0.00 0.70 0.00 0.00 0.00 0.78 0.00 0.00 0.68 0.00 0.00 0.00 0.00 0.94 0.51 0.00 0.87 0.00 0.00 0.00 0.00 0.53 0.00 0.57 0.00 0.00 0.00 0.63 0.00 0.00 0.89 0.00 0.00 0.00 0.72 0.00 0.77 0.00 0.00 0.00 0.00 0.00 0.00 0.00 0.95 0.00 0.87 0.70 0.00 0.00 0.00 0.90 0.00 0.00 0.00 0.52 0.00 0.00 0.60 0.77 0.00 0.00 0.61 0.80 0.00 0.55 0.00 0.00 0.79 0.00 0.00 0.00 0.00 0.00 0.54 0.91 0.00 0.54 0.00 0.00 0.00 0.92 0.00 0.00 0.00 0.00 0.00 0.74 0.00 0.00 0.00 0.72 0.00 0.00 0.00 0.00
0.00 0.62 0.00 0.73 0.00 0.00 0.00 0.67 0.59 0.81 0.00 0.00 0.00 0.00 0.00 0.00 0.00 0.67 0.00 0.00 0.00 0.00 0.00 0.00 0.00 0.00 0.00 0.00 0.00 0.50 0.00 0.00 0.76 0.00 0.00 0.00 0.00 0.00 0.00 0.00 0.00 0.00 0.68 0.00 0.00 0.00 0.00 0.00 0.00 0.00 0.60 0.00 0.00 0.00 0.92 0.88 0.00 0.00 0.62 0.00 0.00 0.00 0.94 0.00 0.00 0.00 0.00 0.62 0.00 0.00 0.90 0.90 0.00 0.89 0.00 0.00 0.00 0.00 0.00 0.00 0.00 0.00 0.00 0.65 0.00 0.00 0.00 0.68 0.91 0.00 0.63 0.00 0.56 0.75 0.00 0.00 0.00 0.00 0.00 0.00 0.00 0.00 0.53 0.00 0.91 0.00 0.74 0.00 0.00 0.86 0.00 0.58 0.00 0.00 0.00 0.61 0.00 0.00 0.00 0.00 0.00 0.77 0.93 0.56 0.00 0.00 0.00 0.00 0.00 0.00 0.00 0.82 0.00 0.00 0.57 0.00 0.00 0.00 0.00 0.00
0.62 0.00 0.00 0.00 0.85 0.00 0.98 0.00 0.00 0.00 0.92 0.00 0.59 0.00 0.00 0.00 0.00 0.00 0.00 0.00 0.00 0.00 0.00 0.00 0.00 0.00 0.00 0.00 0.00 0.00 0.00 0.00 0.00 0.76 0.00 0.00 0.00 0.54 1.00 0.00 0.00 0.00 0.99 0.96 0.00 0.79 0.75 0.00 0.00 0.00 0.00 0.83 0.00 0.00 0.66 0.99 0.00 0.00 0.00 0.00 0.00 0.00 0.81 0.00 0.00 0.00 0.70 0.00 0.00 0.95 0.00 0.00 0.00 0.00 0.67 0.00 0.00 0.82 0.00 0.00 0.70 0.00 0.60 0.88 0.00 0.00 0.78 0.00 0.00 0.00 0.00 0.00 0.00 0.00 0.72 0.00 0.00 0.00 0.80 0.00 0.00 0.68 0.00 0.52 0.00 0.00 0.00 0.00 0.67 0.00 0.00 0.00 0.00 0.00 0.63 0.00 0.99 0.00 0.80 0.00 0.00 0.00 0.00 0.00 0.00 0.00 0.00 0.00 0.66 0.91 0.00 0.00 0.00 0.00 0.70 0.00 0.74 0.00 0.00 0.00
0.00 0.00 0.80 0.00 0.00 0.00 0.00 0.00 0.00 0.00 0.00 0.58 0.00 0.00 0.67 0.00 0.00 0.71 0.00 0.95 0.94 0.00 0.00 0.00 0.76 0.94 0.00 0.51 0.00 0.00 0.00 0.00 0.00 0.94 0.00 0.00 0.92 0.00 0.00 0.00 0.00 0.00 0.00 0.00 0.00 0.56 0.00 0.00 0.00 0.00 0.00 0.60 0.65 0.77 0.00 0.00 0.80 0.80 0.00 0.00 0.00 0.00 0.54 0.00 0.00 0.00 0.55 0.00 0.00 0.61 0.00 0.00 0.00 0.00 0.00 0.00 0.00 0.84 0.00 0.00 0.00 0.88 0.98 0.00 0.00 0.00 0.00 0.00 0.00 0.00 0.00 0.00 0.65 0.53 0.00 0.90 0.85 0.00 0.00 0.00 0.55 0.52 0.00 0.00 0.92 0.00 0.00 0.00 0.00 0.64 0.00 0.74 0.00 0.81 0.00 0.00 0.00 0.00 0.00 0.00 0.92 0.00 0.00 0.00 0.00 0.00 0.00 0.50 0.00 0.00 0.00 0.71 0.69 0.57 0.91 0.00 0.00 0.00 0.57 0.90
0.00 0.93 0.00 0.70 0.00 0.00 0.00 0.00 0.00 0.00 0.00 0.00 0.00 0.55 0.57 0.62 0.00 0.00 0.62 0.99 0.00 0.00 0.00 0.00 0.00 0.00 0.00 0.00 0.00 0.00 0.00 0.00 0.82 0.82 0.90 0.00 0.00 0.54 0.00 0.00 0.00 0.00 0.00 0.00 0.98 0.00 0.00 0.00 0.00 0.00 0.00 0.00 0.79 0.00 0.00 0.00 0.68 0.00 0.00 0.00 0.00 0.84 0.00 0.00 0.69 0.00 0.75 0.68 0.56 0.00 0.83 0.00 0.00 0.00 0.00 0.00 0.00 0.00 0.86 0.00 0.91 0.00 0.97 0.00 0.00 0.89 0.00 0.00 1.00 0.00 0.00 0.00 0.51 0.00 0.00 0.00 0.99 0.00 0.76 0.00 0.58 0.00 0.00 0.00 0.00 0.00 0.00 0.83 0.00 0.00 0.00 0.00 0.00 0.00 0.00 0.78 0.68 0.00 0.99 0.00 0.00 0.00 0.00 0.95 0.93 0.00 0.75 0.00 0.00 0.00 0.00 0.00 0.00 0.00 0.70 0.54 0.93 0.00 0.53 0.00
0.00 0.56 0.79 0.00 0.73 0.00 0.00 0.00 0.00 0.00 0.60 0.00 0.61 0.75 0.00 0.00 0.00 0.94 0.00 0.72 0.80 0.00 0.56 0.60 0.00 0.87 0.85 0.89 0.00 0.00 0.00 0.75 0.00 0.00 0.00 0.54 0.00 0.00 0.00 0.00 0.00 0.71 0.00 0.00 0.00 0.00 0.00 0.00 0.68 0.00 0.00 0.00 0.00 0.00 0.00 0.00 0.00 0.00 0.00 1.00 0.00 0.00 0.00 0.00 0.92 0.00 0.00 0.00 0.00 0.95 0.00 0.00 0.00 0.00 0.68 0.00 0.00 0.00 0.00 0.52 0.00 0.51 0.00 0.00 0.00 0.00 0.00 0.60 0.00 0.64 0.81 0.00 0.52 0.00 0.99 0.96 0.00 0.00 0.00 0.00 0.00 0.00 0.00 0.00 0.00 0.76 0.00 0.00 0.00 0.74 0.00 0.68 0.00 0.00 0.00 0.00 0.00 0.00 0.00 0.00 0.00 0.00 0.00 0.00 0.88 0.00 0.00 0.00 0.00 0.00 0.00 0.91 0.00 0.00 0.00 0.00 0.00 0.00 0.00 0.00
0.00 0.00 0.00 0.00 0.00 0.00 0.00 0.00 0.00 0.00 0.51 0.00 0.83 0.00 0.00 0.62 0.56 0.00 0.00 0.85 0.00 0.57 0.00 0.51 0.00 0.00 0.00 0.70 0.00 0.00 0.00 0.78 0.00 0.00 0.92 0.00 0.93 0.00 0.00 0.00 0.84 0.00 0.00 0.00 0.00 0.00 0.52 0.00 0.00 0.00 0.00 0.00 0.00 0.00 0.00 0.00 0.00 0.00 0.00 0.00 0.89 0.80 0.00 0.00 0.00 0.00 0.72 0.74 0.88 0.00 0.66 0.00 0.00 0.56 0.00 0.00 0.00 0.00 0.00 0.00 0.65 0.00 0.00 0.00 0.87 0.00 0.00 0.79 0.00 0.00 0.62 0.00 0.00 0.00 0.55 0.00 0.00 0.93 0.00 0.88 0.00 0.00 0.90 0.56 0.65 0.00 0.00 0.54 0.56 0.87 0.00 0.00 0.00 0.00 0.00 0.88 0.00 0.00 0.00 0.00 0.00 0.00 0.00 0.00 0.00 0.57 0.00 0.00 0.00 0.61 0.87 0.68 0.00 0.89 0.00 0.00 0.00 0.00 0.00 0.99
0.54 0.00 0.00 0.72 0.00 0.00 0.00 0.00 0.00 0.00 0.81 0.00 0.00 0.00 0.00 0.00 0.71 0.00 0.66 0.00 0.00 0.00 0.00 0.57 0.00 0.00 0.00 0.00 0.62 0.00 0.71 0.00 0.00 0.00 0.00 0.00 0.86 0.00 0.00 0.00 0.00 0.00 0.57 0.00 0.98 0.00 0.85 0.00 0.00 0.00 0.00 0.00 0.00 0.00 0.00 0.98 0.00 0.00 0.00 0.00 0.00 0.00 0.00 0.70 0.00 0.00 0.00 0.00 0.00 0.00 0.00 0.77 0.00 0.00 0.00 0.70 0.00 0.00 0.00 0.00 0.00 0.00 0.00 0.00 0.00 0.93 0.00 0.52 0.00 0.00 0.65 0.00 0.00 0.91 0.97 0.00 0.00 0.00 0.00 0.00 0.91 0.00 0.00 0.00 0.84 0.00 0.00 0.00 0.00 0.00 0.00 0.71 0.00 0.00 0.00 0.00 0.75 0.67 0.00 0.69 0.68 0.00 0.00 0.00 0.00 0.00 0.00 0.84 0.00 0.00 0.00 0.00 0.00 0.51 0.79 0.62 0.00 0.00 0.00 0.64
0.00 0.56 0.00 0.91 0.00 0.00 0.00 0.00 0.00 0.00 0.71 0.00 0.70 0.00 0.00 0.00 0.00 0.00 0.00 0.00 0.00 0.00 0.00 0.00 0.71 0.00 0.00 0.00 0.68 0.00 0.00 0.00 0.00 0.00 0.57 0.00 0.00 0.00 0.00 0.00 1.00 0.00 0.82 0.55 0.00 0.00 0.00 0.00 0.68 0.00 0.00 0.00 0.00 0.82 0.00 0.00 0.00 0.00 0.00 0.00 0.00 0.00 0.00 0.00 0.00 0.00 0.00 0.00 0.00 0.76 0.00 0.00 0.00 0.00 0.64 0.72 0.00 0.00 0.53 0.00 0.67 0.00 0.00 0.00 0.00 0.00 0.00 0.00 0.69 0.00 0.00 0.65 0.75 0.00 0.80 0.99 0.00 0.00 0.00 0.72 0.00 0.00 0.00 0.96 0.00 0.00 0.00 0.51 0.58 0.00 0.82 0.00 0.00 0.94 0.00 0.00 0.00 0.00 0.00 0.53 0.00 0.00 0.61 0.00 0.00 0.00 0.00 0.65 0.00 0.00 0.72 0.00 0.00 0.00 0.00 0.00 0.00 0.00 0.00 0.00
0.00 0.00 0.00 0.00 0.00 0.00 0.74 0.89 0.00 0.00 0.00 0.97 0.00 0.00 0.95 0.00 0.00 0.66 0.00 0.00 0.63 0.00 0.00 0.00 0.00 0.00 0.83 0.67 0.75 0.00 0.00 0.00 0.00 0.85 0.69 0.00 0.00 0.00 0.00 0.00 0.00 0.00 0.00 0.00 0.00 0.00 0.00 0.58 0.00 0.00 0.00 0.00 0.59 0.77 0.00 0.00 0.00 0.00 0.00 0.00 0.00 0.00 0.00 0.00 0.96 0.00 0.00 0.00 0.00 0.00 0.82 0.00 0.00 0.00 0.00 0.00 0.00 0.72 0.00 0.94 0.00 0.00 0.56 0.00 0.00 0.00 0.00 0.00 0.00 0.51 0.00 0.00 0.58 0.00 0.00 0.00 0.00 0.86 0.66 0.00 0.00 0.00 0.69 0.00 0.00 0.00 0.00 0.58 0.00 0.00 0.94 0.00 0.00 0.52 0.71 0.57 0.00 0.95 0.72 0.00 0.00 0.72 0.51 0.00 0.00 0.00 0.00 0.58 0.00 0.54 0.00 0.67 0.00 0.00 0.00 0.00 0.00 0.00 0.00 0.00
0.00 0.00 0.00 0.00 0.00 0.58 0.00 0.00 0.75 0.91 0.00 0.00 0.00 0.00 0.58 0.00 0.00 0.86 0.00 0.00 0.00 0.00 0.64 0.76 0.79 0.00 0.00 0.00 0.00 0.98 0.00 0.60 0.00 0.00 0.00 0.00 0.00 0.00 0.00 0.00 0.00 0.56 0.00 0.69 0.00 0.00 0.00 0.60 0.62 0.00 0.00 0.00 0.00 0.00 0.00 0.96 0.00 0.00 0.00 0.00 0.00 0.00 0.82 0.00 0.67 0.00 0.00 0.00 0.93 0.60 0.00 0.00 0.00 0.60 0.53 0.00 0.00 0.00 0.00 0.77 0.00 0.86 0.00 0.00 0.00 0.00 0.00 0.00 0.00 0.00 0.94 0.00 0.92 0.00 0.96 0.76 0.00 0.00 0.00 0.00 0.00 0.67 0.00 0.00 0.00 0.62 0.00 0.00 0.00 0.00 0.00 0.00 0.00 0.00 0.00 0.88 0.00 0.72 0.72 0.00 0.00 0.90 0.00 0.69 0.00 0.00 0.00 0.00 0.00 0.00 0.00 0.00 0.75 0.00 0.00 0.66 0.97 0.00 0.00 0.00
0.00 0.00 0.00 0.00 0.00 0.00 0.00 0.00 0.00 0.00 0.94 0.00 0.00 0.59 0.51 0.00 0.70 0.00 0.00 0.00 0.00 0.00 0.00 0.00 0.00 0.00 0.00 0.00 0.00 0.92 0.00 0.00 0.00 0.81 0.85 0.00 0.82 0.98 0.00 0.00 0.00 0.00 0.00 0.00 0.00 0.00 0.71 0.78 0.00 0.00 0.50 0.00 0.00 0.00 0.00 0.00 0.00 0.00 0.00 0.00 0.80 0.00 0.00 0.68 0.00 0.79 0.00 0.00 0.68 0.57 0.75 0.60 0.00 0.00 0.00 0.00 0.00 0.78 0.00 0.00 0.00 0.00 0.00 0.00 0.82 0.00 0.00 0.00 0.00 0.00 0.00 0.00 0.00 0.00 0.00 0.00 0.00 0.00 0.00 0.00 0.64 0.00 0.00 0.00 0.00 0.66 0.00 0.00 0.00 0.00 0.00 0.00 0.00 0.00 0.00 0.00 0.00 0.00 0.00 0.00 0.86 0.00 0.00 0.00 0.00 0.93 0.00 0.64 0.00 0.00 0.70 0.66 0.00 0.00 0.00 0.00 0.00 0.55 0.00 0.00
0.00 0.00 0.00 0.00 0.00 0.53 0.57 0.00 0.89 0.00 0.00 0.00 0.00 0.00 0.76 0.00 0.00 0.00 0.00 0.00 0.67 0.00 1.00 0.00 0.00 0.00 0.00 0.00 0.97 0.00 0.00 0.00 0.00 0.00 0.86 0.00 0.00 0.00 0.96 0.00 0.99 0.00 0.00 0.77 0.00 0.00 0.92 0.63 0.00 0.00 0.00 0.00 0.00 0.00 0.00 0.00 0.00 0.00 0.00 0.00 0.91 0.59 0.00 0.00 0.00 0.00 0.00 0.88 0.00 0.00 0.00 0.00 0.00 0.00 0.00 0.00 0.00 0.80 0.00 0.90 0.00 0.55 0.00 0.00 0.00 0.00 0.84 0.00 0.61 0.00 0.00 0.00 0.00 0.99 0.00 0.62 0.00 0.52 0.00 0.00 0.52 0.00 0.00 0.00 0.00 0.00 0.00 0.85 0.51 0.00 0.65 0.94 0.00 0.00 0.87 0.00 0.00 0.96 0.71 0.00 0.00 0.00 0.00 0.00 0.00 0.00 0.00 0.00 0.00 0.00 0.00 0.00 0.00 0.00 0.00 0.58 0.92 0.00 0.00 0.80
0.00 0.00 0.00 0.00 0.00 0.00 0.67 0.00 0.66 0.00 0.00 0.00 0.00 0.61 0.00 0.00 0.00 0.00 0.00 0.00 0.00 0.00 0.75 0.00 0.00 0.00 0.00 0.00 0.00 0.00 0.00 0.00 0.00 0.00 0.59 0.00 0.00 0.00 0.97 0.73 0.00 0.00 0.00 0.00 0.93 0.00 0.82 0.86 0.00 0.79 0.00 0.00 0.00 0.00 0.74 0.52 0.61 0.00 0.00 0.00 0.00 0.00 0.00 0.00 0.00 0.59 0.00 0.00 0.00 0.00 0.53 0.00 0.00 0.00 0.00 0.81 0.00 0.00 0.00 0.00 0.00 0.00 0.00 0.89 0.00 0.63 0.00 0.00 0.00 0.00 0.00 0.00 0.69 0.70 0.00 0.92 0.00 0.00 0.00 0.00 0.00 0.00 0.00 0.66 0.64 0.00 0.00 0.76 0.78 0.00 0.00 0.00 0.00 0.00 0.86 0.00 0.00 0.00 0.00 0.00 0.53 0.00 0.00 0.68 0.00 0.00 0.00 0.00 0.61 0.00 0.84 0.00 0.00 0.67 0.95 0.00 0.00 0.57 0.00 0.00
0.00 0.00 0.00 0.00 0.00 0.95 0.00 0.00 0.00 0.97 0.00 0.00 0.00 0.00 0.77 0.87 0.96 0.00 0.00 0.00 0.91 0.00 0.00 0.93 0.00 0.67 0.00 0.00 0.00 0.55 0.00 0.00 0.98 0.00 0.00 0.00 0.74 0.00 0.88 0.00 0.00 0.00 0.00 0.00 0.96 0.57 0.84 0.00 0.00 0.00 0.00 0.00 0.00 0.00 0.75 0.00 0.00 0.00 0.00 0.00 0.00 0.00 0.00 0.00 0.00 0.00 0.00 0.00 0.00 0.00 0.00 0.00 0.00 0.00 0.00 0.00 0.00 0.00 0.00 0.00 0.00 0.00 0.00 0.00 0.00 0.00 0.73 0.00 0.00 0.00 0.93 0.00 0.00 0.00 0.56 0.00 0.00 0.00 0.00 0.00 0.00 0.00 0.00 0.89 0.00 0.00 0.00 0.57 0.00 0.00 0.00 0.00 0.00 1.00 0.96 0.83 0.00 0.00 0.00 0.90 0.00 0.00 0.00 0.69 0.00 0.75 0.00 0.00 0.60 0.00 0.86 0.96 0.00 0.00 0.90 0.00 0.00 0.00 0.61 0.72
0.00 0.00 0.54 0.00 0.00 0.00 0.00 1.00 0.00 0.00 0.00 0.92 0.00 0.00 0.92 0.51 0.00 0.91 0.79 0.00 0.82 0.00 0.82 0.00 0.00 0.72 0.00 0.00 0.00 0.00 0.00 0.57 0.00 0.71 0.00 0.00 0.00 0.00 0.74 0.93 0.00 0.00 0.55 0.00 0.00 0.66 0.85 0.00 0.00 0.00 0.00 0.00 0.00 0.67 0.00 0.00 0.00 0.00 0.00 0.00 0.00 0.00 0.00 0.00 0.00 0.00 0.00 0.00 0.00 0.00 0.96 0.00 0.82 0.00 0.00 0.00 0.00 0.60 0.00 0.92 0.00 0.00 0.00 0.54 0.00 0.76 0.00 0.00 0.00 0.00 0.00 0.00 0.00 0.00 0.00 0.00 0.00 0.00 0.00 0.00 0.00 0.00 0.00 0.00 0.79 0.52 0.00 0.00 0.00 0.00 0.00 0.00 0.00 0.00 0.00 0.00 0.00 0.00 0.00 0.00 0.00 0.00 0.87 0.00 0.92 0.00 0.00 0.00 0.00 0.00 0.00 0.00 0.00 0.00 0.70 0.95 0.00 0.00 0.00 0.78
0.00 0.00 0.00 0.00 0.00 0.66 0.79 0.00 0.97 0.00 0.00 0.00 0.00 0.00 0.72 0.00 0.89 0.64 0.00 0.00 0.00 0.00 0.00 0.00 0.00 0.78 0.00 0.00 0.00 0.81 0.00 0.65 0.00 0.00 0.00 0.56 0.00 0.00 0.00 0.00 0.92 0.00 0.68 0.00 0.00 0.53 0.00 0.00 0.66 0.00 0.00 0.00 0.93 0.00 0.00 0.00 0.74 0.00 0.00 0.59 0.00 0.86 0.00 0.00 0.58 0.00 0.54 0.00 0.00 0.00 0.80 0.00 0.66 0.00 0.90 0.00 0.74 0.00 0.00 0.80 0.00 0.00 0.96 0.71 0.00 0.00 0.00 0.54 0.00 0.00 0.00 0.00 0.80 0.76 0.81 0.00 0.00 0.00 0.00 0.98 0.00 0.00 0.83 0.00 0.00 0.00 0.00 0.00 0.80 0.00 0.00 0.00 0.65 0.62 0.00 0.00 0.00 0.00 0.00 0.98 0.00 0.95 0.00 0.66 0.00 0.00 0.65 0.00 0.00 0.00 0.00 0.00 0.94 0.00 0.00 0.00 0.00 0.00 0.54 0.00
0.00 0.00 0.00 0.00 0.53 0.00 0.00 0.87 0.90 0.00 0.71 0.00 0.00 0.83 0.00 0.00 0.71 0.56 0.00 0.00 0.00 0.00 0.00 0.00 0.00 0.51 0.00 0.00 0.00 0.00 0.00 0.00 0.00 0.00 0.00 0.00 0.00 0.00 0.00 0.00 0.00 0.60 0.00 0.56 0.00 0.00 0.80 0.00 0.00 0.00 0.00 0.89 0.00 0.00 0.00 0.00 0.00 0.00 0.00 0.00 0.00 0.00 0.99 0.87 0.00 0.00 0.63 0.00 0.00 0.96 0.00 0.00 0.76 0.00 0.00 0.00 0.00 0.00 0.00 0.00 0.00 0.53 0.00 0.00 0.00 0.00 0.00 0.00 0.72 0.00 0.53 0.00 0.00 0.00 0.00 0.59 0.00 0.00 0.00 0.00 0.74 0.00 0.00 0.58 0.00 1.00 0.00 0.00 0.00 0.00 0.86 0.00 0.00 0.00 0.67 0.00 0.00 0.00 0.81 0.00 0.00 0.00 0.00 0.00 0.00 0.91 0.00 0.00 0.00 0.00 0.00 0.68 0.00 0.00 0.50 0.00 0.00 0.00 0.00 0.00
0.00 0.00 0.69 0.77 0.00 0.00 0.00 0.00 0.00 0.00 0.00 0.50 0.00 0.00 0.64 0.53 0.00 0.72 0.94 0.00 0.88 0.95 0.81 0.00 0.00 0.85 0.00 0.00 0.00 0.00 0.69 0.00 0.00 0.00 0.00 0.00 0.53 0.00 0.00 0.69 0.00 0.00 0.00 0.00 0.00 0.82 0.00 0.00 0.00 0.00 0.00 0.00 0.00 0.00 0.00 0.00 0.00 0.61 0.00 0.00 0.86 0.00 0.00 0.00 0.00 0.00 0.00 0.00 0.00 0.00 0.00 0.00 0.00 0.00 0.52 0.00 0.66 0.00 0.00 0.00 0.00 0.00 0.00 0.00 0.00 0.89 0.00 0.83 0.00 0.00 0.00 0.78 0.00 0.00 0.79 0.00 0.97 0.00 0.00 0.00 0.00 0.00 0.00 0.00 0.86 0.92 0.00 0.00 0.00 0.00 0.94 0.00 0.00 0.00 0.74 0.00 0.00 0.00 0.00 0.00 0.00 0.69 0.00 0.00 0.00 0.59 0.76 0.00 0.80 0.95 0.50 0.00 0.00 0.00 0.66 0.00 0.00 0.00 0.00 0.99
0.00 0.00 0.79 0.00 0.00 0.88 0.00 0.00 0.00 0.00 0.00 0.00 0.72 0.00 0.00 0.00 0.00 0.70 0.00 0.00 0.00 0.00 0.00 0.00 0.00 0.55 0.00 0.86 0.00 0.78 0.00 0.00 0.00 0.00 0.00 0.58 0.00 0.00 0.00 0.00 0.81 0.00 0.00 0.00 0.00 0.00 0.00 0.00 0.00 0.00 0.58 0.00 0.00 0.00 0.00 0.00 0.00 0.00 0.00 0.00 0.57 0.00 0.00 0.74 0.00 0.00 0.00 0.00 0.79 0.83 0.00 0.00 0.00 0.00 0.00 0.58 0.00 0.00 0.00 0.00 0.99 0.00 0.92 0.80 0.94 0.00 0.00 0.00 0.64 0.00 0.00 0.00 0.00 0.00 0.68 0.00 0.00 0.00 0.00 0.00 0.00 0.00 0.76 0.00 0.00 0.92 0.00 0.90 0.00 0.00 0.00 0.00 0.00 0.00 0.81 0.61 0.00 0.00 0.00 0.00 0.58 0.00 0.00 0.00 0.00 0.00 0.00 0.00 0.00 0.00 0.82 0.00 0.00 0.73 0.00 0.00 0.00 0.00 0.00 0.00
0.00 0.00 0.00 0.00 0.00 0.63 0.00 0.00 0.56 0.00 0.00 0.88 0.00 0.00 0.00 0.00 0.72 0.00 0.00 0.00 0.00 0.00 0.00 0.00 0.00 0.00 0.84 0.00 0.00 0.00 0.00 0.00 0.77 0.99 0.00 0.51 0.00 0.71 0.81 0.98 0.00 0.00 0.00 0.00 0.00 0.00 0.00 0.00 0.00 0.00 0.00 0.00 0.61 0.00 0.00 0.00 0.71 0.00 0.00 0.00 0.00 0.65 0.00 0.00 0.00 0.77 0.63 0.56 0.00 0.00 0.96 0.00 0.00 0.00 0.00 0.00 0.00 0.00 0.00 0.00 0.00 0.00 0.00 0.00 0.64 0.61 0.00 0.00 0.00 0.69 0.00 0.00 0.00 0.00 0.00 0.00 0.00 0.78 0.61 0.00 0.00 0.00 0.88 0.00 0.00 0.00 0.00 0.76 0.00 0.84 0.00 0.00 0.00 0.00 0.00 0.00 0.84 0.00 0.00 0.00 0.00 0.00 0.00 0.00 0.00 0.00 0.00 0.00 0.76 0.87 0.00 0.00 0.00 0.00 0.00 0.00 0.00 0.94 0.00 0.00
0.00 0.00 0.85 0.00 0.00 0.00 0.90 0.00 0.00 0.00 0.00 0.00 0.00 0.00 0.00 0.00 0.00 0.00 0.67 0.00 0.00 0.00 0.00 0.00 0.00 0.00 0.91 0.00 0.00 0.00 0.00 0.00 0.51 0.65 0.00 0.00 0.61 0.81 0.98 0.00 0.00 0.00 0.00 0.73 0.00 0.00 0.00 0.00 0.00 0.95 0.00 0.00 0.00 0.00 0.00 0.00 0.70 0.00 0.00 0.00 0.71 0.00 0.71 0.88 0.00 0.00 0.00 0.00 0.00 0.00 0.00 0.00 0.00 0.00 0.57 0.00 0.68 0.00 0.00 0.00 0.00 0.00 0.00 0.00 0.00 0.00 0.00 0.00 0.00 0.00 0.00 0.69 0.66 0.00 0.00 0.00 0.00 0.00 0.00 0.97 0.00 0.90 0.96 0.00 0.00 0.62 0.00 0.00 0.00 0.00 0.00 0.00 0.00 0.00 0.00 0.00 0.78 0.52 0.00 0.00 0.00 0.00 0.00 0.00 0.00 0.00 0.00 0.63 0.88 0.00 0.90 0.00 0.00 0.00 0.00 0.00 0.00 0.00 0.00 0.72
0.00 0.00 0.00 0.00 0.00 0.00 0.59 0.00 0.52 0.00 0.00 0.99 0.00 0.72 0.00 0.57 0.78 0.74 0.00 0.00 0.00 0.73 0.00 0.00 0.53 0.00 0.00 0.64 1.00 0.00 0.00 0.96 0.00 0.00 0.00 0.00 0.00 0.89 0.00 0.00 0.00 0.00 0.00 0.00 0.78 0.00 0.00 0.00 0.00 0.66 0.84 0.00 0.00 0.00 0.00 0.97 0.00 0.93 0.00 0.85 0.63 0.00 0.00 0.00 0.00 0.00 0.00 0.00 0.00 0.00 0.00 0.00 0.00 0.00 0.00 0.00 0.00 0.00 0.84 1.00 0.00 0.00 0.00 0.00 0.00 0.00 0.00 0.00 0.00 0.00 0.00 0.00 0.00 0.00 0.00 0.00 0.00 0.00 0.62 0.00 0.00 0.00 0.00 0.92 0.00 0.00 0.00 0.00 0.00 0.00 0.00 0.53 0.50 0.00 0.00 0.00 0.00 0.00 0.00 0.81 0.00 0.00 0.92 0.77 0.00 0.00 0.00 0.00 0.00 0.00 0.56 0.59 0.00 0.77 0.00 0.00 0.67 0.00 0.68 0.92
0.00 0.00 0.00 0.00 0.00 0.00 0.00 0.00 0.00 0.00 0.58 0.00 0.56 0.00 0.00 0.00 0.00 0.00 0.00 0.00 0.00 0.94 0.90 0.00 0.00 0.00 0.00 0.00 0.00 0.00 0.00 0.53 0.00 0.64 0.00 0.64 0.00 0.00 0.00 0.93 0.83 0.00 0.00 0.00 0.00 0.80 0.00 0.00 0.00 0.00 0.53 0.00 0.69 0.94 0.00 0.83 0.00 0.52 0.00 0.00 0.00 0.00 0.00 0.00 0.00 0.00 0.00 0.00 0.00 0.00 0.70 0.00 0.00 0.00 0.00 0.00 0.97 0.00 0.56 0.00 0.00 0.73 0.00 0.64 0.64 0.54 0.00 0.00 0.88 0.00 0.00 0.00 0.00 0.00 0.00 0.00 0.00 0.00 0.00 0.00 0.86 0.79 0.68 0.72 0.00 0.88 0.64 0.00 0.00 0.00 0.77 0.00 0.00 0.00 0.00 0.00 0.00 0.00 0.00 0.70 0.00 0.00 0.78 0.00 0.00 0.00 0.56 0.00 0.61 0.00 0.00 0.89 0.00 0.89 0.00 0.00 0.73 0.00 0.00 0.00
0.00 0.94 0.00 0.00 0.00 0.93 0.00 0.76 0.00 0.54 0.00 0.00 0.95 0.97 0.00 0.00 0.00 0.94 0.00 0.53 0.68 0.66 0.00 0.89 0.74 0.72 0.51 0.00 0.00 0.63 0.00 0.58 0.00 0.94 0.00 0.00 0.00 0.00 0.78 0.00 0.00 0.89 0.58 0.65 0.00 0.00 0.00 0.00 0.00 0.00 0.00 0.00 0.00 0.84 0.00 0.54 0.00 0.70 0.00 0.00 0.74 0.52 0.00 0.00 0.00 0.00 0.00 0.00 0.00 0.00 0.00 0.00 0.69 0.00 0.00 0.00 0.00 0.00 0.98 0.00 0.61 0.00 0.00 0.00 0.00 0.00 0.00 0.00 0.00 0.00 0.00 0.00 0.00 0.00 0.00 0.00 0.00 0.00 0.00 0.83 0.00 0.00 0.72 0.54 0.79 0.00 0.00 0.00 0.52 0.00 0.00 0.00 0.00 0.00 0.79 0.00 0.00 0.00 0.00 0.00 0.00 0.76 0.00 0.00 0.00 0.00 0.00 0.00 0.00 0.00 0.00 0.69 0.00 0.86 0.85 0.00 0.00 0.87 0.00 0.00
0.00 0.00 0.84 0.00 0.52 0.62 0.98 0.00 0.00 0.00 0.00 0.00 0.67 0.96 0.99 0.00 0.00 0.84 0.00 0.00 0.93 0.00 0.00 0.00 0.00 0.77 0.00 0.00 0.00 0.00 0.00 0.00 0.00 0.00 0.00 0.00 0.00 0.00 0.00 0.00 0.00 0.83 0.00 0.00 0.00 0.00 0.50 0.00 0.00 0.00 0.00 0.00 0.00 0.00 0.00 0.87 0.00 0.90 0.00 0.00 0.00 0.72 0.00 0.54 0.00 0.00 0.00 0.00 0.00 0.75 0.90 0.00 0.00 0.53 0.00 0.00 0.00 0.00 0.00 0.00 0.00 0.00 0.00 0.00 0.00 0.98 0.51 0.77 0.00 0.00 0.00 0.00 0.00 0.00 0.51 0.00 0.93 0.00 0.00 0.00 0.00 0.00 0.00 0.00 0.56 0.84 0.00 0.00 0.92 0.00 0.67 0.99 0.00 0.00 0.00 0.00 0.00 0.00 0.00 0.53 0.00 0.00 0.66 0.76 0.00 0.00 0.00 0.00 0.96 0.00 0.00 0.54 0.00 0.00 0.00 0.00 0.00 0.95 0.00 0.00
0.00 0.00 0.00 0.00 0.00 0.00 0.54 0.00 0.00 0.00 0.00 0.00 0.00 0.00 0.68 0.00 0.92 0.00 0.00 0.84 0.00 0.00 0.00 0.62 0.00 0.00 0.00 0.77 0.00 0.00 0.00 0.00 0.00 0.00 0.00 0.00 0.00 0.00 0.00 0.00 0.00 0.92 0.00 0.00 0.00 0.00 0.59 0.00 0.00 0.00 0.00 0.00 0.53 0.00 0.00 0.00 0.00 0.00 0.54 0.00 0.00 0.00 0.00 0.00 0.00 0.74 0.99 0.00 0.00 0.00 0.00 0.00 0.00 0.94 0.73 0.00 0.93 0.00 0.00 0.00 0.00 0.00 0.59 0.00 0.54 0.00 0.00 0.00 0.00 0.98 0.00 0.00 0.00 0.00 0.00 0.00 0.00 0.00 0.00 0.00 0.00 0.00 0.00 0.84 0.00 0.00 0.00 0.00 0.00 0.00 0.00 0.00 0.00 0.00 0.51 0.00 0.00 0.00 0.00 0.00 0.79 0.00 0.00 0.00 0.00 0.00 0.00 0.00 0.00 0.00 0.73 0.85 0.00 0.00 0.64 0.00 0.00 0.00 0.82 0.00
0.00 0.00 0.00 0.77 0.65 0.00 0.00 0.00 0.00 0.00 0.73 0.00 0.00 0.00 0.00 0.55 0.51 0.00 0.00 0.50 0.00 0.00 0.00 0.85 0.00 0.00 0.90 0.00 0.00 0.00 0.00 0.00 0.00 0.00 0.67 0.61 0.54 0.00 0.00 0.00 0.00 0.00 0.00 0.00 0.00 0.00 0.67 0.00 0.00 0.00 0.00 0.00 0.95 0.00 0.00 0.87 0.82 0.83 0.00 0.00 0.00 0.00 0.64 0.74 0.00 0.00 0.00 0.96 0.00 0.73 0.58 0.00 0.00 0.00 0.00 0.00 0.00 0.83 0.00 0.00 0.00 0.00 0.00 0.00 0.00 0.00 0.80 0.66 0.00 0.00 0.00 0.68 0.00 0.00 0.93 0.54 0.00 0.00 0.00 0.97 0.00 0.00 0.00 0.54 0.00 0.82 0.00 0.00 0.94 0.00 0.00 0.81 0.66 0.00 0.85 0.00 0.00 0.00 0.65 0.00 0.77 0.52 0.00 0.00 0.69 0.00 0.00 0.00 0.00 0.00 0.00 0.00 0.98 0.00 0.00 0.00 0.00 0.75 0.00 0.00
0.91 0.00 0.00 0.00 0.00 0.00 0.00 0.79 0.00 0.00 0.00 0.00 0.00 0.00 0.00 0.81 0.00 0.00 0.00 0.00 0.00 0.00 0.00 0.00 0.57 0.00 0.00 0.00 0.79 0.00 0.00 0.71 0.00 0.00 0.91 0.97 0.00 0.00 0.00 0.00 0.00 0.00 0.69 0.00 0.00 0.00 0.00 0.00 0.00 0.96 0.00 0.00 0.88 0.00 0.72 0.00 0.00 0.00 0.91 0.00 0.00 0.00 0.00 0.00 0.00 0.00 0.00 0.00 0.00 0.00 0.00 0.00 0.00 0.00 0.00 0.00 0.00 0.00 0.00 0.00 0.00 0.86 0.00 0.00 0.00 0.75 0.00 0.93 0.00 0.92 0.00 0.00 0.00 0.00 0.00 0.00 0.81 0.00 0.00 0.00 0.73 0.00 0.00 0.00 0.00 0.00 0.00 0.00 0.00 0.90 0.00 0.00 0.00 0.00 0.00 0.87 0.00 0.00 0.00 0.68 0.76 0.00 0.00 0.69 0.00 0.00 0.96 0.00 0.00 0.00 0.00 0.00 0.00 0.52 0.00 0.00 0.73 0.00 0.85 0.51
0.00 0.00 0.00 0.00 0.00 0.00 0.00 0.00 0.00 0.86 0.00 0.00 0.82 0.00 0.81 0.00 0.00 0.00 0.00 0.00 0.00 0.00 0.00 0.79 0.53 0.00 0.64 0.00 0.00 0.00 0.00 0.74 0.00 0.00 0.00 0.00 0.96 0.00 0.00 0.00 0.87 0.64 0.00 0.00 0.56 0.70 0.00 0.00 0.00 0.00 0.00 0.74 0.00 0.72 0.00 0.00 0.00 0.00 0.00 0.00 0.00 0.00 0.00 0.00 0.00 0.00 0.00 0.83 0.00 0.94 0.00 0.00 0.00 0.00 0.00 0.00 0.69 0.00 0.00 0.00 0.00 0.88 0.00 0.00 0.50 0.00 0.00 0.00 0.00 0.00 0.91 0.00 0.78 0.93 0.00 0.73 0.00 0.00 0.00 0.00 0.00 0.83 0.00 0.54 0.00 0.00 0.00 0.00 0.00 0.00 0.68 0.00 0.00 0.00 0.00 0.00 0.90 0.00 0.99 0.60 0.00 0.97 0.93 0.00 1.00 0.00 0.00 0.00 0.00 0.00 0.63 0.00 0.00 0.00 0.00 0.00 0.00 0.00 0.00 0.00
0.88 0.00 0.00 0.00 0.00 0.00 0.00 0.98 0.00 0.00 0.77 0.00 0.97 0.00 0.73 0.00 0.00 0.90 0.00 0.00 0.00 0.75 0.00 0.81 0.00 0.00 0.00 0.00 0.00 0.00 0.69 0.00 0.00 0.00 0.00 0.00 0.00 0.00 0.00 0.00 0.00 0.00 0.77 0.80 0.65 0.00 0.00 0.00 0.85 0.00 0.00 0.00 0.00 0.83 0.58 0.00 0.00 0.00 0.00 0.00 0.00 0.92 0.00 0.00 0.00 0.00 0.00 0.00 0.00 0.00 0.00 0.00 0.00 0.00 0.00 0.00 0.80 0.76 0.00 0.00 0.00 0.00 0.00 0.00 0.69 0.00 0.90 0.00 0.00 0.00 0.00 0.00 0.00 0.00 0.00 0.00 0.00 0.00 0.00 0.00 0.74 0.75 0.00 0.63 0.00 0.00 0.00 0.00 0.00 0.00 0.00 0.99 0.00 0.60 0.97 0.00 0.00 0.00 0.00 0.00 0.00 0.00 0.00 0.60 0.00 0.00 0.00 0.00 0.00 0.00 0.00 0.00 0.00 0.00 0.98 0.00 0.00 0.63 0.00 0.00
0.00 0.00 0.00 0.00 0.00 0.00 0.00 0.00 0.00 0.00 0.00 0.00 0.00 0.00 0.00 0.00 0.00 0.00 0.52 0.00 0.00 0.66 0.76 0.00 0.00 0.00 0.00 0.90 0.00 0.00 0.00 0.00 0.00 0.00 0.56 0.89 0.00 0.00 0.57 0.00 0.73 0.00 0.00 0.00 0.00 0.00 0.00 0.00 0.77 0.00 0.00 0.00 0.00 0.87 0.00 0.00 0.00 0.00 0.00 0.00 0.00 0.00 0.00 0.00 0.51 0.00 0.00 0.75 0.00 0.00 0.00 0.00 0.68 0.90 0.60 0.00 0.68 0.00 0.00 0.52 0.00 0.00 0.00 0.00 0.00 0.00 0.00 0.50 0.00 0.00 0.00 0.00 0.00 0.00 0.00 0.00 0.00 0.00 0.69 0.00 0.00 0.00 0.56 0.00 0.72 0.00 0.00 0.00 0.00 0.79 0.52 0.57 0.00 0.00 0.91 0.74 0.64 0.00 0.60 0.00 0.84 0.88 0.00 0.00 0.00 0.00 0.70 0.00 0.00 0.74 0.00 0.84 0.00 0.00 0.00 0.00 0.00 0.97 0.00 0.00
0.00 0.00 0.00 0.00 0.00 0.00 0.80 0.00 0.00 0.00 0.00 0.00 0.00 0.00 0.81 0.00 0.00 0.79 0.00 0.70 0.00 0.00 0.00 0.00 0.00 0.00 0.79 0.74 0.00 0.00 0.00 0.00 0.00 0.00 0.59 0.00 0.00 0.00 0.00 0.00 0.00 0.00 0.00 0.00 0.00 0.97 0.00 0.00 0.00 0.00 0.95 0.00 0.97 0.00 0.00 0.00 0.70 0.00 0.00 0.80 0.00 0.00 0.00 0.77 0.00 0.00 0.00 0.00 0.00 0.61 0.00 0.00 0.00 0.58 0.00 0.00 0.00 0.00 0.00 0.00 0.00 0.00 0.00 0.00 0.00 0.00 0.00 0.00 0.00 0.00 0.00 0.00 0.93 0.73 0.00 0.00 0.00 0.00 0.00 0.00 0.00 0.00 0.00 0.00 0.00 0.00 0.00 0.00 0.91 0.00 0.00 0.92 0.00 0.00 0.00 0.00 0.00 0.00 0.00 0.65 0.00 0.77 0.62 0.00 0.00 0.97 0.00 0.00 0.69 0.89 0.00 0.00 0.00 0.53 0.00 0.00 0.98 0.00 0.00 0.00
0.00 0.00 0.97 0.00 0.00 0.98 0.00 0.00 0.00 0.00 0.00 0.00 0.97 0.00 0.00 0.59 0.97 0.00 0.00 0.59 0.00 0.80 0.00 0.00 0.00 0.00 0.00 0.00 0.00 0.62 0.00 0.00 0.64 0.00 0.51 0.00 0.00 0.00 0.00 0.00 0.00 0.00 0.87 0.00 0.97 0.00 0.54 0.00 0.00 0.00 0.00 0.00 0.00 0.97 0.00 0.00 0.57 0.63 0.00 0.72 0.00 0.00 0.00 0.00 0.00 0.00 0.00 0.00 0.00 0.58 0.00 0.00 0.62 0.00 0.96 0.00 0.00 0.00 0.77 0.00 0.86 0.00 0.00 0.71 0.00 0.00 0.00 0.85 0.65 0.00 0.87 0.91 0.00 0.00 0.00 0.00 0.00 0.50 0.00 0.00 0.00 0.00 0.00 0.00 0.64 0.00 0.80 0.68 0.90 0.00 0.00 0.00 0.00 0.00 0.00 0.69 0.00 0.00 0.00 0.00 0.00 0.00 0.00 0.82 0.00 0.00 0.00 0.61 0.00 0.80 0.00 0.00 0.00 0.86 0.00 0.00 0.00 0.00 0.75 0.00
0.54 0.00 0.00 0.00 0.00 0.00 0.00 0.00 0.56 0.00 0.92 0.00 0.00 0.00 0.00 0.00 0.00 0.00 0.60 0.00 0.00 0.65 0.00 0.77 0.00 0.00 0.00 0.60 0.00 0.00 0.00 0.00 0.00 0.00 0.79 0.00 0.71 0.00 0.00 0.00 0.00 0.00 0.00 0.65 0.00 0.00 0.00 0.71 0.00 0.00 0.61 0.59 0.78 0.83 0.00 0.00 0.00 0.00 0.69 0.86 0.00 0.56 0.00 0.00 0.00 0.00 0.00 0.00 0.00 0.75 0.72 0.67 0.84 0.00 0.64 0.00 0.00 0.89 0.84 0.00 0.00 0.00 0.76 0.00 0.00 0.00 0.00 0.00 0.95 0.00 0.00 0.00 0.00 0.00 0.92 0.75 0.00 0.00 0.00 0.00 0.00 0.00 0.00 0.00 0.00 0.00 0.57 0.00 0.66 0.00 0.76 0.00 0.00 0.00 0.00 0.00 0.00 0.00 0.99 0.89 0.99 0.00 0.00 0.00 0.65 0.00 0.00 0.00 0.00 0.00 0.00 0.00 0.00 0.00 0.00 0.00 0.00 0.97 0.00 0.97
0.76 0.00 0.00 0.00 0.00 0.00 0.00 0.00 0.00 0.00 0.00 0.00 0.88 0.00 0.52 0.89 0.00 0.00 0.00 0.00 0.00 0.00 0.00 0.00 0.00 0.57 0.00 0.00 0.00 0.88 0.53 0.00 0.90 0.00 0.00 0.95 0.00 0.00 0.00 0.00 0.00 0.00 0.00 0.00 0.91 0.00 0.78 0.00 0.56 0.00 0.00 0.00 0.00 0.00 0.92 0.91 0.00 0.00 0.88 0.00 0.71 0.00 0.00 0.00 0.00 0.00 0.00 0.00 0.00 0.00 0.00 0.52 0.00 0.00 0.00 0.00 0.00 0.00 0.00 0.00 0.00 0.52 0.60 0.00 0.00 0.00 0.00 0.00 0.00 0.00 0.00 0.00 0.00 0.00 0.00 0.00 0.00 0.00 0.69 0.77 0.00 0.71 0.00 0.00 0.00 0.00 0.00 0.00 0.00 0.00 0.00 0.00 0.00 0.98 0.00 0.00 0.00 0.00 0.00 0.00 0.00 0.00 0.00 0.00 0.00 0.85 0.00 0.00 0.00 0.00 0.00 0.00 0.00 0.00 0.00 0.89 0.00 0.83 0.00 0.00
0.00 0.00 0.00 0.00 0.89 0.00 0.93 0.00 0.00 0.00 0.00 0.93 0.00 0.00 0.71 0.89 0.00 0.80 0.00 0.00 0.00 0.59 0.79 0.00 0.81 0.00 0.00 0.95 0.00 0.59 0.00 0.00 0.00 0.00 0.00 0.00 0.74 0.00 0.00 0.64 0.00 0.00 0.00 0.00 0.00 0.86 0.65 0.00 0.73 0.00 0.00 0.97 0.71 0.71 0.00 0.00 0.00 0.00 0.00 0.85 0.00 0.88 0.00 0.00 0.00 0.00 0.00 0.00 0.98 0.00 0.00 0.66 0.00 0.00 0.00 0.00 0.00 0.88 0.00 0.00 0.00 0.00 0.57 0.00 0.53 0.00 0.00 0.00 0.00 0.56 0.00 0.99 0.00 0.00 0.00 0.00 0.58 0.00 0.95 0.00 0.80 0.64 0.00 0.00 0.00 0.00 0.91 0.00 0.97 0.00 0.00 0.59 0.00 0.00 0.87 0.00 0.63 0.00 0.00 0.00 0.76 0.00 0.85 0.00 0.79 0.70 0.00 0.55 0.00 0.00 0.71 0.00 0.00 0.85 0.00 0.00 0.00 0.74 0.75 0.00
0.00 0.00 0.00 0.00 0.00 0.64 0.00 0.00 0.00 0.87 0.67 0.00 0.00 0.00 0.00 0.00 0.00 0.00 0.00 0.00 0.00 0.00 0.00 0.86 0.00 0.00 0.00 0.52 0.90 0.00 0.00 0.00 0.70 0.00 0.00 0.00 0.72 0.00 0.65 0.90 0.00 0.00 0.69 0.00 0.00 0.00 0.80 0.93 0.00 0.52 0.00 0.00 0.00 0.00 0.00 0.63 0.00 0.63 0.00 0.00 0.00 0.00 0.55 0.00 0.00 0.79 0.00 0.00 0.00 0.93 0.00 0.00 0.00 0.82 0.64 0.00 0.51 0.57 0.00 0.80 0.00 0.78 0.00 0.00 0.00 0.00 0.00 0.00 0.00 0.69 0.00 0.00 0.91 0.00 0.00 0.00 0.00 0.00 0.00 0.00 0.00 0.00 0.00 0.00 0.00 0.00 0.68 0.00 0.00 0.00 0.00 0.00 0.00 0.00 0.59 0.60 0.00 0.57 0.00 0.00 0.00 0.00 0.00 0.53 0.00 0.00 0.00 0.77 0.72 0.00 0.72 0.70 0.60 0.00 0.00 0.75 0.57 0.00 0.00 0.00
0.00 0.00 0.00 0.00 0.77 0.00 0.00 0.00 0.00 0.80 0.00 0.80 0.00 0.00 0.00 0.00 0.00 0.00 0.00 0.62 0.00 0.00 0.68 0.00 0.00 0.00 0.00 0.75 0.00 0.00 0.00 0.87 0.57 0.66 0.88 0.00 0.00 0.00 0.00 0.00 0.00 0.00 0.66 0.96 0.00 0.00 0.00 0.00 0.00 0.00 0.00 0.00 0.00 0.00 0.00 0.98 0.00 0.00 0.88 0.00 0.00 0.00 0.00 0.00 0.73 0.00 0.00 0.00 0.00 0.00 0.00 0.00 0.00 0.00 0.00 0.00 0.95 0.00 0.00 0.76 0.00 0.00 0.00 0.00 0.77 0.97 0.00 0.75 0.00 0.00 0.00 0.00 0.00 0.00 0.82 0.00 0.00 0.00 0.00 0.78 0.00 0.00 0.00 0.00 0.00 0.00 0.00 0.00 0.53 0.91 0.00 0.00 0.00 0.83 0.00 0.00 0.00 0.00 0.00 0.00 0.95 0.55 0.55 0.00 0.00 0.00 0.00 0.00 0.00 0.00 0.00 0.71 0.00 0.00 0.00 0.00 0.00 0.00 0.63 0.00
0.00 0.00 0.65 0.00 0.00 0.00 0.00 0.00 0.00 0.00 0.00 0.00 0.67 0.00 0.00 0.00 0.00 0.00 0.00 0.00 0.00 0.00 0.00 0.00 0.73 0.78 0.71 0.00 0.76 0.00 0.00 0.00 0.00 0.66 0.00 0.89 0.00 0.00 0.00 0.00 0.00 0.84 0.00 0.00 0.00 0.00 0.00 0.54 0.00 0.00 0.00 0.00 0.53 0.00 0.56 0.00 0.92 0.00 0.00 0.00 0.00 0.00 0.00 0.00 0.68 0.00 0.00 0.00 0.00 0.56 0.00 0.76 0.91 0.00 0.00 0.00 0.00 0.00 0.00 0.00 0.00 0.00 0.00 0.62 0.00 0.00 0.00 0.69 0.00 0.00 0.00 0.00 0.65 0.00 0.00 0.00 0.00 0.00 0.88 0.00 0.00 0.00 0.00 0.00 0.00 0.00 0.00 0.00 0.00 0.73 0.75 0.00 0.00 0.00 0.00 0.00 0.00 0.00 0.00 0.00 0.91 0.00 0.00 0.00 0.00 0.67 0.00 0.00 0.89 0.00 0.97 0.00 0.00 0.00 0.00 0.00 0.00 0.00 0.00 0.84
0.00 0.00 0.00 0.00 0.76 0.00 0.00 0.00 0.00 0.00 0.00 0.00 0.50 0.00 0.00 0.72 0.00 0.00 0.98 0.96 0.00 0.00 0.00 0.00 0.00 0.96 0.00 0.00 0.53 0.00 0.79 0.00 0.00 0.00 0.00 0.72 0.00 0.00 0.00 0.54 0.86 0.00 0.00 0.00 0.00 0.00 0.00 0.00 0.88 0.00 0.00 0.00 0.00 0.74 0.00 0.00 0.00 0.00 0.00 0.00 0.55 0.71 0.00 0.00 0.85 0.57 0.61 0.00 0.79 0.00 0.00 0.00 0.00 0.00 0.00 0.00 0.89 0.00 0.58 0.00 0.00 0.00 0.00 0.83 0.00 0.00 0.00 0.52 0.00 0.00 0.00 0.00 0.00 0.00 0.00 0.82 0.00 0.00 0.00 0.00 0.00 0.99 0.00 0.00 0.00 0.00 0.61 0.00 0.00 0.00 0.00 0.00 0.00 0.00 0.00 0.00 0.00 0.00 0.00 0.00 0.00 0.00 0.00 0.00 0.00 0.00 0.00 0.00 0.00 0.00 0.00 0.00 0.00 0.74 0.00 0.00 0.62 0.00 0.72 0.00
0.00 0.00 0.00 0.00 0.00 0.96 0.00 0.00 0.79 0.88 0.00 0.00 0.96 0.91 0.00 0.00 0.00 0.00 0.00 0.00 0.00 0.00 0.00 0.51 0.00 0.00 0.53 0.00 0.94 0.00 0.00 0.00 0.00 0.00 0.00 0.00 0.00 0.00 0.68 0.00 0.65 0.00 1.00 0.00 0.94 0.00 0.00 0.00 0.00 0.72 0.00 0.00 0.00 0.00 0.00 0.88 0.00 0.00 0.57 0.00 0.99 0.78 0.00 0.73 0.00 0.92 0.69 0.71 0.00 0.91 0.85 0.00 0.00 0.00 0.00 0.00 0.52 0.00 0.00 0.00 0.00 0.00 0.00 0.00 0.00 0.96 0.00 0.89 0.00 0.00 0.00 0.69 0.00 0.00 0.00 0.55 0.92 0.68 0.00 0.00 1.00 0.00 0.00 0.00 0.00 0.00 0.00 0.00 0.00 0.00 0.00 0.58 0.00 0.00 0.00 0.00 0.82 0.77 0.00 0.00 0.00 0.00 0.00 0.00 0.00 0.00 0.00 0.00 0.70 0.00 0.00 0.00 0.00 0.00 0.00 0.90 0.00 0.00 0.00 0.00
0.00 0.00 0.77 0.00 0.00 0.00 0.00 0.00 0.63 0.00 0.00 0.90 0.00 0.00 0.00 0.00 0.00 0.00 0.00 0.00 0.00 0.00 0.00 0.00 0.00 0.00 0.00 0.83 0.00 0.00 0.00 0.00 0.00 0.00 0.00 0.00 0.00 0.55 0.00 0.67 0.77 0.00 0.00 0.00 0.97 0.00 0.00 0.00 0.00 0.00 0.00 0.00 0.93 0.64 0.00 0.00 0.89 0.00 0.00 0.00 0.00 0.00 0.87 0.00 0.00 0.94 0.66 0.00 0.00 0.88 0.00 0.77 0.00 0.00 0.00 0.00 0.00 0.00 0.00 0.00 0.00 0.00 0.98 0.00 0.00 0.85 0.00 0.00 0.00 0.00 0.00 0.88 0.00 0.00 0.00 0.00 0.00 0.00 0.00 0.00 0.00 0.00 0.50 0.82 0.00 0.00 0.71 0.90 0.00 0.00 0.00 0.00 0.74 0.00 0.00 0.00 0.88 0.00 0.89 0.66 0.00 0.00 0.00 0.00 0.00 0.94 0.00 0.00 0.00 0.81 0.68 0.00 0.00 0.00 0.00 0.00 0.00 0.81 0.00 0.00
0.00 0.00 0.00 0.00 0.00 0.00 0.00 0.00 0.00 0.00 0.00 0.00 0.00 0.91 0.00 0.00 0.73 0.00 0.00 0.00 0.00 0.00 0.85 0.00 0.90 0.00 0.00 0.00 0.89 0.00 0.64 0.00 0.54 0.00 0.00 0.00 0.86 0.00 0.00 0.00 0.61 0.00 0.00 0.00 0.86 0.00 0.86 0.00 0.00 0.65 0.59 0.00 0.00 0.00 0.00 0.00 0.92 0.57 0.00 0.00 0.65 0.00 0.00 0.00 0.00 0.00 0.00 0.00 0.00 0.00 0.00 0.00 0.00 0.66 0.00 0.00 0.00 0.00 0.00 0.00 0.00 0.00 0.00 0.00 0.00 0.00 0.91 0.00 0.00 0.00 0.80 0.00 0.00 0.00 0.00 0.00 0.00 0.75 0.54 0.00 0.00 0.00 0.86 0.00 0.00 0.00 0.68 0.00 0.00 0.00 0.00 0.00 0.00 0.00 0.00 0.00 0.00 0.00 0.00 0.00 0.00 0.98 0.67 0.00 0.80 0.80 0.86 0.00 0.00 0.00 0.00 0.00 0.00 0.85 0.00 0.72 0.81 0.00 0.00 0.00
0.00 0.65 0.00 0.00 0.00 0.00 0.00 0.00 0.70 0.00 0.73 0.96 0.54 0.00 0.96 0.00 0.00 0.00 0.00 0.00 0.00 0.71 0.00 0.00 0.71 0.00 0.00 0.00 0.75 0.00 0.00 0.00 0.65 0.00 0.00 0.00 0.00 0.61 0.63 0.92 0.00 0.73 0.87 0.00 0.00 0.68 0.00 0.00 0.84 0.00 0.00 0.00 0.00 0.00 0.00 0.00 0.00 0.00 0.95 0.00 0.00 0.00 0.68 0.00 0.00 0.00 0.93 0.95 0.53 0.00 0.00 0.70 0.60 0.00 0.99 0.00 0.70 0.00 0.00 0.00 0.00 0.00 0.71 0.00 0.00 0.00 0.00 0.00 0.61 0.83 0.00 0.00 0.00 0.00 0.00 0.00 0.71 0.65 0.00 0.51 0.00 0.00 0.00 0.00 0.00 0.00 0.00 0.00 0.00 0.00 0.00 0.77 0.00 0.00 0.00 0.00 0.00 0.00 0.65 0.00 0.00 0.00 0.00 0.00 0.70 0.00 0.58 0.54 0.00 0.00 0.54 0.00 0.00 0.89 0.00 0.00 0.00 0.00 0.00 0.00
0.72 0.00 0.00 0.74 0.00 0.00 0.00 0.64 0.00 0.00 0.00 0.00 0.00 0.00 0.67 0.82 0.00 0.00 0.00 0.00 0.00 0.00 0.00 0.00 0.00 0.00 0.00 0.00 0.00 0.57 0.00 0.00 0.00 0.00 0.00 0.00 0.89 0.00 0.79 0.00 0.00 0.00 0.00 0.00 0.00 0.00 0.96 0.69 0.00 0.00 0.53 0.57 0.51 0.77 0.00 0.00 0.00 0.00 0.00 0.00 0.00 0.00 0.00 0.79 0.00 0.00 0.00 0.00 0.00 0.00 0.00 0.00 0.84 0.00 0.97 0.00 0.89 0.90 0.71 0.84 0.00 0.00 0.54 0.00 0.58 0.00 0.00 0.00 0.00 0.00 0.55 0.00 0.00 0.00 0.00 0.00 0.00 0.92 0.75 0.00 0.00 0.95 0.00 0.00 0.00 0.79 0.93 0.00 0.99 1.00 0.00 0.00 0.00 0.00 0.00 0.00 0.00 0.00 0.00 0.89 0.00 0.00 0.00 0.92 0.00 0.78 0.94 0.00 0.00 0.00 0.84 0.84 0.00 0.00 0.00 0.83 0.00 0.00 0.00 0.56
0.90 0.66 0.96 0.00 0.00 0.78 0.00 0.00 0.58 0.00 0.00 0.95 0.00 0.00 0.00 0.00 0.00 0.00 0.80 0.80 0.00 0.54 0.00 0.00 0.00 0.00 0.00 0.82 0.00 0.00 0.00 0.00 0.00 0.00 0.00 0.00 0.00 0.78 0.00 0.74 0.00 0.92 0.82 0.00 0.00 0.72 0.00 0.00 0.00 0.00 0.81 0.00 0.00 0.00 0.00 0.00 0.95 0.00 0.75 0.00 0.00 0.00 0.00 0.00 0.00 0.57 0.00 0.85 0.00 0.00 0.00 0.00 0.00 0.00 0.00 0.00 0.00 0.00 0.00 0.58 0.00 0.00 0.59 0.95 0.94 0.80 0.00 0.92 0.86 0.00 0.00 0.58 0.58 0.00 0.00 0.00 0.00 0.00 0.00 0.00 0.91 0.00 0.00 0.00 0.00 0.83 0.00 0.00 0.00 0.51 0.00 0.00 0.00 0.00 0.00 0.00 0.00 0.00 0.00 0.00 0.74 0.82 0.00 0.00 0.00 0.00 0.00 0.00 0.00 0.00 0.50 0.69 0.60 0.00 0.60 0.00 0.00 0.00 1.00 0.59
0.83 0.98 0.00 0.00 0.00 0.00 0.00 0.00 0.00 0.62 0.00 0.00 0.88 0.00 0.00 0.00 0.00 0.00 0.64 0.00 0.00 0.00 0.00 0.00 0.00 0.00 0.94 0.00 0.00 0.56 0.89 0.00 0.00 0.00 0.99 0.00 0.00 0.74 0.00 0.00 0.88 0.00 0.00 0.00 0.00 0.00 0.00 0.00 0.00 0.00 0.71 0.71 0.00 0.00 0.00 0.00 0.00 0.00 0.78 0.00 0.86 0.88 0.00 0.00 0.52 0.00 0.00 0.00 0.77 0.00 0.00 0.00 0.00 0.00 0.00 0.00 0.00 0.00 0.00 0.00 0.00 0.00 0.00 0.93 0.00 0.00 0.00 0.00 0.00 0.00 0.00 0.00 0.57 0.85 0.59 0.00 0.00 0.00 0.00 0.00 0.83 0.00 0.00 0.66 0.00 0.00 0.71 0.00 0.00 0.54 0.66 0.00 0.70 0.00 0.00 0.00 0.00 0.00 0.00 0.00 0.00 0.00 0.00 0.00 0.00 0.00 0.00 0.63 0.78 0.00 0.00 0.00 0.80 0.00 0.77 0.00 0.00 0.00 0.00 0.00
0.00 0.66 0.00 0.00 0.00 0.61 0.00 0.00 0.00 0.00 0.98 0.00 0.75 0.92 0.62 0.76 0.65 0.00 0.54 0.88 0.00 0.00 0.00 0.00 0.00 0.00 0.00 0.54 0.84 0.00 0.88 0.00 0.93 0.82 0.00 0.00 0.00 0.00 0.00 0.00 0.00 0.00 0.00 0.00 0.00 0.00 0.00 0.00 0.00 0.00 0.00 0.00 0.78 0.57 0.00 0.00 0.00 0.00 0.96 0.78 0.87 0.00 0.00 0.00 0.70 0.00 0.00 0.00 0.00 0.57 0.00 0.99 0.00 0.53 0.00 0.00 0.00 0.84 0.00 0.00 0.81 0.00 0.00 0.75 0.00 0.00 0.00 0.00 0.00 0.94 0.00 0.00 0.00 0.00 0.00 0.00 0.00 0.51 0.86 0.00 0.00 0.00 0.00 0.83 0.00 0.00 0.00 0.78 0.00 0.00 0.00 0.95 0.00 0.79 0.00 0.00 0.68 0.69 0.00 0.00 0.00 0.00 0.57 0.00 0.00 0.51 0.00 0.00 0.00 0.00 0.00 0.63 0.00 0.00 0.00 0.89 0.00 0.00 0.68 0.00
0.00 0.00 0.00 0.95 0.00 0.00 0.00 0.00 0.51 0.00 0.59 0.00 0.74 0.00 0.00 0.00 0.00 0.00 0.00 0.00 0.00 0.00 0.70 0.91 0.58 0.00 0.00 0.62 0.00 0.00 0.00 0.00 0.00 0.00 0.00 0.00 0.00 0.00 0.00 0.00 0.00 0.00 0.00 0.00 0.00 0.00 0.00 0.57 0.00 0.00 0.00 0.62 0.59 0.00 0.00 0.00 0.00 0.97 0.00 0.00 0.00 0.00 0.00 0.98 0.00 0.00 0.00 0.88 0.00 0.00 0.00 0.98 0.97 0.00 0.00 0.80 0.00 0.00 0.00 0.00 0.00 0.00 0.00 0.00 0.53 0.00 0.00 0.00 0.00 0.00 0.00 0.00 0.86 0.00 0.00 0.00 0.00 0.77 0.00 0.00 0.00 0.72 0.00 0.82 0.00 0.00 0.00 0.00 0.53 0.00 0.73 0.00 0.00 0.00 0.00 0.00 0.00 0.00 0.00 0.58 0.00 0.00 0.00 0.61 0.59 0.64 0.00 0.58 0.00 0.00 0.91 0.00 0.71 0.00 0.00 0.00 0.00 0.75 0.00 0.00
0.00 0.65 0.00 0.00 0.91 0.00 0.00 0.00 0.00 0.00 0.00 0.94 0.00 0.00 0.00 0.00 0.00 0.00 0.00 0.00 0.00 0.00 0.65 0.50 0.00 0.00 0.00 0.85 0.00 0.00 0.59 0.00 0.87 1.00 0.00 0.00 0.00 0.00 0.00 0.94 0.00 0.60 0.00 0.00 0.57 0.00 0.00 0.64 0.00 1.00 0.50 0.00 0.00 0.00 0.00 0.00 0.00 0.00 0.00 0.91 0.00 0.63 0.00 0.00 0.64 0.00 0.00 0.00 0.00 0.00 0.00 1.00 0.00 0.00 0.74 0.00 0.00 0.77 0.00 0.00 0.00 0.00 0.00 0.63 0.00 0.00 0.00 0.00 0.00 0.00 0.78 0.00 0.00 0.00 0.00 0.00 0.72 0.00 0.96 0.00 0.53 0.00 0.64 0.79 0.00 0.57 0.00 0.00 0.00 0.00 0.00 0.00 0.00 0.85 0.00 0.83 0.00 0.00 0.00 0.00 0.54 0.00 0.00 0.00 0.00 0.86 0.00 0.00 0.60 0.00 0.77 0.00 0.00 0.63 0.00 0.00 0.00 0.00 0.00 0.00
0.00 0.00 0.00 0.00 0.88 0.66 0.00 0.00 0.00 0.00 0.00 0.53 0.79 0.00 0.00 0.59 0.00 0.00 0.00 0.00 0.00 0.72 0.50 0.65 0.00 0.79 0.00 0.00 0.00 0.00 0.00 0.00 0.00 0.00 0.70 0.00 0.77 0.62 0.00 0.00 0.00 0.00 0.00 0.00 0.00 0.00 0.00 0.00 0.00 0.00 0.00 0.00 0.00 0.00 0.00 0.85 0.77 0.00 0.51 0.00 0.86 0.76 0.72 0.00 0.00 0.00 0.80 0.00 0.55 0.97 0.63 0.00 0.00 0.00 0.51 0.00 0.00 0.00 0.00 0.00 0.62 0.00 0.00 0.00 0.00 0.00 0.00 0.72 0.00 0.00 0.00 0.00 0.00 0.00 0.69 0.00 0.00 0.00 0.83 0.00 0.00 0.00 0.00 0.00 0.00 0.56 0.00 0.72 0.00 0.00 0.93 0.90 0.00 0.00 0.00 0.00 0.00 0.00 0.68 0.88 0.00 0.00 0.92 0.00 0.00 0.00 0.00 0.00 0.00 0.00 0.00 0.98 0.00 0.00 0.00 0.88 0.00 0.00 0.00 0.00
0.00 0.00 0.00 0.00 0.61 0.57 0.00 0.00 0.00 0.58 0.00 0.00 0.55 0.59 0.00 0.00 0.84 0.00 0.00 0.78 0.60 0.00 0.00 0.65 0.00 0.00 0.00 0.00 0.00 0.00 0.00 0.00 0.00 0.00 0.00 0.00 0.00 0.00 0.00 0.79 0.00 0.64 0.00 0.60 0.00 0.00 0.00 0.00 0.00 0.00 0.00 0.60 0.51 0.00 0.00 0.00 0.50 0.00 0.87 0.00 0.00 0.00 0.00 0.00 0.00 0.52 0.00 0.00 0.80 0.00 0.00 0.00 0.00 0.00 0.00 0.00 0.00 0.00 0.56 0.00 0.61 0.00 0.69 0.74 0.00 0.00 0.00 0.86 0.00 0.99 0.00 0.79 0.00 0.91 0.00 0.00 0.00 0.00 0.64 0.00 0.00 0.65 0.00 0.00 0.00 0.00 0.00 0.00 0.00 0.00 0.72 0.90 0.00 0.00 0.00 0.00 0.00 0.00 0.00 0.00 0.00 0.00 0.00 0.00 0.71 0.00 0.88 0.00 0.94 0.85 0.00 0.00 0.00 0.00 0.00 0.00 0.00 0.00 0.00 0.00
0.00 0.00 0.98 0.00 0.00 0.00 0.00 0.00 0.00 0.93 0.00 0.00 0.00 0.00 0.00 0.00 0.00 0.00 0.51 0.00 0.00 0.00 0.00 0.00 0.00 0.00 0.00 0.00 0.00 0.00 0.72 0.00 0.00 0.00 0.95 0.00 0.00 0.54 0.00 0.00 0.00 0.00 0.00 0.00 0.91 0.00 0.00 0.62 0.00 0.00 0.00 0.00 0.73 0.00 0.00 0.00 0.00 0.00 0.00 0.00 0.00 0.00 0.00 0.00 0.00 0.74 0.00 0.00 0.79 0.00 0.00 0.00 0.00 0.84 0.00 0.00 0.00 0.00 0.00 0.00 0.55 0.00 0.00 0.00 0.00 0.00 0.00 0.00 0.00 0.00 0.00 0.97 0.00 0.00 0.00 0.00 0.00 0.00 0.00 0.00 0.00 0.00 0.00 0.00 0.00 0.00 0.00 0.00 0.97 0.00 0.85 0.00 0.00 0.62 0.00 0.00 0.60 0.00 0.00 0.00 0.00 0.00 0.00 0.00 0.00 0.00 0.00 0.00 0.58 0.00 0.00 0.00 0.77 0.71 0.00 0.00 0.56 0.79 0.00 0.82
0.69 0.86 0.00 0.00 0.75 0.00 0.00 0.00 0.00 0.91 0.00 0.00 0.00 0.00 0.00 0.00 0.00 0.00 0.00 0.78 0.00 0.00 0.00 0.00 0.92 0.00 0.00 0.00 0.69 0.00 0.00 0.00 0.00 0.58 0.00 0.00 0.69 0.70 0.87 0.00 0.00 0.00 0.00 0.76 0.00 0.00 0.00 0.99 0.73 0.00 0.00 0.00 0.90 0.00 0.00 0.00 0.00 0.00 0.00 0.00 0.00 0.00 0.00 0.00 0.00 0.00 0.00 0.65 0.00 0.00 0.67 0.00 0.00 0.00 0.54 0.00 0.00 0.00 0.68 0.00 0.00 0.00 0.00 0.66 0.58 0.00 0.76 0.58 0.00 0.00 0.00 0.00 0.00 0.00 0.00 0.00 0.82 0.89 0.00 0.00 0.79 0.00 0.88 0.00 0.00 0.00 0.00 0.00 0.53 0.00 0.00 0.00 0.00 0.00 0.93 0.00 0.92 0.00 0.00 0.00 0.00 0.00 0.00 0.00 0.65 0.91 0.00 0.00 0.00 0.00 0.00 0.00 0.00 0.00 0.00 0.00 0.00 0.00 0.00 0.00
0.00 0.75 0.00 0.00 0.00 0.57 0.97 0.00 0.00 0.00 0.00 0.97 0.00 0.00 0.91 0.00 0.00 0.79 0.00 0.66 0.00 0.00 0.00 0.52 0.00 0.75 0.00 0.80 0.00 0.00 0.00 0.00 0.76 0.00 0.54 0.00 0.00 0.71 0.00 0.55 0.95 0.00 0.00 0.00 0.57 0.00 0.00 0.00 0.00 0.00 0.00 0.00 0.00 0.00 0.84 0.00 0.00 0.00 0.00 0.57 0.00 0.00 0.90 0.93 0.00 0.00 0.00 0.00 0.00 0.00 0.00 0.00 0.00 0.00 0.00 0.00 0.00 0.00 0.00 0.59 0.00 0.91 0.00 0.00 0.00 0.57 0.82 0.77 0.75 0.00 0.00 0.00 0.00 0.00 0.00 0.00 0.00 0.00 0.00 0.00 0.00 0.94 0.00 0.90 0.56 0.00 0.00 0.00 0.00 0.61 0.00 0.00 0.82 0.76 0.83 0.00 0.00 0.92 0.00 0.00 0.00 0.62 0.00 0.00 0.00 0.00 0.00 0.00 0.00 0.00 0.00 0.72 0.00 0.00 0.00 0.93 0.00 0.00 0.00 0.00
0.53 0.00 0.00 0.00 0.77 0.97 0.00 0.68 0.00 0.00 0.93 0.00 0.00 0.00 0.00 0.00 0.00 0.00 0.93 0.00 0.00 0.00 0.00 0.00 0.00 0.00 0.00 0.00 0.00 0.00 0.00 0.00 0.00 0.00 0.00 0.00 0.00 0.81 0.00 0.00 0.00 0.00 0.00 0.00 0.00 0.00 0.00 0.84 0.00 0.00 0.00 0.00 0.00 0.00 0.00 0.65 0.67 0.00 0.00 0.00 0.00 0.00 0.00 0.00 0.00 0.00 0.00 0.54 0.55 0.00 0.00 0.00 0.81 0.00 0.00 0.00 0.50 0.00 0.00 0.00 0.00 0.00 0.00 0.64 0.00 0.81 0.00 0.00 0.00 0.89 0.00 0.88 0.00 0.00 0.00 0.00 0.00 0.88 0.00 0.00 0.00 0.00 0.00 0.73 0.00 0.00 0.00 0.00 0.00 0.58 0.00 0.00 0.00 0.00 0.85 0.69 0.90 0.80 0.00 0.00 0.00 0.00 0.00 0.00 0.00 0.00 0.00 0.00 0.00 0.75 0.00 0.00 0.00 0.00 0.00 0.65 0.00 0.00 0.00 0.70
0.88 0.00 0.95 0.00 0.00 0.00 0.00 0.00 0.94 0.78 0.00 0.00 0.00 0.89 0.00 0.00 0.00 0.00 0.00 0.00 0.00 0.00 0.00 0.00 0.00 0.00 0.80 0.00 0.00 0.00 0.00 0.00 0.00 0.00 0.00 0.56 0.51 0.54 0.00 0.00 1.00 0.00 0.00 0.00 0.59 0.00 0.00 0.00 0.00 0.85 0.91 0.00 0.00 0.00 0.00 0.00 0.90 0.00 0.00 0.00 0.52 0.00 0.00 0.00 0.00 0.00 0.00 0.00 0.61 0.00 0.00 0.00 0.00 0.58 0.00 0.00 0.00 0.00 0.00 0.00 0.00 0.00 0.00 0.00 0.00 0.73 0.55 0.00 0.00 0.00 0.00 0.00 0.00 0.61 0.00 0.52 0.00 0.00 0.00 0.00 0.00 0.63 0.00 0.00 0.82 0.00 0.65 0.00 0.00 0.84 0.00 0.77 0.00 0.00 0.00 0.00 0.75 0.00 0.00 0.00 0.91 0.00 0.00 0.00 0.00 0.00 0.98 0.00 0.00 0.00 0.57 0.00 0.00 0.00 0.00 0.00 0.95 0.00 0.00 0.00
0.00 0.00 0.00 0.82 0.00 0.00 0.00 0.00 0.00 0.71 0.00 0.00 0.00 0.86 0.00 0.00 0.00 0.92 0.84 0.64 0.00 0.00 0.00 0.55 0.00 0.00 0.00 0.56 0.00 0.00 0.00 0.74 0.00 0.00 0.00 0.99 0.00 0.00 0.00 0.80 0.00 0.00 0.00 0.00 0.00 0.88 0.64 0.00 0.00 0.76 0.00 0.92 0.00 0.00 0.00 0.00 0.00 0.00 0.72 0.65 0.95 0.00 0.60 0.00 0.00 0.85 0.00 0.00 0.00 0.00 0.00 0.00 0.98 0.61 0.00 0.62 0.00 0.00 0.83 0.00 0.00 0.54 0.00 0.00 0.99 0.00 0.00 0.00 0.00 0.00 0.00 0.00 0.00 0.87 0.00 0.00 0.00 0.59 0.00 0.00 0.95 0.91 0.83 0.85 0.98 0.00 0.00 0.00 0.00 0.00 0.65 0.00 0.87 0.76 0.00 0.00 0.89 0.00 0.00 0.00 0.00 0.53 0.69 0.00 0.00 0.00 0.00 0.00 0.00 0.79 0.00 0.00 0.00 0.51 0.00 0.00 0.00 0.80 0.00 0.00
0.00 0.00 0.00 0.00 0.00 0.93 0.00 0.00 0.52 0.59 0.00 0.00 0.82 0.00 0.00 0.82 0.98 0.00 0.00 0.00 0.00 0.00 0.00 0.58 0.00 0.00 0.00 0.00 0.00 0.59 0.99 0.00 0.62 0.00 0.00 0.00 0.00 0.00 0.00 0.00 0.88 0.00 0.00 0.95 0.00 0.92 0.00 0.00 0.61 0.00 0.84 0.00 0.80 0.79 0.55 0.00 0.00 0.85 0.94 0.00 0.00 0.00 0.00 0.80 0.00 0.00 0.00 0.00 0.00 0.00 0.00 0.70 0.00 0.00 0.00 0.00 0.00 0.00 0.00 0.00 0.77 0.00 0.53 0.69 0.00 0.00 0.00 0.00 0.78 0.00 0.00 0.79 0.63 0.00 0.89 0.00 0.00 0.00 0.00 0.97 0.00 0.00 0.00 0.00 0.00 0.00 0.00 0.94 0.00 0.00 0.00 0.00 0.00 0.89 0.00 0.00 0.00 0.00 0.00 0.00 0.00 0.00 0.00 0.00 0.00 0.00 0.00 0.00 0.84 0.00 0.00 0.67 0.00 0.00 0.97 0.00 0.00 0.00 0.00 0.76
0.90 0.00 0.00 0.59 0.00 0.00 0.00 0.00 0.00 0.00 0.00 0.00 0.00 0.00 0.00 0.79 0.00 0.00 0.75 0.00 0.00 0.00 0.00 0.00 0.00 0.00 0.77 0.00 0.00 0.00 0.00 0.00 0.54 0.00 0.68 0.00 0.68 0.00 0.00 0.00 0.00 0.00 0.00 0.00 0.00 0.93 0.95 0.00 0.00 0.82 0.00 0.00 0.00 0.00 0.00 0.00 0.00 0.00 0.00 0.80 0.80 0.00 0.00 0.00 0.85 0.00 0.00 0.55 0.00 0.98 0.00 0.94 0.00 0.00 0.00 0.00 0.00 0.00 0.00 0.00 0.00 0.81 0.00 0.00 0.00 0.00 0.00 0.00 0.98 0.57 0.00 0.00 0.00 0.99 0.00 0.00 0.73 0.00 0.67 0.00 0.59 0.00 0.00 0.00 0.00 0.00 0.00 0.00 0.00 0.00 0.00 0.00 0.00 0.00 0.00 0.00 0.00 0.00 0.00 0.89 0.00 0.00 0.00 0.00 0.00 0.00 0.00 0.79 0.00 0.00 0.00 0.00 0.00 0.00 0.00 0.00 0.00 0.90 0.00 0.00
0.82 0.99 0.00 0.00 0.00 0.00 0.78 0.00 0.00 0.00 0.00 0.00 0.50 0.00 0.00 0.00 0.00 0.00 0.00 0.00 0.00 0.00 0.00 0.00 0.00 0.00 0.00 0.00 0.00 0.00 0.00 0.00 0.00 0.89 0.00 0.00 0.67 0.00 0.00 0.92 0.00 0.59 0.00 0.00 0.00 0.52 0.00 0.82 0.73 0.00 0.00 0.00 0.00 0.00 0.00 0.00 0.66 0.00 0.00 0.00 0.00 0.00 0.00 0.00 0.00 0.00 0.88 0.57 0.00 0.00 0.00 0.00 0.00 0.59 0.00 0.00 0.00 0.67 0.58 0.00 0.00 0.00 0.00 0.00 0.54 0.00 0.00 0.00 0.00 0.00 1.00 0.00 0.00 0.93 0.00 0.00 0.00 0.00 0.00 0.00 0.00 0.00 0.67 0.98 0.00 0.00 0.00 0.00 0.00 0.00 0.00 0.00 0.00 0.00 0.00 0.91 0.00 0.00 0.00 0.00 0.00 0.00 0.00 0.00 0.83 0.00 0.00 0.00 0.00 0.00 0.00 0.00 0.00 0.00 0.00 0.00 0.00 0.00 0.94 0.88
0.00 0.00 0.00 0.00 0.00 0.00 0.73 0.00 0.00 0.00 0.00 0.00 0.00 0.00 0.00 0.73 0.59 0.00 0.00 0.00 0.00 0.00 0.99 0.90 0.00 0.92 0.00 0.00 0.67 0.00 0.00 0.54 0.00 0.00 0.00 0.00 0.67 0.00 0.00 0.00 0.00 0.00 0.00 0.76 0.93 0.00 0.63 0.00 0.00 0.00 0.00 0.00 0.00 0.75 0.00 0.97 0.00 0.00 0.92 0.00 0.51 0.00 0.79 0.00 0.00 0.00 0.00 0.83 0.00 0.51 0.59 0.00 0.58 0.00 0.00 0.00 0.00 0.00 0.00 0.00 0.00 0.92 0.96 0.00 0.00 0.68 0.77 0.00 0.67 0.92 0.81 0.00 0.00 0.00 0.00 0.00 0.00 0.00 0.00 0.00 0.00 0.51 0.91 0.00 0.00 0.60 0.00 0.79 0.00 0.00 0.00 0.00 0.00 0.00 0.83 0.00 0.72 0.63 0.00 0.00 0.73 0.00 0.00 0.54 0.00 0.85 0.00 0.00 0.60 0.00 0.00 0.59 0.00 0.00 0.00 0.00 0.00 0.00 0.00 0.00
0.00 0.00 0.60 0.00 0.00 0.00 0.00 0.00 0.00 0.00 0.00 0.00 0.00 0.00 0.00 0.00 0.00 0.00 0.00 0.00 0.00 0.00 0.00 0.00 0.00 0.00 0.60 0.00 0.00 0.00 0.00 0.67 0.00 0.00 1.00 0.00 0.00 0.68 0.83 0.00 0.00 0.97 0.00 0.00 0.00 0.00 0.92 0.00 0.00 0.53 0.00 0.00 0.00 0.00 0.00 0.00 0.65 0.00 0.00 0.63 0.00 0.00 0.00 0.00 0.00 0.00 0.00 0.00 0.66 0.69 0.00 0.56 0.00 0.00 0.00 0.00 0.00 0.00 0.00 0.00 0.00 0.69 0.00 0.00 0.52 0.00 0.00 0.73 0.91 0.00 0.00 0.00 0.00 0.00 0.00 0.00 0.00 0.00 0.00 0.00 0.90 0.00 0.00 0.00 0.00 0.00 0.88 0.64 0.00 0.00 0.72 0.98 0.00 0.00 0.00 0.00 0.90 0.00 0.00 0.00 0.00 0.00 0.00 0.00 0.95 0.00 0.00 0.00 0.70 0.00 0.76 0.00 0.87 0.00 0.00 0.00 0.00 0.00 0.81 0.00
0.00 0.75 0.00 0.00 0.00 0.99 0.91 0.00 0.00 0.76 0.00 0.00 0.00 0.89 0.00 0.00 0.00 0.97 0.00 0.92 0.00 0.00 0.00 0.89 0.00 0.85 0.00 0.00 0.00 0.00 0.00 0.00 0.73 0.50 0.00 0.00 0.00 0.00 0.00 0.00 0.51 0.94 0.00 0.00 0.00 0.53 0.00 0.00 0.00 0.73 0.00 0.00 0.00 0.79 0.00 0.00 0.00 0.84 0.00 0.00 0.00 0.52 0.60 0.00 0.00 0.00 0.00 0.00 0.00 0.00 0.00 0.86 0.00 0.00 0.65 0.00 0.50 0.00 0.00 0.00 0.00 0.00 0.00 0.72 0.00 0.00 0.78 0.00 0.00 0.66 0.00 0.00 0.00 0.80 0.00 0.00 0.55 0.58 0.00 0.00 0.00 0.00 0.00 0.00 0.00 0.00 0.91 0.00 0.99 0.00 0.00 0.00 0.00 0.00 0.00 0.00 0.00 0.00 0.00 0.82 0.00 0.00 0.00 0.00 0.98 0.00 0.00 0.00 0.00 0.00 0.00 0.00 0.00 0.00 0.00 0.00 0.00 0.00 0.86 0.00
0.00 0.00 0.00 0.53 0.00 0.00 0.86 0.00 0.00 0.00 0.00 0.87 0.82 0.00 0.00 0.00 0.00 0.82 0.00 0.00 0.00 0.00 0.00 0.00 0.00 0.00 0.94 0.00 0.00 0.00 0.60 0.00 0.00 0.00 0.00 0.00 0.00 0.00 0.00 0.00 0.00 0.75 0.00 0.00 0.00 0.00 0.78 0.00 0.00 0.83 0.00 0.00 0.00 0.80 0.00 0.00 0.00 0.00 0.66 0.00 0.00 0.63 0.00 0.00 0.00 0.00 0.00 0.00 0.00 0.00 0.00 0.00 0.00 0.00 0.00 0.76 0.89 0.00 0.00 0.00 0.00 0.83 0.00 0.77 0.62 0.00 0.00 0.00 0.50 0.00 0.00 0.00 0.00 0.00 0.00 0.00 0.00 0.00 0.00 0.00 0.00 0.00 0.00 0.00 0.00 0.00 0.63 0.00 0.00 0.00 0.00 0.00 0.94 0.00 0.98 0.00 0.00 0.00 0.00 0.90 0.71 0.00 0.00 0.00 0.00 0.83 0.80 0.55 0.00 0.00 0.00 0.00 0.56 0.00 0.00 0.00 0.63 0.66 0.87 0.00
0.00 0.96 0.00 0.00 0.00 0.00 0.84 0.00 0.00 0.00 0.62 0.00 0.00 0.00 0.00 0.00 0.00 0.58 0.82 0.00 0.00 0.00 0.00 0.00 0.00 0.96 0.00 0.00 0.00 0.00 0.59 0.00 0.00 0.00 0.86 0.00 0.00 0.00 0.00 0.00 0.00 0.00 0.00 0.00 0.00 0.00 0.85 0.00 0.00 0.00 0.87 0.00 0.00 0.00 0.99 0.71 0.74 0.53 0.00 0.00 0.81 0.00 0.00 0.00 0.99 0.00 0.00 0.64 0.00 0.00 0.00 0.00 0.69 0.94 0.00 0.00 0.00 0.00 0.00 0.60 0.00 0.00 0.00 0.00 0.00 0.00 0.00 0.00 0.00 0.00 0.58 0.00 0.00 0.00 0.00 0.00 0.00 0.00 0.00 0.00 0.00 0.00 0.00 0.00 0.00 0.00 0.87 0.00 0.85 0.00 0.95 0.00 0.00 0.00 0.00 0.00 0.00 0.00 0.00 0.00 0.00 0.00 0.00 0.00 0.00 0.00 0.00 0.00 0.63 0.00 0.00 0.82 0.00 0.00 0.00 0.00 0.00 0.00 0.00 0.00
0.00 1.00 0.00 0.81 0.00 0.00 0.00 0.00 0.00 0.00 0.00 0.00 0.74 0.00 0.54 0.00 0.00 0.00 0.00 0.00 0.69 0.00 0.00 0.00 0.00 0.00 0.00 0.00 0.56 0.00 0.00 0.58 0.00 0.00 0.94 0.60 0.00 0.00 0.00 0.00 0.00 0.00 0.00 0.00 0.00 0.00 0.00 0.00 0.00 0.61 0.00 0.00 0.51 0.78 0.00 0.00 0.00 0.56 0.00 0.89 0.00 0.99 0.00 0.00 0.00 0.00 0.00 0.00 0.52 0.00 0.00 0.00 0.00 0.00 0.00 0.00 0.00 0.00 0.00 0.00 0.00 0.00 0.83 0.00 0.00 0.00 0.00 0.76 0.87 0.00 0.00 0.00 0.95 0.53 0.80 0.92 0.00 0.82 0.73 0.00 0.00 0.00 0.00 0.00 0.00 0.00 0.70 0.00 0.75 0.00 0.00 0.00 0.00 0.94 0.84 0.00 0.00 0.86 0.00 0.00 0.60 0.56 0.00 0.72 0.00 0.00 0.00 0.00 0.00 0.00 0.00 0.00 0.00 0.00 0.66 0.00 0.00 1.00 0.00 0.00
0.99 0.00 0.00 0.00 0.00 0.00 0.00 0.00 0.00 0.65 0.00 0.00 0.57 0.98 0.84 0.00 0.00 0.00 0.00 0.00 0.00 0.77 0.00 0.86 0.00 0.86 0.00 0.00 0.00 0.73 0.79 0.00 0.00 0.74 0.67 0.55 0.00 0.00 0.00 0.00 0.00 0.00 0.63 0.00 0.95 0.91 0.00 0.00 0.00 0.00 0.00 0.00 0.79 0.00 0.00 0.00 0.00 0.81 0.00 0.00 0.00 0.00 0.00 0.62 0.62 0.00 0.00 0.62 0.00 0.92 0.00 0.00 0.68 0.00 0.78 0.00 0.00 0.78 0.00 0.00 0.00 0.00 0.00 0.00 0.00 0.00 0.00 0.94 0.00 0.00 0.91 0.65 0.00 0.00 0.00 0.66 0.94 0.00 0.70 0.00 0.00 0.99 0.00 0.00 0.72 0.00 0.00 0.00 0.00 0.00 0.00 0.00 0.00 0.00 0.00 0.65 0.00 0.00 0.00 0.00 0.64 0.00 0.00 0.00 0.00 0.00 0.97 0.00 0.00 0.00 0.00 0.00 0.00 0.00 0.00 0.00 0.80 0.69 0.92 0.00
0.00 0.00 0.00 0.00 0.00 0.81 0.64 0.00 0.00 0.00 0.00 0.00 0.77 0.00 0.00 0.00 0.00 0.81 0.00 0.59 0.00 0.88 0.00 0.97 0.00 0.00 0.94 0.00 0.88 0.00 0.82 0.00 0.00 0.00 0.00 0.00 0.00 0.00 0.00 0.00 0.00 0.00 0.65 0.00 0.00 0.00 0.00 0.93 0.00 0.00 0.00 0.00 0.78 0.00 0.00 0.00 0.87 0.58 0.91 0.97 0.00 0.61 0.00 0.00 0.00 0.00 0.84 0.00 0.00 0.64 0.00 0.00 0.76 0.95 0.55 0.00 0.00 0.00 0.00 0.00 0.98 0.00 0.00 0.00 0.00 0.00 0.00 0.00 0.00 0.00 0.73 0.00 0.90 0.00 0.00 0.00 0.00 0.00 0.00 0.00 0.00 0.96 0.90 0.00 0.00 0.00 0.76 0.00 0.00 0.57 0.00 0.00 0.00 0.00 0.00 0.00 0.00 0.59 0.00 0.88 0.00 0.00 0.55 0.00 0.53 0.00 0.53 0.00 0.00 0.00 0.00 0.00 0.00 0.00 0.00 0.00 0.00 0.00 0.00 0.91
0.00 0.00 0.00 0.00 0.00 0.00 0.00 0.68 0.00 0.00 0.00 0.00 0.00 0.00 0.00 0.00 0.00 0.00 0.00 0.00 0.00 0.00 0.00 0.00 0.00 0.00 0.00 0.00 0.00 0.00 0.00 0.00 0.80 0.83 0.00 0.00 0.00 0.00 0.00 0.71 0.00 0.00 0.00 0.00 0.00 0.00 0.00 0.00 0.00 0.89 0.00 0.67 0.58 0.00 0.00 0.72 0.00 0.00 0.00 0.00 0.00 0.93 0.69 0.56 0.00 0.00 0.00 0.00 0.00 0.00 0.00 0.00 0.58 0.00 0.00 0.00 0.00 0.00 0.00 0.00 0.00 0.00 0.00 0.00 0.00 0.00 0.80 0.00 0.00 0.00 0.00 0.00 0.53 0.66 0.00 0.00 0.87 0.00 0.70 0.00 0.00 0.95 0.00 0.00 0.00 0.74 0.00 0.00 0.00 0.00 0.00 0.00 0.00 0.00 0.00 0.00 0.00 0.00 0.00 0.67 0.00 0.00 0.00 0.00 0.00 0.00 0.00 0.00 0.00 1.00 0.60 0.00 0.00 0.00 0.00 0.87 0.83 0.00 0.00 0.58
0.00 0.65 0.78 0.00 0.00 0.00 0.00 0.00 0.93 0.00 0.00 0.00 0.00 0.00 0.00 0.00 0.75 0.00 0.00 0.00 0.00 0.63 0.00 0.00 0.00 0.00 0.00 0.60 0.98 0.00 0.56 0.00 0.00 0.85 0.00 0.00 0.00 0.00 0.00 0.58 0.65 0.00 0.00 0.00 0.00 0.00 0.00 0.00 0.93 0.00 0.00 0.00 0.63 0.82 0.00 0.87 0.00 0.00 0.00 0.00 0.00 0.00 0.91 0.00 0.75 0.00 0.00 0.90 0.00 0.00 0.00 0.52 0.00 0.68 0.00 0.96 0.00 0.00 0.67 0.00 0.00 0.00 0.00 0.54 0.77 0.62 0.00 0.00 0.00 0.64 0.00 0.00 0.00 0.00 0.00 0.92 0.00 0.89 0.00 0.90 0.00 0.00 0.00 0.00 0.00 0.00 0.00 0.50 0.00 0.00 0.00 0.00 0.00 0.84 0.71 0.00 0.00 0.00 0.86 0.67 0.00 0.00 0.00 0.64 0.00 0.00 0.56 0.00 0.00 0.60 0.00 0.00 0.00 0.00 0.99 0.00 0.00 0.00 0.00 0.00
0.56 0.00 0.00 0.00 0.00 0.84 0.00 0.00 0.00 0.86 0.00 0.00 0.00 0.00 0.90 0.00 0.69 0.00 0.00 1.00 0.81 0.00 0.00 0.00 0.00 0.00 0.55 0.00 0.93 0.59 0.00 0.00 0.65 0.00 0.00 0.00 0.00 0.00 0.00 0.00 0.00 0.00 0.00 0.00 0.00 0.00 0.74 0.62 0.00 0.00 0.86 0.00 0.53 0.00 0.77 0.00 0.00 0.00 0.00 0.00 0.70 0.00 0.00 0.00 0.00 0.71 0.00 0.00 0.60 0.00 0.00 0.00 0.81 0.00 0.60 0.62 0.00 0.00 0.00 0.00 0.00 0.00 0.00 0.62 0.67 0.85 0.00 0.70 0.81 0.00 0.00 0.00 0.00 0.51 0.00 0.00 0.00 0.00 0.00 0.00 0.00 0.00 0.00 0.00 0.91 0.00 0.00 0.83 0.79 0.00 0.94 0.89 0.00 0.00 0.00 0.00 0.00 0.00 0.00 0.00 0.00 0.00 0.00 0.00 0.00 0.00 0.62 0.68 0.00 0.00 0.00 0.00 0.00 0.93 0.00 0.00 0.00 0.51 0.00 0.00
0.00 0.96 0.61 0.00 0.00 0.00 0.00 0.00 0.00 0.00 0.00 0.00 0.00 0.00 0.00 0.00 0.55 0.91 0.91 0.00 0.00 0.00 0.00 0.00 0.00 0.00 0.00 0.00 0.00 0.65 0.00 0.00 0.00 0.80 0.00 0.00 0.55 0.00 0.00 0.00 0.00 0.61 0.00 0.00 0.00 0.67 0.79 0.66 0.00 0.60 0.00 0.78 0.64 0.00 0.00 0.00 0.00 0.00 0.65 0.00 0.56 0.00 0.74 0.00 0.00 0.79 0.83 0.00 0.00 0.00 0.00 0.68 0.00 0.00 0.79 0.00 0.00 0.00 0.95 0.00 0.00 0.00 0.00 0.55 0.91 0.54 0.00 0.61 0.96 0.54 0.00 0.00 0.00 0.00 0.00 0.00 0.94 0.00 0.00 0.71 0.00 0.61 0.00 0.00 0.70 0.00 0.00 0.51 0.00 0.00 0.71 0.79 0.00 0.50 0.00 0.00 0.00 0.00 0.68 0.56 0.00 0.59 0.00 0.68 0.00 0.00 0.69 0.00 0.00 0.00 0.00 0.00 0.75 0.97 0.00 0.00 0.00 0.00 0.00 0.59
0.79 0.00 0.97 0.00 0.00 0.00 0.00 0.00 0.00 0.86 0.00 0.00 0.90 0.00 0.00 0.00 0.94 0.00 0.00 0.90 0.00 0.00 0.00 0.00 0.79 0.00 0.00 0.00 0.00 0.84 0.00 0.00 0.00 0.00 0.00 0.00 0.95 0.00 0.00 0.00 0.00 0.00 0.00 0.94 0.00 0.96 0.00 0.50 0.98 0.71 0.00 0.81 0.00 0.00 0.00 0.00 0.00 0.77 0.00 0.00 0.00 0.66 0.00 0.00 0.00 0.00 0.00 0.98 0.00 0.00 0.00 0.00 0.77 0.00 0.00 0.00 0.00 0.00 0.00 0.00 0.00 0.00 0.00 0.00 0.00 0.00 0.00 0.71 0.00 0.61 0.00 0.59 0.96 0.87 0.00 0.00 0.00 0.00 0.00 0.80 0.00 0.70 0.65 0.00 0.00 0.00 0.00 0.00 0.80 0.97 0.53 0.00 0.00 0.00 0.00 0.00 0.00 0.70 0.59 0.00 0.00 0.00 0.00 0.00 0.00 0.00 0.00 0.00 0.00 0.00 0.00 0.00 0.00 0.00 0.00 0.00 0.00 0.00 0.00 0.00
0.00 0.53 0.67 0.70 0.00 0.00 0.00 0.67 0.00 0.59 0.00 0.00 0.00 0.50 0.00 0.00 0.88 0.72 0.61 0.98 0.83 0.00 0.00 0.00 0.70 0.00 0.83 0.00 0.64 0.00 0.00 0.00 0.00 0.00 0.00 0.00 0.00 0.00 0.00 0.00 0.00 0.79 0.00 0.00 0.00 0.00 0.00 0.00 0.70 0.00 0.00 0.00 0.00 0.00 0.00 0.00 0.97 0.94 0.00 0.00 0.00 0.00 0.00 0.00 0.00 0.00 0.00 0.00 0.95 0.67 0.00 0.00 0.00 0.55 0.00 0.00 0.00 0.74 0.00 0.00 0.94 0.00 0.00 0.00 0.00 0.00 0.76 0.00 0.00 0.00 0.71 0.00 0.00 0.00 0.00 0.62 0.71 0.00 0.00 0.00 0.00 0.00 0.00 0.00 0.00 0.70 0.00 0.71 0.88 0.00 0.51 0.00 0.00 0.00 0.00 0.00 0.94 0.00 0.00 0.00 0.00 0.00 0.00 0.00 0.00 0.93 0.00 0.85 0.62 0.00 0.00 0.00 0.94 0.00 0.00 0.00 0.00 0.82 0.00 0.00
0.53 0.00 0.00 0.91 0.00 0.72 0.00 0.00 0.00 0.00 0.00 0.00 0.00 0.65 0.00 0.65 0.00 0.00 0.00 0.00 0.00 0.96 0.87 0.00 0.98 0.00 0.00 0.75 0.00 0.00 0.00 0.00 0.00 0.00 0.00 0.00 0.00 0.70 0.89 0.00 0.80 0.63 0.00 0.00 0.00 0.54 0.50 0.81 0.00 0.00 0.00 0.00 0.00 0.00 0.00 0.83 0.00 0.98 0.00 0.00 0.00 0.89 0.00 0.00 0.00 0.86 0.00 0.00 0.00 0.86 0.00 0.00 0.00 0.00 0.00 0.00 0.00 0.00 0.00 0.00 0.00 0.00 0.60 0.00 0.80 0.00 0.00 0.59 0.00 0.75 0.00 0.00 0.00 0.00 0.00 0.00 0.00 0.00 0.00 0.00 0.00 0.00 0.00 0.72 0.00 0.00 0.00 0.00 0.00 0.84 0.73 0.00 0.00 0.00 0.00 0.00 0.00 0.00 0.00 0.00 0.66 0.97 0.00 0.00 0.00 0.56 0.00 0.00 0.88 0.00 0.00 0.84 0.00 0.00 0.00 0.00 0.00 0.91 0.00 0.00
0.00 0.76 0.00 0.00 0.00 0.70 0.00 0.00 0.87 0.00 0.00 0.00 0.80 0.00 0.00 0.00 0.00 0.00 0.00 0.00 0.55 0.00 0.00 0.00 0.00 0.00 0.66 0.58 0.00 0.00 0.00 0.00 0.00 0.00 0.92 0.00 0.68 0.88 0.00 0.00 0.00 0.00 0.00 0.00 0.00 0.00 0.61 0.00 0.98 0.00 0.00 0.00 0.00 0.00 0.00 0.00 0.00 0.00 0.00 0.57 0.00 0.00 0.00 0.00 0.00 0.00 0.58 0.00 0.00 0.00 0.99 0.00 0.00 0.00 0.00 0.00 0.00 0.00 0.00 0.00 0.00 0.00 0.52 0.00 0.00 0.00 0.00 0.00 0.00 0.00 0.86 0.00 0.00 0.00 0.00 0.00 0.00 0.00 0.00 0.60 0.74 0.00 0.00 0.85 0.00 0.00 0.00 0.77 0.00 0.00 0.00 0.00 0.00 0.00 0.00 0.00 0.72 0.00 0.00 0.00 0.00 0.00 0.00 0.00 0.00 0.75 0.00 0.00 0.00 0.89 0.00 0.00 0.00 0.00 0.00 0.00 0.00 0.00 0.00 0.00
0.00 0.00 0.60 0.64 0.00 0.00 0.00 0.84 0.00 0.00 0.00 0.87 0.00 0.00 0.00 0.00 0.00 0.56 0.95 0.00 0.00 0.00 0.00 0.79 0.00 1.00 0.96 0.00 0.59 0.67 0.00 0.81 0.00 0.75 0.00 0.00 0.65 0.00 0.00 0.73 0.00 0.00 0.00 0.00 0.00 0.54 0.00 0.00 0.83 0.00 0.77 0.00 0.00 0.00 0.00 0.00 0.00 0.00 0.00 0.00 0.66 0.90 0.00 0.00 0.97 0.00 0.00 0.98 0.00 0.68 0.00 0.00 0.00 0.92 0.00 0.00 0.00 0.00 0.00 0.93 0.73 0.00 0.79 0.00 0.00 0.00 0.97 0.00 0.67 0.00 0.54 0.86 0.86 0.00 0.00 0.00 0.00 0.00 0.00 0.00 0.74 0.00 0.00 0.00 0.57 0.00 0.68 0.00 0.00 0.00 0.00 0.00 0.00 0.00 0.00 0.56 0.00 0.99 0.88 0.80 0.00 0.00 0.92 0.68 0.00 0.00 0.00 0.58 0.00 0.00 0.00 0.99 0.00 0.89 0.00 0.00 0.00 0.00 0.00 0.00
0.00 0.00 0.00 0.00 0.00 0.00 0.51 0.77 0.00 0.60 0.00 0.00 0.00 0.00 0.00 0.00 0.58 0.00 0.00 0.00 0.00 0.00 0.00 0.00 0.00 0.00 0.00 0.00 0.00 0.00 0.00 0.00 0.61 0.00 0.00 0.84 0.00 0.00 0.74 0.00 0.92 0.00 0.00 0.00 0.98 0.00 0.00 0.00 0.00 0.00 0.00 0.00 0.00 0.00 0.00 0.00 0.92 0.00 0.00 0.00 0.00 0.00 0.00 0.00 0.00 0.50 0.00 0.00 0.00 0.73 0.00 0.00 0.00 0.00 0.93 0.00 0.00 0.00 0.00 0.00 0.00 0.00 0.00 0.00 0.00 0.00 0.00 0.00 0.00 0.97 0.00 0.69 0.85 0.00 0.00 0.00 0.80 0.67 0.00 0.00 0.00 0.81 0.00 0.00 0.00 0.00 0.00 0.61 0.00 0.00 0.00 0.00 0.00 0.00 0.00 0.00 0.00 0.00 0.00 0.00 0.00 0.80 0.00 0.00 0.00 0.00 0.00 0.00 0.99 0.00 0.00 0.00 0.51 0.00 0.00 0.82 0.00 0.81 0.00 0.00
0.00 0.00 0.92 0.00 0.58 0.00 0.77 0.00 0.00 0.00 0.85 0.00 0.00 0.00 0.00 0.58 0.00 0.00 0.00 0.00 0.00 0.00 0.63 0.00 0.00 0.00 0.64 0.96 0.93 0.00 0.00 0.00 0.95 0.00 0.00 0.00 0.91 0.00 0.00 0.00 0.00 0.00 0.00 0.00 0.00 0.75 0.00 0.00 0.00 0.00 0.00 0.00 0.00 0.00 0.00 0.00 0.00 0.00 0.00 0.00 0.00 0.00 0.00 0.00 0.00 0.00 0.69 0.98 0.00 0.00 0.00 0.00 0.00 0.00 0.00 0.00 0.00 0.00 0.00 0.00 0.00 0.82 0.00 0.78 0.00 0.00 0.00 0.00 0.00 0.00 0.00 0.85 0.00 0.00 0.75 0.00 0.00 0.00 0.51 0.99 0.90 0.00 0.00 0.63 0.00 0.00 0.00 0.00 0.00 0.00 0.00 0.00 0.51 0.00 0.00 0.00 0.74 0.00 0.00 0.00 0.56 0.56 0.87 0.78 0.79 0.00 1.00 0.00 0.00 0.61 0.00 0.00 0.00 0.00 0.52 0.00 0.86 0.57 0.00 0.00
0.00 0.00 0.00 0.00 0.80 0.55 0.00 0.00 0.00 0.00 0.88 0.00 0.00 0.67 0.00 0.00 0.80 0.00 0.00 0.00 0.53 0.79 0.00 0.00 0.95 0.00 0.00 0.00 0.80 0.00 0.56 0.97 0.00 0.00 0.67 0.00 0.79 0.00 0.00 0.92 0.00 0.82 0.00 0.00 0.00 0.71 0.97 0.00 0.00 0.58 0.00 0.00 0.00 0.94 0.00 0.00 0.00 0.00 0.00 0.00 0.00 0.00 0.00 0.95 0.00 0.00 0.00 0.00 0.00 0.85 0.00 0.00 0.00 0.54 0.00 0.00 0.00 0.00 0.00 0.00 0.00 0.00 0.00 0.00 0.00 0.00 0.00 0.00 0.00 0.00 0.83 0.00 0.00 0.00 0.00 0.00 0.00 0.00 0.67 0.00 0.00 0.00 0.00 0.00 0.00 0.00 0.81 0.00 0.00 0.56 0.94 0.79 0.61 0.88 0.00 0.00 0.00 0.52 0.00 0.53 0.00 0.00 0.57 0.00 0.75 0.70 0.00 0.51 0.00 0.00 0.00 0.00 0.00 0.00 0.50 0.59 0.00 0.00 0.00 0.00
0.00 0.77 0.00 0.00 0.68 0.95 0.00 0.00 0.00 0.00 0.00 0.00 0.82 0.00 0.00 0.00 0.00 0.00 0.00 0.00 0.00 0.00 0.00 0.00 0.94 0.00 0.00 0.00 0.00 0.00 0.99 0.00 0.00 1.00 1.00 0.00 0.87 0.00 0.00 0.00 0.63 0.68 0.00 0.00 0.00 0.00 0.00 0.79 0.00 0.70 0.00 0.00 0.00 0.00 0.64 0.00 0.63 0.00 0.57 0.00 0.00 0.52 0.00 0.00 0.00 0.00 0.00 0.00 0.00 0.00 0.00 0.00 0.00 0.00 0.91 0.00 0.00 0.00 0.70 0.00 0.00 0.76 0.59 0.00 0.73 0.69 0.00 0.00 0.00 0.00 0.00 0.00 0.00 0.00 0.00 0.00 0.00 0.79 0.00 0.00 0.00 0.00 0.60 0.73 0.69 0.00 0.00 0.00 0.77 0.00 0.00 0.00 0.80 0.94 0.00 0.00 0.00 0.00 0.00 0.00 0.68 0.00 0.00 0.00 0.00 0.00 0.00 0.00 0.51 0.00 0.84 0.00 0.00 0.00 0.00 0.00 0.00 0.00 0.00 0.00
0.66 0.00 0.62 0.72 0.79 0.61 0.00 0.00 0.00 0.00 0.93 0.00 0.00 0.00 0.00 0.00 0.00 0.00 0.54 0.00 0.00 0.00 0.00 0.93 0.88 0.00 0.00 0.00 0.00 0.00 0.00 0.62 0.00 0.00 0.00 0.79 0.00 0.63 0.00 0.00 0.00 0.00 0.00 0.00 0.77 0.00 0.93 0.00 0.00 0.77 0.00 0.78 0.00 0.00 0.00 0.91 0.00 0.87 0.82 0.00 0.74 0.00 0.80 0.00 0.00 0.00 0.00 0.00 0.00 0.00 0.91 0.81 0.73 0.00 0.55 0.00 0.00 0.00 0.00 0.00 0.00 0.70 0.00 0.00 0.88 0.00 0.00 0.00 0.59 0.74 0.00 0.00 0.00 0.00 0.00 0.00 0.00 0.00 0.00 0.00 0.00 0.00 0.00 0.00 0.00 0.00 0.00 0.00 0.00 0.00 0.00 0.00 0.00 0.00 0.00 0.66 0.00 0.00 0.00 0.00 0.00 0.88 0.86 0.00 0.00 0.00 0.00 0.00 0.00 0.00 0.00 0.00 0.00 0.64 0.00 0.81 0.00 0.00 0.00 0.00
0.00 0.00 0.00 0.89 0.94 0.64 0.00 0.00 0.51 0.00 0.00 0.00 0.00 0.00 0.00 0.66 0.00 0.00 0.00 0.00 0.00 0.00 0.93 0.85 0.00 0.00 0.00 0.76 0.00 0.00 0.00 0.00 0.65 0.00 0.00 0.00 0.00 0.00 0.00 0.00 0.89 0.00 0.00 0.00 0.00 0.00 0.76 0.00 0.84 0.69 0.00 0.00 0.00 0.00 0.00 0.00 0.00 0.00 0.00 0.00 0.89 0.81 0.61 0.66 0.00 0.00 0.00 0.00 0.00 0.56 0.93 0.00 0.00 0.00 0.00 0.00 0.86 0.00 0.00 0.00 0.00 0.00 0.00 0.00 0.00 0.94 0.00 0.00 0.00 0.00 0.85 0.00 0.00 0.00 0.00 0.00 0.00 0.00 0.00 0.00 0.00 0.00 0.00 0.84 0.66 0.56 0.00 0.00 0.53 0.00 0.00 0.00 0.00 0.00 0.00 0.00 0.00 0.00 0.00 0.00 0.00 0.00 0.00 0.00 0.59 0.00 0.00 0.00 0.00 0.00 0.00 0.00 0.00 0.00 0.00 0.00 0.00 0.66 0.00 0.00
0.00 0.00 0.00 0.00 0.72 0.00 0.00 0.00 0.00 0.00 0.00 0.00 0.00 0.00 0.00 0.00 0.00 0.00 0.00 0.00 0.00 0.00 0.00 0.00 0.75 0.61 0.66 0.00 0.00 0.00 0.71 0.00 0.00 0.80 0.00 0.62 0.00 0.00 0.00 0.00 0.87 0.00 0.00 0.00 0.00 0.00 0.00 0.00 0.94 0.00 0.00 0.00 0.00 0.00 0.00 0.00 0.00 0.00 0.00 0.00 0.00 0.00 0.80 0.00 0.61 0.00 0.00 0.00 0.00 0.84 0.00 0.98 0.00 0.56 0.75 0.97 0.00 0.00 0.00 0.70 0.53 0.00 0.00 0.00 0.00 0.00 0.00 0.59 0.00 0.00 0.00 0.95 0.00 0.75 0.00 0.00 0.00 0.00 0.00 0.00 0.66 0.00 0.00 0.00 0.00 0.00 0.97 0.00 0.00 0.00 0.00 0.00 0.00 0.00 0.58 0.00 0.00 0.00 0.00 0.00 0.00 0.00 0.83 0.00 0.00 0.00 0.58 0.00 0.00 0.75 0.98 0.76 0.00 0.00 0.00 0.90 0.00 0.00 0.00 0.00
0.00 0.00 0.00 0.00 0.00 0.00 0.00 0.00 0.00 0.00 0.00 0.63 0.00 0.00 0.00 0.00 0.00 0.00 0.91 0.00 0.00 0.00 0.00 0.00 0.00 0.99 0.79 0.68 0.00 0.91 0.00 0.00 0.61 0.00 0.64 0.78 0.00 0.50 0.85 0.93 0.00 0.67 0.87 0.53 0.00 0.00 0.00 0.00 0.00 0.00 0.60 0.53 0.00 0.00 0.70 0.63 0.00 0.93 0.86 0.56 0.00 0.00 0.00 0.00 0.90 0.00 0.00 0.00 0.00 0.50 0.00 0.00 0.79 0.00 0.00 0.98 0.00 0.00 0.00 1.00 0.00 0.54 0.00 0.00 0.00 0.00 0.00 0.00 0.74 0.00 0.78 0.00 0.00 0.94 0.00 0.00 0.00 0.00 0.00 0.00 0.53 0.00 0.00 0.00 0.00 0.00 0.00 0.00 0.00 0.00 0.00 0.87 0.00 0.00 0.00 0.00 0.00 0.00 0.85 0.00 0.00 0.00 0.00 0.00 0.00 0.00 0.00 0.00 0.00 0.00 0.00 0.85 0.00 0.00 0.72 0.00 0.00 0.00 0.00 0.00
0.00 0.00 0.71 0.64 0.00 0.00 0.00 0.00 0.00 0.00 0.00 0.00 0.98 0.00 0.80 0.00 0.86 0.00 0.00 0.00 0.00 0.00 0.00 0.00 0.00 0.81 0.68 0.88 0.00 0.00 0.95 0.00 0.00 0.00 0.94 0.51 0.67 0.00 0.66 0.00 0.00 0.00 0.00 0.00 0.00 0.00 0.00 0.98 0.00 0.00 0.00 0.00 0.00 0.00 0.00 0.00 0.00 0.53 0.00 0.00 0.00 0.56 0.00 0.82 0.00 0.00 0.00 0.00 0.00 0.00 0.00 0.00 0.00 0.00 0.00 0.00 0.73 0.52 0.00 0.00 0.00 0.60 0.00 0.80 0.00 0.00 0.00 0.00 0.73 0.00 0.74 0.83 0.00 0.00 0.00 0.00 0.00 0.00 0.00 0.00 0.00 0.00 0.00 0.00 0.56 0.00 0.57 0.00 0.00 0.00 0.00 0.00 0.00 0.00 0.00 0.00 0.00 0.00 0.00 0.00 0.00 0.74 0.00 0.76 0.00 0.00 0.58 0.00 0.58 0.00 0.00 0.00 0.00 1.00 0.95 0.58 0.00 0.00 0.00 0.00
0.00 0.66 0.00 0.00 0.79 0.00 0.00 0.69 0.00 0.00 0.00 0.00 0.00 0.00 0.00 0.00 0.00 0.00 0.00 0.00 0.00 0.00 0.92 0.00 0.88 0.00 0.00 0.00 0.93 0.00 0.00 0.00 0.78 0.00 0.00 0.00 0.76 0.00 0.00 0.00 0.89 0.00 0.00 0.00 0.00 0.00 0.00 0.00 0.99 0.00 0.00 0.00 0.00 0.56 0.00 0.74 0.00 0.93 0.00 0.00 0.00 0.00 0.69 0.00 0.00 0.00 0.00 0.00 0.94 0.00 0.00 0.00 0.00 0.93 0.00 0.86 0.74 0.00 0.79 0.00 0.00 0.00 0.00 0.00 0.00 0.00 0.00 0.66 0.00 0.00 0.00 0.00 0.00 0.00 0.00 0.00 0.00 0.00 0.00 0.00 0.00 0.69 0.00 0.00 0.66 0.00 0.00 0.00 0.00 0.00 0.58 0.00 0.00 0.62 0.00 0.00 0.00 0.00 0.00 0.00 0.00 0.00 0.00 0.00 0.00 0.00 0.63 0.00 0.62 0.00 0.00 0.00 0.00 0.70 0.00 0.00 0.00 1.00 0.00 0.00
