140
0.00 0.00 0.00 0.00 0.72 0.53 0.60 0.63 0.00 0.00 0.00 0.00 0.00 0.00 0.00 0.00 0.00 0.00 0.62 0.00 0.50 0.00 0.52 0.00 0.00 0.00 0.76 1.00 0.00 0.00 0.00 0.00 0.00 0.00 0.00 0.59 0.96 0.00 0.00 0.00 0.00 0.00 0.00 0.00 0.00 0.00 0.00 0.83 0.00 0.00 0.00 0.00 0.76 0.00 0.00 0.00 0.00 0.00 0.00 0.00 0.00 0.00 0.00 0.00 0.74 0.00 0.00 0.00 0.00 0.00 0.61 0.00 0.56 0.76 0.00 0.00 0.78 0.00 0.00 0.00 0.66 0.00 0.00 0.00 0.52 0.00 0.00 0.00 0.00 0.54 0.00 0.00 0.89 0.81 0.00 0.00 0.00 0.00 0.83 0.00 0.00 0.86 0.00 0.74 0.00 0.53 0.00 0.00 0.00 0.00 0.00 0.00 0.00 0.00 0.00 0.00 0.99 0.00 0.00 0.00 0.00 0.79 0.59 0.74 0.00 0.00 0.00 0.55 0.00 0.00 0.52 0.00 0.00 0.00 0.90 0.00 0.00 0.72 0.00 0.00
0.00 0.00 0.00 0.00 0.00 0.00 0.00 0.00 0.00 0.00 0.65 0.00 0.00 0.00 0.00 0.00 0.00 0.00 0.83 0.00 0.99 0.00 0.00 0.88 0.00 0.00 0.00 0.94 0.00 0.00 0.00 0.00 0.00 0.00 0.00 0.00 0.00 0.00 0.67 0.00 0.00 0.00 0.00 0.00 0.00 0.74 0.90 0.00 0.74 0.00 0.00 0.92 0.00 0.76 0.00 0.00 0.00 0.00 0.64 0.00 0.59 0.81 0.79 0.00 0.79 0.75 0.00 0.63 0.95 0.55 0.00 0.00 0.00 0.00 0.00 0.00 0.00 0.00 0.00 0.00 0.00 0.00 0.00 0.00 0.00 0.58 0.00 0.93 0.96 0.00 0.00 0.59 0.00 0.00 0.73 0.00 0.00 0.00 0.00 0.56 0.00 0.76 0.00 0.00 0.00 0.00 0.74 0.00 0.64 0.00 0.00 0.00 0.00 0.63 0.84 0.00 0.00 0.00 0.00 0.62 0.00 0.00 0.56 0.00 0.00 0.00 0.00 0.00 0.00 0.00 0.00 0.00 0.00 0.00 0.76 0.87 0.90 0.00 0.54 0.00
0.00 0.00 0.00 0.00 0.00 0.63 0.53 0.00 0.84 0.84 0.00 0.00 0.53 0.00 0.00 0.79 0.00 0.00 0.89 0.00 0.58 0.99 0.78 0.00 0.00 0.00 0.70 0.00 0.00 0.00 0.00 0.00 0.00 0.00 0.00 0.00 0.00 0.00 0.00 0.00 0.00 0.00 0.00 0.00 0.00 0.00 0.83 0.00 0.63 0.00 0.00 0.69 0.00 0.00 0.00 0.00 0.73 0.00 0.00 0.00 0.59 0.00 0.00 0.00 0.59 0.00 0.61 0.00 0.83 0.00 0.92 0.00 0.59 0.00 0.00 0.00 0.00 0.00 0.00 0.00 0.91 0.00 0.79 0.00 0.88 0.85 0.00 0.00 0.57 0.00 0.00 0.70 0.00 0.00 0.00 0.00 0.00 0.53 0.00 0.00 0.00 0.00 0.00 0.00 0.00 0.75 0.98 0.00 0.00 0.00 0.00 0.00 0.00 0.00 0.00 0.00 0.00 0.96 0.76 0.00 0.96 0.00 0.00 0.00 0.00 0.00 0.56 0.00 0.00 0.00 0.00 0.83 0.86 0.88 0.00 0.00 0.00 0.00 0.00 0.00
0.00 0.90 0.94 0.00 0.00 0.00 0.90 0.00 0.00 0.86 0.93 0.00 0.00 0.00 0.62 0.00 0.00 0.59 0.00 0.00 0.99 0.00 0.00 0.80 0.00 0.00 0.00 0.00 0.00 0.00 0.79 0.00 0.92 0.69 0.92 0.74 0.00 0.00 0.00 0.59 0.00 0.00 0.00 0.00 0.00 0.00 0.79 0.00 0.94 0.55 0.00 0.00 0.00 0.00 0.00 0.00 0.00 0.00 0.95 0.53 0.00 0.65 0.00 0.00 0.00 0.00 0.00 0.00 0.00 0.90 0.97 0.00 0.00 0.00 0.00 0.00 0.00 0.50 0.00 0.72 0.00 0.00 0.00 0.73 0.00 0.00 0.84 0.00 0.00 0.00 0.00 0.00 0.65 0.00 0.00 0.77 0.00 0.87 0.00 0.00 0.00 0.00 0.00 0.00 0.00 0.87 0.00 0.00 0.00 0.87 0.00 0.00 0.68 0.81 0.00 0.00 0.00 0.00 0.00 0.78 0.53 0.00 0.00 0.00 0.68 0.00 0.00 0.94 0.00 0.00 0.00 0.69 0.00 0.00 0.66 0.00 0.00 0.00 0.00 0.00
0.00 0.96 0.00 0.00 0.00 0.00 0.00 0.00 0.00 0.96 0.00 0.00 0.00 0.00 0.00 0.00 0.00 0.00 0.00 0.00 0.00 0.00 0.00 0.00 0.00 0.00 0.00 0.00 0.66 0.00 0.00 0.00 0.00 0.00 0.00 0.00 0.00 0.00 0.00 0.00 0.00 0.00 0.00 0.00 0.00 0.90 0.00 0.57 0.82 0.00 0.00 0.00 0.00 0.00 0.00 0.00 0.00 0.80 0.66 0.00 0.00 0.00 0.00 0.00 0.97 0.00 0.00 0.00 0.00 0.00 0.56 0.00 0.00 0.00 0.00 0.00 0.00 0.00 0.00 0.00 0.00 0.71 0.00 0.00 0.00 0.00 0.00 0.60 0.00 0.00 0.00 0.00 0.99 0.00 0.00 0.00 0.68 0.00 0.00 0.97 0.00 0.00 0.00 0.56 0.00 0.00 0.00 0.00 0.00 0.00 0.00 0.00 0.00 0.77 0.00 0.00 0.00 0.00 0.00 0.00 0.00 0.00 0.00 0.00 0.00 0.53 0.00 0.00 0.94 0.00 0.00 0.00 0.00 0.63 0.00 0.00 0.62 0.00 0.00 0.76
0.00 0.00 0.00 0.00 0.00 0.00 0.69 0.00 0.00 0.00 0.95 0.00 0.00 0.61 0.77 0.00 0.00 0.00 0.00 0.00 0.00 0.00 0.00 0.00 0.00 0.71 0.00 0.00 0.00 0.52 0.00 0.85 0.00 0.00 0.00 0.93 0.00 0.00 0.00 0.66 0.91 0.00 0.87 0.00 0.00 0.00 0.00 0.00 0.73 0.00 0.00 0.81 0.00 0.00 0.00 0.00 0.00 0.90 0.00 0.90 0.00 0.00 0.00 0.00 0.75 0.67 0.00 0.00 0.00 0.93 0.00 0.94 0.00 0.79 0.00 0.00 0.61 0.58 0.00 0.00 0.00 0.00 0.89 0.00 0.00 0.00 0.97 0.83 0.00 0.00 0.00 0.00 0.00 0.56 0.60 0.00 0.00 0.00 0.00 0.00 0.00 0.99 0.00 0.00 0.00 0.00 0.00 0.00 0.00 0.00 0.00 0.00 0.00 0.77 0.89 0.00 0.00 0.00 0.00 0.81 0.00 0.00 0.88 0.00 0.00 0.59 0.00 0.85 0.00 0.00 0.00 0.00 0.00 0.00 0.95 0.00 0.00 0.98 0.00 0.00
0.00 0.90 0.58 0.00 0.94 0.00 0.00 0.00 0.00 0.00 0.71 0.00 0.00 0.00 0.93 0.00 0.00 0.00 0.00 0.78 0.00 0.82 0.00 0.00 0.81 0.00 0.00 0.00 0.00 0.00 0.00 0.00 0.00 0.00 0.78 0.00 0.00 0.00 0.00 1.00 0.00 0.00 0.00 0.78 0.84 0.65 0.00 0.00 0.00 0.00 0.00 0.88 0.00 0.00 0.00 0.00 0.00 0.00 0.00 0.00 0.00 0.00 0.00 0.00 0.69 0.00 0.99 0.00 0.00 0.00 0.00 0.00 0.85 0.00 0.98 0.00 0.00 0.00 0.00 0.00 0.83 0.00 0.00 0.00 0.71 0.58 0.00 0.00 0.00 0.95 0.00 0.00 0.00 0.75 0.00 0.69 0.00 0.00 0.00 0.97 0.56 0.00 0.00 0.00 0.53 0.00 0.56 0.00 0.85 0.64 0.00 0.00 0.00 0.00 0.88 0.00 0.99 0.80 0.00 0.00 0.00 0.00 0.00 0.86 0.69 0.00 0.00 0.00 0.00 0.00 0.00 0.00 0.00 0.00 0.00 0.00 0.00 0.00 0.83 0.00
0.00 0.00 0.00 0.00 0.00 0.00 0.00 0.00 0.00 0.00 0.00 0.00 0.00 0.00 0.81 0.69 0.00 0.98 0.00 0.61 0.00 0.00 0.00 0.00 0.00 0.00 0.00 0.00 0.00 0.00 0.61 0.00 0.00 0.00 0.00 0.00 0.00 0.00 0.00 0.00 0.00 0.00 0.00 0.00 0.00 0.00 0.00 0.00 0.00 0.93 0.98 0.00 0.00 0.00 0.00 0.00 0.52 0.00 0.00 0.00 0.60 0.00 0.00 0.00 0.00 0.00 0.00 0.00 0.00 0.72 0.87 0.00 0.00 0.00 0.00 0.00 0.00 0.65 0.00 0.00 0.93 0.00 0.62 0.64 0.52 0.00 0.00 0.00 0.77 0.00 0.00 0.00 0.00 0.00 0.00 0.00 0.51 0.00 0.00 0.00 0.00 0.00 0.00 0.00 0.00 0.00 0.00 0.00 0.00 0.00 0.00 0.00 0.52 0.00 0.00 0.00 0.00 0.00 0.00 0.69 0.00 0.00 0.65 0.00 0.00 0.00 0.00 0.59 0.00 0.90 0.00 0.77 0.00 0.00 0.98 0.78 0.00 0.90 0.00 0.00
0.00 0.00 0.00 0.00 0.00 0.78 0.00 0.99 0.00 0.00 0.00 0.00 0.00 0.00 0.00 0.00 0.00 0.00 0.00 0.00 0.00 0.00 0.00 0.00 0.00 0.00 0.00 0.00 0.00 0.00 0.00 0.86 0.00 0.00 0.76 0.00 0.78 0.00 0.00 0.00 0.00 0.00 0.83 0.00 0.00 0.00 0.84 0.00 0.00 0.00 0.00 0.00 0.00 0.00 0.00 0.00 0.00 0.00 0.00 0.00 0.00 0.88 0.00 0.00 0.00 0.00 0.00 0.00 0.95 0.00 0.00 0.00 0.00 0.99 0.00 0.00 0.68 0.00 0.53 0.00 0.00 0.00 0.00 0.82 0.00 0.66 0.68 0.00 0.00 0.00 0.00 0.00 0.00 0.00 0.00 0.00 0.00 0.00 0.76 0.00 0.00 0.00 0.97 0.00 0.00 0.95 0.00 0.54 0.98 0.00 0.00 0.00 0.00 0.00 0.00 0.00 0.68 0.77 0.00 0.00 0.53 0.00 0.96 0.00 0.00 0.74 0.00 0.00 0.00 0.68 0.00 0.00 0.00 0.00 0.00 0.97 0.00 0.00 0.84 0.65
0.69 0.60 0.96 0.00 0.88 0.00 0.72 0.00 0.00 0.00 0.00 0.00 0.00 0.00 0.00 0.00 0.00 0.69 0.00 0.00 0.00 0.00 0.00 0.81 0.00 0.00 0.00 0.00 0.00 0.00 0.00 0.00 0.80 0.75 0.00 0.00 0.00 0.00 0.88 0.00 0.00 0.61 0.76 0.00 0.90 0.93 0.00 0.77 0.00 0.00 0.57 0.00 0.00 0.00 0.00 0.00 0.84 0.00 0.00 0.80 0.00 0.71 0.00 0.00 0.00 0.00 0.00 0.00 0.00 0.00 0.98 0.00 0.00 0.00 0.00 0.00 0.00 0.00 0.91 0.78 0.00 0.00 0.00 0.00 0.00 0.00 0.00 0.55 0.00 0.00 0.66 0.63 0.00 0.96 0.87 0.98 0.00 0.00 0.00 0.00 0.00 0.00 0.64 0.86 0.00 0.00 0.00 0.00 0.00 0.00 0.00 0.00 0.78 0.70 0.00 0.00 0.59 0.00 0.00 0.00 0.00 0.00 0.74 0.00 0.00 0.74 0.00 0.00 0.00 0.00 0.00 0.00 0.00 0.00 0.00 0.00 0.69 0.60 0.00 0.00
0.00 0.00 0.00 0.50 0.00 0.00 0.00 0.00 0.00 0.00 0.00 0.81 0.00 0.00 0.74 0.00 0.00 0.00 0.54 0.00 0.00 0.98 0.00 0.00 0.00 0.65 0.00 0.00 0.00 0.62 0.00 0.00 0.00 0.00 0.00 0.00 0.00 0.62 0.00 0.85 0.00 0.79 0.00 0.00 0.89 0.00 0.00 0.00 0.00 0.00 0.00 0.00 0.00 0.94 0.00 0.00 0.00 0.00 0.00 0.63 0.00 0.00 0.00 0.89 0.00 0.00 0.62 0.00 0.87 0.00 0.00 0.00 0.00 0.00 0.00 0.00 0.00 0.78 0.00 0.00 0.00 0.83 0.00 0.60 0.00 0.66 0.00 0.84 0.00 0.00 0.00 0.00 0.00 0.00 0.95 0.00 0.00 0.00 0.00 0.69 0.53 0.00 0.00 0.93 0.00 0.98 0.00 0.00 0.00 0.00 0.92 0.00 0.00 0.55 0.00 0.80 0.00 0.72 0.00 0.00 0.00 0.99 0.90 0.00 0.00 0.00 0.00 0.00 0.00 0.00 0.00 0.00 0.00 0.00 0.00 0.00 0.00 0.00 0.00 0.75
0.82 0.00 0.00 0.00 0.00 0.00 0.00 0.53 0.58 0.00 0.00 0.00 0.00 0.79 0.55 0.00 0.00 0.00 0.97 0.00 0.94 0.00 0.67 0.56 0.00 0.00 0.00 0.00 0.00 0.00 0.00 0.00 0.00 0.00 0.00 0.00 0.00 0.00 0.00 0.86 0.00 0.99 0.00 0.93 0.00 0.51 0.00 0.00 0.75 0.84 0.00 0.00 0.83 0.56 0.00 0.00 0.60 0.00 0.00 0.00 0.00 0.00 0.00 0.50 0.00 0.00 0.69 0.00 0.00 0.74 0.85 0.90 0.00 0.00 0.89 0.00 0.79 0.00 0.00 0.00 0.00 0.76 0.00 0.57 0.00 0.00 0.00 0.66 0.00 0.00 0.00 0.00 0.00 0.00 0.00 0.90 0.00 0.00 0.00 0.00 0.00 0.55 0.00 0.00 0.00 0.00 0.00 0.83 0.00 0.00 0.72 0.57 0.63 0.00 0.00 0.00 0.00 0.00 0.00 0.00 0.00 0.00 0.00 0.00 0.00 0.00 0.00 0.00 0.00 0.00 0.81 0.00 0.74 0.00 0.00 0.00 0.00 0.00 0.00 0.00
0.00 0.00 0.00 0.00 0.00 0.00 0.00 0.00 0.00 0.92 0.00 0.00 0.00 0.00 0.00 0.00 0.00 0.00 0.00 0.00 0.71 0.00 0.00 0.98 0.88 0.00 0.76 0.00 0.57 0.93 0.00 0.74 0.00 0.00 0.00 0.00 0.00 0.91 0.00 0.00 0.00 0.62 0.00 0.00 0.00 0.81 0.62 0.00 0.00 0.00 0.00 0.00 0.00 0.00 0.00 0.00 0.00 0.00 0.00 0.00 0.00 0.00 0.64 0.00 0.53 0.80 0.00 0.73 0.00 0.00 0.00 0.93 0.00 0.00 0.00 0.00 0.00 0.00 0.00 0.00 0.00 0.00 0.00 0.94 0.00 0.00 0.00 0.00 0.00 0.00 0.00 0.00 0.62 0.00 0.00 0.00 0.00 0.00 0.00 0.63 0.50 0.00 0.67 0.00 0.77 0.00 0.00 0.00 0.00 0.00 0.00 0.00 0.92 0.00 0.00 0.00 0.00 0.00 0.00 0.87 0.00 0.00 0.00 0.54 0.00 0.00 0.00 0.00 0.00 0.00 0.00 0.00 0.00 0.00 0.00 0.88 0.00 0.00 0.00 0.00
0.91 0.00 0.00 0.00 0.00 0.00 0.00 0.59 0.00 0.00 0.00 0.00 0.00 0.00 0.92 0.00 0.00 0.00 0.00 0.00 0.00 0.00 0.63 0.00 0.98 0.00 0.00 0.00 0.00 0.00 0.00 0.00 0.00 0.00 0.00 0.00 0.00 0.00 0.00 0.00 0.95 0.00 0.00 0.00 0.00 0.00 0.00 0.00 0.00 0.00 0.94 0.00 0.00 0.00 0.00 0.00 0.00 0.00 0.00 0.00 0.80 0.00 0.00 0.00 0.66 0.00 0.00 0.00 0.00 0.53 0.00 0.00 0.98 0.00 0.67 0.00 0.89 0.54 0.00 0.00 0.00 0.00 0.00 0.62 0.00 0.00 0.00 0.00 0.77 0.00 0.00 0.00 0.00 0.00 0.00 0.00 0.66 0.00 0.00 0.00 0.00 0.00 0.00 0.71 0.00 0.52 0.69 0.00 0.00 0.00 0.00 0.99 0.00 0.93 0.00 0.00 0.00 0.00 0.00 0.61 0.00 0.00 0.00 0.00 0.00 0.00 0.00 0.00 0.00 0.87 0.00 0.99 0.00 0.00 0.59 0.88 0.00 0.98 0.00 0.00
0.00 0.00 0.00 0.80 0.00 0.00 0.00 0.00 0.92 0.00 0.00 0.00 0.00 0.00 0.00 0.00 0.00 0.00 0.00 0.00 0.00 0.00 0.73 0.00 0.92 0.86 0.00 0.00 0.65 0.80 0.82 0.00 0.00 0.00 0.00 0.00 0.00 0.00 0.00 0.00 0.00 0.00 0.65 0.52 0.00 0.00 0.00 0.71 0.71 0.00 0.00 0.00 0.00 0.00 0.00 0.00 0.00 0.00 0.00 0.00 0.00 0.00 0.70 0.00 0.00 0.80 0.00 0.00 0.00 0.00 0.54 0.00 0.00 0.00 0.00 0.81 0.00 0.00 0.61 0.00 0.00 0.00 0.00 0.00 0.00 0.68 0.00 0.00 0.00 0.00 0.00 0.00 0.77 0.00 0.00 0.00 0.84 0.86 0.99 0.00 0.59 0.00 0.00 0.77 0.00 0.95 0.00 0.00 0.00 0.00 0.00 0.00 0.00 0.93 0.00 0.00 0.00 0.00 0.93 0.00 0.00 0.00 0.00 0.53 0.00 0.00 0.00 0.98 0.00 0.00 0.00 0.93 0.00 0.00 0.00 0.00 0.00 0.60 0.00 0.00
0.00 0.00 0.00 0.00 0.00 0.00 0.89 0.00 0.99 0.00 0.00 0.00 0.99 0.00 0.00 0.00 0.00 0.00 0.00 0.00 0.00 0.89 0.00 0.00 0.00 0.00 0.00 0.00 0.97 0.00 0.00 0.72 0.00 0.00 0.00 0.00 0.67 0.00 0.00 0.97 0.00 0.00 0.00 0.00 0.89 0.00 0.00 0.56 0.88 0.00 0.00 0.00 0.76 0.67 0.00 0.66 0.00 0.00 0.00 0.00 0.00 0.00 0.00 0.00 0.00 0.00 0.00 0.00 0.00 0.00 0.00 0.00 0.00 0.00 0.00 0.00 0.00 0.00 0.00 0.00 0.95 0.00 0.00 0.00 0.98 0.00 0.00 0.00 0.00 0.00 0.00 0.00 0.00 0.00 0.00 0.00 0.00 0.00 0.00 0.00 0.00 0.53 0.00 0.00 0.53 0.54 0.00 0.00 0.00 0.00 0.50 0.00 0.00 0.00 0.00 0.00 0.89 0.00 0.00 0.00 0.00 0.00 0.66 0.00 0.00 0.00 0.00 0.00 0.00 0.00 0.00 0.00 0.00 0.00 0.00 0.00 0.00 0.00 0.00 0.00
0.00 0.00 0.00 0.00 0.00 0.00 0.62 0.00 0.00 0.00 0.00 0.00 0.71 0.00 0.00 0.00 0.00 0.00 0.59 0.75 0.00 0.85 0.00 0.68 0.00 0.00 0.00 0.00 0.00 0.58 0.56 0.62 0.00 0.00 0.00 0.00 0.00 0.00 0.00 0.00 0.52 0.70 0.00 0.00 0.00 0.00 0.56 0.00 0.00 0.00 0.79 0.00 0.66 0.00 0.00 0.00 0.00 0.00 0.00 0.00 0.62 0.00 0.00 0.00 0.00 0.00 0.80 0.00 0.55 0.88 0.00 0.00 0.00 0.00 0.82 0.00 0.00 0.00 0.93 0.00 0.00 0.00 0.00 0.00 0.00 0.00 0.00 0.59 0.00 0.00 0.00 0.00 0.00 0.56 0.00 0.96 0.95 0.00 0.00 0.00 0.00 0.00 0.63 0.89 0.00 0.00 0.82 0.00 0.00 0.00 0.84 0.83 0.00 0.00 0.00 0.00 0.00 0.00 0.00 0.00 0.75 0.00 0.66 0.00 0.00 0.00 0.00 0.00 0.71 0.00 0.84 0.00 0.00 0.00 0.00 0.52 0.00 0.00 0.00 0.00
0.00 0.00 0.00 0.00 0.00 0.00 0.72 0.92 0.00 0.00 0.00 0.00 0.00 0.00 0.00 0.85 0.00 0.00 0.96 0.83 0.00 0.00 0.00 0.00 0.00 0.00 0.74 0.00 0.00 0.00 0.00 0.55 0.86 0.00 0.00 0.00 0.00 0.00 0.00 0.00 0.00 0.00 0.00 0.86 0.69 0.75 0.94 0.00 0.68 0.72 0.00 0.73 0.00 0.00 0.00 0.69 0.81 0.00 0.00 0.00 0.00 0.56 0.00 0.00 0.00 0.00 0.00 0.00 0.77 0.00 0.82 0.73 0.00 0.00 0.00 0.00 0.00 0.64 0.00 0.00 0.00 0.00 0.00 0.69 0.54 0.00 0.00 0.55 0.00 0.79 0.00 0.72 0.00 0.95 0.96 0.63 0.00 0.00 0.00 0.00 0.00 0.00 0.00 0.61 0.00 0.00 0.00 0.00 0.00 0.69 0.82 0.00 0.76 0.00 0.00 0.00 0.00 0.61 0.00 0.00 0.76 0.00 0.00 0.00 0.61 0.00 0.76 0.00 0.00 0.00 0.00 0.83 0.00 0.00 0.00 0.00 0.00 0.00 0.00 0.71
0.00 0.61 0.00 0.00 0.00 0.00 0.00 0.00 0.00 0.00 0.99 0.00 0.00 0.00 0.58 0.58 0.96 0.00 0.00 0.00 0.90 0.00 0.00 0.00 0.76 0.00 0.00 0.00 0.00 0.00 0.80 0.00 0.70 0.00 0.00 0.00 0.00 0.00 0.00 0.00 0.00 0.00 0.00 0.59 0.00 0.00 0.00 0.53 0.80 0.64 0.00 0.00 0.00 0.64 0.00 0.00 0.00 0.00 0.00 0.90 0.00 0.00 0.00 0.00 0.00 0.00 0.00 0.00 0.00 0.00 0.69 0.00 0.00 0.00 0.00 0.50 0.00 0.00 0.00 0.00 0.00 0.63 0.71 0.89 0.00 0.56 0.00 0.00 0.68 0.00 0.67 0.00 0.79 0.00 0.83 0.00 0.87 0.58 0.00 0.00 0.00 0.00 0.00 0.80 0.00 0.00 0.00 0.00 0.00 0.95 0.00 0.00 0.00 0.00 0.00 0.00 0.00 0.82 0.00 0.00 0.00 0.98 0.00 0.00 0.00 0.67 0.00 0.00 0.00 0.00 0.00 0.00 0.00 0.00 0.00 0.00 0.00 0.00 0.00 0.00
0.00 0.00 0.79 0.96 0.00 0.00 0.98 0.00 0.00 0.00 0.62 0.54 0.63 0.00 0.50 0.69 0.55 0.00 0.00 0.00 0.00 0.00 0.00 0.00 0.00 0.00 0.00 0.00 0.00 0.00 0.93 0.71 0.00 0.86 0.00 0.00 0.00 0.00 0.00 0.00 0.00 0.00 0.00 0.00 0.00 0.00 0.52 0.00 0.00 0.84 0.00 0.00 0.00 0.00 0.00 0.00 0.00 0.00 0.00 0.00 0.00 0.70 0.00 0.00 0.00 0.72 0.00 0.00 0.00 0.00 0.00 0.00 0.00 0.00 0.00 0.78 0.00 0.00 0.00 0.00 0.53 0.00 0.00 0.52 0.00 0.86 0.00 0.00 0.00 0.54 0.00 0.00 0.69 0.63 0.69 0.80 0.00 0.58 0.00 0.00 0.00 0.86 0.00 0.00 0.00 0.00 0.00 0.00 0.00 0.00 0.00 0.57 0.99 0.80 0.00 0.00 0.54 0.00 0.00 0.00 0.00 0.00 0.85 0.00 0.00 0.00 0.96 0.54 0.00 0.00 0.86 0.00 0.00 0.00 0.57 0.60 0.00 0.00 0.00 0.00
0.00 0.00 0.00 0.00 0.00 0.00 0.00 0.00 0.63 0.00 0.00 0.00 0.68 0.88 0.00 0.00 0.00 0.00 0.00 0.00 0.00 0.00 0.00 0.00 0.61 0.00 0.00 0.00 0.00 0.74 0.53 0.00 0.00 0.00 0.00 0.91 0.00 0.90 0.00 0.00 0.00 0.83 0.00 0.00 0.00 0.63 0.00 0.00 0.00 0.00 0.00 0.00 0.58 0.00 0.94 0.00 0.00 0.00 0.71 0.00 0.00 0.00 0.00 0.00 0.00 0.00 0.82 0.00 0.00 0.00 0.00 0.00 0.00 0.00 0.00 0.00 0.00 0.68 0.66 0.00 0.90 0.62 0.00 0.00 0.73 0.00 0.00 0.00 0.00 0.00 0.00 0.00 0.00 0.00 0.00 0.76 0.00 0.00 0.00 0.00 0.00 0.00 0.00 0.00 0.00 0.00 0.00 0.00 0.00 0.82 0.00 0.00 0.91 0.00 0.00 0.00 0.00 0.00 0.00 0.00 0.00 0.00 0.89 0.00 0.00 0.69 0.00 0.56 0.00 0.00 0.00 0.00 0.52 0.00 0.57 0.00 0.00 0.00 0.00 0.00
0.00 0.53 0.00 0.00 0.00 0.00 0.00 0.53 0.00 0.00 0.00 0.00 0.00 0.00 0.00 0.00 0.92 0.79 0.00 0.00 0.00 0.00 0.00 0.66 0.00 0.00 0.00 0.00 0.64 0.54 0.00 0.00 0.00 0.00 0.00 0.00 0.00 0.00 0.95 0.00 0.00 0.97 0.87 0.00 0.00 0.00 0.00 0.73 0.00 0.99 0.00 0.00 0.00 0.00 0.00 0.00 0.00 0.00 0.00 0.00 0.00 0.00 0.00 0.00 0.00 0.88 0.00 0.00 0.00 0.00 0.00 0.00 0.96 0.00 0.00 0.94 0.77 0.00 0.00 0.00 0.00 0.00 0.00 0.64 0.80 0.00 0.00 0.00 0.94 0.00 0.00 0.93 0.00 0.00 0.00 0.00 0.00 0.00 0.00 0.00 0.59 0.00 0.00 0.79 0.00 0.00 0.00 0.64 0.00 0.00 0.00 0.00 0.72 0.00 0.00 0.00 0.00 0.52 0.00 0.00 0.00 0.00 0.00 0.00 0.00 0.00 0.70 0.00 0.00 0.00 0.00 0.00 0.00 0.00 0.00 0.64 0.00 0.58 0.00 0.00
0.00 0.88 0.00 0.00 0.00 0.00 0.00 0.61 0.00 0.00 0.00 0.59 0.00 0.97 0.81 0.00 0.00 0.62 0.00 0.00 0.00 0.99 0.00 0.86 0.70 0.00 0.00 0.00 0.73 0.00 0.00 0.96 0.00 0.00 0.79 0.00 0.00 0.00 0.00 0.00 0.00 0.00 0.85 0.00 0.00 0.00 0.00 0.00 0.00 0.00 0.00 0.54 0.00 0.00 0.00 0.00 0.00 0.00 0.92 0.80 0.00 0.56 0.00 0.00 0.00 0.91 0.00 0.00 0.00 0.00 0.00 0.80 0.00 0.82 0.00 0.00 0.00 0.00 0.00 0.00 0.00 0.00 0.00 0.00 0.00 0.00 0.00 0.00 0.00 0.00 0.00 0.00 0.89 0.00 0.00 0.88 0.00 0.00 0.00 0.00 0.00 0.00 0.00 0.84 0.00 0.00 0.00 0.00 0.00 0.00 0.00 0.99 0.00 0.00 0.00 0.00 0.00 0.00 0.65 0.00 0.00 0.00 0.00 0.73 0.00 0.00 0.00 0.66 0.00 0.00 0.00 0.00 0.00 0.00 0.00 0.00 0.00 0.00 0.00 0.00
0.00 0.00 0.00 0.00 0.00 0.00 0.00 0.89 0.00 0.00 0.00 0.75 0.00 0.73 0.00 0.00 0.00 0.00 0.00 0.78 0.00 0.00 0.00 0.00 0.00 0.00 0.00 0.00 0.00 0.66 0.67 0.81 0.00 0.00 0.00 0.00 0.00 0.79 0.63 0.00 0.00 0.00 0.00 0.00 0.00 0.00 0.00 0.00 0.00 0.00 0.00 0.00 0.00 0.00 0.00 0.64 0.00 0.00 0.00 0.00 0.00 0.00 0.69 0.00 0.56 0.00 0.00 0.00 0.00 0.00 0.00 0.00 0.86 0.00 0.00 0.97 0.00 0.00 0.00 0.00 0.00 0.00 0.00 0.95 0.00 0.65 0.00 0.00 0.00 0.00 0.93 0.00 0.00 0.59 0.82 0.00 0.00 0.00 0.00 0.00 0.00 0.00 0.00 0.00 0.81 0.00 0.70 0.00 0.86 0.68 0.73 0.00 0.00 0.00 0.00 0.00 0.00 0.00 0.00 0.00 0.83 0.00 0.53 0.89 0.00 0.00 0.00 0.00 0.00 0.60 0.00 0.00 0.00 0.00 0.00 0.00 0.80 0.00 0.00 0.00
0.69 0.59 0.86 0.00 0.00 0.00 0.54 0.70 0.00 0.79 0.00 0.00 0.80 0.97 0.00 0.00 0.55 0.00 0.00 0.00 0.66 0.00 0.00 0.00 0.00 0.63 0.65 0.00 0.00 0.00 0.00 0.00 0.00 0.94 0.00 0.00 0.00 0.67 0.00 0.91 0.00 0.00 0.65 0.00 0.00 0.00 0.00 0.00 0.00 0.00 0.00 0.63 0.00 0.00 0.00 0.88 0.59 0.99 0.60 0.00 0.86 0.00 0.00 0.00 0.00 0.97 0.00 0.00 0.00 0.92 0.00 0.89 0.00 0.51 0.00 0.00 0.00 0.00 0.00 0.00 0.54 0.00 0.60 0.86 0.00 0.00 0.00 0.00 0.00 0.59 0.00 0.67 0.00 0.00 0.00 0.64 0.00 0.00 0.56 0.00 0.66 0.00 0.53 0.00 0.00 0.00 0.00 0.00 0.00 0.00 0.00 0.00 0.53 0.69 0.00 0.00 0.00 0.00 0.00 0.53 0.00 0.00 0.63 0.00 0.00 0.00 0.58 0.00 0.60 0.00 0.00 0.54 0.89 0.00 0.00 0.00 0.94 0.00 0.00 0.88
0.00 0.00 0.00 0.00 0.00 0.66 0.00 0.00 0.00 0.93 0.00 0.00 0.00 0.00 0.00 0.00 0.00 0.00 0.00 0.00 0.00 0.00 0.00 0.00 0.00 0.00 0.00 0.95 0.00 0.00 0.00 0.00 0.00 0.00 0.00 0.00 0.00 0.00 0.00 0.00 0.00 0.00 0.82 0.00 0.00 0.00 0.00 0.00 0.00 1.00 0.00 0.00 0.00 0.00 0.65 0.00 0.00 0.00 0.00 0.00 0.00 0.00 0.68 0.68 0.00 0.00 0.87 0.83 0.80 0.00 0.00 0.00 0.00 0.00 0.00 0.00 0.00 0.00 0.00 0.00 0.98 0.54 0.00 0.00 0.00 0.00 0.00 0.00 0.00 0.00 0.79 0.00 0.00 0.00 0.00 0.80 0.00 0.00 0.00 0.00 0.00 0.00 0.00 0.00 0.57 0.00 0.00 0.00 0.00 0.80 0.00 0.00 0.00 0.00 0.64 0.00 0.00 0.96 0.00 0.00 0.00 0.00 0.00 0.00 0.00 0.00 0.93 0.00 0.00 0.00 0.00 0.00 0.00 0.00 0.64 0.00 0.00 0.00 0.00 0.00
0.58 0.88 0.00 0.00 0.00 0.00 0.00 0.00 0.88 0.00 0.00 0.00 0.00 0.00 0.00 0.81 0.00 0.00 0.00 0.00 0.00 0.00 0.00 0.00 0.00 0.88 0.00 0.00 0.00 0.00 0.00 0.00 0.00 0.00 0.00 0.00 0.00 0.00 0.00 0.00 0.00 0.00 0.00 0.00 0.00 0.00 0.00 0.00 0.77 0.00 0.00 0.00 0.00 0.00 0.00 0.70 0.90 0.00 0.00 0.00 0.64 0.00 0.00 0.00 0.62 0.00 0.00 0.00 0.00 0.00 0.00 0.00 0.78 0.00 0.00 0.00 0.00 0.00 0.00 0.00 0.00 0.00 0.88 0.00 0.00 0.00 0.00 0.00 0.00 0.00 0.00 0.00 0.96 0.00 0.80 0.97 0.00 0.54 0.00 0.00 0.00 0.00 0.00 0.00 0.00 0.00 0.00 0.82 0.00 0.97 0.00 0.56 0.00 0.00 0.78 0.00 0.00 0.00 0.00 0.89 0.00 0.00 0.00 0.00 0.00 0.00 0.00 0.00 0.00 0.00 0.00 0.00 0.00 0.00 0.00 0.00 0.94 0.00 0.00 0.00
0.00 0.00 0.54 0.00 0.90 0.00 0.00 0.66 0.00 0.00 0.56 0.00 0.00 0.00 0.00 0.00 0.00 0.00 0.00 0.00 0.85 0.00 0.00 0.77 0.63 0.00 0.00 0.00 0.00 0.00 0.00 0.61 0.00 0.00 0.00 0.00 0.00 0.95 0.00 0.73 0.61 0.00 0.00 0.00 0.00 0.00 0.55 0.00 0.00 0.00 0.00 0.00 0.00 0.00 0.00 0.00 0.00 0.00 0.00 0.97 0.00 0.00 0.00 0.71 0.00 0.00 0.79 0.00 0.00 0.00 0.00 0.93 0.00 0.70 0.00 0.00 0.00 0.62 0.00 0.00 0.00 0.67 0.98 0.00 0.00 0.00 0.00 0.00 0.88 0.00 0.00 0.00 0.00 0.62 0.00 0.90 0.64 0.00 0.00 0.94 0.84 0.00 0.00 0.00 0.00 0.00 0.00 0.00 0.00 0.00 0.70 0.00 0.96 0.55 0.68 0.52 0.00 0.00 0.00 0.00 0.00 0.97 0.00 0.00 0.00 0.86 0.00 0.00 0.00 0.00 0.70 0.00 0.88 0.62 0.66 0.62 0.00 0.00 0.00 0.00
0.00 0.00 0.00 0.00 0.00 0.00 0.00 0.67 0.56 0.61 0.00 0.72 0.97 0.00 0.00 0.00 0.64 0.00 0.00 0.91 0.00 0.00 0.53 0.00 0.00 0.70 0.00 0.65 0.00 0.00 0.00 0.90 0.00 0.00 0.00 0.00 0.00 0.52 0.00 0.75 0.00 0.00 0.64 0.00 0.00 0.00 0.00 0.00 0.61 0.00 0.67 0.00 0.00 0.00 0.00 0.61 0.00 0.62 0.75 0.00 0.00 0.00 0.00 0.00 0.00 0.00 0.00 0.69 0.00 0.00 0.00 0.00 0.00 0.00 0.00 0.00 0.00 0.00 0.98 0.00 0.61 0.00 0.00 1.00 0.00 0.98 0.00 0.00 0.00 0.00 0.00 0.00 0.00 0.54 0.00 0.83 0.00 0.00 0.00 0.00 0.62 0.00 0.00 0.00 0.00 0.00 0.00 0.00 0.00 0.00 0.72 0.65 0.00 0.00 0.00 0.00 0.00 0.00 0.00 0.00 0.00 0.60 0.78 0.00 0.00 0.00 0.00 0.00 0.00 0.73 0.61 0.00 0.00 0.00 0.00 0.00 0.95 0.00 0.00 0.00
0.00 0.00 0.57 0.00 0.00 0.00 0.00 0.00 0.00 0.00 0.00 0.78 0.00 0.00 0.00 0.00 0.00 0.00 0.75 0.00 0.00 0.00 0.00 0.00 0.93 0.00 0.99 0.00 0.00 0.00 0.00 0.00 0.57 0.00 0.00 0.86 0.00 0.62 0.00 0.00 0.00 0.00 0.00 0.00 0.00 0.00 0.00 0.78 0.84 0.62 0.00 0.00 0.00 0.00 0.00 0.70 0.00 0.00 0.00 0.58 0.00 0.00 0.00 0.00 0.00 0.98 0.00 0.00 0.00 0.00 0.79 0.78 0.54 0.00 0.00 0.00 0.00 0.00 0.00 0.00 0.00 0.59 0.00 0.00 0.00 0.85 0.00 0.00 0.00 0.00 0.57 0.00 0.92 0.76 0.00 0.00 0.00 0.00 0.00 0.00 0.00 0.00 0.00 0.84 0.00 0.92 0.00 0.00 0.00 0.50 0.86 0.00 0.65 0.60 0.00 0.59 0.00 0.65 0.00 0.00 0.68 0.00 0.00 0.00 0.00 0.00 0.00 0.00 0.00 0.00 0.00 0.00 0.00 0.00 0.52 0.00 0.00 0.00 0.00 0.00
0.00 0.00 0.00 0.00 0.64 0.00 0.65 0.66 0.84 0.00 0.57 0.00 0.53 0.60 0.00 0.00 0.00 0.00 0.00 0.00 0.00 0.00 0.00 0.00 0.00 0.00 0.90 0.00 0.00 0.00 0.00 0.98 0.00 0.73 0.69 0.00 0.00 0.00 0.00 0.75 0.88 0.00 0.00 0.00 0.00 0.00 0.00 0.00 0.00 0.00 0.00 0.00 0.00 0.00 0.00 0.00 0.81 0.62 0.00 0.00 0.89 0.00 0.00 0.00 0.00 0.00 0.00 0.00 0.85 0.89 0.68 0.00 0.00 0.54 0.00 0.82 0.00 0.00 0.00 0.00 0.00 0.00 0.00 0.00 0.00 0.00 0.53 0.00 0.98 0.00 0.00 0.00 0.00 0.00 0.00 0.74 0.00 0.00 0.89 0.72 0.00 0.00 0.00 0.53 0.00 0.00 0.00 0.00 0.00 0.00 0.00 0.00 0.00 0.53 0.00 0.00 0.00 0.00 0.72 0.00 0.00 0.00 0.54 0.00 0.00 0.00 0.00 0.98 0.00 0.00 0.00 0.00 0.00 0.00 0.00 0.00 0.00 0.00 0.00 0.00
0.00 0.00 0.00 0.00 0.00 0.00 0.00 0.65 0.00 0.00 0.00 0.00 0.00 0.00 0.00 0.00 0.82 0.58 0.00 0.00 0.00 0.00 0.72 0.00 0.00 0.00 0.53 0.00 0.00 0.00 0.00 0.00 0.00 0.00 0.86 0.86 0.00 0.00 0.00 0.00 0.00 0.00 0.00 0.78 0.00 0.00 0.00 0.00 0.00 0.00 0.00 0.97 0.88 0.97 0.00 0.00 0.00 0.85 0.00 0.60 0.00 0.00 0.00 0.00 0.00 0.00 0.88 0.00 0.00 0.53 0.00 0.00 0.00 0.00 0.00 0.00 0.00 0.00 0.00 0.55 0.00 0.63 0.00 0.00 0.68 0.00 0.53 0.90 0.55 0.00 0.00 0.00 0.00 0.91 0.00 0.00 0.00 0.00 0.00 0.00 0.00 0.00 0.00 0.00 0.86 0.00 0.00 0.00 0.00 0.00 0.00 0.00 0.00 0.00 0.00 0.00 0.60 0.00 0.00 0.00 0.00 0.00 0.00 0.54 0.00 0.00 0.80 0.90 0.00 0.70 0.00 0.00 0.00 0.00 0.00 0.00 0.00 0.00 0.00 0.00
0.00 0.00 0.00 0.83 0.00 0.00 0.00 0.00 0.00 0.60 0.00 0.55 0.00 0.00 0.00 0.00 0.00 0.00 0.00 0.63 0.00 0.00 0.65 0.00 0.00 0.00 0.56 0.89 0.00 0.00 0.00 0.00 0.00 0.00 0.61 0.00 0.52 0.00 0.00 0.00 0.00 0.00 0.00 0.00 0.74 0.00 0.00 0.00 0.81 0.00 0.00 0.00 0.00 0.95 0.80 0.00 0.62 0.00 0.91 0.86 0.00 0.95 0.00 0.00 0.00 0.97 0.00 0.00 0.00 0.00 0.00 0.00 0.00 0.00 0.00 0.00 0.51 0.98 0.00 0.00 0.00 0.00 0.00 0.00 0.00 0.00 0.00 0.00 0.00 0.68 0.00 0.57 0.64 0.76 0.00 0.94 0.80 0.96 0.56 0.98 0.00 0.00 0.00 0.00 0.00 0.00 0.00 0.73 0.77 0.00 0.00 0.00 0.00 0.00 0.00 0.00 0.00 0.00 0.84 0.00 0.00 0.00 0.00 0.90 0.00 0.00 0.00 0.00 0.00 0.00 0.00 0.00 0.00 0.62 0.69 0.67 0.00 0.89 0.00 0.00
0.00 0.00 0.79 0.69 0.00 0.00 0.00 0.83 0.00 0.90 0.00 0.00 0.00 0.00 0.00 0.98 0.68 0.00 0.00 0.50 0.00 0.00 0.00 0.00 0.00 0.72 0.79 0.00 0.00 0.00 0.00 0.00 0.00 0.00 0.94 0.00 0.00 0.00 0.00 0.50 0.00 0.00 0.00 0.65 0.00 0.00 0.00 0.00 0.93 0.00 0.00 0.53 0.00 0.00 0.00 0.00 0.53 0.00 0.00 0.00 0.00 0.00 0.00 0.00 0.00 0.00 0.60 0.82 0.00 0.00 0.00 0.00 0.00 0.00 0.00 0.50 0.00 0.00 0.00 0.00 0.00 0.00 0.60 0.00 0.00 0.00 0.00 0.00 0.00 0.00 0.00 0.00 0.00 0.00 0.89 0.96 0.00 0.58 0.00 0.00 0.00 0.00 0.00 0.00 0.00 0.00 0.00 0.00 0.00 0.86 0.52 0.00 0.82 0.00 0.00 0.00 0.00 0.00 0.51 0.98 0.80 0.59 0.00 0.00 0.89 0.00 0.00 0.00 0.00 0.00 0.00 0.74 0.00 0.00 0.00 0.00 0.78 0.00 0.00 0.00
0.00 0.00 0.00 0.00 0.00 0.00 0.00 0.00 0.00 0.54 0.00 0.00 0.73 0.00 0.00 0.93 0.00 0.00 0.00 0.00 0.00 0.00 0.00 0.59 0.85 0.92 0.00 0.00 0.00 0.00 0.00 0.00 0.00 0.00 0.00 0.96 0.00 0.72 0.00 0.82 0.86 0.00 0.00 0.00 0.00 0.00 0.00 0.00 0.00 0.00 0.00 0.00 0.00 0.00 0.00 0.00 0.00 0.00 0.00 0.70 0.00 0.00 0.00 0.00 0.00 0.00 0.94 0.00 0.00 0.00 0.00 0.00 0.61 0.00 0.99 0.86 0.00 0.74 0.00 0.00 0.00 0.86 0.00 0.00 0.61 0.00 0.00 0.00 0.96 0.00 0.00 0.81 0.00 0.97 0.00 0.00 0.00 0.00 0.00 0.00 0.00 0.00 0.00 0.00 0.89 0.00 0.00 0.00 0.00 0.00 0.00 0.00 0.00 0.00 0.00 0.00 0.00 0.00 0.00 0.00 0.00 0.83 0.97 0.00 0.00 0.00 0.91 0.00 0.00 0.53 0.00 0.00 0.00 0.56 0.00 0.00 0.63 0.00 0.56 0.00
0.00 0.86 0.83 0.93 0.00 0.00 0.00 0.00 0.00 0.91 0.00 0.58 0.00 0.00 0.95 0.00 0.86 0.00 0.00 0.00 0.98 0.00 0.69 0.00 0.92 0.00 0.89 0.00 0.00 0.00 0.00 0.00 0.00 0.76 0.00 0.00 0.00 0.00 0.00 0.00 0.70 0.00 0.91 0.00 0.00 0.00 0.00 0.00 0.00 0.00 0.00 0.65 0.00 0.00 0.00 0.00 0.00 0.00 0.00 0.00 0.00 0.89 0.00 0.00 0.00 0.00 0.00 0.00 0.00 0.00 0.00 0.00 0.00 0.00 0.00 0.00 0.00 0.64 0.00 0.00 0.00 0.00 0.00 0.00 0.00 0.00 0.00 0.58 0.00 0.00 0.00 0.00 0.00 0.85 0.00 0.00 0.00 0.63 0.00 0.62 0.65 0.00 0.00 0.67 0.63 0.00 0.00 0.79 0.00 0.00 0.00 0.00 0.00 0.00 0.00 0.00 0.00 0.51 0.00 0.00 0.93 0.00 0.00 0.00 0.00 0.99 0.00 0.00 0.00 0.00 0.00 0.00 0.72 0.00 0.94 0.00 0.00 0.00 0.54 0.00
0.00 0.00 0.00 0.00 0.66 0.78 0.81 0.00 0.94 0.82 0.00 0.00 0.00 0.00 0.00 0.00 0.00 0.00 0.56 0.00 0.86 0.00 0.00 0.00 0.63 0.83 0.00 0.00 0.00 0.64 0.00 0.00 0.00 0.00 0.00 0.00 0.00 0.90 0.00 0.00 0.00 0.00 0.00 0.76 0.00 0.99 0.52 0.00 0.00 0.92 0.00 0.00 0.00 0.00 0.00 0.91 0.00 0.96 0.00 0.00 0.00 0.00 0.67 0.00 0.00 0.00 0.00 0.00 0.95 0.00 0.00 0.56 0.00 0.67 0.00 0.61 0.50 0.00 0.00 0.00 0.00 0.00 0.00 0.00 0.56 0.00 0.93 0.00 0.62 0.96 0.00 0.00 0.00 0.00 0.00 0.87 0.82 0.00 0.00 0.00 0.00 1.00 0.00 0.00 0.00 0.84 0.00 0.74 0.88 0.67 0.00 0.00 0.00 0.00 0.00 0.00 0.00 0.00 0.00 0.00 0.00 0.68 0.00 0.56 0.00 0.00 0.00 0.00 0.00 0.00 0.00 0.64 0.74 0.51 0.84 0.83 0.00 0.00 0.00 0.00
0.00 0.00 0.00 0.00 0.00 0.00 0.00 0.00 0.00 0.51 0.87 0.00 0.00 0.00 0.71 0.61 0.00 0.99 0.00 0.00 0.00 0.00 0.00 0.77 0.00 0.00 0.00 0.83 0.00 0.00 0.00 0.70 0.00 0.00 0.59 0.00 0.59 0.00 0.00 0.00 0.00 0.97 0.00 0.00 0.54 0.00 0.00 0.00 0.00 0.00 0.00 0.00 0.00 0.00 0.81 0.92 0.00 0.00 0.85 0.00 0.93 0.00 0.00 0.00 0.00 0.00 0.00 0.00 0.51 0.00 0.54 0.88 0.77 0.00 0.00 0.63 0.00 0.00 0.00 0.00 0.00 0.00 0.55 0.00 0.00 0.00 0.00 0.75 0.00 0.91 0.99 0.59 0.00 0.00 0.63 0.00 0.00 0.95 0.00 0.00 0.70 0.57 0.61 0.00 0.00 0.00 0.00 0.00 0.00 0.00 0.52 0.00 0.00 0.00 0.00 0.67 0.00 0.00 0.00 0.00 0.00 0.00 0.00 0.00 0.93 0.00 0.52 0.00 0.82 0.00 0.00 0.00 0.00 0.97 0.00 0.00 0.00 0.00 0.71 0.00
0.00 0.00 0.00 0.72 0.00 0.00 0.86 0.00 0.00 0.59 0.00 0.00 0.00 0.00 0.00 0.00 0.99 0.00 0.00 0.00 0.00 0.00 0.00 0.00 0.00 0.00 0.53 0.00 0.00 0.00 0.00 0.00 0.00 0.00 0.00 0.00 0.00 0.00 0.00 0.00 0.00 0.00 0.00 0.84 0.00 0.94 0.00 0.00 0.75 0.00 0.90 0.00 0.00 0.00 0.00 0.00 0.00 0.85 0.96 0.80 0.00 0.00 0.00 0.00 0.56 0.00 0.00 0.00 0.00 0.00 0.00 0.00 0.00 0.53 0.00 0.00 0.55 0.00 0.00 1.00 0.00 0.00 0.99 0.59 0.00 0.00 0.00 0.00 0.00 0.00 0.00 0.00 0.00 0.54 0.97 0.89 0.00 0.89 0.00 0.00 0.00 0.00 0.00 0.00 0.00 0.00 0.00 0.93 0.00 0.00 0.80 0.70 0.00 0.61 0.00 0.00 0.00 0.00 0.00 0.65 0.00 0.00 0.88 0.00 0.00 0.54 0.00 0.69 0.00 0.00 0.00 0.00 0.00 0.82 0.00 0.86 0.84 0.00 0.00 0.00
0.58 0.00 0.75 0.00 0.00 0.00 0.00 0.00 0.88 0.00 0.89 0.00 0.55 0.00 0.00 0.00 0.00 0.00 0.00 0.90 0.00 0.86 0.00 0.00 0.59 0.00 0.00 0.00 0.00 0.52 0.74 0.00 0.00 0.00 0.00 0.00 0.00 0.52 0.57 0.00 0.00 0.00 0.00 0.00 0.00 0.79 0.00 0.00 0.93 0.00 0.00 0.50 0.00 0.00 0.00 0.91 0.61 0.00 0.00 0.00 0.00 0.52 0.00 0.00 0.00 0.00 0.00 0.00 0.63 0.00 0.63 0.00 0.00 0.00 0.00 0.00 0.70 0.77 0.00 0.00 0.00 0.00 0.00 0.00 0.00 0.00 0.52 0.99 0.00 0.94 0.00 0.87 0.00 0.00 0.00 0.00 0.00 0.00 0.00 0.00 0.00 0.00 0.00 0.58 0.00 0.00 0.61 0.00 0.00 0.00 0.00 0.00 0.00 0.00 0.00 0.00 0.94 0.62 0.54 0.86 0.00 0.00 0.00 0.00 0.55 0.00 0.00 0.00 0.00 0.00 0.00 0.00 0.00 0.00 0.00 0.00 0.00 0.00 0.00 0.00
0.00 0.00 0.00 0.00 0.59 0.00 0.00 0.83 0.00 0.00 0.98 0.00 0.00 0.00 0.00 0.83 0.00 0.00 0.00 0.00 0.00 0.00 0.00 0.00 0.00 0.00 0.70 0.67 0.00 0.00 0.00 0.00 0.00 0.00 0.00 0.00 0.00 0.00 0.00 0.00 0.00 0.62 0.00 0.63 0.00 0.94 0.00 0.00 0.00 0.00 0.00 0.00 0.00 0.00 0.00 0.00 0.00 0.00 0.00 0.00 0.00 0.00 0.00 0.00 0.00 0.00 0.00 0.76 0.00 0.00 0.00 0.79 0.00 0.62 0.00 0.00 0.00 0.00 0.00 0.00 0.00 0.00 0.00 0.00 0.00 0.00 0.67 0.00 0.99 0.00 0.00 0.00 0.95 0.00 0.00 0.00 0.00 0.77 0.00 0.51 0.00 0.77 0.00 0.00 0.00 0.00 0.00 0.00 0.00 0.00 0.00 0.98 0.00 0.00 0.75 0.00 0.62 0.00 0.00 0.00 0.00 0.00 0.00 0.00 0.81 0.00 0.00 0.00 0.00 0.66 0.00 0.00 0.00 0.96 0.00 0.00 0.00 0.00 0.00 0.00
0.00 0.00 0.88 0.00 0.00 0.00 0.78 0.00 0.00 0.00 0.00 0.00 0.00 0.00 0.00 0.00 0.00 1.00 0.00 0.00 0.00 0.00 0.70 0.80 0.00 0.00 0.00 0.00 0.74 0.00 0.00 0.00 0.00 0.00 0.75 0.00 0.00 0.00 0.00 0.00 0.00 0.00 0.00 0.00 0.00 0.00 0.00 0.00 0.00 0.00 0.00 0.00 0.00 0.00 0.00 0.00 0.52 0.00 0.00 0.00 0.00 0.00 0.00 0.00 0.00 0.00 0.76 0.00 0.00 0.00 0.00 0.65 0.00 0.99 0.00 0.00 0.00 0.00 0.91 0.93 0.53 0.00 0.98 0.74 0.00 0.65 0.00 0.00 0.00 0.00 0.00 0.00 0.69 0.00 0.00 0.00 0.00 0.00 0.00 0.90 0.99 0.00 0.72 0.00 0.00 0.00 0.00 0.00 0.81 0.00 0.00 0.00 0.00 0.00 0.00 0.62 0.00 0.00 0.00 0.61 0.00 0.00 0.86 0.00 0.00 0.00 0.00 0.96 0.00 0.94 0.00 0.00 0.96 0.00 0.00 0.00 0.00 0.00 0.72 0.77
0.82 0.00 0.00 0.00 0.62 0.00 0.00 0.00 0.00 0.00 0.00 0.94 0.00 0.51 0.97 0.00 0.00 0.00 0.00 0.00 0.00 0.00 0.00 0.55 0.00 0.55 0.00 0.00 0.00 0.00 0.00 0.88 0.00 0.00 0.69 0.60 0.00 0.00 0.00 0.00 0.00 0.63 0.00 0.91 0.95 0.00 0.00 0.52 0.00 0.00 0.00 0.67 0.91 0.00 0.00 0.00 0.00 0.00 0.00 0.82 0.68 0.00 0.84 0.00 0.61 0.00 0.00 0.00 0.80 0.00 0.00 0.00 0.00 0.00 0.00 0.00 0.75 0.00 0.00 0.00 0.00 0.00 0.00 0.00 0.82 0.00 0.00 0.00 0.00 0.00 0.00 0.00 0.72 0.00 0.00 0.69 0.00 0.00 0.00 0.00 0.00 0.00 0.00 0.00 0.00 0.71 0.00 0.00 0.00 0.00 0.00 0.00 0.55 0.00 0.00 0.00 0.00 0.00 0.69 0.00 0.00 0.00 0.00 0.00 0.00 0.94 0.00 0.00 0.00 0.00 0.00 0.00 0.00 0.00 0.00 0.00 0.91 0.00 0.96 0.94
0.00 0.00 0.00 0.00 0.00 0.00 0.00 0.72 0.00 0.79 0.00 0.66 0.00 0.00 0.00 0.00 0.00 0.87 0.00 0.53 0.00 0.00 0.53 0.00 0.00 0.00 0.00 0.00 0.00 0.00 0.82 0.00 0.00 0.00 0.00 0.00 0.00 0.00 0.00 0.00 0.00 0.00 0.00 0.00 0.00 0.00 0.00 0.92 0.82 0.00 0.00 0.00 0.00 0.00 0.00 0.00 0.00 0.00 0.51 0.73 0.00 0.93 0.00 0.00 0.00 0.00 0.57 0.94 0.00 0.00 0.00 0.73 0.00 0.00 0.00 0.00 0.96 0.75 0.00 0.00 0.67 0.00 0.00 0.62 0.66 0.00 0.00 0.67 0.00 0.00 0.00 0.00 0.00 0.00 0.00 0.00 0.00 0.00 0.00 0.00 0.00 0.00 0.00 0.00 0.00 0.00 0.57 0.00 0.00 0.00 0.00 0.00 0.00 0.00 0.00 0.00 0.00 0.00 0.00 0.00 0.00 0.00 0.00 0.00 0.00 0.62 0.00 0.00 0.76 0.00 0.00 0.00 0.52 0.00 0.00 0.92 0.54 0.53 0.00 0.00
0.00 0.00 0.00 0.00 0.64 0.00 0.95 0.00 0.88 0.00 0.00 0.00 0.85 0.00 0.00 0.00 0.00 0.59 0.00 0.73 0.00 0.79 0.80 0.00 0.00 0.00 0.00 0.00 0.68 0.00 0.00 0.73 0.84 0.00 0.67 0.00 0.00 0.00 0.00 0.00 0.00 0.00 0.00 0.56 0.00 0.00 0.00 0.00 0.00 0.00 0.00 0.00 0.00 0.87 0.00 0.00 0.00 0.00 0.00 0.00 0.00 0.00 0.00 0.00 0.00 0.00 0.99 0.00 0.00 0.00 0.00 0.00 0.00 0.00 1.00 0.00 0.00 0.68 0.00 0.00 0.00 0.90 0.00 0.00 0.68 0.00 0.00 0.00 0.00 0.00 0.00 0.00 0.66 0.00 0.00 0.00 0.00 0.00 0.00 0.00 0.62 0.00 0.00 0.00 0.86 0.00 0.00 0.00 0.00 0.00 0.00 0.00 0.95 0.00 0.00 0.00 0.53 0.81 0.00 0.00 0.00 0.00 0.00 0.00 0.00 0.00 0.52 0.00 0.00 0.62 0.00 0.00 0.54 0.51 0.00 0.00 0.00 0.00 0.00 0.00
0.00 0.00 0.87 0.00 0.00 0.00 0.00 0.00 0.00 0.00 0.63 0.00 0.00 0.00 0.00 0.00 0.00 0.00 0.00 0.00 0.00 0.58 0.51 0.00 0.00 0.00 0.00 0.00 0.00 0.00 0.00 0.00 0.00 0.00 0.88 0.00 0.55 0.00 0.60 0.88 0.00 0.00 0.66 0.00 0.78 0.00 0.00 0.00 0.00 0.00 0.00 0.87 0.00 0.00 0.00 0.00 0.62 0.92 0.58 0.00 0.00 0.00 0.00 0.00 0.00 0.00 0.00 0.00 0.00 0.95 0.00 0.00 0.62 0.00 0.00 0.60 0.00 0.00 0.90 0.67 0.00 0.00 0.00 0.00 0.00 0.00 0.00 0.00 0.00 0.00 0.95 0.00 0.00 0.00 0.00 0.00 0.00 0.52 0.00 0.00 0.00 0.00 0.00 0.75 0.00 0.00 0.00 0.00 0.84 0.00 0.00 0.00 0.00 0.65 0.54 0.00 0.00 0.73 0.00 0.00 0.00 0.00 0.78 0.87 0.00 0.00 0.00 0.00 0.66 0.00 0.71 0.00 0.00 0.52 0.00 0.64 0.00 0.00 0.00 0.00
0.00 0.00 0.00 0.00 0.00 0.00 0.85 0.52 0.00 0.00 0.79 0.96 1.00 0.00 0.00 0.00 0.95 0.00 0.00 0.69 0.00 0.00 0.00 0.00 0.00 0.00 0.00 0.00 0.00 0.00 0.00 0.00 0.00 0.00 0.00 0.00 0.00 0.00 0.00 0.00 0.92 0.00 0.00 0.00 0.00 0.00 0.00 0.00 0.00 0.56 0.00 0.00 0.85 0.00 0.00 0.00 0.72 0.00 0.00 0.00 0.00 0.00 0.00 0.50 0.85 0.00 0.84 0.00 0.86 0.00 0.00 0.00 0.00 0.00 0.00 0.00 0.00 0.00 0.00 0.82 0.00 0.00 0.00 0.00 0.00 0.00 0.00 0.00 0.00 0.00 0.00 0.00 0.76 0.00 0.00 0.00 0.00 0.87 0.00 0.00 0.00 0.00 0.00 0.00 0.87 0.00 0.00 0.00 0.97 0.73 0.00 0.00 0.00 0.00 0.00 0.00 0.00 0.00 0.00 0.00 0.00 0.00 0.00 0.00 0.00 0.00 0.00 0.00 0.73 0.61 0.00 0.00 0.00 0.00 0.00 0.00 0.00 0.00 0.00 0.00
0.50 0.00 0.00 0.00 0.96 0.99 0.00 0.00 0.00 0.96 0.00 0.72 0.00 0.00 0.00 0.00 0.00 0.92 0.78 0.00 0.51 0.89 0.00 0.00 0.91 0.95 0.00 0.00 0.00 0.00 0.00 0.83 0.90 0.00 0.00 0.95 0.00 0.00 0.00 0.00 0.00 0.00 0.59 0.00 0.00 0.00 0.00 0.00 0.00 0.00 0.00 0.66 0.97 0.00 0.00 0.00 0.69 0.00 0.00 0.00 0.59 0.00 0.00 0.00 0.56 0.00 0.00 0.00 0.00 0.00 0.67 0.00 0.59 0.00 0.00 0.50 0.00 0.00 0.00 0.00 0.00 0.00 0.00 0.00 0.00 0.74 0.00 0.00 0.00 0.00 0.00 0.00 0.00 0.81 0.00 0.97 0.00 0.77 0.95 0.00 0.00 0.74 0.00 0.00 0.54 0.00 0.00 0.00 0.59 0.55 0.00 0.00 0.00 0.00 0.00 0.00 0.63 0.00 0.00 0.92 0.00 0.00 0.00 0.00 0.00 0.00 0.00 0.00 0.00 0.00 0.00 0.00 0.00 0.00 0.00 0.00 0.00 0.00 0.67 0.00
0.00 0.00 0.00 0.00 0.00 0.87 0.00 0.00 0.60 0.00 0.00 0.00 0.00 0.00 0.79 0.00 0.00 0.00 0.00 0.00 0.00 0.67 0.00 0.00 0.69 0.84 0.00 0.00 0.00 0.00 0.98 0.00 0.00 0.00 0.00 0.79 0.00 0.00 0.00 0.00 0.00 0.68 0.80 0.00 0.00 0.00 0.00 0.00 0.00 0.00 0.00 0.57 0.00 0.00 0.00 0.00 0.62 0.00 0.00 0.96 0.00 0.00 0.00 0.00 0.00 0.99 0.90 0.00 0.00 0.00 0.00 0.00 0.75 0.99 0.00 0.00 0.00 0.00 0.00 0.00 0.00 0.00 0.00 0.00 0.00 0.00 0.79 0.00 0.00 0.00 0.95 0.56 0.00 0.00 0.00 0.90 0.00 0.00 0.81 0.00 0.54 0.00 0.00 0.00 0.00 0.00 0.00 0.00 0.00 0.91 0.00 0.00 0.00 0.00 0.00 0.83 0.00 0.00 0.00 0.88 0.00 0.00 0.00 0.00 0.77 0.00 0.00 0.00 0.00 0.00 0.00 0.61 0.00 0.00 0.69 0.00 0.00 0.00 0.00 0.00
0.00 0.00 0.00 0.60 0.00 0.00 0.00 0.00 0.00 0.00 0.00 0.00 0.00 0.00 0.00 0.00 0.00 0.00 0.00 0.00 0.00 0.86 0.00 0.00 0.00 0.82 0.89 0.00 0.00 0.00 0.00 0.00 0.94 0.93 0.00 0.00 0.00 0.00 0.00 0.81 0.00 0.51 0.00 0.00 0.00 0.00 0.95 0.00 0.00 0.00 0.56 0.00 0.00 0.00 0.00 0.00 0.00 0.00 0.00 0.00 0.00 0.00 0.64 0.00 0.00 0.00 0.00 0.00 0.00 0.00 0.00 0.00 0.00 0.00 0.00 0.00 0.00 0.00 0.00 0.53 0.00 0.00 0.65 0.00 0.93 0.00 0.00 0.00 0.00 0.00 0.00 0.00 0.00 0.57 0.00 0.00 0.00 0.00 0.00 0.00 0.79 0.00 0.00 0.00 0.00 0.00 0.68 0.00 0.00 0.00 0.00 0.00 0.00 0.70 0.00 0.00 0.54 0.00 0.00 0.00 0.00 0.00 0.00 0.00 0.00 0.00 0.00 0.00 0.00 0.98 0.00 0.00 0.00 0.00 0.00 0.00 0.00 0.00 0.00 0.00
0.51 0.00 0.00 0.00 0.00 0.00 0.00 0.00 0.00 0.00 0.00 0.00 0.00 0.00 0.00 0.00 0.88 0.00 0.98 0.00 0.00 0.00 0.62 0.00 0.00 0.00 0.00 0.00 0.83 0.00 0.00 0.00 0.00 0.66 0.82 0.00 0.51 0.00 0.00 0.00 0.86 0.00 0.71 0.00 0.71 0.00 0.00 0.00 0.00 0.00 0.00 0.55 0.00 0.61 0.00 0.51 0.00 0.00 0.76 0.00 0.78 0.00 0.66 0.53 0.00 0.00 0.00 0.00 0.00 0.00 0.97 0.00 0.00 0.60 0.91 0.00 0.00 0.00 0.00 0.51 0.00 0.87 0.00 0.00 0.00 0.00 0.00 0.00 0.56 0.00 0.00 0.00 0.00 0.51 0.00 0.66 0.00 0.00 0.00 0.00 0.00 0.00 0.00 0.00 0.00 0.00 0.66 0.92 0.00 0.00 0.00 0.00 0.74 0.00 0.00 0.00 0.94 0.00 0.00 0.00 0.61 0.00 0.58 0.00 0.00 0.70 0.00 0.00 0.58 0.00 0.00 0.00 0.00 0.00 0.65 0.00 0.00 0.00 0.00 0.00
0.00 0.00 0.00 0.00 0.75 0.00 0.00 0.00 0.00 0.00 0.00 0.00 0.00 0.00 0.82 0.00 0.00 0.89 0.00 0.00 0.00 0.00 0.59 0.54 0.78 0.00 0.97 0.00 0.00 0.00 0.00 0.00 0.00 0.00 0.00 0.00 0.54 0.00 0.59 0.00 0.00 0.71 0.00 0.00 0.00 0.74 0.00 0.00 0.69 0.00 0.57 0.00 0.00 0.00 0.75 0.00 0.00 0.00 0.00 0.93 0.00 0.00 0.00 0.00 0.00 0.00 0.00 0.00 0.00 0.00 0.00 0.00 0.00 0.00 0.58 0.00 0.00 0.00 0.00 0.84 0.90 0.00 0.00 0.84 0.00 0.00 0.93 0.00 0.00 0.00 0.00 0.00 0.00 0.00 0.72 0.00 0.00 0.00 0.00 0.00 0.00 0.85 0.00 0.00 0.00 0.00 0.00 0.00 0.00 0.52 0.00 0.00 0.00 0.00 0.00 0.00 0.00 0.00 0.00 0.00 0.95 0.00 0.00 0.00 0.00 0.00 0.00 0.00 0.00 0.00 0.00 0.00 0.71 0.00 0.00 0.00 0.00 0.50 0.67 0.00
0.00 0.61 0.00 0.00 0.00 0.00 0.00 0.00 0.00 0.00 0.00 0.98 0.00 0.00 0.00 0.00 0.00 0.00 0.00 0.00 0.00 0.00 0.00 0.00 0.00 0.96 0.89 0.00 0.00 0.98 0.72 0.82 0.56 0.00 0.96 0.51 0.00 0.76 0.66 0.58 0.00 0.00 0.00 0.00 0.00 0.00 0.00 0.98 0.00 0.00 0.00 0.00 0.00 0.00 0.00 0.00 0.00 0.00 0.00 0.00 0.70 0.00 0.00 0.63 0.00 0.00 0.00 0.00 0.00 0.00 0.84 0.00 0.00 0.54 0.00 0.00 0.00 0.00 0.00 0.00 0.00 0.00 0.88 0.77 0.00 0.00 0.00 0.00 0.00 0.00 0.00 0.52 0.00 0.00 0.91 0.81 1.00 0.00 0.00 0.66 0.00 0.00 0.61 0.00 0.00 0.89 0.00 0.00 0.00 0.00 0.55 0.56 0.00 0.61 0.00 0.00 0.00 0.00 0.82 0.70 0.00 0.92 0.00 0.00 0.00 0.00 0.00 0.00 0.00 0.00 0.86 0.00 0.00 0.69 0.77 0.00 0.00 0.00 0.00 0.00
0.00 0.00 0.89 0.00 0.00 0.00 0.00 0.00 0.00 0.00 0.00 0.00 0.00 0.92 0.00 0.69 0.00 0.78 0.00 0.00 0.00 0.00 0.00 0.00 0.72 0.00 0.00 0.80 0.00 0.56 0.00 0.00 0.00 0.93 0.00 0.00 0.00 0.00 0.97 0.00 0.00 0.59 0.00 0.00 0.00 0.00 0.68 0.00 0.00 0.00 0.00 0.00 0.00 0.00 0.88 0.75 0.82 0.59 0.00 0.00 0.00 0.00 0.00 0.89 0.00 0.92 0.93 0.88 0.00 0.00 0.86 0.00 0.58 0.00 0.00 0.00 0.00 0.00 0.00 0.00 0.80 0.00 0.00 0.00 0.99 0.66 0.00 0.00 0.00 0.00 0.00 0.00 0.00 0.00 0.62 0.00 0.00 0.00 0.00 0.85 0.00 0.91 0.00 0.00 0.00 0.00 0.00 0.00 0.00 0.00 0.00 0.00 0.00 0.00 0.66 0.00 0.57 0.00 0.74 0.00 0.00 0.00 0.80 0.00 0.00 0.00 0.00 0.00 0.00 0.00 0.00 0.00 0.00 0.00 0.77 0.00 0.83 0.00 0.00 0.00
0.00 0.67 0.00 0.00 0.00 0.00 0.96 0.00 0.00 0.00 0.00 0.66 0.00 0.00 0.00 0.00 0.00 0.00 0.00 0.00 0.00 0.00 0.00 0.00 0.00 0.90 0.00 0.00 0.00 0.56 0.00 0.00 0.00 0.00 0.00 0.00 0.00 0.00 0.00 0.00 0.00 0.00 0.76 0.00 0.00 0.00 0.00 0.00 0.00 0.00 0.82 0.00 0.00 0.00 0.00 0.00 1.00 0.63 0.00 0.00 0.88 0.00 0.00 0.00 0.00 0.00 0.65 0.53 0.00 0.00 0.61 0.00 0.68 0.96 0.76 0.00 0.00 0.00 0.67 0.00 0.00 0.78 0.56 0.00 0.00 0.00 0.00 0.00 0.00 0.00 0.00 0.00 0.00 0.00 0.00 0.00 0.00 0.00 0.84 0.80 0.00 0.00 0.00 0.00 0.00 0.00 0.84 0.72 0.00 0.00 0.00 0.00 0.00 0.00 0.00 0.00 0.00 0.00 0.95 0.00 0.00 0.00 0.00 0.00 0.00 0.00 0.00 0.00 0.00 0.00 0.00 0.00 0.00 0.00 0.00 0.00 0.00 0.00 0.00 0.00
0.00 0.00 0.00 0.00 0.00 0.00 0.00 0.85 0.00 0.00 0.00 0.00 0.00 0.00 0.00 0.00 0.77 0.00 0.00 0.00 0.00 0.00 0.00 0.00 0.77 0.55 0.00 0.97 0.00 0.92 0.00 0.00 0.00 0.00 0.00 0.81 0.00 0.00 0.53 0.00 0.00 0.00 0.00 0.00 0.00 0.00 0.00 0.00 0.00 0.82 0.69 0.00 0.95 0.68 0.00 0.00 0.00 0.00 0.97 0.00 0.00 0.00 0.00 0.00 0.67 0.72 0.00 0.00 0.00 0.00 0.00 0.80 0.00 0.00 0.00 0.00 0.93 0.66 0.00 0.88 0.00 0.00 0.00 0.00 0.00 0.68 0.00 0.00 0.00 0.00 0.00 0.00 0.00 0.00 0.99 0.00 0.00 0.00 0.95 0.00 0.00 0.95 0.00 0.00 0.75 0.00 0.00 0.00 0.00 0.00 0.00 0.00 0.93 0.90 0.00 0.00 0.51 0.00 0.71 0.00 0.00 0.00 0.00 0.00 0.00 0.00 0.55 0.00 0.00 0.00 0.99 0.79 0.00 0.00 0.00 0.00 0.61 0.00 0.88 0.00
0.00 0.00 0.00 0.55 0.94 0.63 0.00 0.00 0.00 0.00 0.00 0.64 0.00 0.00 0.00 0.99 0.00 0.85 0.00 0.00 0.00 0.00 0.00 0.00 0.56 0.00 0.00 0.55 0.94 0.00 0.00 0.00 0.00 0.00 0.00 0.00 0.00 0.00 0.00 0.00 0.51 0.50 0.00 0.00 0.88 0.00 0.00 0.00 0.00 0.00 0.00 0.00 0.00 0.00 0.00 0.00 0.00 0.00 0.00 0.00 0.00 0.00 0.00 0.00 0.00 0.00 0.00 0.00 0.00 0.00 0.77 0.00 0.00 0.00 0.00 0.00 0.00 0.00 0.00 0.00 0.00 0.55 0.00 0.00 0.00 0.00 0.64 0.99 0.00 0.00 0.00 0.89 0.00 0.00 0.00 0.00 0.99 0.00 0.00 0.00 0.00 0.00 0.00 0.00 0.00 0.00 0.00 0.00 0.56 1.00 0.97 0.65 0.00 0.00 0.90 0.00 0.00 0.00 0.00 0.00 0.76 0.71 0.00 0.77 0.00 0.91 0.00 0.00 0.00 0.87 0.00 0.00 0.59 0.00 0.83 0.91 0.00 0.00 0.00 0.81
0.71 0.00 0.00 0.00 0.00 0.00 0.00 0.00 0.00 0.00 0.00 0.52 0.00 0.00 0.00 0.00 0.00 0.00 0.00 0.00 0.00 0.00 0.00 0.00 0.00 0.00 0.00 0.57 0.65 0.00 0.00 0.00 0.00 0.00 0.00 0.00 0.00 0.00 0.00 0.00 0.86 0.00 0.00 0.00 0.00 0.00 0.00 0.00 0.00 0.00 0.86 0.00 0.00 0.00 0.00 0.00 0.00 0.00 0.00 0.00 0.79 0.00 0.57 0.00 0.00 0.00 0.00 0.00 0.00 0.00 0.00 0.00 0.00 0.00 0.00 0.54 0.00 0.00 0.00 0.00 0.00 0.97 0.00 0.79 0.00 0.00 0.00 0.63 0.00 0.00 0.00 0.54 0.79 0.00 0.00 0.00 0.76 0.00 0.00 0.00 0.00 0.00 0.00 0.65 0.00 0.00 0.00 0.95 0.00 0.00 0.59 0.00 0.00 0.00 0.00 0.61 0.00 0.00 0.73 0.00 0.00 0.00 0.00 0.00 0.78 0.00 0.00 0.00 0.00 0.73 0.00 0.00 0.00 0.96 0.00 0.00 0.82 0.00 0.00 0.00
0.00 0.00 0.00 0.00 0.00 0.95 0.55 0.00 0.00 0.00 0.00 0.63 0.00 0.00 0.00 0.00 0.00 0.00 0.00 0.83 0.67 0.00 0.00 0.00 0.00 0.00 0.00 0.00 0.93 0.00 0.00 0.00 0.00 0.00 0.00 0.00 0.00 0.00 0.78 0.00 0.76 0.00 0.00 0.00 0.00 0.71 0.00 0.50 0.00 0.00 0.00 0.00 0.00 0.00 0.00 0.00 0.00 0.53 0.00 0.00 0.00 0.00 0.00 0.00 0.00 0.00 0.00 0.00 0.00 0.00 0.96 0.00 0.00 0.80 0.00 0.00 0.00 0.00 0.00 0.00 0.00 0.00 0.60 0.64 0.00 0.00 0.97 0.57 0.00 0.85 0.73 0.00 0.00 0.78 0.82 0.00 0.00 0.00 0.78 0.72 0.00 0.63 0.86 0.00 0.67 0.00 0.00 0.00 0.90 0.60 0.00 0.00 0.00 0.95 0.50 0.00 0.00 0.00 0.00 0.00 0.00 0.00 0.00 0.00 0.00 0.00 0.58 0.99 0.97 0.00 0.00 0.00 0.00 0.00 0.63 0.00 0.68 0.00 0.00 0.00
0.00 0.00 1.00 0.00 0.00 0.00 0.00 0.00 0.00 0.65 0.00 0.67 0.00 0.00 0.00 0.00 0.00 0.00 0.00 0.00 0.00 0.00 0.76 0.00 0.00 0.00 0.00 0.00 0.00 0.00 0.00 0.00 0.00 0.00 0.00 0.00 0.00 0.00 0.00 0.83 0.83 0.00 0.00 0.00 0.50 0.00 0.00 0.00 0.00 0.00 0.60 0.00 0.00 0.00 0.00 0.00 0.00 0.00 0.00 0.00 0.00 0.00 0.00 0.00 0.00 0.00 0.00 0.00 0.00 0.00 0.00 0.00 0.52 0.93 0.00 0.82 0.00 0.00 0.00 0.00 0.00 0.00 0.00 0.00 0.00 0.00 0.00 0.00 0.00 0.81 0.91 0.00 0.00 0.00 0.00 0.00 0.00 0.00 0.00 0.00 0.00 1.00 0.00 0.57 0.00 0.95 0.00 0.61 0.87 0.00 0.00 0.00 0.52 0.00 0.00 0.00 0.70 0.00 0.79 0.00 0.00 0.00 0.00 0.00 0.59 0.00 0.00 0.00 0.00 0.55 0.00 0.00 0.00 0.90 0.00 0.00 0.00 0.00 0.00 0.59
0.00 0.64 0.00 0.00 0.00 0.65 0.00 0.00 0.00 0.91 0.00 0.00 0.72 0.00 0.00 0.86 0.00 0.00 0.00 0.00 0.72 0.00 0.00 0.00 0.00 0.83 0.00 0.00 0.00 0.00 0.00 0.00 0.00 0.00 0.99 0.00 0.71 0.51 0.00 0.99 0.00 0.00 0.00 0.00 0.00 0.76 0.84 0.00 0.80 0.00 0.88 0.65 0.60 0.71 0.00 0.00 0.00 0.00 0.00 0.00 0.00 0.00 0.00 0.00 0.00 0.00 0.92 0.00 0.00 0.54 0.00 0.55 0.00 0.00 0.00 0.00 0.00 0.00 0.00 0.00 0.00 0.00 0.77 0.00 0.00 0.00 0.00 0.00 0.00 0.00 0.00 0.00 0.00 0.00 0.00 0.00 0.00 0.00 0.00 0.00 0.00 0.63 0.00 0.51 0.00 0.00 0.00 0.00 0.00 0.00 0.79 0.00 0.00 0.00 0.80 0.00 0.70 0.00 0.00 0.00 0.00 0.79 0.00 0.00 0.00 0.00 0.00 0.00 0.54 0.00 0.00 0.00 0.00 0.63 0.00 0.00 0.72 0.61 0.66 0.00
0.00 0.00 0.00 0.00 0.00 0.69 0.00 0.00 0.93 0.00 0.95 0.00 0.69 0.00 0.84 0.96 0.00 0.00 0.00 0.70 0.00 0.00 0.00 0.00 0.00 0.69 0.00 0.00 0.00 0.00 0.00 0.00 0.00 0.00 0.00 0.00 0.00 0.68 0.00 0.00 0.00 0.00 0.00 0.00 0.00 0.76 0.00 0.00 0.00 0.00 0.00 0.00 0.00 0.00 0.00 0.00 0.00 0.62 0.00 0.00 0.00 0.00 0.00 0.00 0.00 0.00 0.64 0.00 0.00 0.75 0.00 0.00 0.00 0.00 0.00 0.00 0.69 0.00 0.74 0.00 0.88 0.00 0.00 0.74 0.00 0.00 0.00 0.00 0.00 0.00 0.00 0.00 0.00 0.00 0.00 0.00 0.00 0.00 0.00 0.00 0.82 0.00 0.00 0.00 0.00 0.00 0.84 0.00 0.00 0.00 0.00 0.00 0.00 0.00 0.77 0.00 0.00 0.77 0.00 0.00 0.54 0.00 0.00 0.00 0.53 0.00 0.00 0.00 0.00 0.00 0.00 0.00 0.00 0.00 0.00 0.00 0.00 0.00 0.00 0.00
0.00 0.00 0.80 0.00 0.00 0.53 0.89 0.00 0.00 0.00 0.00 0.00 0.00 0.00 0.80 0.00 0.00 0.00 0.00 0.69 0.00 0.00 0.98 0.00 0.00 0.00 0.00 0.56 0.00 0.00 0.00 0.00 0.00 0.62 0.00 0.96 0.75 0.72 0.00 0.00 0.00 0.00 0.00 0.00 0.00 0.00 0.59 0.00 0.00 0.00 0.00 0.00 0.60 0.00 0.00 0.57 0.84 0.00 0.00 0.00 0.00 0.00 0.00 0.00 0.00 0.00 0.00 0.63 0.00 0.00 0.00 0.00 0.00 0.00 0.00 0.00 0.00 0.00 0.79 0.00 0.00 0.76 0.76 0.00 0.00 0.00 0.00 0.00 0.00 0.00 0.00 0.55 0.00 0.00 0.99 0.00 0.00 0.00 0.00 0.00 0.00 0.00 0.00 0.00 0.93 0.89 0.00 0.00 0.00 0.00 0.00 0.00 0.00 0.00 0.76 0.87 0.00 0.00 0.00 0.00 0.81 0.51 0.00 0.00 0.00 0.76 0.59 0.97 0.00 0.84 0.00 0.70 0.00 0.00 0.00 0.58 0.00 0.00 0.00 0.00
0.00 0.00 0.87 0.00 0.51 0.00 0.00 0.00 0.00 0.84 0.00 0.00 0.00 0.00 0.62 0.00 0.00 0.00 0.00 0.00 0.00 0.00 0.00 0.00 0.85 0.00 0.00 0.00 0.00 0.00 0.91 0.00 0.00 0.00 0.00 0.00 0.00 0.00 0.00 0.00 0.00 0.00 0.00 0.00 0.77 0.00 0.00 0.00 0.00 0.00 0.00 0.00 0.00 0.00 0.00 0.00 0.00 0.00 0.00 0.92 0.00 0.00 0.00 0.00 0.00 0.00 0.97 0.00 0.71 0.00 0.00 0.92 0.00 0.00 0.00 0.00 0.00 0.85 0.00 0.00 0.00 0.00 0.00 0.00 0.00 0.00 0.00 0.00 0.00 0.00 0.00 0.00 0.00 0.00 0.00 0.00 0.00 0.00 0.00 0.00 0.59 0.81 0.00 0.00 0.00 0.00 0.00 0.64 0.66 0.62 0.00 0.53 0.00 0.00 0.64 0.00 0.00 0.00 0.00 0.00 0.87 0.00 0.00 0.00 0.56 0.00 0.00 0.00 0.00 0.57 0.00 0.00 0.00 0.00 0.57 0.00 0.00 0.00 0.00 0.82
0.00 0.00 0.00 0.00 0.62 0.58 0.00 0.99 0.00 0.00 0.00 0.00 0.00 0.93 0.00 0.00 0.00 0.00 0.76 0.00 0.00 0.00 0.00 0.00 0.92 0.00 0.00 0.00 0.00 0.00 0.00 0.00 0.00 0.00 0.00 0.93 0.00 0.00 0.00 0.00 0.00 0.74 0.77 0.58 0.00 0.89 0.00 0.51 0.00 0.00 0.00 0.00 0.00 0.00 0.00 0.00 0.00 0.00 0.00 0.00 0.90 0.00 0.00 0.88 0.00 0.00 0.00 0.00 0.00 0.00 0.00 0.00 0.00 0.00 0.00 0.00 0.00 0.00 0.00 0.70 0.00 0.00 0.84 0.00 0.59 0.00 0.00 0.00 0.75 0.00 0.00 0.00 0.00 0.00 0.00 0.00 0.00 0.00 0.00 0.00 0.00 0.00 0.00 0.00 0.00 0.00 0.00 0.00 0.00 0.00 0.74 0.00 0.00 0.79 0.00 0.91 0.00 0.00 0.95 0.00 0.00 0.00 0.00 0.00 0.00 0.00 0.00 0.00 0.00 0.00 0.00 0.00 0.00 0.00 0.85 0.00 0.00 0.00 0.00 0.00
0.00 0.81 0.96 0.00 0.00 0.00 0.00 0.00 0.77 0.00 0.59 0.72 0.00 0.00 0.00 0.00 0.00 0.00 0.00 0.00 0.00 0.00 0.00 0.00 0.00 0.00 0.00 0.00 0.83 0.00 0.00 0.00 0.98 0.00 0.00 0.00 0.00 0.00 0.00 0.00 0.00 0.00 0.62 0.00 0.00 0.95 0.00 0.82 0.00 0.00 0.00 0.00 0.00 0.56 0.00 0.00 0.00 0.63 0.91 0.00 0.86 0.00 0.00 0.00 0.00 0.00 0.00 0.52 0.00 0.58 0.00 0.00 0.00 0.00 0.76 0.00 0.00 0.00 0.86 0.00 0.00 0.00 0.00 0.00 0.00 0.00 0.00 0.00 0.00 0.00 0.00 0.89 0.00 0.81 0.00 0.69 0.00 0.00 0.00 0.00 0.00 0.71 0.00 0.00 0.00 0.00 0.00 0.00 0.00 0.00 0.00 0.00 0.00 0.77 0.00 0.00 0.00 0.00 0.00 0.00 0.00 0.72 0.00 0.00 0.71 0.00 0.00 0.71 0.69 0.00 0.00 0.84 0.00 0.00 0.00 0.84 0.00 0.00 0.00 0.00
0.00 0.00 0.84 0.00 0.00 0.00 0.76 1.00 0.00 0.00 0.00 0.00 0.00 0.00 0.00 0.00 0.00 0.00 0.00 0.72 0.00 0.00 0.00 0.00 0.00 0.00 0.00 0.00 0.00 0.00 0.00 0.00 0.00 0.74 0.00 0.00 0.00 0.00 0.00 0.00 0.77 0.00 0.00 0.00 0.00 0.00 0.59 0.00 0.00 0.00 0.00 0.73 0.00 0.00 0.00 0.87 0.00 0.00 0.00 0.00 0.00 0.00 0.00 0.00 0.00 0.00 0.00 0.00 0.00 0.00 0.78 0.00 0.67 0.00 0.89 0.00 0.00 0.00 0.00 0.00 0.83 0.00 0.00 0.00 0.00 0.99 0.00 0.00 0.00 0.73 0.00 0.00 0.00 0.00 0.00 0.00 0.60 0.00 0.00 0.00 0.00 0.00 0.00 0.00 0.94 0.00 0.64 0.00 0.00 0.97 0.00 0.00 0.00 0.00 0.82 0.00 0.00 0.77 0.00 0.00 0.00 0.00 0.77 0.00 0.00 0.00 0.00 0.00 0.58 0.00 0.00 0.00 0.00 0.00 0.00 0.00 0.00 0.00 0.84 0.00
0.00 0.63 0.00 0.00 0.00 0.00 0.66 0.00 0.00 0.00 0.88 0.00 0.00 0.00 0.51 0.00 0.00 0.81 0.00 0.87 0.00 0.00 0.61 0.00 0.93 0.94 0.00 0.87 0.00 0.00 0.89 0.92 0.00 0.00 0.00 0.00 0.00 0.00 0.00 0.00 0.00 0.00 0.00 0.00 0.00 0.00 0.00 0.00 0.00 0.90 0.00 0.00 0.00 0.00 0.83 0.00 0.00 0.00 0.00 0.00 0.00 0.86 0.00 0.00 0.00 0.00 0.00 0.00 0.00 0.00 0.00 0.00 0.00 0.53 0.66 0.00 0.00 0.85 0.52 0.00 0.00 0.00 0.00 0.00 0.00 0.00 0.00 0.71 0.00 0.85 0.00 0.00 0.00 0.84 0.00 0.00 0.00 0.00 0.52 0.00 0.00 0.00 0.00 0.00 0.00 0.00 0.00 0.65 0.51 0.00 0.81 0.00 0.00 0.00 0.00 0.00 0.72 0.95 0.00 0.00 0.00 0.00 0.00 0.00 0.77 0.00 0.00 0.00 0.00 0.00 0.00 0.00 0.00 0.00 0.00 0.00 0.00 0.00 0.00 0.00
0.00 0.00 0.00 0.95 0.00 0.58 0.00 0.00 0.00 0.00 0.00 0.91 0.00 0.00 0.00 0.00 0.00 0.00 0.00 0.84 0.00 0.58 0.79 0.99 0.86 0.00 0.00 0.00 0.00 0.00 0.73 0.00 0.00 0.00 0.00 0.00 0.00 0.78 0.00 0.00 0.00 0.00 0.53 0.00 0.54 0.00 0.00 0.00 0.00 0.98 0.00 0.00 0.00 0.78 0.53 0.00 0.00 0.00 0.00 0.56 0.85 0.00 0.00 0.00 0.00 0.00 0.00 0.00 0.00 0.54 0.00 0.00 0.58 0.00 0.70 0.00 0.00 0.00 0.98 0.00 0.00 0.00 0.00 0.00 0.00 0.00 0.70 0.00 0.00 0.00 0.00 0.00 0.00 0.00 0.00 0.00 0.00 0.00 0.00 0.00 0.00 0.00 0.00 0.00 0.67 0.00 0.00 0.00 0.94 0.00 0.00 0.00 0.63 0.59 0.00 0.00 0.00 0.00 0.00 0.00 0.00 0.00 0.00 0.81 0.81 0.00 0.89 0.73 0.00 0.70 0.00 0.60 0.70 0.00 0.00 0.00 0.00 0.81 0.00 0.00
0.00 0.00 0.00 0.83 0.00 0.65 0.00 0.00 0.00 0.00 0.86 0.00 0.00 0.00 0.00 0.00 0.72 0.00 0.00 0.00 0.00 0.00 0.00 0.00 0.00 0.00 0.00 0.00 0.00 0.00 0.00 0.00 0.75 0.00 0.00 0.00 0.88 0.00 0.00 0.96 0.58 0.00 0.68 0.00 0.86 0.00 0.00 0.00 0.00 0.00 0.00 0.52 0.55 0.00 0.00 0.00 1.00 0.00 0.00 0.00 0.00 0.00 0.00 0.00 0.00 0.00 0.87 0.00 0.00 0.00 0.84 0.00 0.79 0.00 0.00 0.00 0.00 0.00 0.00 0.00 0.00 0.00 0.00 0.00 0.00 0.76 0.96 0.00 0.00 0.00 0.00 0.00 0.00 0.00 0.53 0.93 0.00 0.63 0.00 0.00 0.00 0.00 0.00 0.00 0.00 0.79 0.00 0.71 0.92 0.00 0.58 0.99 0.00 0.00 0.00 0.00 0.00 0.00 0.00 0.00 0.00 0.00 0.89 0.00 0.00 0.59 0.00 0.00 0.00 0.67 0.00 0.00 0.00 0.91 0.00 0.00 0.00 0.00 0.78 0.67
0.00 0.00 0.00 0.00 0.00 0.79 0.00 0.00 0.00 0.00 0.00 0.00 0.00 0.00 0.00 0.88 0.00 0.83 0.00 0.71 0.00 0.00 0.00 0.00 0.89 0.68 0.00 0.00 0.00 0.00 0.00 0.00 0.00 0.00 0.00 0.00 0.00 0.00 0.00 0.00 0.00 0.96 0.00 0.00 0.00 0.00 0.00 0.00 0.00 0.87 0.00 0.00 0.57 0.00 0.00 0.00 0.00 0.00 0.00 0.00 0.00 0.00 0.00 0.00 0.00 0.88 0.00 0.61 0.92 0.00 0.00 0.00 0.00 0.00 0.00 0.00 0.00 0.00 0.92 0.74 0.00 0.00 0.00 0.00 0.00 0.77 0.00 0.00 0.00 0.00 0.00 0.67 0.89 0.00 0.00 0.00 0.89 0.00 0.00 0.00 0.55 0.00 0.75 0.00 0.72 0.00 0.00 0.00 0.00 0.00 0.66 0.00 0.00 0.61 0.00 0.00 0.98 0.00 0.00 0.00 0.00 0.00 0.00 0.00 0.00 0.75 0.00 0.00 0.00 0.96 0.94 0.00 0.86 0.00 0.00 0.00 0.00 0.00 0.00 0.00
0.00 0.00 0.56 0.00 0.00 0.00 0.00 0.00 0.00 0.63 0.00 0.00 0.73 0.00 0.00 0.00 0.64 0.00 0.00 0.00 0.00 0.00 0.00 0.78 0.93 0.00 0.00 0.00 0.61 0.00 0.00 0.00 0.00 0.00 0.00 0.00 0.00 0.00 0.00 0.00 0.77 0.00 0.00 0.00 0.00 0.54 0.00 0.00 0.00 0.00 0.00 0.00 0.00 0.00 0.00 0.00 0.00 0.94 0.60 0.59 0.59 0.00 0.00 0.99 0.00 1.00 0.57 0.00 0.00 0.65 0.00 0.00 0.00 0.00 0.95 0.00 0.00 0.00 0.00 0.00 0.73 0.00 0.00 0.74 0.00 0.00 0.99 0.00 0.00 0.00 0.00 0.00 0.66 0.83 0.53 0.00 0.00 0.00 0.00 0.00 0.00 0.00 0.00 0.75 0.00 0.00 0.00 0.00 0.00 0.00 0.00 0.00 0.00 0.00 0.00 0.52 0.00 0.00 0.00 0.00 0.00 0.00 0.00 0.00 0.00 0.00 0.00 0.00 0.56 0.89 0.00 0.00 0.00 0.00 0.99 0.55 0.00 0.00 0.00 0.00
0.00 0.00 0.98 0.00 0.00 0.00 0.66 0.00 0.00 0.00 0.00 0.00 0.00 0.00 0.00 0.54 0.00 0.00 0.86 0.76 0.00 0.00 0.00 0.00 0.00 0.00 0.00 0.90 0.00 0.99 0.56 0.68 0.00 0.00 0.94 0.00 0.00 0.00 0.00 0.00 0.00 0.67 0.00 0.00 0.00 0.00 0.00 0.00 0.00 0.00 0.62 0.00 0.00 0.83 0.00 0.00 0.00 0.00 0.00 0.00 0.00 0.61 0.61 0.00 0.00 0.00 0.00 0.61 0.00 0.00 0.00 0.00 0.00 0.00 0.00 0.00 0.00 0.00 0.00 0.00 0.00 0.00 0.00 0.62 0.00 0.00 0.00 0.00 0.00 0.00 0.00 0.00 0.89 0.00 0.00 0.00 0.00 0.00 0.00 0.00 0.00 0.56 0.00 0.00 0.00 0.00 0.76 0.62 0.59 0.00 0.00 0.00 0.00 0.65 0.96 0.00 0.00 0.80 0.00 0.00 0.00 0.66 0.79 0.00 0.00 0.00 0.00 0.00 0.88 0.00 0.54 0.00 0.97 0.00 0.97 0.00 0.00 0.51 0.00 0.00
0.00 0.00 0.74 0.00 0.00 0.00 0.50 0.00 0.00 0.00 0.00 0.58 0.00 0.00 0.00 0.89 0.97 0.00 0.00 0.00 0.00 0.89 0.00 0.00 0.78 0.00 0.00 0.00 0.00 0.00 0.00 0.00 0.00 0.00 0.00 0.61 0.00 0.57 0.00 0.55 0.00 0.00 0.00 0.00 0.00 0.00 0.00 0.00 0.00 0.00 0.00 0.00 0.00 0.00 0.00 0.00 0.00 0.00 0.00 0.00 0.00 0.00 0.00 0.00 0.00 0.00 0.00 0.00 0.00 0.00 0.00 0.00 0.76 0.00 0.00 0.00 0.00 0.00 0.56 0.52 0.00 0.63 0.00 0.00 0.00 0.00 0.00 0.00 0.00 0.59 0.00 0.00 0.00 0.00 0.00 0.00 0.00 0.00 0.00 0.00 0.00 0.00 0.00 0.00 0.00 0.93 0.00 0.93 0.62 0.00 0.56 0.00 0.00 0.67 0.00 0.00 0.00 0.00 0.00 0.00 0.00 0.92 0.56 0.00 0.81 0.00 0.00 0.00 0.00 0.00 0.00 0.00 0.00 0.00 0.00 0.00 0.00 0.93 0.00 0.90
0.00 0.00 0.00 0.00 0.00 0.62 0.00 0.77 0.00 0.77 0.00 0.00 0.74 0.00 0.00 0.00 0.00 0.00 0.00 0.59 0.00 0.00 0.96 0.93 0.00 0.54 0.00 0.00 0.00 0.00 0.00 0.00 0.00 0.00 0.00 0.00 0.58 0.00 0.00 0.76 0.00 0.00 0.00 0.00 0.00 0.00 0.00 0.00 0.00 0.00 0.76 0.00 0.00 0.82 0.00 0.00 0.00 0.00 0.00 0.69 0.00 0.68 0.00 0.00 0.69 0.00 0.00 0.00 0.00 0.00 0.00 0.00 0.00 0.85 0.00 0.00 0.55 0.93 0.00 0.00 0.00 0.69 0.00 0.68 0.00 0.00 0.00 0.00 0.00 0.00 0.00 0.00 0.00 0.96 0.00 0.00 0.95 0.00 0.00 0.59 0.00 0.00 0.00 0.00 0.00 0.00 0.00 0.00 0.00 0.00 0.00 0.00 0.71 0.00 0.82 0.00 0.87 0.00 0.00 0.67 0.00 0.00 0.00 0.00 0.56 0.00 0.55 0.00 0.00 0.71 0.00 0.00 0.00 0.00 0.65 0.00 0.00 0.00 0.61 0.00
0.00 0.00 0.84 0.00 0.00 0.00 0.00 0.00 0.00 1.00 0.00 0.00 0.95 0.00 0.00 0.00 0.89 0.00 0.00 0.00 0.00 0.00 0.00 0.00 0.84 0.92 0.00 0.00 0.89 0.79 0.00 0.91 0.00 0.00 0.59 0.00 0.00 0.00 0.79 0.00 0.00 0.64 0.00 0.00 0.00 0.00 0.00 0.64 0.80 0.51 0.00 0.00 0.00 0.00 0.00 0.75 0.00 0.87 0.00 0.00 0.00 0.00 0.83 0.00 0.00 0.00 0.00 0.00 0.00 0.00 0.00 0.00 0.00 0.00 0.00 0.00 0.00 0.00 0.00 0.00 0.00 0.00 0.00 0.00 0.00 0.61 0.00 0.73 0.90 0.00 0.00 0.00 0.69 0.00 0.00 0.00 0.00 0.00 0.00 0.00 0.00 0.87 0.00 0.00 0.00 0.55 0.96 0.00 0.00 0.59 0.78 0.63 0.68 0.00 0.00 0.97 0.00 0.96 0.90 0.00 0.00 0.00 0.00 0.00 0.00 0.66 0.52 0.00 0.00 0.00 0.88 0.00 0.00 0.00 0.98 0.00 0.00 0.00 0.00 0.00
0.00 0.00 0.00 0.00 0.00 0.00 0.00 0.00 0.68 0.00 0.00 0.00 0.65 0.90 0.00 0.59 0.00 0.00 0.57 0.00 0.00 0.81 0.52 0.00 0.00 0.59 0.00 0.00 0.00 0.00 0.00 0.00 0.00 0.00 0.00 0.00 0.00 0.00 0.00 0.00 0.00 0.00 0.00 0.00 0.00 0.00 0.00 0.00 0.00 0.00 0.00 0.00 0.00 0.00 0.00 0.00 0.00 0.00 0.68 0.73 0.00 0.00 0.00 0.00 0.91 0.00 0.00 0.00 0.00 0.00 0.00 0.81 0.00 0.00 0.00 0.00 0.00 0.00 0.00 0.00 0.00 0.00 0.00 0.00 0.00 0.00 0.00 0.68 0.00 0.00 0.00 0.67 0.00 0.00 0.00 0.00 0.00 0.00 0.00 1.00 0.00 0.00 0.00 0.58 0.00 0.62 0.00 0.00 0.00 0.00 0.00 0.00 0.00 0.00 0.00 0.00 0.00 0.00 0.00 0.00 0.00 0.00 0.00 0.00 0.00 0.00 0.00 0.00 0.00 0.00 0.00 0.00 0.00 0.00 0.62 0.72 0.80 0.00 0.00 0.00
0.00 0.62 0.00 0.00 0.59 0.64 0.00 0.00 0.00 0.67 0.00 0.00 0.00 0.00 0.00 0.00 0.00 0.00 0.00 0.00 0.00 0.00 0.00 0.00 0.00 0.00 0.00 0.00 0.00 0.00 0.00 0.00 0.00 0.00 0.00 0.85 0.00 0.00 0.50 0.00 0.71 0.00 0.00 0.00 0.00 0.78 0.90 0.00 0.93 0.95 0.00 0.00 0.00 0.00 0.00 0.00 0.84 0.00 0.67 0.00 0.00 0.00 0.00 0.00 0.00 0.00 0.77 0.00 0.00 0.00 0.00 0.00 0.00 0.00 0.00 0.50 0.00 0.00 0.00 0.00 0.00 0.51 0.00 0.00 0.00 0.83 0.00 0.00 0.00 0.00 0.73 0.00 0.00 0.00 0.00 0.00 0.00 0.00 0.00 0.00 0.00 0.00 0.00 0.00 0.00 0.00 0.00 0.00 0.00 0.00 0.00 0.00 0.00 0.00 0.00 0.00 0.00 0.00 0.00 0.95 0.00 0.00 0.00 0.00 0.00 0.00 0.00 0.55 0.00 0.78 0.00 0.00 0.00 0.59 0.00 0.00 0.00 0.75 0.00 0.00
0.00 0.00 0.00 0.00 0.62 0.00 0.00 0.00 0.60 0.00 0.52 0.95 0.89 0.00 0.00 0.00 0.00 0.00 0.00 0.00 0.00 0.66 0.00 0.00 0.88 0.00 0.00 0.00 0.00 0.53 0.00 0.00 0.90 0.00 0.00 0.72 0.00 0.00 0.00 0.00 0.00 0.69 0.00 0.00 0.00 0.00 0.00 0.00 0.00 0.00 0.00 0.00 0.00 0.00 0.00 0.00 0.65 0.74 0.00 0.00 0.00 0.00 0.00 0.00 0.00 0.56 0.00 0.00 0.00 0.00 0.93 0.00 0.66 0.00 0.00 0.00 0.00 0.00 0.00 0.00 0.00 0.00 0.00 0.00 0.00 0.00 0.78 0.00 0.00 0.00 0.00 0.75 0.00 0.00 0.00 0.65 0.73 0.00 0.00 0.00 0.00 0.00 0.00 0.65 0.00 0.00 0.84 0.00 0.89 0.00 0.00 0.96 0.90 0.98 0.00 0.92 0.00 0.00 0.00 0.97 0.93 0.00 0.00 0.00 0.65 0.00 0.00 0.00 0.00 0.00 0.97 0.00 0.00 0.74 0.00 0.00 0.81 0.00 0.94 0.00
0.00 0.00 0.57 0.00 0.00 0.00 0.00 0.91 0.00 0.00 0.00 0.00 0.00 0.00 0.00 0.00 0.78 0.00 0.00 0.00 0.00 0.91 0.00 0.00 0.00 0.59 0.00 0.00 0.00 0.00 0.00 0.88 0.00 0.00 0.00 0.00 0.00 0.00 0.67 0.00 0.00 0.00 0.00 0.00 0.52 0.00 0.59 0.00 0.00 0.00 0.00 0.57 0.00 0.00 0.00 0.72 0.00 0.00 0.00 0.00 0.00 0.00 0.00 0.00 0.62 0.00 0.00 0.00 0.00 0.00 0.00 0.56 0.96 0.00 0.00 0.00 0.00 0.00 0.00 0.00 0.54 0.00 0.00 0.00 0.00 0.82 0.00 0.00 0.00 0.00 0.65 0.00 0.74 0.59 0.00 0.00 0.81 0.00 0.00 0.73 0.00 0.00 0.00 0.00 0.00 0.00 0.00 0.86 0.00 0.00 0.00 0.00 0.00 0.82 0.00 0.00 0.81 0.00 0.00 0.00 0.60 0.00 0.00 0.73 0.53 0.00 0.00 0.00 0.00 0.00 0.91 0.00 0.66 0.00 0.61 0.00 0.00 0.00 0.00 0.00
0.00 0.00 0.00 0.00 0.00 0.50 0.00 0.00 0.00 0.90 0.00 0.00 0.00 0.00 0.64 0.97 0.00 0.00 0.00 0.00 0.00 0.84 0.00 0.00 0.00 0.00 0.00 0.63 0.00 0.59 0.00 0.00 0.00 0.00 0.00 0.00 0.00 0.00 0.00 0.00 0.00 0.80 0.00 0.00 0.75 0.00 0.00 0.62 0.00 0.00 0.00 0.00 0.00 0.00 0.00 0.00 0.87 0.00 0.00 0.00 0.00 0.00 0.00 0.00 0.00 0.00 0.00 0.83 0.00 0.00 0.86 0.67 0.00 0.81 0.00 0.00 0.00 0.00 0.00 0.00 0.00 0.00 0.57 0.00 0.00 0.65 0.83 0.00 0.00 0.00 0.57 0.70 0.59 0.00 0.00 0.00 0.00 0.00 0.00 0.00 0.00 0.00 0.00 0.66 0.00 0.00 0.00 0.00 0.00 0.00 0.00 0.50 0.00 0.00 0.00 0.00 0.00 0.00 0.00 0.00 0.90 0.00 0.00 0.00 0.00 0.00 0.00 0.00 0.00 0.00 0.00 0.00 0.73 0.00 0.00 0.00 0.55 0.88 0.00 0.96
0.00 0.00 0.76 0.77 0.00 0.67 0.00 0.00 0.00 0.00 0.00 0.00 0.00 0.00 0.00 0.00 0.00 0.00 0.00 0.00 0.00 0.00 0.00 0.64 0.00 0.97 0.74 0.00 0.00 0.00 0.00 0.90 0.00 0.00 0.00 0.00 0.00 0.97 0.00 0.00 0.00 0.00 0.63 0.00 0.00 0.00 0.00 0.00 0.00 0.00 0.54 0.00 0.00 0.00 0.00 0.00 0.00 0.69 0.00 0.00 0.00 0.00 0.00 0.00 0.00 0.00 0.63 0.00 0.00 0.89 0.00 0.00 0.00 0.00 0.00 0.00 0.00 0.00 0.00 0.00 0.00 0.00 0.00 0.00 0.57 0.00 0.00 0.00 0.00 0.54 0.00 0.00 0.00 0.60 0.00 0.00 0.00 0.00 0.65 0.00 0.00 0.81 0.00 0.00 0.54 0.00 0.00 0.00 0.00 0.00 1.00 0.00 0.00 0.00 0.00 0.00 0.00 0.00 0.97 0.00 0.00 0.00 0.92 0.00 0.00 0.00 0.75 0.00 0.69 0.67 0.00 0.00 0.55 0.00 0.00 0.00 0.95 0.00 0.00 0.00
0.00 0.75 0.51 0.00 0.00 0.00 0.00 0.00 0.54 0.00 0.00 0.00 0.00 0.61 0.00 0.00 0.00 0.00 0.54 0.00 0.00 0.00 0.00 0.64 0.00 0.00 0.00 0.00 0.00 0.00 0.00 0.00 0.72 0.00 0.00 0.00 0.00 0.00 0.00 0.88 0.59 0.91 0.69 0.00 0.00 0.56 0.00 0.00 0.92 0.00 0.86 0.00 0.00 0.00 0.81 0.00 0.56 0.00 0.00 0.93 0.00 0.57 0.00 0.00 0.89 0.00 0.00 0.54 0.00 0.00 0.00 0.00 0.00 0.98 0.00 0.00 0.00 0.00 0.00 0.00 0.74 0.82 0.00 0.00 0.00 0.00 0.00 0.00 0.00 0.00 0.00 0.00 0.00 0.00 0.89 0.00 0.00 0.00 0.00 0.00 0.00 0.89 0.00 0.00 0.00 0.00 0.00 0.00 0.00 0.00 0.00 0.96 0.00 0.00 0.00 0.00 0.00 0.00 0.00 0.00 0.56 0.00 0.00 0.00 0.00 0.00 0.65 0.99 0.65 0.00 0.00 0.00 0.00 0.00 0.00 0.00 0.51 0.00 0.00 0.00
0.00 0.00 0.00 0.88 0.00 0.00 0.75 0.00 0.71 0.00 0.00 0.00 0.56 0.00 0.56 0.00 0.00 0.00 0.00 0.00 0.00 0.85 0.00 0.69 0.00 0.79 0.00 0.98 0.00 0.00 0.00 0.00 0.00 0.00 0.00 0.00 0.00 0.80 0.00 0.00 0.00 0.00 0.00 0.00 0.99 0.00 0.00 0.00 0.00 0.00 0.00 0.00 0.66 0.76 0.00 0.00 0.00 0.00 0.65 0.00 0.00 0.97 0.00 0.00 0.00 0.00 0.00 0.00 0.86 0.83 0.00 0.00 0.86 0.82 0.00 0.00 0.00 0.74 0.00 0.00 0.00 0.00 0.00 0.00 0.51 0.99 0.00 0.00 0.00 0.00 0.80 0.00 0.00 0.00 0.52 0.00 0.67 0.69 0.00 0.00 0.99 0.00 0.77 0.00 0.00 0.71 0.00 0.00 0.00 0.94 0.98 0.00 0.00 0.82 0.00 0.00 0.00 0.00 0.00 0.00 0.00 0.00 0.62 0.00 0.58 0.65 0.00 0.00 0.80 0.00 0.00 0.00 0.00 0.00 0.00 0.00 0.00 0.00 0.00 0.00
0.00 0.00 0.99 0.00 0.00 0.00 0.74 0.00 0.54 0.00 0.00 0.93 0.00 0.00 0.68 0.00 0.68 0.00 0.96 0.98 0.84 0.99 0.85 0.00 0.00 0.00 0.00 0.00 0.00 0.00 0.00 0.00 0.00 0.00 0.00 0.00 0.00 0.87 0.00 0.84 0.97 0.00 0.00 0.00 0.72 0.00 0.00 0.00 0.76 0.00 0.00 0.00 0.00 0.00 0.00 0.00 0.61 0.00 0.00 0.00 0.00 0.00 0.00 0.00 0.00 0.00 0.00 0.00 0.80 0.00 0.84 0.00 0.00 0.00 0.00 0.00 0.00 0.00 0.00 0.00 0.00 0.00 0.00 0.55 0.00 0.00 0.00 0.59 0.67 0.69 0.00 0.00 0.00 0.60 0.00 0.00 0.00 0.00 0.84 0.00 0.00 0.80 0.59 0.00 0.90 0.00 0.00 0.00 0.85 0.00 0.00 0.00 0.00 0.96 0.00 0.00 0.00 0.00 0.86 0.00 0.00 0.00 0.79 0.00 0.86 0.00 0.00 0.00 0.00 0.00 0.00 0.93 0.94 0.00 0.00 0.00 0.00 0.00 0.00 0.00
0.00 0.00 0.52 0.00 0.00 0.00 0.00 0.00 0.00 0.00 0.00 0.00 0.00 0.81 0.00 0.00 0.00 0.00 0.70 0.00 0.00 0.00 0.00 0.00 0.00 0.00 0.00 0.00 0.93 0.51 0.00 0.00 0.00 0.00 0.00 0.00 0.00 0.93 0.00 0.00 0.00 0.00 0.00 0.00 0.00 0.00 0.00 0.55 0.00 0.80 0.00 0.00 0.00 0.00 0.71 0.00 0.00 0.00 0.00 0.00 0.00 0.00 0.00 0.00 0.00 0.00 0.89 0.99 0.00 0.00 0.00 0.00 0.00 0.00 0.70 0.91 0.00 0.00 0.00 0.00 0.00 0.88 0.00 0.00 0.00 0.00 0.00 0.00 0.00 0.98 0.00 0.00 0.00 0.00 0.00 0.00 0.00 0.00 0.00 0.00 0.00 0.70 0.00 0.00 0.00 0.97 0.00 0.94 0.00 0.00 0.00 0.96 0.00 0.00 0.00 0.00 0.00 0.78 0.67 0.00 0.00 0.00 0.99 0.00 0.81 0.00 0.00 0.00 0.00 0.00 0.00 0.00 0.69 0.85 0.67 0.00 0.50 0.00 0.00 0.00
0.00 0.00 0.00 0.00 0.00 0.00 0.00 0.97 0.76 0.87 0.00 0.00 0.00 0.72 0.63 0.00 0.00 0.00 0.66 0.00 0.00 0.00 0.00 0.67 0.00 0.00 0.70 0.00 0.00 0.00 0.00 0.00 0.00 0.00 0.00 0.00 0.00 0.00 0.00 0.70 0.00 0.00 0.97 0.00 0.00 0.00 0.58 0.73 0.00 0.00 0.00 0.00 0.00 0.00 0.00 0.00 0.00 0.00 0.68 0.00 0.00 0.00 0.59 0.86 0.00 0.83 0.00 0.56 0.00 0.00 0.00 0.00 0.98 0.00 0.00 0.00 0.00 0.00 0.71 0.00 0.94 0.00 0.00 0.00 0.00 0.00 0.00 0.00 0.00 0.00 0.00 0.00 0.00 0.81 0.69 0.81 0.00 0.96 0.00 0.53 0.00 0.00 0.00 0.00 0.00 0.00 0.00 0.00 0.00 0.00 0.00 0.00 0.00 0.00 0.00 0.94 0.00 0.88 0.00 0.00 0.78 0.92 0.00 0.00 0.00 0.00 0.00 0.00 0.00 0.98 0.00 0.74 0.00 0.00 0.00 0.51 0.00 0.00 0.00 0.76
0.00 0.00 0.00 0.60 0.67 0.00 0.00 1.00 0.00 0.00 0.00 0.81 0.00 0.00 0.00 0.00 0.00 0.00 0.00 0.00 0.00 0.00 0.00 0.00 0.00 0.95 0.00 0.00 0.00 0.00 0.00 0.00 0.00 0.00 0.00 0.00 0.00 0.86 0.00 0.00 0.99 0.00 0.00 0.00 0.00 0.00 0.00 0.00 0.56 0.00 0.79 0.00 0.00 0.00 0.00 0.00 0.00 0.00 0.00 0.00 0.00 0.00 0.00 0.00 0.00 0.00 0.00 0.00 0.00 0.00 0.00 0.00 0.00 0.00 0.00 0.92 0.00 0.75 0.00 0.00 0.00 0.00 0.00 0.00 0.00 0.00 0.00 0.00 0.00 0.96 0.00 0.00 0.57 0.00 0.00 0.00 0.00 0.00 0.00 0.94 0.99 0.00 0.00 0.00 0.90 0.00 0.00 0.00 0.00 0.57 0.00 0.00 0.00 0.00 0.93 0.00 0.00 0.95 0.00 0.00 0.00 0.66 0.79 0.00 0.00 0.96 0.00 0.00 0.00 0.00 0.00 0.00 0.00 0.77 0.00 0.00 0.00 0.00 0.00 0.00
0.80 0.00 0.00 0.00 0.00 0.00 0.00 0.00 0.52 0.00 0.00 0.00 0.00 0.00 0.00 0.00 0.00 0.52 0.00 0.00 0.00 0.00 0.00 0.56 0.00 0.00 0.64 0.00 0.00 0.55 0.00 0.00 0.73 0.94 0.00 0.00 0.00 0.00 0.00 0.00 0.82 0.00 0.00 0.00 0.00 0.98 0.00 0.00 0.54 0.00 0.00 0.00 0.00 0.00 0.00 0.77 0.00 0.63 0.00 0.00 0.00 0.55 0.00 0.00 0.00 0.50 0.00 0.00 0.00 0.00 0.00 0.00 0.00 1.00 0.00 0.70 0.00 0.70 0.73 0.00 0.00 0.99 0.00 0.00 0.67 0.00 0.00 0.00 0.00 0.00 0.71 0.00 0.00 0.76 0.00 0.58 0.58 0.00 0.00 0.00 0.73 0.00 0.00 0.00 0.89 0.00 0.00 0.00 0.00 0.72 0.00 0.55 0.73 0.00 0.00 0.00 0.67 0.00 0.00 0.00 0.00 0.00 0.66 0.00 0.00 0.00 0.00 0.00 0.73 0.00 0.00 0.00 0.00 0.00 0.00 0.00 0.71 0.00 0.00 0.72
0.00 0.00 0.00 0.00 0.00 0.00 0.00 0.00 0.00 0.00 0.77 0.76 0.00 0.98 0.00 0.00 0.98 0.00 0.00 0.00 0.00 0.00 0.00 0.00 0.00 0.00 0.00 0.00 0.00 0.00 0.80 0.00 0.00 0.00 0.00 0.00 0.00 0.83 0.00 0.00 0.79 0.00 0.00 0.00 0.00 0.00 0.00 0.00 0.72 0.00 0.00 0.00 0.00 0.74 0.00 0.00 0.00 0.00 0.00 0.00 0.00 0.00 0.53 0.00 0.96 0.00 0.97 0.00 0.00 0.00 0.82 0.00 0.00 0.00 0.00 0.85 0.00 0.00 0.00 0.00 0.00 0.00 0.00 0.00 0.00 0.00 0.00 0.00 0.00 0.00 0.94 0.51 0.72 0.00 0.00 0.00 0.00 0.00 0.00 0.00 0.00 0.00 0.00 0.00 0.00 0.00 0.00 0.00 0.63 0.00 0.00 0.00 0.00 0.00 0.00 0.00 0.00 0.79 0.00 0.00 0.70 0.00 0.00 0.00 0.75 0.00 0.00 0.00 0.89 0.00 0.00 0.00 0.79 0.00 0.00 0.00 0.00 0.00 0.00 0.00
0.00 0.00 0.94 0.51 0.00 0.00 0.00 0.00 0.00 0.00 0.00 0.00 0.00 0.00 0.81 0.00 0.00 0.00 0.00 0.00 0.00 0.59 0.00 0.65 0.00 0.00 0.00 0.79 0.00 0.00 0.00 0.98 0.00 0.79 0.00 0.00 0.75 0.00 0.00 0.00 0.00 0.00 0.00 0.00 0.87 0.00 0.00 0.00 0.00 0.00 0.00 0.00 0.00 0.79 0.00 0.00 0.00 0.91 0.56 0.00 0.00 0.00 0.00 0.00 0.00 0.00 0.00 0.80 0.72 0.00 0.00 0.64 0.00 0.00 0.00 0.96 0.00 0.00 0.00 0.00 0.68 0.00 0.76 0.66 0.00 0.00 0.00 0.00 0.00 0.00 0.00 0.00 0.00 0.00 0.00 0.00 0.88 0.00 0.00 0.00 0.75 0.76 0.00 0.00 0.00 0.00 0.64 0.52 0.00 0.00 0.00 0.90 0.00 0.00 0.00 0.00 0.64 0.00 0.00 0.00 0.00 0.00 0.00 0.00 0.00 0.00 0.00 0.00 0.00 0.00 0.67 0.00 0.00 0.00 0.00 0.00 0.00 0.00 0.00 0.00
0.92 0.00 0.00 0.00 0.66 0.00 0.00 0.00 0.00 0.00 0.00 0.00 0.00 0.00 0.97 0.00 0.00 0.61 0.00 0.00 0.00 0.00 0.00 0.00 0.00 0.00 0.00 0.00 0.00 0.00 0.00 0.00 0.00 0.00 0.00 0.80 0.54 0.00 0.90 0.00 0.00 0.00 0.00 0.00 0.60 0.00 0.00 0.00 0.00 0.00 0.00 0.00 0.00 0.76 0.88 0.80 0.00 0.00 0.00 0.00 0.68 0.00 0.00 0.71 0.00 0.82 0.00 0.86 0.00 0.00 0.94 0.00 0.00 0.00 0.00 0.00 0.79 0.00 0.97 0.00 0.00 0.00 0.00 0.00 0.00 0.00 0.78 0.00 0.00 0.69 0.00 0.00 0.68 0.00 0.00 0.00 0.00 0.00 0.00 0.00 0.00 0.00 0.00 0.00 0.00 0.82 0.00 0.85 0.84 0.00 0.00 0.00 0.00 0.00 0.00 0.00 0.00 0.69 0.00 0.70 0.00 0.00 0.64 0.00 0.00 0.76 0.00 0.00 0.00 0.75 0.00 0.00 0.00 0.99 0.00 0.00 0.00 0.00 0.00 0.00
0.00 0.00 0.00 0.00 0.53 0.58 0.00 0.00 0.00 0.00 0.00 0.00 0.00 0.00 0.00 0.95 0.00 0.00 0.00 0.00 0.64 0.00 0.00 0.00 0.00 0.00 0.00 0.00 0.00 0.61 0.51 0.00 0.00 0.00 0.00 0.00 0.00 0.00 0.00 0.00 0.76 0.00 0.00 0.00 0.00 0.00 0.00 0.00 0.00 0.99 0.00 0.00 0.00 0.00 0.00 0.00 0.00 0.82 0.00 0.72 0.00 0.00 0.00 0.65 0.00 0.00 0.00 0.00 0.00 0.00 0.00 0.00 0.00 0.00 0.00 0.00 0.53 0.00 0.66 0.55 0.00 0.97 0.00 0.00 0.00 0.85 0.00 0.00 0.00 0.00 0.00 0.00 0.00 0.00 0.59 0.00 0.00 0.00 0.00 0.00 0.00 0.00 0.00 0.00 0.00 0.00 0.92 0.98 0.88 0.60 0.00 0.95 0.62 0.00 0.00 0.00 0.00 0.00 0.00 0.00 0.00 0.00 0.89 0.00 0.56 0.00 0.00 0.00 0.00 0.00 0.00 0.00 0.00 0.00 0.00 0.00 0.00 0.00 0.00 0.00
0.00 0.00 0.00 0.00 0.65 0.00 0.00 0.91 0.71 0.59 0.00 0.00 0.00 0.00 0.00 0.90 0.00 0.00 0.00 0.00 0.00 0.00 0.92 0.00 0.00 0.77 0.83 0.00 0.00 0.00 0.93 0.00 0.00 0.00 0.88 0.00 0.97 0.00 0.00 0.00 0.00 0.00 0.00 0.00 0.00 0.00 0.00 0.00 0.56 0.00 0.00 0.00 0.00 0.76 0.00 0.00 0.00 0.00 0.00 0.85 0.00 0.00 0.00 0.00 0.00 0.00 0.65 0.00 0.00 0.00 0.61 0.00 0.68 0.00 0.80 0.91 0.00 0.00 0.91 0.00 0.00 0.00 0.00 0.00 0.00 0.00 0.77 0.00 0.77 0.00 0.00 0.00 0.00 0.00 0.00 0.00 0.00 0.00 0.00 0.00 0.90 0.00 0.00 0.00 0.00 0.00 0.00 0.00 0.00 0.00 0.00 0.00 0.00 0.59 0.00 0.00 0.00 0.00 0.00 0.00 0.00 0.00 0.62 0.00 0.00 0.58 0.00 0.00 0.00 0.00 0.00 0.00 0.00 0.00 0.00 0.00 0.00 0.00 0.00 0.00
0.00 0.00 0.00 0.00 0.00 0.00 0.00 0.00 0.00 0.72 0.00 0.00 0.00 0.00 0.00 0.00 0.00 0.74 0.00 0.00 0.00 0.00 0.00 0.00 0.00 0.00 0.00 0.00 0.64 0.00 0.00 0.00 0.00 0.68 0.00 0.70 0.00 0.00 0.00 0.00 0.00 0.00 0.00 0.99 0.00 0.00 0.00 0.00 0.00 0.00 0.00 0.53 0.00 0.00 0.00 0.00 0.00 0.00 0.00 0.52 0.00 0.69 0.00 0.77 0.00 0.00 0.00 0.00 0.00 0.85 0.00 0.00 0.81 0.00 0.00 0.00 0.00 0.00 0.00 0.00 0.00 0.00 0.80 0.00 0.50 0.00 0.00 0.00 0.82 0.00 0.00 0.00 0.00 0.00 0.00 0.00 0.00 0.95 0.00 0.00 0.63 0.00 0.00 0.00 0.00 0.00 0.75 0.00 0.00 0.00 0.62 0.00 0.00 0.60 0.50 0.00 0.00 0.00 0.00 0.00 0.00 0.00 0.00 0.83 0.00 0.58 0.00 0.00 0.00 0.00 0.00 0.00 0.68 0.00 0.00 0.79 0.94 0.00 0.00 0.00
0.00 0.00 0.54 0.00 0.00 0.00 0.89 0.00 0.00 0.00 0.00 0.00 0.00 0.00 0.00 0.77 0.00 0.00 0.00 0.00 0.00 0.00 0.00 0.00 0.00 0.00 0.99 0.90 0.91 0.00 0.65 0.00 0.00 0.00 0.00 0.00 0.00 0.82 0.00 0.00 0.00 0.00 0.00 0.00 0.00 0.00 0.00 0.00 0.00 0.00 0.00 0.00 0.65 0.81 0.00 0.00 0.00 0.98 0.00 0.00 0.00 0.00 0.00 0.00 0.00 0.00 0.00 0.00 0.00 0.91 0.00 0.00 0.00 0.00 0.00 0.00 0.00 0.00 0.00 0.00 0.00 0.00 0.00 0.00 0.00 0.00 0.00 0.00 0.00 0.00 0.00 0.00 0.00 0.59 0.00 0.00 0.00 0.53 0.00 0.00 0.00 0.00 0.00 0.00 0.00 0.85 0.00 0.73 0.00 0.00 0.68 0.00 0.00 0.00 0.00 0.00 1.00 0.00 0.00 0.86 0.00 0.00 0.58 0.00 0.00 0.00 0.00 0.00 0.00 0.94 0.00 0.00 0.00 0.00 0.00 0.00 0.00 0.00 0.00 0.00
0.00 0.99 0.00 0.61 0.00 0.00 0.00 0.00 0.00 0.82 0.00 0.00 0.00 0.00 0.72 0.00 0.00 0.00 0.00 0.00 0.00 0.00 0.00 0.00 0.00 0.70 0.00 0.00 0.00 0.00 0.00 0.00 0.00 0.83 0.00 0.00 0.00 0.00 0.00 0.00 0.00 0.00 0.00 0.00 0.00 0.00 0.90 0.00 0.55 0.00 0.00 0.00 0.98 0.00 0.00 0.89 0.00 0.00 0.00 0.00 0.00 0.00 0.00 0.00 0.00 0.00 0.00 0.00 0.91 0.00 0.00 0.67 0.82 0.00 0.63 0.00 0.00 0.00 0.00 0.00 0.00 0.71 0.00 0.97 0.71 0.00 0.99 0.00 0.97 0.00 0.00 0.00 0.00 0.76 0.00 0.79 0.00 0.00 0.56 0.00 0.98 0.00 0.00 0.00 0.00 0.00 0.83 0.00 0.00 0.00 0.51 0.00 0.00 0.90 0.54 0.98 0.00 0.00 0.00 0.00 0.00 0.52 0.72 0.00 0.00 0.00 0.00 0.00 0.82 0.00 0.00 0.00 0.00 0.00 0.00 0.00 0.00 0.00 0.93 0.00
0.00 0.00 0.00 0.00 0.62 0.00 0.70 0.00 0.00 0.00 0.00 0.00 0.00 0.00 0.00 0.00 1.00 0.00 0.00 0.00 0.00 0.00 0.00 0.00 0.00 0.00 0.59 0.00 0.50 0.00 0.00 0.00 0.00 0.00 0.00 0.97 0.00 0.00 0.00 0.00 0.00 0.00 0.00 0.00 1.00 0.00 0.00 0.00 0.00 0.67 0.00 0.00 0.00 0.00 0.74 0.97 0.00 0.00 0.00 0.00 0.00 0.00 0.60 0.00 0.00 0.00 0.00 0.64 0.00 0.00 0.00 0.00 0.00 0.72 0.00 0.00 0.00 0.00 0.00 0.00 0.00 0.00 0.00 0.00 0.53 0.91 0.00 0.00 0.00 0.97 0.00 0.00 0.00 0.93 0.00 0.00 0.00 0.00 0.00 0.69 0.00 0.00 0.68 0.00 0.00 0.00 0.00 0.00 0.00 0.79 0.82 0.00 0.73 0.00 0.00 0.00 0.00 0.00 0.70 0.56 0.00 0.00 0.00 0.00 0.00 0.00 0.00 0.00 0.00 0.00 1.00 0.00 0.00 0.84 0.00 0.00 0.00 0.00 0.00 0.00
0.00 0.00 0.00 0.54 0.00 0.00 0.82 0.00 0.00 0.00 0.00 0.00 0.00 0.00 0.00 0.83 0.00 0.00 0.00 0.00 0.00 0.96 0.00 0.66 0.79 0.67 0.00 0.00 0.00 0.00 0.00 0.00 0.00 0.86 0.00 0.00 0.00 0.00 0.59 0.00 0.00 0.00 0.71 0.50 0.00 0.00 0.00 0.00 0.00 0.59 0.00 0.00 0.00 0.00 0.00 0.00 0.00 0.00 0.00 0.78 0.00 0.00 0.00 0.00 0.00 0.82 0.57 0.00 0.00 0.00 0.00 0.00 0.00 0.56 0.00 0.00 0.00 0.00 0.00 0.97 0.00 0.00 0.00 0.00 0.00 0.00 0.00 0.00 0.00 0.58 0.61 0.00 0.00 0.00 0.56 0.00 0.69 0.00 0.00 0.00 0.00 0.00 0.58 0.00 0.00 0.00 0.00 0.90 0.00 0.00 0.93 0.00 0.00 0.00 0.52 0.58 0.81 0.00 0.00 0.00 0.98 0.62 0.67 0.00 0.00 0.00 0.00 0.00 0.00 0.00 0.00 0.00 0.00 0.00 0.00 0.00 0.00 0.00 0.97 0.83
0.00 0.00 0.00 0.56 0.00 0.00 0.00 0.00 0.00 0.93 0.00 0.00 0.00 0.00 0.00 1.00 0.00 0.00 0.00 0.00 0.00 0.00 0.00 0.00 0.00 0.69 0.00 0.00 0.00 0.00 0.00 0.63 0.88 0.00 0.00 0.00 0.00 0.84 0.00 0.00 0.00 0.00 0.00 0.00 0.00 0.00 0.00 0.00 0.00 0.00 0.00 0.00 0.00 0.00 0.77 0.00 0.50 0.00 0.00 0.00 0.00 0.00 0.00 0.00 0.58 0.00 0.00 0.76 0.00 0.00 0.00 0.00 0.00 0.00 0.00 0.00 0.00 0.00 0.00 0.00 0.00 0.00 0.00 0.87 0.00 0.00 0.76 0.00 0.00 0.00 0.00 0.00 0.92 0.51 0.00 0.00 0.00 0.00 0.00 0.00 0.00 0.00 0.00 0.00 0.00 0.00 0.69 0.69 0.00 0.00 0.00 0.00 0.00 0.00 0.00 0.00 0.00 0.66 0.00 0.85 0.99 0.00 0.00 0.00 0.00 0.00 0.00 0.00 0.00 0.00 0.00 0.00 0.00 0.00 0.00 0.00 0.00 0.00 0.00 0.50
0.00 0.00 0.00 0.00 0.74 0.00 0.00 0.00 0.00 0.93 0.00 0.00 0.00 0.88 0.00 0.00 0.00 0.00 0.00 0.00 0.00 0.00 0.92 0.00 0.00 0.00 0.00 0.00 0.00 0.00 0.00 0.00 0.50 0.00 0.75 0.00 0.00 0.00 0.00 0.00 0.00 0.00 0.00 0.00 0.00 0.00 0.00 0.00 0.00 0.00 0.00 0.00 0.80 0.00 0.00 0.90 0.00 0.00 0.56 0.60 0.00 0.00 0.00 0.83 0.79 0.67 0.00 0.00 0.00 0.00 0.77 0.00 0.00 0.00 0.00 0.00 0.00 0.00 0.00 1.00 0.00 0.81 0.00 0.00 0.00 0.66 0.00 0.00 0.00 0.00 0.00 0.00 0.00 0.00 0.83 0.72 0.00 0.00 0.00 0.64 0.00 0.00 0.00 0.00 0.00 0.00 0.00 0.00 0.00 0.00 0.00 0.00 0.00 0.00 0.00 0.00 0.96 0.00 0.52 0.81 0.70 0.00 0.00 1.00 0.00 0.00 0.00 0.00 0.68 0.55 0.00 0.91 0.00 0.89 0.00 0.00 0.00 0.00 0.00 0.00
0.00 0.00 0.00 0.00 0.00 0.00 0.00 0.00 0.00 0.00 0.00 0.75 0.00 0.00 0.00 0.62 0.64 0.00 0.00 0.00 0.00 0.00 0.00 0.78 0.60 0.00 0.00 0.00 0.00 0.00 0.00 0.00 0.00 0.00 0.00 0.00 0.75 0.58 0.00 0.00 0.00 0.00 0.00 0.00 0.81 0.00 0.00 0.00 0.00 0.58 0.00 0.00 0.00 0.00 0.00 0.00 0.00 0.00 0.00 0.00 0.00 0.98 0.00 0.00 0.00 0.00 0.00 0.69 0.00 0.00 0.88 0.00 0.00 0.00 0.00 0.85 0.90 0.00 0.78 0.00 0.00 0.80 0.00 0.00 0.00 0.00 0.00 0.00 0.67 0.00 0.00 0.00 0.00 0.00 0.69 0.00 0.00 0.00 0.00 0.00 0.00 0.00 0.00 0.62 0.00 0.00 0.55 0.00 0.00 0.00 0.00 0.00 0.00 0.00 0.00 0.00 0.00 0.00 0.00 0.00 0.00 0.00 0.00 0.00 0.85 0.00 0.59 0.00 0.00 0.00 0.00 0.00 0.98 0.70 0.00 0.00 0.00 0.78 0.00 0.91
0.00 0.00 0.00 0.00 0.00 0.00 0.00 0.00 0.56 0.00 0.00 0.00 0.00 0.00 0.85 0.00 0.00 0.00 0.00 0.00 0.00 0.00 0.00 0.00 0.00 0.00 0.00 0.00 0.00 0.00 0.00 0.00 0.00 0.00 0.84 0.00 0.00 0.00 0.00 0.00 0.81 0.00 0.81 0.00 0.00 0.87 0.00 0.00 0.00 0.59 0.00 0.00 0.91 0.00 0.00 0.00 0.00 0.00 0.00 0.00 0.54 0.00 0.00 0.00 0.00 0.00 0.00 0.00 0.00 0.00 0.57 0.00 0.00 0.81 0.89 0.00 0.00 0.00 0.67 0.00 0.00 0.00 0.00 0.00 0.00 0.00 0.79 0.00 0.00 0.00 0.00 0.00 0.00 0.00 0.00 0.00 0.00 0.00 0.00 0.00 0.00 0.00 0.00 0.97 0.00 0.93 0.94 0.65 0.00 0.00 0.00 0.00 0.00 0.56 0.00 0.00 0.00 0.00 0.66 0.75 0.00 0.00 0.68 0.00 0.00 0.00 0.00 0.00 0.00 0.98 0.00 0.00 0.00 0.00 0.00 0.00 0.00 0.00 0.00 0.90
0.00 0.00 0.00 0.85 0.00 0.00 0.00 0.00 0.00 0.95 0.00 0.55 0.00 0.00 0.63 0.00 0.00 0.64 0.00 0.00 0.00 0.53 0.00 0.00 0.00 0.00 0.00 0.00 0.00 0.00 0.00 0.00 0.00 0.00 0.00 0.53 0.00 0.73 0.00 0.62 0.00 0.00 0.00 0.00 0.00 0.65 0.00 0.00 0.91 0.00 0.00 0.00 0.00 0.00 0.00 0.00 0.00 0.65 0.00 0.00 0.00 0.00 0.00 0.00 0.00 0.00 0.00 0.00 0.63 0.00 0.00 0.00 0.00 0.00 0.96 0.00 0.50 0.00 0.56 0.00 0.00 0.00 0.00 0.00 0.00 0.00 0.00 0.69 0.00 0.00 0.00 0.00 0.00 0.00 0.95 0.00 0.00 0.00 0.00 0.00 0.00 0.87 0.00 0.00 0.00 0.00 0.00 0.71 0.00 0.00 0.59 0.84 0.00 0.00 0.00 0.00 0.73 0.00 0.96 0.00 0.00 0.00 0.00 0.00 0.00 0.58 0.93 0.82 0.00 0.00 0.00 0.00 0.75 0.00 0.86 0.53 0.00 0.00 0.00 0.00
0.00 0.00 0.00 0.00 0.00 0.50 0.00 0.00 0.57 0.00 0.89 0.00 0.00 0.52 0.00 0.00 0.95 0.00 0.00 0.00 0.00 0.00 0.00 0.00 0.00 0.97 0.00 0.00 0.00 0.00 0.91 0.90 0.60 0.00 0.00 0.00 0.00 0.00 0.88 0.00 0.00 0.52 0.00 0.00 0.00 0.00 0.00 0.00 0.00 0.00 0.00 0.00 0.00 0.00 0.00 0.00 0.00 0.90 0.00 0.89 0.79 0.00 0.00 0.00 0.00 0.81 0.00 0.00 0.00 0.61 0.62 0.92 0.00 0.00 0.00 0.00 0.00 0.00 0.00 0.00 0.97 0.84 0.53 0.00 0.00 0.00 0.00 0.00 0.84 0.00 0.00 0.00 0.64 0.00 0.00 0.00 0.00 0.00 0.00 0.64 0.00 0.00 0.00 0.00 0.00 0.00 0.00 0.00 0.73 0.00 0.00 0.00 0.87 0.00 0.00 0.00 0.00 0.00 0.85 0.00 0.00 0.00 0.00 0.00 0.00 0.00 0.00 0.50 0.00 0.73 0.88 0.00 0.87 0.00 0.00 0.00 0.87 0.00 0.00 0.71
0.00 0.96 0.87 0.00 0.72 0.73 0.00 0.00 0.00 0.00 0.00 0.00 0.00 0.00 0.00 0.00 0.00 0.00 0.00 0.90 0.00 0.00 0.00 0.83 0.76 0.75 0.00 0.80 0.00 0.00 0.00 0.00 0.00 0.00 0.00 0.00 0.00 0.00 0.00 0.00 0.00 0.00 0.00 0.00 0.00 0.00 0.00 0.75 0.00 0.74 0.63 0.00 0.65 0.00 0.00 0.00 0.00 0.00 0.00 0.00 0.00 0.00 0.00 0.74 0.00 0.00 0.51 0.00 0.00 0.00 0.00 0.00 0.00 0.00 0.90 0.00 0.69 0.00 0.00 0.80 0.00 0.00 0.00 0.00 0.99 0.00 0.00 0.00 0.76 0.00 0.73 0.00 0.74 0.78 0.92 0.00 0.00 0.00 0.00 0.00 0.00 0.72 0.00 0.78 0.00 0.00 0.00 0.00 0.00 0.00 0.00 0.00 0.00 0.00 0.00 0.64 0.00 0.83 0.00 0.88 0.64 0.00 0.00 0.00 0.70 0.56 0.00 0.00 0.00 0.00 0.00 0.00 0.00 0.00 0.00 0.50 0.77 0.00 0.00 0.53
0.00 0.00 0.00 0.00 0.00 0.00 0.00 0.00 0.00 0.99 0.00 0.00 0.00 0.00 0.00 0.00 0.65 0.53 0.00 0.00 0.82 0.00 0.00 0.67 0.00 0.00 0.00 0.62 0.67 0.00 0.91 0.00 0.91 0.00 0.80 0.00 0.00 0.00 0.00 0.00 0.86 0.00 0.00 0.00 0.00 0.00 0.00 0.00 0.00 0.00 0.00 0.88 0.00 0.00 0.60 0.61 0.00 0.00 0.00 0.00 0.00 0.00 0.00 0.00 0.78 0.00 0.00 0.00 0.00 0.00 0.00 0.00 0.69 0.00 0.00 0.00 0.00 0.65 0.89 0.00 0.00 0.00 0.00 0.00 0.00 0.81 0.78 0.00 0.00 0.73 0.75 0.00 0.00 0.00 0.00 0.55 0.88 0.00 0.00 0.00 0.95 0.62 0.00 0.86 0.00 0.00 0.00 0.00 0.00 0.59 0.68 0.00 0.00 0.00 0.00 0.00 0.00 0.00 0.84 0.00 0.00 0.00 0.00 0.99 0.89 0.00 0.00 0.80 0.00 0.92 0.00 0.00 0.00 0.00 0.00 0.98 0.56 0.00 0.00 0.00
0.00 0.76 0.00 0.00 0.00 0.00 0.00 0.00 0.00 0.00 0.00 0.54 0.00 0.95 0.00 0.66 0.00 0.54 0.00 0.00 0.00 0.00 0.00 0.00 0.00 0.00 0.00 0.00 0.00 0.92 0.00 0.97 0.00 0.00 0.00 0.00 0.00 0.00 0.00 0.00 0.00 0.00 0.00 0.00 0.00 0.00 0.00 0.00 0.00 0.00 0.00 0.00 0.00 0.00 0.00 0.00 0.00 0.00 0.00 0.00 0.73 0.00 0.00 0.73 0.00 0.68 0.76 0.00 0.00 0.00 0.00 0.00 0.00 0.00 0.00 0.00 0.00 0.89 0.79 0.00 0.89 0.00 0.00 0.00 0.00 0.00 0.00 0.00 0.00 0.79 0.56 0.00 0.65 0.00 0.00 0.00 0.00 0.00 0.00 0.00 0.00 0.00 0.00 0.00 0.00 0.00 0.92 0.00 0.00 0.00 0.98 0.00 0.00 0.00 0.00 0.00 0.00 0.74 0.00 0.00 0.00 0.60 0.63 0.00 0.00 0.81 0.00 0.00 0.00 0.00 0.00 0.00 0.00 0.00 0.00 0.00 0.00 0.00 0.00 0.00
0.00 0.00 0.00 0.00 0.59 0.88 0.00 0.00 0.00 0.89 0.00 0.00 0.74 0.00 0.00 0.00 0.92 0.61 0.00 0.00 0.00 0.00 0.00 0.86 0.00 0.00 0.81 0.00 0.00 0.00 0.00 0.00 0.50 0.00 0.62 0.54 0.74 0.00 0.00 0.00 0.00 0.00 0.00 0.00 0.00 0.00 0.00 0.00 0.00 0.00 0.00 0.00 0.00 0.00 0.58 0.00 0.00 0.77 0.00 0.00 0.00 0.00 0.00 0.00 0.00 0.00 0.00 0.00 0.00 0.00 0.00 0.00 0.00 0.00 0.00 0.00 0.00 0.95 0.00 0.58 0.00 0.00 0.00 0.00 0.58 0.00 0.00 0.00 0.50 0.00 0.00 0.00 0.00 0.00 0.00 0.00 0.00 0.00 0.00 0.72 0.00 0.00 0.00 0.00 0.00 0.00 0.00 0.00 0.00 0.63 0.00 0.00 0.00 0.00 0.00 0.00 0.00 0.00 0.00 0.00 0.00 0.00 0.60 0.00 0.00 0.00 0.00 0.00 0.00 0.00 0.00 0.00 0.00 0.00 0.93 0.00 0.00 0.00 0.00 0.58
0.00 0.00 0.95 0.00 0.00 0.00 0.54 0.75 0.00 0.66 0.00 0.91 0.00 0.00 0.00 0.00 0.00 0.00 0.00 0.00 0.00 0.00 0.00 0.00 0.00 0.00 0.70 0.00 0.00 0.60 0.00 0.00 0.00 0.00 0.00 0.00 0.00 0.00 0.81 0.00 0.00 0.00 0.00 0.00 0.00 0.00 0.00 0.73 0.00 0.00 0.00 0.00 0.00 0.00 0.00 0.00 0.00 0.00 0.69 0.00 0.00 0.00 0.00 0.00 0.00 0.00 0.80 0.71 0.00 0.00 0.00 0.00 0.00 0.00 0.00 0.00 0.00 0.00 0.00 0.00 0.00 0.00 0.00 0.00 0.00 0.62 0.00 0.00 0.87 0.00 0.00 0.00 0.00 0.87 0.00 0.00 0.00 0.00 0.00 0.00 0.00 0.00 0.00 0.00 0.00 0.68 0.00 0.00 0.00 0.00 0.00 0.00 0.00 0.00 0.95 0.00 0.00 0.59 0.00 0.99 0.00 0.00 0.00 0.72 0.00 0.00 0.00 0.00 0.00 0.81 0.00 0.00 0.70 0.00 0.00 0.00 0.00 0.00 0.89 0.00
0.69 0.85 0.00 0.00 0.00 0.00 0.00 0.00 0.00 0.75 0.00 0.00 0.00 0.00 0.00 0.00 0.00 0.00 0.75 0.00 0.00 0.00 0.00 0.64 0.00 0.00 0.00 0.00 0.00 0.59 0.00 0.00 0.00 0.00 0.84 0.00 0.00 0.51 0.95 0.00 0.00 0.00 0.92 0.00 0.00 0.67 0.82 0.00 0.00 0.00 0.00 0.00 0.52 0.00 0.00 0.00 0.00 0.73 0.00 0.00 0.70 0.00 0.67 0.00 0.00 0.00 0.00 0.00 0.00 0.00 0.00 0.00 0.00 0.00 0.00 0.80 0.00 0.00 0.00 0.00 0.00 0.00 0.00 0.95 0.00 0.00 0.00 0.00 0.71 0.00 0.93 0.00 0.00 0.00 0.00 0.00 0.00 0.00 0.00 0.00 0.00 0.00 0.00 0.00 0.00 0.00 0.00 0.00 0.00 0.00 0.00 0.00 0.70 0.00 0.71 0.72 0.00 0.00 0.00 0.00 0.00 0.00 0.00 0.00 0.00 0.00 0.00 0.00 0.00 0.00 0.00 0.00 0.00 0.00 0.00 0.98 0.00 0.00 0.86 0.00
0.00 0.00 0.88 0.00 0.88 0.00 0.00 0.00 0.84 0.00 0.00 0.00 0.61 0.00 0.00 0.00 0.00 0.00 0.00 0.00 0.00 0.00 0.00 0.00 0.00 0.00 0.00 0.00 0.88 0.00 0.00 0.00 0.00 0.00 0.00 0.00 0.79 0.00 0.00 0.75 0.00 0.00 0.00 0.00 0.00 0.93 0.00 0.00 0.00 0.00 0.00 0.00 0.00 0.00 0.00 0.00 0.00 0.00 0.00 0.95 0.00 0.00 0.94 0.00 0.00 0.55 0.00 0.55 0.00 0.00 0.00 0.85 0.00 0.00 0.00 0.00 0.00 0.00 0.95 0.00 0.00 0.00 0.00 0.00 0.00 0.00 0.61 0.00 0.61 0.00 0.74 0.50 0.00 0.00 0.62 0.00 0.00 0.00 0.94 0.56 0.00 0.00 0.00 0.00 0.98 0.00 0.90 0.00 0.75 0.96 0.00 0.00 0.00 0.52 0.00 0.00 0.00 0.64 0.00 0.00 0.67 0.60 0.00 0.91 0.00 0.00 0.00 0.00 0.82 0.63 0.00 0.00 0.00 0.51 0.00 0.00 0.00 0.66 0.00 0.00
0.00 0.00 0.97 0.00 0.00 0.00 0.00 0.00 0.00 0.00 0.62 0.00 0.00 0.00 0.00 0.00 0.00 0.00 0.00 0.00 0.00 0.57 0.00 0.50 0.00 0.00 0.00 0.00 0.00 0.66 0.81 0.71 0.00 0.53 0.00 0.65 0.00 0.00 0.00 0.99 0.00 0.00 0.00 0.00 0.76 0.00 0.51 0.00 0.00 0.00 0.00 0.00 0.00 0.00 0.00 0.00 0.00 0.00 0.00 0.00 0.00 0.00 0.52 0.00 0.78 0.00 0.95 0.00 0.00 0.00 0.80 0.00 1.00 0.59 0.00 0.00 0.91 0.00 0.75 0.00 0.00 0.00 0.00 0.00 0.00 0.00 0.00 0.00 0.00 0.00 0.00 0.00 0.00 0.00 0.00 0.00 0.00 0.00 0.60 0.00 0.00 0.95 0.67 0.00 0.00 0.95 0.00 0.79 0.00 0.00 0.89 0.00 0.00 0.00 0.00 0.00 0.00 0.00 0.00 0.00 0.00 0.77 0.00 0.00 0.00 0.00 0.00 0.00 0.00 0.99 0.00 0.00 0.00 0.00 0.00 0.00 0.00 0.00 0.00 0.00
0.00 0.00 0.00 0.00 0.00 0.00 0.00 0.00 0.00 0.00 0.81 0.00 0.00 0.00 0.00 0.00 0.64 0.00 0.00 0.00 0.82 0.00 0.84 0.87 0.00 0.00 0.00 0.00 0.55 0.00 0.00 0.00 0.64 0.00 0.83 0.00 0.00 0.00 0.84 0.00 0.00 0.00 0.00 0.00 0.00 0.00 0.58 0.00 0.00 0.00 0.00 0.87 0.00 0.00 0.00 0.00 0.00 0.00 0.00 0.00 0.00 0.00 0.00 0.00 0.00 0.94 0.00 0.00 0.62 0.00 0.00 0.89 0.00 0.86 0.57 0.84 0.00 0.00 0.63 0.00 0.00 0.84 0.00 0.00 0.00 0.00 0.93 0.00 0.00 0.74 0.00 0.00 0.00 0.00 0.83 0.66 0.00 0.53 0.59 0.00 0.00 0.00 0.00 0.00 0.00 0.92 0.00 0.00 0.00 1.00 0.00 0.00 0.00 0.00 0.00 0.87 0.00 0.00 0.00 0.66 0.00 0.00 0.00 0.00 0.00 0.00 0.00 0.85 0.00 0.70 0.74 0.00 0.00 0.00 0.78 0.00 0.00 0.00 0.00 0.00
0.00 0.00 0.00 0.00 0.00 0.00 0.00 0.00 0.00 0.81 0.00 0.00 0.00 0.00 0.77 0.00 0.00 0.00 0.00 0.00 0.99 0.00 0.60 0.61 0.00 0.51 0.71 0.00 0.00 0.63 0.00 0.00 0.00 0.76 0.00 0.00 0.00 0.62 0.00 0.00 0.00 0.00 0.55 0.00 0.00 0.00 0.56 0.94 0.00 0.00 0.97 0.00 0.00 0.00 0.00 0.00 0.00 0.61 0.00 0.00 0.00 0.87 0.00 0.00 0.00 0.00 0.00 0.00 0.00 0.00 0.00 0.00 0.00 0.00 0.82 0.00 0.00 0.00 0.00 0.00 0.00 0.95 0.00 0.00 0.98 0.81 0.00 0.00 0.96 0.00 0.00 0.00 0.00 0.74 0.00 0.00 0.00 0.00 0.00 0.00 0.00 0.00 0.00 0.64 0.00 0.00 0.00 0.00 0.00 0.72 0.00 0.00 0.00 0.00 0.00 0.00 0.00 0.00 0.00 0.00 0.00 0.00 0.00 0.00 0.00 0.00 0.00 0.00 0.00 0.00 0.00 0.89 0.00 0.00 0.00 0.00 0.00 0.00 0.00 0.93
0.00 0.00 0.00 0.00 0.00 0.00 0.00 0.00 0.64 0.00 0.00 0.59 0.77 0.00 0.00 0.52 0.00 0.00 0.00 0.00 0.00 0.80 0.00 0.00 0.00 0.00 0.00 0.00 0.00 0.00 0.82 0.98 0.87 0.00 0.00 0.00 0.00 0.00 0.00 0.00 0.00 0.85 0.00 0.00 0.00 0.00 0.00 0.00 0.00 0.00 0.00 0.00 0.00 0.00 0.00 0.71 0.00 0.00 0.00 0.93 0.00 0.00 0.87 0.94 0.00 0.00 0.00 0.00 0.00 0.98 0.00 0.00 0.00 0.00 0.00 0.00 0.00 0.73 0.00 0.00 0.00 0.00 0.00 0.00 0.00 0.92 0.61 0.00 0.00 0.00 0.00 0.00 0.00 0.00 0.00 0.57 0.00 0.00 0.00 0.00 1.00 0.00 0.00 0.00 0.00 0.00 0.00 0.77 0.00 0.68 0.70 0.00 0.69 0.00 1.00 0.00 0.00 0.80 0.00 0.00 0.76 0.00 0.00 0.00 0.00 0.70 0.00 0.00 0.00 0.00 0.61 0.00 0.70 0.00 0.00 0.00 0.00 0.67 0.00 0.00
0.00 0.00 0.00 0.00 0.00 0.00 0.00 0.00 0.82 0.00 0.00 0.53 0.00 0.00 0.95 0.00 0.00 0.00 0.71 0.00 0.00 0.00 0.00 0.00 0.77 0.00 0.60 0.00 0.00 0.00 0.00 0.54 0.00 0.00 0.00 0.67 0.00 0.00 0.00 0.51 0.93 0.71 0.00 0.00 0.91 0.00 0.00 0.00 0.00 0.00 0.00 0.00 0.00 0.85 0.00 0.00 0.00 0.00 0.00 0.00 0.00 0.00 0.00 0.00 0.53 0.67 0.00 0.00 0.00 0.00 0.00 0.00 0.00 0.00 0.00 0.00 0.00 0.00 0.00 0.89 0.59 0.75 0.00 0.00 0.00 0.00 0.00 0.00 0.00 0.00 0.00 0.00 0.00 0.00 0.84 0.76 0.00 0.53 0.00 0.00 0.00 0.00 0.00 0.00 0.00 0.00 0.00 0.80 0.00 0.00 0.00 0.00 0.00 0.00 0.00 0.55 0.00 0.00 0.00 0.00 0.00 0.00 0.00 0.00 0.00 0.00 0.00 0.00 0.00 0.00 0.51 0.00 0.00 0.00 0.58 0.72 0.00 0.00 0.00 0.00
0.00 0.00 0.86 0.00 0.00 0.00 0.00 0.00 0.97 0.85 0.00 0.00 0.00 0.00 0.00 0.83 0.00 0.00 0.00 0.00 0.00 0.00 0.00 0.00 0.00 0.77 0.00 0.00 0.83 0.00 0.51 0.00 0.58 0.00 0.00 0.00 0.00 0.64 0.00 0.00 0.00 0.00 0.00 0.00 0.00 0.00 0.00 0.00 0.00 0.00 0.00 0.00 0.00 0.00 0.00 0.64 0.00 0.00 0.79 0.00 0.56 0.00 0.00 0.00 0.00 0.00 0.61 0.00 0.00 0.83 0.00 0.00 0.00 0.00 0.00 0.00 0.00 0.00 0.00 0.00 0.00 0.99 0.00 0.00 0.00 0.00 0.00 0.00 0.00 0.81 0.85 0.00 0.00 0.00 0.00 0.95 0.00 0.69 0.00 0.00 0.00 0.00 0.00 0.00 0.76 0.00 0.72 0.00 0.00 0.00 0.00 0.00 0.61 0.94 0.00 0.00 0.80 0.00 0.00 0.00 0.00 0.75 0.87 0.00 0.00 0.00 0.83 0.00 0.00 0.54 0.00 0.00 0.00 0.00 0.00 0.00 0.00 0.00 0.97 0.00
0.00 0.00 0.86 0.00 0.00 0.00 0.00 0.00 0.00 0.00 0.00 0.00 0.00 0.00 0.00 0.75 0.00 0.70 0.00 0.00 0.00 0.70 0.00 0.00 0.00 0.00 0.76 0.97 0.00 0.00 0.00 0.00 0.79 0.00 0.00 0.00 0.00 0.00 0.00 0.00 0.00 0.83 0.00 0.00 0.00 0.00 0.00 0.96 0.00 0.00 0.00 0.00 0.00 0.00 0.53 0.00 0.00 0.00 0.00 0.00 0.92 0.00 0.00 0.00 0.00 0.53 0.60 0.00 0.60 0.00 0.00 0.00 0.00 0.00 0.67 0.00 0.72 0.00 0.00 0.00 0.00 0.00 0.00 0.00 0.00 0.00 0.98 0.00 0.00 0.78 0.00 0.00 0.57 0.00 0.00 0.00 0.64 0.00 0.00 0.00 0.00 0.00 0.55 0.00 0.00 0.00 0.00 0.74 0.00 0.52 0.00 0.93 0.00 0.00 0.00 0.00 0.69 0.00 0.00 0.00 0.00 0.00 0.00 0.00 0.00 0.00 0.00 0.00 0.00 0.00 0.00 0.00 0.00 0.00 0.74 0.00 0.00 0.75 0.76 0.00
0.00 0.00 0.00 0.00 0.00 0.00 0.00 0.00 0.00 0.00 0.00 0.00 0.00 0.00 0.00 0.00 0.75 0.00 0.64 0.00 0.00 0.00 0.00 0.00 0.00 0.00 0.86 0.00 0.83 0.64 0.69 0.00 0.54 0.00 0.00 0.00 0.00 0.00 0.00 0.00 0.85 0.00 0.00 0.79 0.00 0.00 0.00 0.00 0.00 0.86 0.00 0.94 0.66 0.00 0.00 0.00 0.00 0.00 0.00 0.94 0.00 0.00 0.00 0.00 0.00 0.00 0.86 0.51 0.00 0.83 0.00 0.61 0.00 0.00 0.00 0.82 0.00 0.00 0.00 0.00 0.00 0.98 0.00 0.00 0.53 0.00 0.00 0.00 0.00 0.00 0.00 0.00 0.00 0.00 0.00 0.00 0.00 0.00 0.00 0.00 0.51 0.65 0.64 0.00 0.58 0.00 0.99 0.00 0.00 0.00 0.55 0.54 0.00 0.00 0.00 0.00 0.00 0.00 0.00 0.00 0.00 0.85 0.00 0.00 0.00 0.53 0.92 0.00 0.00 0.00 0.82 0.00 0.00 0.00 0.00 0.00 0.00 0.56 0.00 0.00
0.00 0.00 0.00 0.00 0.00 0.00 0.00 0.00 0.00 0.00 0.58 0.00 0.00 0.00 0.56 0.77 0.65 0.65 0.00 0.53 0.72 0.99 0.96 0.00 0.00 0.00 0.00 0.00 0.00 0.00 0.00 0.00 0.00 0.00 0.00 0.00 0.00 0.83 0.72 0.00 0.54 0.00 0.00 0.00 0.00 0.00 0.89 0.00 0.00 0.00 0.00 0.00 0.00 0.00 0.00 0.00 0.68 0.00 0.00 0.63 0.74 0.00 0.00 0.00 0.00 0.00 0.00 0.92 0.00 0.51 0.00 0.00 0.00 0.89 0.00 0.00 0.00 0.00 0.00 0.00 0.79 0.58 0.00 0.00 0.00 0.00 0.00 0.00 0.00 0.00 0.00 0.00 0.00 0.00 0.00 0.97 0.00 0.00 0.00 0.00 0.69 0.00 0.00 0.00 0.00 0.00 0.59 0.00 0.99 0.70 0.00 0.00 0.00 0.67 0.00 0.00 0.72 0.00 0.00 0.65 0.00 0.00 0.00 0.00 0.00 0.00 0.00 0.00 0.00 0.00 0.00 0.00 0.00 0.00 0.00 0.00 0.00 0.00 0.00 0.00
0.62 0.75 0.00 0.00 0.66 0.00 1.00 0.00 0.00 0.00 0.00 0.00 0.72 0.00 0.00 0.00 0.00 0.00 0.00 0.00 0.00 0.00 0.63 0.00 0.00 0.00 0.00 0.00 0.00 0.60 0.00 0.00 0.00 0.00 0.00 0.00 0.00 0.66 0.00 0.00 0.00 0.00 0.76 0.00 0.00 0.59 0.00 0.00 0.68 0.00 0.00 0.00 0.00 0.00 0.00 0.83 0.00 0.00 0.00 0.00 0.00 0.87 0.64 0.61 0.79 0.00 0.00 0.00 0.00 0.00 0.94 0.00 0.00 0.81 0.00 0.00 0.53 0.00 0.82 0.00 0.89 0.00 0.00 0.85 0.54 0.00 0.00 0.00 0.00 0.84 0.00 0.00 1.00 0.00 0.00 0.00 0.00 0.00 0.74 0.00 0.00 0.73 0.00 0.00 0.00 0.00 0.00 0.00 0.00 0.00 0.00 0.00 0.95 0.65 0.65 0.00 0.00 0.00 0.00 0.00 0.00 0.00 0.00 0.75 0.00 0.00 0.95 0.00 0.00 0.00 0.00 0.00 0.00 0.00 0.95 0.00 0.70 0.00 0.00 0.00
0.00 0.00 0.00 0.00 0.00 0.00 0.00 0.00 0.96 0.00 0.00 0.00 0.00 0.00 0.00 0.00 0.00 0.00 0.00 0.00 0.00 0.00 0.00 0.00 0.82 0.00 0.00 0.00 0.00 0.00 0.00 0.64 0.00 0.00 0.00 0.00 0.00 0.00 0.63 0.00 0.00 0.00 0.00 0.76 0.83 0.00 0.00 0.00 0.60 0.00 0.00 0.84 0.00 0.67 0.00 0.69 0.00 0.84 0.00 0.00 0.00 0.90 0.00 0.00 0.00 0.00 0.00 0.00 0.00 0.83 0.00 0.00 0.00 0.50 0.00 0.00 0.00 0.00 0.00 0.86 0.71 0.00 0.00 0.00 0.00 0.00 0.67 0.00 0.00 0.00 0.64 0.00 0.00 0.00 0.00 0.00 0.00 0.61 0.55 0.00 0.00 0.00 0.00 0.00 0.00 0.00 0.70 0.51 0.00 0.00 0.00 0.00 0.00 0.00 0.92 0.00 0.00 0.00 0.83 0.00 0.00 0.00 0.00 0.00 0.00 0.00 0.53 0.00 0.00 0.00 0.00 0.00 0.00 0.00 0.00 0.00 0.00 0.00 0.00 0.00
0.00 0.00 0.00 0.55 0.00 0.00 0.00 0.00 0.67 0.00 0.69 0.00 0.00 0.91 0.00 0.00 0.00 0.00 0.00 0.00 0.00 0.81 0.00 0.65 0.91 0.00 0.00 0.81 0.67 0.00 0.79 0.61 0.00 0.89 0.00 0.80 0.61 0.66 0.00 0.00 0.00 0.00 0.00 0.00 0.00 0.64 0.00 0.00 0.00 0.78 0.83 0.00 0.84 0.00 0.00 0.00 0.00 0.00 0.64 0.00 0.00 0.00 0.00 0.00 0.00 0.00 0.00 0.00 0.00 0.00 0.00 0.00 0.00 0.97 0.96 0.60 0.60 0.00 0.00 0.00 0.68 0.00 0.80 0.00 0.82 0.00 0.00 0.00 0.00 0.00 0.00 0.00 0.00 0.00 0.00 0.00 0.00 0.62 0.00 0.00 0.78 0.00 0.00 0.00 0.00 0.00 0.00 0.54 0.00 0.00 0.00 0.00 0.00 0.00 0.00 0.00 0.00 0.00 0.68 0.84 0.00 0.85 0.00 0.00 0.00 0.73 0.00 0.00 0.74 0.00 0.00 0.00 0.00 0.00 0.00 0.00 1.00 0.00 0.00 0.00
0.99 0.00 0.78 0.00 0.00 0.56 0.00 0.89 0.53 0.00 0.79 0.65 0.00 0.00 0.66 0.55 0.60 0.00 0.00 0.00 0.00 0.00 0.00 0.00 0.00 0.91 0.00 0.00 0.55 0.00 0.61 0.00 0.00 0.00 0.00 0.80 0.00 0.00 0.00 0.00 0.00 0.00 0.69 0.00 0.00 0.00 0.00 0.00 0.95 0.00 0.00 0.00 0.97 0.00 0.91 0.00 0.00 0.00 0.00 0.00 0.00 0.00 0.00 0.00 0.00 0.60 0.72 0.00 0.00 0.00 0.00 0.00 0.00 0.00 0.00 0.00 0.92 0.00 0.00 0.53 0.00 0.00 0.67 0.00 0.00 0.00 0.00 0.83 0.00 0.00 0.00 0.00 0.00 0.00 0.66 0.00 0.00 0.00 0.00 0.00 0.00 0.00 0.00 0.00 0.00 0.00 0.00 0.00 0.00 0.52 0.00 0.00 0.59 0.00 0.89 0.00 0.00 0.00 0.62 0.00 0.00 0.88 0.00 0.61 0.00 0.00 0.00 0.00 0.00 0.00 0.00 0.00 0.00 0.00 0.84 0.00 0.00 0.00 0.00 0.00
0.00 0.00 0.00 0.00 0.00 0.00 0.00 0.00 0.00 0.00 0.00 0.68 0.00 0.00 0.00 0.00 0.00 0.00 0.00 0.00 0.00 0.00 0.60 0.76 0.00 0.00 0.50 0.00 0.00 0.00 0.00 0.00 0.00 0.00 0.00 0.00 0.00 0.92 0.00 0.00 0.89 0.00 0.00 0.00 0.00 0.79 0.00 0.00 0.00 0.64 0.00 0.00 0.00 0.00 0.00 0.00 0.00 0.00 0.00 0.79 0.00 0.00 0.00 0.00 0.00 0.65 0.00 0.00 0.00 0.00 0.53 0.00 0.00 0.00 0.52 0.00 0.00 0.00 0.61 0.00 0.00 0.00 0.00 0.00 0.00 0.78 0.00 0.00 0.00 0.00 0.00 0.00 0.00 0.96 0.00 0.78 0.00 0.00 0.93 0.00 0.00 0.90 0.00 0.00 0.00 0.00 0.00 0.00 0.00 0.00 0.00 0.98 0.56 0.00 0.53 0.00 0.97 0.00 0.00 0.58 0.00 0.67 0.00 0.00 0.00 0.00 0.00 0.67 0.00 0.96 0.00 0.86 0.00 0.59 0.86 0.81 0.00 0.67 0.00 0.00
0.00 0.00 0.00 0.00 0.00 0.89 0.00 0.70 0.00 0.00 1.00 0.00 0.00 0.98 0.00 0.77 0.00 0.00 0.00 0.75 0.00 0.00 0.00 0.00 0.00 0.00 0.00 0.00 0.00 0.00 0.00 0.00 0.85 0.00 0.00 0.00 0.87 0.84 0.00 0.00 0.00 0.00 0.00 0.51 0.80 0.00 0.00 0.00 0.00 0.00 0.00 0.00 0.00 0.87 0.00 0.00 0.00 0.94 0.00 0.00 0.00 0.00 0.00 0.00 0.00 0.00 0.00 0.00 0.56 0.00 0.00 0.00 0.86 0.00 0.00 0.00 0.00 0.00 0.00 0.00 0.00 0.00 0.00 0.85 0.00 0.00 0.00 0.00 0.00 0.00 0.00 0.00 0.00 0.00 0.79 0.91 0.00 0.91 0.00 0.00 0.00 0.00 0.00 0.00 0.00 0.00 0.52 0.62 0.00 0.00 0.95 0.00 0.00 0.00 0.94 0.00 0.00 0.00 0.00 0.00 0.00 0.00 0.00 0.00 0.00 0.66 0.00 0.00 0.00 0.00 0.00 0.00 0.00 0.00 0.67 0.76 0.00 0.00 0.80 0.66
0.00 0.87 0.00 0.00 0.00 0.00 0.55 0.00 0.00 0.00 0.00 0.59 0.00 0.00 0.00 0.00 0.00 0.00 0.00 0.99 0.00 0.67 0.00 0.00 0.00 0.00 0.00 0.00 0.95 0.00 0.00 0.00 0.98 0.00 0.00 0.00 0.00 0.00 0.00 0.00 0.55 0.00 0.00 0.52 0.00 0.00 0.00 0.00 0.61 0.00 0.86 0.00 0.00 0.00 0.00 0.00 0.00 0.96 0.00 0.00 0.93 0.00 0.60 0.00 0.00 0.00 0.00 0.00 0.89 0.00 0.00 0.00 0.00 0.00 0.00 0.85 0.95 0.00 0.00 0.00 0.00 0.82 0.71 0.00 0.80 0.68 0.00 0.00 0.00 0.00 0.95 0.00 0.00 0.00 0.00 0.00 0.00 0.59 0.00 0.00 0.00 0.71 0.00 0.00 0.00 0.00 0.00 0.81 0.00 0.93 0.00 0.00 0.95 0.78 0.00 0.00 0.00 0.00 0.00 0.82 0.77 0.76 0.00 0.00 0.00 0.00 0.00 0.00 0.79 0.00 0.00 0.00 0.00 0.00 0.00 0.00 0.00 0.00 0.00 0.00
0.00 0.73 0.78 0.00 0.00 0.00 0.51 0.58 0.00 0.00 0.65 0.00 0.00 0.00 0.00 0.85 0.00 0.00 0.73 0.00 0.00 0.00 0.00 0.00 0.00 0.00 0.00 0.00 0.00 0.00 0.00 0.00 0.00 0.00 0.55 0.00 0.67 0.00 0.00 0.00 0.00 0.00 1.00 0.00 0.00 0.00 0.00 0.00 0.00 0.00 0.85 0.00 0.00 0.00 0.00 0.55 0.59 0.00 0.00 0.00 0.00 0.56 0.00 0.00 0.00 0.00 0.70 0.81 0.98 0.00 0.00 0.00 0.00 0.00 0.00 0.00 0.00 0.56 0.00 0.00 0.00 0.00 0.81 0.00 0.00 0.00 0.51 0.65 0.75 0.00 0.00 0.77 0.00 0.00 0.51 0.70 0.00 0.00 0.00 0.00 0.00 0.52 0.00 0.00 0.00 0.00 0.00 0.00 0.57 0.00 0.00 0.00 0.00 0.00 0.00 0.61 0.00 0.00 0.84 0.93 0.00 0.00 0.00 0.00 0.00 0.69 0.00 0.51 0.00 0.00 0.86 0.00 0.00 0.00 0.00 0.00 0.64 0.00 0.00 0.00
0.00 0.00 0.00 0.00 0.00 0.00 0.00 0.00 0.00 0.00 0.94 0.00 0.63 0.00 0.00 0.00 0.00 0.77 0.00 0.00 0.00 0.00 0.00 0.00 0.00 0.00 0.94 0.00 0.00 0.00 0.00 0.00 0.79 0.78 0.00 0.00 0.00 0.00 0.80 0.00 0.00 0.00 0.00 0.00 0.00 0.00 0.56 0.00 0.00 0.00 0.00 0.00 0.00 0.00 0.00 0.00 0.00 0.00 0.00 0.84 0.00 0.00 0.00 0.00 0.98 0.78 0.00 0.00 0.00 0.00 0.00 0.00 0.00 0.00 0.00 0.00 0.00 0.96 0.00 0.00 0.76 0.00 0.00 0.00 0.00 0.65 0.00 0.00 0.00 0.62 0.00 0.00 0.00 0.00 0.00 0.00 0.00 0.00 0.71 0.00 0.00 0.00 0.00 0.00 1.00 0.74 0.92 0.00 0.00 0.00 0.77 0.00 0.00 0.00 0.00 0.00 0.00 0.74 0.00 0.00 0.00 0.00 0.00 0.00 0.00 0.00 0.00 0.00 0.81 0.00 0.00 0.00 0.00 0.81 0.00 0.00 0.00 0.00 0.62 0.58
0.00 0.00 0.00 0.00 0.00 0.71 0.00 0.00 0.00 0.00 0.00 0.86 0.00 0.00 0.00 0.00 0.00 0.00 0.00 0.00 0.00 0.00 0.00 0.97 0.00 0.00 0.00 0.00 0.93 0.00 0.00 0.77 0.00 0.00 0.75 0.00 0.00 0.00 0.00 0.00 0.79 0.00 0.00 0.00 0.00 0.00 0.00 0.00 0.00 0.82 0.00 0.82 0.73 0.00 0.00 0.00 0.00 0.00 0.00 0.00 0.00 0.00 0.00 0.00 0.00 0.72 0.00 0.00 0.00 0.00 0.00 0.00 0.89 0.86 0.00 0.00 0.00 0.00 0.00 0.00 0.68 0.00 0.95 0.00 0.65 0.63 0.00 0.00 0.00 0.00 0.75 0.00 0.00 0.73 0.00 0.78 0.00 0.00 0.93 0.00 0.00 0.00 0.00 0.00 0.00 0.00 0.51 0.00 0.00 0.00 0.00 0.00 0.00 0.00 0.00 0.69 0.00 0.00 0.00 0.00 0.00 0.00 0.83 0.00 0.00 0.00 0.00 0.00 0.00 0.00 0.00 0.00 0.00 0.00 0.60 0.00 0.00 0.77 0.66 0.94
0.00 0.00 0.00 0.00 0.82 0.00 0.00 0.00 0.00 0.00 0.50 0.00 0.00 0.00 0.76 0.55 0.00 0.00 0.00 0.00 0.00 0.00 0.00 0.00 0.00 0.87 0.00 0.00 0.00 0.00 0.00 0.00 0.00 0.00 0.70 0.00 0.00 0.64 0.00 0.73 0.00 0.00 0.70 0.00 0.00 0.55 0.00 0.00 0.00 0.00 0.00 0.00 0.00 0.00 0.00 0.00 0.00 0.00 0.00 0.00 0.00 0.00 0.00 0.00 0.73 0.00 0.94 0.00 0.00 0.00 0.64 0.00 0.00 0.00 0.00 0.00 0.00 0.00 0.86 0.00 0.90 0.00 0.59 0.00 0.00 0.00 0.00 0.00 0.00 0.62 0.64 0.00 0.00 0.00 0.00 0.00 0.82 0.00 0.00 0.00 0.00 0.71 0.00 0.00 0.76 0.00 0.00 0.00 0.00 0.58 0.00 0.00 0.00 0.00 0.00 0.00 0.00 0.00 0.00 0.00 0.00 0.00 0.00 0.00 0.00 0.00 0.00 0.00 0.52 0.00 0.00 0.00 0.00 0.00 0.00 0.97 0.00 0.70 0.00 0.00
0.00 0.00 0.00 0.00 0.95 0.97 0.00 0.00 0.00 0.82 0.00 0.84 0.58 0.00 0.00 0.00 0.69 0.00 0.00 0.00 0.69 0.93 0.00 0.00 0.00 0.00 0.00 0.58 0.88 0.00 0.00 0.00 0.00 0.92 0.56 0.00 0.00 0.00 0.00 0.73 0.00 0.00 0.00 0.00 0.94 0.00 0.00 0.00 0.00 0.00 0.97 0.00 0.00 0.71 0.00 0.58 0.00 0.00 0.00 0.00 0.00 0.00 0.82 0.00 0.00 0.00 0.93 0.00 0.78 0.00 0.58 0.62 0.00 0.00 0.00 0.00 0.98 0.00 0.00 0.00 0.60 0.94 0.70 0.00 0.57 0.73 0.00 0.73 0.00 0.00 0.00 0.00 0.00 0.00 0.00 0.00 0.76 0.00 0.00 0.00 0.00 0.61 0.00 0.00 0.51 0.00 0.00 0.00 0.70 0.00 0.83 0.00 0.54 0.00 0.00 0.84 0.92 0.00 0.00 0.00 0.51 0.00 0.00 0.00 0.00 0.00 0.00 0.00 0.91 0.00 0.00 0.00 0.00 0.00 0.85 0.00 0.58 0.00 0.00 0.00
0.00 0.00 0.87 0.92 0.97 0.00 0.81 0.00 0.00 0.00 0.00 0.00 0.00 0.00 0.56 0.00 0.93 0.00 0.00 0.88 0.60 0.00 0.00 0.00 0.00 0.00 0.00 0.00 0.64 0.00 0.00 0.00 0.00 0.00 0.98 0.00 0.00 0.00 0.64 0.56 0.00 0.00 0.00 0.00 0.00 0.00 0.00 0.59 0.00 0.00 0.00 0.00 0.00 0.00 0.00 0.00 0.00 0.93 0.70 0.00 0.00 0.00 0.00 0.00 0.00 0.00 0.00 0.00 0.00 0.00 0.00 0.00 0.00 0.00 0.00 0.00 0.00 0.00 0.00 0.00 0.62 0.61 0.00 0.00 0.84 0.00 0.00 0.00 0.00 0.00 0.00 0.00 0.65 0.00 0.77 0.00 0.00 0.62 0.00 0.00 0.00 0.00 0.71 0.00 0.00 0.95 0.00 0.00 0.56 0.00 0.00 0.99 1.00 0.00 0.00 0.00 0.00 0.00 0.00 0.00 0.00 0.00 0.00 0.00 0.00 0.00 0.00 0.00 0.69 0.00 0.00 0.00 0.00 0.00 0.00 0.00 0.00 0.85 0.00 0.00
0.54 0.00 0.00 0.00 0.00 0.92 0.00 0.73 0.97 0.00 0.00 0.00 0.00 0.00 0.00 0.97 0.00 0.00 0.00 0.00 0.00 0.00 0.52 0.00 0.00 0.00 0.00 0.00 0.00 0.00 0.00 0.78 0.00 0.00 0.00 0.85 0.00 0.00 0.00 0.00 0.00 0.00 0.00 0.00 0.00 0.00 0.00 0.00 0.00 0.00 0.00 0.00 0.00 0.00 0.00 0.00 0.00 0.64 0.00 0.00 0.00 0.68 0.72 0.00 0.00 0.00 0.00 0.00 0.00 0.70 0.66 0.00 0.52 0.00 0.00 0.00 0.00 0.00 0.00 0.00 0.00 0.67 0.00 0.00 0.00 0.00 0.88 1.00 0.00 0.78 0.00 0.00 0.00 0.00 0.00 0.00 0.00 0.53 0.89 0.00 0.00 0.98 0.00 0.77 0.00 0.66 0.00 0.00 0.00 0.89 0.00 0.95 0.86 0.88 0.00 0.00 0.00 0.00 0.00 0.00 0.00 0.00 0.75 0.00 0.00 0.00 0.00 0.74 0.00 0.00 0.00 0.00 0.00 0.00 0.00 0.00 0.98 0.00 0.00 0.00
0.00 0.00 0.00 0.00 0.76 0.00 0.00 0.00 0.89 0.00 0.00 0.00 0.00 0.00 0.00 0.00 0.00 0.00 0.00 0.00 0.00 0.00 0.00 0.00 0.00 0.00 0.00 0.63 0.56 0.00 0.00 0.00 0.00 0.00 0.00 0.69 0.00 0.00 0.00 0.00 0.00 0.00 0.00 0.00 0.00 0.00 0.00 0.00 0.62 0.00 0.00 0.00 0.00 0.79 0.00 0.00 0.00 0.00 0.88 0.00 0.00 0.00 0.00 0.00 0.00 0.00 0.00 0.00 0.00 0.58 0.84 0.60 0.00 0.74 0.72 0.00 0.00 0.86 0.80 0.00 0.59 0.00 0.89 0.00 0.00 0.00 0.00 0.00 0.00 0.00 0.70 0.00 0.00 0.00 0.00 0.00 0.00 0.93 0.00 0.00 0.00 0.84 0.00 0.95 0.00 0.98 0.00 0.00 0.00 0.00 0.00 0.00 0.00 0.00 0.00 0.00 0.00 0.00 0.65 0.00 0.00 0.95 0.00 0.00 0.00 0.00 0.00 0.00 0.00 0.00 0.51 0.00 0.00 0.00 0.00 0.00 0.00 0.00 0.00 0.00
0.00 0.00 0.00 0.00 0.00 0.00 0.00 0.00 0.00 0.00 0.00 0.00 0.00 0.00 0.00 0.00 0.00 0.00 0.00 0.00 0.70 0.00 0.00 0.00 0.00 0.00 1.00 0.00 0.00 0.00 0.00 0.00 0.00 0.00 0.00 0.00 0.00 0.00 0.00 0.00 0.00 0.00 0.00 0.00 0.84 0.00 0.00 0.00 0.00 0.00 0.00 0.00 0.00 0.00 0.65 0.60 0.00 0.60 0.64 0.00 0.00 0.00 0.00 0.51 0.00 0.00 0.00 0.83 0.00 0.00 0.89 0.00 0.00 0.00 0.00 0.84 0.00 0.00 0.00 0.56 0.00 0.84 0.00 0.00 0.00 0.59 0.00 0.00 0.82 0.00 0.00 0.70 0.00 0.52 0.00 0.00 0.00 0.00 0.00 0.80 0.00 0.00 0.00 0.00 0.53 0.00 0.00 0.00 0.84 0.00 0.00 0.99 0.00 0.80 0.00 0.59 0.00 0.00 0.00 0.00 0.98 0.68 0.61 0.00 0.00 0.72 0.85 0.00 0.00 0.00 0.59 0.00 0.00 0.00 0.00 0.00 0.00 0.00 0.00 0.00
0.00 0.00 0.90 0.00 0.97 0.90 0.56 0.00 0.92 0.00 0.00 0.00 0.00 0.00 0.00 0.76 0.00 0.89 0.00 0.55 0.00 0.98 0.72 0.00 0.00 0.84 0.00 0.00 0.77 0.00 0.00 0.00 0.87 0.00 0.00 0.00 0.52 0.00 0.00 0.00 0.00 0.00 0.00 1.00 0.00 0.00 0.00 0.00 0.71 0.00 0.00 0.87 0.58 0.00 0.00 0.00 0.00 0.85 0.00 0.00 0.00 0.00 0.51 0.00 0.00 0.00 0.00 0.00 0.00 0.00 0.00 0.00 0.00 0.00 0.90 0.00 0.00 0.00 0.00 0.61 0.00 0.00 0.00 0.00 0.00 0.97 0.59 0.00 0.00 0.00 0.00 0.00 0.00 0.00 0.00 0.00 0.77 0.00 0.00 0.00 0.00 0.00 0.00 0.89 0.00 0.00 0.80 0.00 0.00 0.00 0.00 0.00 0.00 0.00 0.00 0.87 0.00 0.52 0.00 0.00 0.86 0.00 0.00 0.00 0.66 0.00 0.00 0.00 0.00 0.00 0.00 0.00 0.69 0.00 0.00 0.00 0.00 0.00 0.00 0.00
0.00 0.00 0.00 0.58 0.00 0.67 0.00 0.00 0.00 0.00 0.00 0.00 0.00 0.00 0.00 0.00 0.82 0.00 0.00 0.57 0.00 0.00 0.69 0.00 0.00 0.00 0.76 0.00 0.00 0.81 0.00 0.00 0.00 0.00 0.00 0.00 0.00 0.00 0.00 0.96 0.00 0.82 0.00 0.00 0.51 0.00 0.62 0.00 0.00 0.00 0.96 0.00 0.55 0.00 0.00 0.00 0.67 0.00 0.00 0.00 0.91 0.00 0.00 0.71 0.00 0.00 0.00 0.00 0.00 0.96 0.00 0.00 0.00 0.00 0.00 0.00 0.00 0.00 0.00 0.00 0.00 0.00 0.00 0.57 0.91 0.00 0.00 0.00 0.00 0.82 0.00 0.60 0.00 0.00 0.82 0.00 0.00 0.00 0.00 0.00 0.00 0.00 0.00 0.00 0.00 0.00 0.00 0.00 0.00 0.00 0.00 0.00 0.00 0.00 0.00 0.00 0.95 0.73 0.00 0.75 0.90 0.00 0.89 0.00 0.00 0.00 0.00 0.71 0.00 0.56 0.00 0.63 0.00 0.00 0.00 0.71 0.00 0.73 0.00 0.00
0.81 0.00 0.00 0.00 0.92 0.81 0.00 0.00 0.00 0.90 0.00 0.00 0.00 0.00 0.00 0.91 0.00 0.73 0.00 0.52 0.00 0.82 0.93 0.00 0.00 0.00 0.00 0.00 0.00 0.00 0.00 0.00 0.00 0.00 0.00 0.00 0.00 0.00 0.99 0.57 0.00 0.87 0.00 0.00 0.00 0.00 0.99 0.00 0.92 0.00 0.00 0.00 0.00 0.00 0.00 0.00 0.00 0.00 0.00 0.00 0.00 0.00 0.00 0.74 0.00 0.74 0.00 0.00 0.73 0.00 0.00 0.76 0.00 1.00 0.00 0.00 0.00 0.00 0.00 0.00 0.00 0.84 0.54 0.00 0.94 0.00 0.89 0.00 0.00 0.00 0.00 0.00 0.00 0.00 0.00 0.00 0.00 0.86 0.00 0.00 0.00 0.00 0.97 0.96 0.00 0.00 0.00 0.00 0.00 0.00 1.00 0.00 0.00 0.00 0.00 0.00 0.00 0.00 0.59 0.00 0.00 0.00 0.00 0.00 0.00 0.53 0.76 0.82 0.00 0.81 0.00 0.00 0.00 0.00 0.00 0.00 0.00 0.91 0.59 0.00
