140
0.00 0.00 0.00 0.00 0.00 0.00 0.00 0.00 0.00 0.00 0.89 0.00 0.00 0.00 0.00 0.00 0.00 0.00 0.00 0.72 0.00 0.00 0.00 0.83 0.00 0.00 0.00 0.00 0.00 0.00 0.90 0.76 0.00 0.00 0.00 0.77 0.00 0.00 0.00 0.00 0.00 0.00 0.00 0.00 0.00 0.00 0.00 0.00 0.00 0.68 0.62 0.00 0.00 0.00 0.00 0.89 0.00 0.00 0.00 0.00 0.00 0.00 0.00 0.00 0.00 0.00 0.87 0.80 0.00 0.00 0.63 0.00 0.00 0.00 0.00 0.81 0.00 0.00 0.00 0.00 0.00 0.00 0.00 0.00 0.97 0.00 0.65 0.00 0.00 0.00 0.00 0.00 0.00 0.00 0.00 0.00 0.00 0.00 0.95 0.85 0.00 0.00 0.00 0.00 0.00 0.80 0.00 0.00 0.00 0.00 0.00 0.00 0.00 0.55 0.00 0.00 0.82 0.00 0.00 0.00 0.00 0.87 0.00 0.00 0.63 0.00 0.00 0.70 0.98 0.68 0.00 0.57 0.00 0.62 0.00 0.00 0.79 0.00 0.00 0.00
0.76 0.00 0.00 0.00 0.00 0.61 0.00 0.00 0.83 0.00 0.00 0.00 0.00 0.00 0.00 0.00 0.00 0.00 0.00 0.00 0.64 0.00 0.98 0.00 0.00 0.00 0.74 0.00 0.00 0.00 0.00 0.00 0.00 0.00 0.00 0.67 0.89 0.76 0.00 0.00 0.00 0.00 0.00 0.00 0.00 0.00 0.00 0.77 0.90 0.00 0.00 0.70 0.00 0.00 0.00 0.00 0.00 0.65 0.00 0.00 0.00 0.00 0.00 0.00 0.80 0.00 0.00 0.00 0.00 0.00 0.64 0.00 0.00 0.71 0.00 0.00 0.67 0.00 0.00 0.00 0.00 0.00 0.00 0.00 0.89 0.00 0.69 0.00 0.00 0.00 0.00 0.00 0.00 0.00 0.00 0.00 0.00 0.52 0.00 0.00 0.59 0.51 0.00 0.00 0.00 0.00 0.65 0.00 0.73 0.52 0.69 0.00 0.00 0.00 0.00 0.64 0.00 0.00 0.00 0.00 0.54 0.00 0.90 0.00 0.00 0.72 0.00 0.00 0.00 0.00 0.00 0.00 0.85 0.00 0.00 0.72 0.00 0.94 0.00 0.00
0.00 0.00 0.00 0.00 0.00 0.00 0.00 0.81 0.00 0.00 0.00 0.00 0.00 0.00 0.00 0.00 0.00 0.72 0.89 0.97 0.76 0.00 0.00 0.00 0.00 0.00 0.63 0.00 0.00 0.69 0.00 0.00 0.00 0.00 0.00 0.00 0.00 0.00 0.63 0.00 0.61 0.00 0.00 0.00 0.00 0.00 0.00 0.00 0.55 0.00 0.00 0.00 0.00 0.00 0.61 0.00 0.00 0.00 0.00 0.57 0.00 0.52 0.00 0.00 0.00 0.00 0.00 0.99 0.00 0.64 0.00 0.00 0.82 0.56 0.00 0.00 0.00 0.00 0.00 0.00 0.00 0.00 0.88 0.00 0.00 0.00 0.92 0.00 0.00 0.00 0.00 0.00 0.00 0.00 0.00 0.58 0.82 0.00 0.96 0.00 0.00 0.77 0.93 0.59 0.64 0.75 0.51 0.93 0.00 0.00 0.00 0.00 0.65 0.00 0.93 0.00 0.00 0.00 0.00 0.00 0.00 0.00 0.00 0.87 0.00 0.00 0.00 0.00 0.64 0.50 0.00 0.00 0.00 0.00 0.86 0.00 0.00 0.79 0.70 0.00
0.62 0.66 0.00 0.00 0.00 0.00 0.00 0.00 0.00 0.00 0.00 0.00 0.00 0.00 0.00 0.00 0.00 0.00 0.00 0.00 0.00 0.00 0.00 0.77 0.00 0.00 0.00 0.87 0.00 0.00 0.51 0.00 0.00 0.00 0.56 0.00 0.00 0.73 0.00 0.83 0.00 0.52 0.00 0.00 0.00 0.00 0.00 0.00 0.00 0.00 0.00 0.00 0.00 0.00 0.00 0.86 0.00 0.00 0.00 0.00 0.00 0.00 0.00 0.00 0.00 0.00 0.00 0.88 0.00 0.00 0.86 0.00 0.00 0.00 0.00 0.00 0.00 0.00 0.00 0.00 0.95 0.00 0.00 0.00 0.00 0.64 0.00 0.00 0.00 0.00 0.54 0.00 0.00 0.00 0.00 0.00 0.85 0.00 0.00 0.00 0.00 0.00 0.00 0.00 0.51 0.00 0.00 0.00 0.00 0.91 0.00 0.00 0.00 0.00 0.65 0.00 0.00 0.00 0.00 0.00 0.93 0.57 0.71 0.00 0.00 0.00 0.00 0.56 0.00 0.00 0.00 0.77 0.56 0.67 0.00 0.57 0.00 0.00 0.00 0.00
0.00 0.00 0.62 0.69 0.00 0.00 0.00 0.00 0.00 0.56 0.00 0.00 0.00 0.92 0.00 0.00 0.00 0.00 0.00 0.00 0.53 0.00 0.89 0.00 0.00 0.89 0.00 0.00 0.88 0.62 0.00 0.00 0.80 0.00 0.00 0.00 0.00 0.00 0.00 0.00 0.00 0.00 0.00 0.00 0.62 0.00 0.00 0.00 0.00 0.00 0.00 0.00 0.00 0.00 0.85 0.65 0.00 0.00 0.00 0.00 0.00 0.00 0.70 0.00 0.00 0.00 0.00 0.00 0.00 0.64 0.00 0.00 0.94 0.00 0.00 0.72 0.00 0.71 0.77 0.00 0.85 0.00 0.00 0.00 0.00 0.00 0.00 0.63 0.00 0.00 0.00 0.00 0.87 0.91 0.00 0.00 0.00 0.59 0.00 0.00 0.00 0.00 0.82 0.00 0.00 0.00 0.00 0.00 0.00 0.00 0.00 0.00 0.00 0.00 0.00 0.99 0.62 0.00 0.00 0.00 0.00 0.00 0.00 0.00 0.00 0.00 0.00 0.98 0.53 0.00 1.00 0.00 0.57 0.51 0.00 0.00 0.00 0.00 0.00 0.00
0.90 0.00 0.00 0.00 0.00 0.00 0.00 0.00 0.00 0.00 0.00 0.00 0.00 0.00 0.00 0.00 0.00 0.00 0.82 0.00 0.00 0.00 0.63 0.00 0.00 0.00 0.00 0.72 0.00 0.90 0.00 0.71 0.00 0.00 0.00 0.65 0.00 0.55 0.00 0.00 0.81 0.00 0.00 0.00 0.00 0.00 0.00 0.00 0.00 0.00 0.00 0.67 0.00 0.00 0.00 0.00 0.00 0.91 0.89 0.00 0.00 0.00 0.00 0.00 0.00 0.00 0.00 0.60 0.83 0.82 0.00 0.00 0.00 0.00 0.00 0.00 0.00 0.60 0.77 0.00 0.00 0.00 0.00 0.00 0.00 0.00 0.00 0.00 0.67 0.00 0.00 0.00 0.00 0.00 0.00 0.00 0.00 0.76 0.95 0.51 0.00 0.00 0.00 0.00 0.00 0.00 0.00 0.00 0.00 0.00 0.00 0.00 0.00 0.51 0.00 0.00 0.00 0.00 0.00 0.00 0.66 0.00 0.00 0.73 0.00 0.89 0.00 0.80 0.00 0.00 0.00 0.00 0.00 0.77 0.00 0.74 0.00 0.00 0.00 0.00
0.00 0.00 0.00 0.00 0.00 0.00 0.00 0.00 0.00 0.00 0.55 0.00 0.00 0.87 0.71 0.00 0.00 0.53 0.00 0.00 0.55 0.00 0.54 1.00 0.88 0.00 0.00 0.00 0.79 0.00 0.00 0.00 0.00 0.00 0.00 0.75 0.00 0.00 0.00 0.00 0.00 0.00 0.00 0.00 0.61 0.00 0.00 0.67 0.60 0.00 0.00 0.99 0.00 0.00 0.00 0.93 0.93 0.00 0.57 0.60 0.96 0.00 0.00 0.00 0.00 0.00 0.00 0.00 0.00 0.00 0.92 0.00 0.00 0.00 0.85 0.00 0.00 0.00 0.00 0.00 0.00 0.00 0.00 0.75 0.00 0.00 0.00 0.00 0.00 0.00 0.00 0.00 0.00 0.00 0.00 0.00 0.00 0.00 0.00 0.00 0.00 0.00 0.00 0.00 0.00 0.00 0.89 0.00 0.00 0.00 0.00 0.56 0.00 0.00 0.00 0.00 0.00 0.54 0.00 0.72 0.00 0.00 0.00 0.00 0.98 0.00 0.58 0.84 0.00 0.00 0.00 0.00 0.00 0.00 0.55 0.00 0.87 0.00 0.00 0.00
0.00 0.00 0.00 0.00 0.00 0.00 0.00 0.00 0.00 0.00 0.57 0.58 0.64 0.00 0.00 0.00 0.55 0.68 0.73 0.00 0.59 0.72 0.00 0.00 0.00 0.00 0.00 0.00 0.61 0.00 0.00 0.00 0.00 0.00 0.00 0.00 0.00 0.00 0.00 0.00 0.00 0.00 0.00 0.00 0.00 0.60 0.00 0.00 0.00 0.00 0.00 0.00 0.61 0.00 0.73 0.00 0.00 0.00 0.00 0.86 0.00 0.77 0.70 0.69 0.00 0.00 0.00 0.79 0.68 0.00 0.00 0.84 0.00 0.00 0.00 0.00 0.00 0.00 0.00 0.88 0.00 0.00 0.93 0.00 0.00 0.00 0.92 0.00 0.00 0.00 0.00 0.00 0.00 0.00 0.00 0.00 0.00 0.84 0.00 0.00 0.00 0.00 0.00 0.67 0.00 0.00 0.00 0.00 0.82 0.00 0.00 0.00 0.71 0.00 0.00 0.00 0.00 0.00 0.00 0.00 0.00 0.00 0.58 0.00 0.85 0.00 0.00 0.00 0.00 0.00 0.00 0.00 0.00 0.00 0.00 0.00 0.00 0.00 0.54 0.77
0.00 0.00 0.72 0.00 0.00 0.55 0.00 0.94 0.00 0.99 0.81 0.72 0.00 0.59 0.00 0.88 0.00 0.00 0.00 0.00 0.53 0.00 0.75 0.00 0.67 0.00 0.00 0.00 0.00 0.00 0.80 0.00 0.00 0.00 0.00 0.00 0.00 0.00 0.54 0.80 0.51 0.00 0.00 0.00 0.00 0.00 0.66 0.00 0.00 0.00 0.00 0.00 0.82 0.00 0.52 0.00 0.00 0.00 0.00 0.00 0.00 0.00 0.00 0.00 0.00 0.65 0.00 0.00 0.00 0.00 0.00 0.00 0.00 0.51 0.00 0.00 0.81 0.00 0.00 0.00 0.00 0.90 0.00 0.00 0.00 0.00 0.00 0.61 0.00 0.00 0.00 0.00 0.89 0.00 0.67 0.00 0.00 0.00 0.00 0.00 0.00 0.00 0.84 0.98 0.51 0.00 0.00 0.00 0.00 0.00 0.77 0.52 0.00 0.00 0.00 0.91 0.00 0.00 0.00 0.92 0.00 0.00 0.00 0.00 0.00 0.00 0.00 0.00 0.00 0.00 0.95 0.00 0.00 0.00 0.00 0.51 0.00 0.00 0.00 0.68
0.00 0.00 0.00 0.00 0.94 0.64 0.00 0.00 0.00 0.00 0.00 0.00 0.00 0.00 0.00 0.00 0.00 0.00 0.00 0.00 0.00 0.72 0.00 0.00 0.00 0.00 0.00 0.00 0.54 0.00 0.00 0.00 0.00 0.00 0.00 0.76 0.80 0.00 0.00 0.00 0.00 0.00 0.00 0.00 0.00 0.86 0.00 0.85 0.00 0.00 0.70 0.00 0.00 0.00 0.95 0.00 0.00 0.00 0.98 0.00 0.00 0.00 0.00 0.00 0.00 0.00 0.78 0.00 0.00 0.00 0.00 0.00 0.00 0.00 0.00 0.00 0.00 0.00 0.00 0.00 0.00 0.76 0.00 0.00 0.00 0.00 0.00 0.00 0.85 0.00 0.00 0.00 0.00 0.00 0.93 0.00 0.54 0.00 0.00 0.00 0.00 0.00 0.00 0.73 0.00 0.00 0.00 0.00 0.00 0.00 0.00 0.79 0.00 0.77 0.62 0.81 0.00 0.00 0.00 0.00 0.00 0.00 0.81 0.61 0.00 0.00 0.00 0.00 0.00 0.00 0.00 0.00 0.00 0.00 0.00 0.00 0.00 0.00 0.00 0.00
0.00 0.00 0.00 0.00 0.00 0.00 0.64 0.00 0.00 0.00 0.00 0.88 0.00 0.00 0.00 0.00 0.00 0.00 0.00 0.00 0.00 0.00 0.00 0.97 0.00 0.00 0.81 0.55 0.00 0.00 0.61 0.00 0.00 0.00 0.00 0.00 0.00 0.00 0.87 0.79 0.00 0.81 0.00 0.00 0.00 0.00 0.00 0.00 0.00 0.00 0.00 0.00 0.00 0.00 0.00 0.00 0.00 0.94 0.00 0.00 0.00 0.90 0.00 0.00 0.00 0.62 0.00 0.00 0.00 0.00 0.00 0.00 0.00 0.00 0.97 0.61 0.00 0.00 0.00 0.00 0.00 0.00 0.76 0.77 0.00 0.58 0.00 0.00 0.00 0.00 0.00 0.00 0.00 0.62 0.00 0.00 0.00 0.00 0.00 0.00 0.00 0.00 0.00 0.00 0.00 0.00 0.89 0.00 0.00 0.00 0.00 0.96 0.00 0.00 0.00 0.00 0.92 0.56 0.00 0.00 0.00 0.00 0.77 0.96 0.00 0.00 0.00 0.00 0.00 0.00 0.00 0.00 0.00 0.97 0.00 0.00 0.00 0.76 0.54 0.00
0.97 0.00 0.00 0.00 0.00 0.00 0.00 0.00 0.00 0.00 0.89 0.00 0.00 0.00 0.00 0.00 0.00 0.74 0.00 0.00 0.00 0.00 0.67 0.00 0.86 0.00 0.00 0.00 0.00 0.00 0.68 0.74 0.00 0.00 0.00 0.00 0.00 0.00 0.00 0.00 0.00 0.00 0.00 0.00 0.00 0.00 0.69 0.00 0.85 0.00 0.00 0.00 0.00 0.00 0.00 0.64 0.00 0.00 0.00 0.00 0.58 0.00 0.81 0.00 0.00 0.00 0.00 0.00 0.00 0.00 0.00 0.00 0.00 0.00 0.51 0.00 0.00 0.00 0.00 0.00 0.51 0.00 0.00 0.00 0.81 0.89 0.00 0.00 0.00 0.00 0.00 0.00 0.00 0.00 0.00 0.00 0.00 0.52 0.88 0.00 0.00 0.00 0.52 0.00 0.00 0.00 0.00 0.00 0.67 0.00 0.68 0.00 0.00 0.00 0.00 0.00 0.00 0.00 0.79 0.94 0.00 0.00 0.00 0.95 0.72 0.00 0.00 0.83 0.00 0.00 0.64 0.00 0.00 0.00 0.00 0.00 0.00 0.00 0.00 0.81
0.00 0.00 0.00 0.00 0.00 0.00 0.00 0.00 0.00 0.82 0.00 0.71 0.00 0.89 0.00 0.69 0.00 0.00 0.00 0.00 0.00 0.00 0.00 0.92 0.74 0.00 0.00 0.00 0.00 0.00 0.00 0.81 0.00 0.00 0.00 0.00 0.00 0.00 0.63 0.83 0.00 0.00 0.00 0.00 0.00 0.00 0.00 0.79 0.00 0.00 0.00 0.00 0.00 0.00 0.00 0.00 0.00 0.78 0.00 0.00 0.00 0.00 0.65 0.00 0.00 0.94 0.00 0.00 0.00 0.74 0.00 0.97 0.00 0.00 0.00 0.00 0.00 0.75 0.91 0.00 0.00 0.00 0.00 0.00 0.00 0.00 0.00 0.00 0.59 0.00 0.00 0.00 0.00 0.00 0.00 0.00 0.00 0.00 0.00 0.88 0.69 0.00 0.98 0.50 0.00 0.00 0.00 0.00 0.61 0.61 0.77 0.87 0.00 0.00 0.00 0.00 0.72 0.00 0.00 0.81 0.00 0.00 0.00 0.00 0.94 0.00 0.00 0.00 0.00 0.50 0.71 0.00 0.00 0.00 0.00 0.90 0.00 0.00 0.00 0.98
0.00 0.00 0.00 0.50 0.00 0.00 0.00 0.93 0.00 0.00 0.60 0.00 0.00 0.00 0.00 0.94 0.79 0.00 0.00 0.00 0.00 0.81 0.00 0.00 0.59 0.00 0.00 0.00 0.00 0.00 0.92 0.00 0.82 0.00 0.00 0.71 0.00 0.76 0.00 0.00 0.62 0.00 0.00 0.00 0.00 0.00 0.00 0.79 0.85 0.00 0.00 0.00 0.00 0.67 0.00 0.00 0.63 0.00 0.00 0.00 0.00 0.00 0.00 0.00 0.00 0.00 0.00 0.00 0.00 0.00 0.00 0.00 0.00 0.00 0.68 0.53 0.89 0.00 0.00 0.00 0.59 0.00 0.00 0.00 0.57 0.00 0.00 0.00 0.00 0.64 0.00 0.62 0.00 0.00 0.91 0.81 0.00 0.00 0.00 0.00 0.00 0.00 0.00 0.00 0.98 0.00 0.53 0.00 0.00 0.98 0.70 0.00 0.00 0.00 0.00 0.00 0.00 0.00 0.00 0.00 0.00 0.00 0.00 0.00 0.93 0.00 0.00 0.00 0.00 0.00 0.00 0.00 0.00 0.75 0.56 0.61 0.00 0.00 0.00 0.00
0.00 0.00 0.97 0.00 0.00 0.00 0.00 0.00 0.00 0.00 0.84 0.00 0.00 0.00 0.00 0.00 0.00 0.00 0.74 0.00 0.00 0.96 0.61 0.00 0.00 0.00 0.00 0.00 0.00 0.00 0.93 0.00 0.00 0.53 0.97 0.00 0.77 0.61 0.00 0.00 0.00 0.00 0.00 0.51 0.00 0.92 0.00 0.00 0.00 0.00 0.00 0.00 0.00 0.00 0.00 0.99 0.67 0.92 0.87 0.00 0.00 0.00 0.00 0.00 0.00 0.00 0.00 0.69 0.68 0.00 0.00 0.00 0.60 0.00 0.62 0.00 0.94 0.00 0.00 0.00 0.00 0.00 0.00 0.00 0.00 0.00 0.00 0.53 0.57 0.00 0.83 0.00 0.57 0.00 0.00 0.00 1.00 0.00 0.00 0.00 0.00 0.00 0.00 0.00 0.00 0.00 0.00 0.00 0.74 0.00 0.00 0.00 0.00 0.59 0.95 0.64 0.66 0.53 0.00 0.00 0.00 0.84 0.00 0.62 0.00 0.00 0.79 0.54 0.00 0.00 0.89 0.00 0.00 0.00 0.00 0.00 0.00 0.00 0.00 0.00
0.00 0.00 0.00 0.00 0.00 0.58 0.00 0.84 0.00 0.57 0.76 0.00 0.00 0.71 0.00 0.00 0.84 0.00 0.00 0.00 0.00 0.00 0.76 0.00 0.00 0.00 0.00 0.00 0.00 0.00 0.00 0.00 0.00 0.62 0.00 0.00 0.00 0.69 0.00 0.00 0.83 0.00 0.64 0.00 0.75 0.00 0.00 0.00 0.00 0.00 0.71 0.00 0.60 0.00 0.00 0.00 0.00 0.00 0.00 0.00 0.73 0.97 0.00 0.55 0.00 0.00 0.52 0.00 0.98 0.00 0.00 0.00 0.00 0.00 0.00 0.00 0.00 0.00 0.57 0.90 0.00 0.00 0.91 0.00 0.00 0.52 0.00 0.00 0.00 0.00 0.00 0.00 0.00 0.00 0.82 0.73 0.00 0.00 0.00 0.00 0.00 0.00 0.00 0.00 0.00 0.00 0.00 0.52 0.00 0.99 0.00 0.85 0.00 0.00 0.00 0.00 0.00 0.00 0.00 0.00 0.00 0.75 0.71 0.00 0.00 0.00 0.00 0.00 0.00 0.00 0.50 0.78 0.00 0.00 0.00 0.00 0.00 0.86 0.00 0.00
0.00 0.00 0.00 0.00 0.00 0.67 0.00 0.00 0.00 0.97 0.00 0.00 0.00 0.00 0.73 0.00 0.00 0.00 0.72 0.00 0.93 0.00 0.96 0.00 0.00 0.00 0.00 0.00 0.00 0.00 0.00 0.00 0.00 0.00 0.00 0.86 0.54 0.00 0.00 0.00 0.00 0.99 0.00 0.00 0.00 0.00 0.00 0.00 0.00 0.00 0.00 0.00 0.00 0.00 0.00 0.00 0.00 0.00 0.00 0.00 0.00 0.00 0.53 0.00 0.00 0.00 0.85 0.94 0.69 0.00 0.89 0.00 0.00 0.00 0.52 0.90 0.60 0.00 0.00 0.00 0.84 0.00 0.00 0.00 0.00 0.00 0.51 0.00 0.00 0.00 1.00 0.00 0.70 0.00 0.68 0.00 0.00 0.00 0.00 0.00 0.00 0.00 0.63 0.98 0.00 0.00 0.00 0.00 0.00 0.00 0.00 0.00 0.00 0.00 0.00 0.00 0.00 0.00 0.00 0.00 0.00 0.58 0.00 0.00 0.00 0.00 0.00 0.00 0.00 0.81 0.81 0.00 0.00 0.00 0.00 0.76 0.97 0.00 0.00 0.00
0.00 0.00 0.00 0.86 0.72 0.00 0.00 0.00 0.00 0.00 0.00 0.00 0.63 0.00 0.65 0.00 0.00 0.00 0.00 0.98 0.00 0.00 0.93 0.00 0.00 0.00 0.87 0.00 0.00 0.00 0.00 0.00 0.00 0.00 0.91 0.00 0.00 0.00 0.00 0.00 0.00 0.00 0.77 0.00 0.00 0.00 0.00 0.86 0.90 0.00 0.00 0.59 0.00 0.00 0.00 0.00 0.00 0.00 0.00 0.58 0.00 0.00 0.00 0.00 0.00 0.00 0.86 0.00 0.00 0.68 0.00 0.00 0.00 0.00 0.00 0.00 0.86 0.00 0.00 0.00 0.00 0.00 0.00 0.00 0.00 0.00 0.00 0.00 0.00 0.00 0.00 0.00 0.71 0.00 0.00 0.00 0.00 0.00 0.00 0.96 0.00 0.92 0.94 0.00 0.00 0.82 0.00 0.00 0.98 0.00 0.00 0.00 0.00 0.00 0.71 0.00 0.84 0.00 0.00 0.00 0.00 0.00 0.00 0.00 0.00 0.53 0.00 0.00 0.00 0.00 0.00 0.00 0.00 0.00 0.00 0.00 0.00 0.00 0.00 0.80
0.73 0.00 0.00 0.00 0.00 0.00 0.56 0.00 0.61 0.00 0.00 0.80 0.73 0.00 1.00 0.00 0.00 0.00 0.00 0.97 0.00 0.00 0.00 0.00 0.62 0.00 0.00 0.00 0.00 0.80 0.00 0.83 0.00 0.66 0.65 0.00 0.00 0.00 0.00 0.00 0.00 0.00 0.97 0.00 0.00 0.00 0.00 0.00 0.00 0.00 0.00 0.60 0.60 0.00 0.82 0.00 0.85 0.74 0.00 0.00 0.00 0.00 0.00 0.00 0.00 0.79 0.00 0.00 0.00 0.00 0.00 0.00 0.00 0.00 0.00 0.00 0.74 0.00 0.51 0.00 0.00 0.00 0.88 0.00 0.77 0.00 0.79 0.65 0.00 0.00 0.57 0.00 0.94 0.00 0.00 0.72 0.00 0.75 0.00 0.74 0.00 0.00 0.00 0.00 0.86 0.86 0.00 0.66 0.00 0.94 0.00 0.00 0.00 0.00 0.00 0.00 0.00 0.00 0.65 0.77 0.00 0.00 0.00 1.00 0.00 0.00 0.00 0.00 0.00 0.00 0.00 0.00 0.00 0.75 0.00 0.00 0.00 0.52 0.00 0.51
0.65 0.00 0.70 0.76 0.00 0.00 0.00 0.00 0.00 0.00 0.00 0.00 0.91 0.00 0.00 0.00 0.00 0.00 0.00 0.00 0.86 0.00 0.00 0.00 0.00 0.00 0.52 0.00 0.00 0.00 0.00 0.00 0.00 0.00 0.00 0.00 0.00 0.00 0.00 0.70 0.97 0.00 0.00 0.73 0.00 0.00 0.00 0.00 0.00 0.00 0.00 0.00 0.00 0.00 0.00 0.00 0.00 0.00 0.00 0.00 0.00 0.00 0.00 0.00 0.00 0.00 0.00 0.00 0.91 0.00 0.00 0.00 0.00 0.00 0.00 0.00 0.00 0.00 0.53 0.00 0.00 0.00 0.00 0.00 0.00 0.00 0.00 0.00 0.70 0.00 0.00 0.99 0.53 0.00 0.00 0.00 0.00 0.00 0.00 0.00 0.00 0.00 0.00 0.00 0.00 0.00 0.72 0.00 0.72 0.00 0.74 0.84 0.83 0.00 0.89 0.00 0.00 0.65 0.59 0.00 0.51 0.00 0.87 0.00 0.90 0.00 0.86 0.00 0.00 0.00 0.68 0.00 0.00 0.00 0.00 0.00 0.00 0.00 0.00 0.00
0.00 0.00 0.00 0.00 0.00 0.96 0.55 0.97 0.00 0.00 0.00 0.00 0.00 0.94 0.00 0.00 0.00 0.00 0.63 0.54 0.00 0.00 0.66 0.00 0.58 0.00 0.00 0.00 0.00 0.00 0.00 0.00 0.65 0.00 0.77 0.00 0.00 0.00 0.88 0.00 0.00 0.00 0.00 0.00 0.00 0.00 0.00 0.00 0.00 0.76 0.00 0.00 0.89 0.00 0.00 0.55 0.84 0.63 0.00 0.00 0.73 0.83 0.84 0.59 0.00 0.74 0.00 0.84 0.00 0.00 0.00 0.00 0.00 0.00 0.00 0.00 0.00 0.55 0.00 0.00 0.00 0.88 0.77 0.00 0.55 0.00 0.00 0.00 0.00 0.00 0.00 0.00 0.00 0.00 0.00 0.00 0.00 0.00 0.00 0.00 0.00 0.00 0.00 0.00 0.00 0.92 0.00 0.00 0.00 0.93 0.00 0.00 0.00 0.70 0.00 0.00 0.00 0.77 0.00 0.73 0.00 0.00 0.00 0.00 0.00 1.00 0.00 0.00 0.00 0.00 0.00 0.00 0.00 0.00 0.00 0.00 0.00 0.00 0.98 0.00
0.00 0.00 0.00 0.00 0.68 0.00 0.00 0.00 0.55 0.00 0.86 0.00 0.57 0.63 0.00 0.00 0.00 0.00 0.00 0.98 0.00 0.00 0.00 0.00 0.61 0.88 0.00 0.51 0.00 0.00 0.00 0.00 0.00 0.00 0.84 0.00 0.00 0.81 0.00 0.00 0.00 0.00 1.00 0.00 0.00 0.00 0.85 0.93 0.86 0.00 0.00 0.00 0.68 0.00 0.00 0.00 0.00 0.00 0.00 0.80 0.00 0.00 0.00 0.00 0.00 0.00 0.00 0.00 0.00 0.00 0.00 0.00 0.00 0.00 0.90 0.00 0.00 0.73 0.00 0.98 0.00 0.00 0.00 0.00 0.00 0.90 0.00 0.00 0.00 0.00 0.00 0.00 0.95 0.00 0.00 0.00 0.00 0.00 0.83 0.00 0.00 0.00 0.85 0.00 0.00 0.00 0.00 0.00 0.99 0.00 0.00 0.00 0.00 0.00 0.00 1.00 0.00 0.00 0.00 0.00 0.87 0.75 0.00 0.00 0.00 0.00 0.00 0.00 0.60 0.00 0.62 0.00 0.52 0.00 0.00 0.00 0.82 0.70 0.00 0.00
0.00 0.61 0.00 0.90 0.00 0.00 0.97 0.00 0.74 0.00 0.00 0.00 0.00 0.00 0.61 0.00 0.00 0.00 0.84 0.00 0.00 0.00 0.00 0.00 0.61 0.00 0.00 0.00 0.00 0.00 0.00 0.00 0.62 0.00 0.00 0.68 0.74 0.87 0.00 0.00 0.99 0.00 0.00 0.00 0.00 0.00 0.00 0.00 0.00 0.00 0.00 0.00 0.00 0.00 0.00 0.87 0.00 0.00 0.00 0.00 0.00 0.79 0.00 0.00 0.00 0.00 0.00 0.00 0.00 0.00 0.00 0.66 0.71 0.00 0.00 0.00 0.00 0.00 0.00 0.72 0.00 0.00 0.00 0.00 0.00 0.96 0.69 0.97 0.00 0.62 0.00 0.00 0.65 0.00 0.00 0.00 0.59 0.00 0.00 0.00 0.00 0.00 0.00 0.68 0.00 0.72 0.77 0.00 0.66 0.00 0.83 0.00 0.00 0.00 0.00 0.00 0.00 0.00 0.00 0.58 0.00 0.00 0.00 0.00 0.00 0.00 0.00 0.00 0.00 0.00 0.00 0.00 0.00 0.00 0.00 0.00 0.00 0.00 0.00 0.97
0.95 0.00 0.00 0.00 0.00 0.86 0.97 0.00 0.00 0.00 0.00 0.00 0.00 0.94 0.93 0.54 0.00 0.91 0.00 0.00 0.77 0.00 0.73 0.00 0.00 0.00 0.00 0.79 0.00 0.00 0.00 0.61 0.00 0.81 0.80 0.00 0.00 0.00 0.74 0.00 0.00 0.00 0.99 0.00 0.00 0.00 0.00 0.00 0.00 0.00 0.00 0.00 0.00 0.00 0.00 0.00 0.00 0.00 0.00 0.00 0.00 0.00 0.00 0.00 0.00 0.00 0.00 0.53 0.00 0.62 0.60 0.71 0.00 0.00 0.00 0.00 0.79 0.00 0.00 0.00 0.00 0.00 0.00 0.00 0.96 0.89 0.00 0.00 0.00 0.65 0.00 1.00 0.00 0.00 0.00 0.00 0.00 0.00 0.00 0.00 0.00 0.00 0.00 0.75 0.86 0.00 0.00 0.00 0.52 0.00 0.00 0.88 0.00 0.00 0.00 0.00 0.00 0.00 0.00 0.00 0.00 0.00 0.00 0.00 0.00 0.00 0.00 0.00 0.93 0.00 0.00 0.00 0.00 0.00 0.00 0.00 0.00 0.00 0.67 0.00
0.00 0.57 0.77 0.00 0.00 0.00 0.00 0.00 0.00 0.00 0.00 0.00 0.75 0.00 0.00 0.00 0.00 0.00 0.00 0.00 0.00 0.00 0.00 0.00 0.00 0.00 0.80 0.00 0.86 0.00 0.00 0.00 0.00 0.53 0.00 0.00 0.00 0.00 0.69 0.00 0.00 0.00 0.00 0.63 0.00 0.00 0.00 0.78 0.00 0.00 0.00 0.00 0.00 0.00 0.00 0.00 0.00 0.00 0.00 0.00 0.71 0.72 0.00 0.76 1.00 0.00 0.00 0.00 0.00 0.00 0.00 0.76 0.52 0.00 0.00 0.00 0.00 0.00 0.00 0.00 0.00 0.00 0.00 0.69 0.00 0.00 0.00 0.00 0.93 0.66 0.00 0.00 0.00 0.00 0.50 0.00 0.00 0.67 0.00 0.00 0.00 0.00 0.54 0.89 0.00 0.80 0.00 0.00 0.00 0.00 0.97 0.00 0.00 0.00 0.79 0.00 0.58 0.64 0.00 0.00 0.00 0.00 0.63 0.00 0.00 0.00 0.00 0.00 0.00 0.00 0.00 0.00 0.55 0.00 0.00 0.00 0.91 0.51 0.00 0.00
0.57 0.92 0.00 0.00 0.77 0.00 0.00 0.00 0.00 0.00 0.00 0.00 0.00 0.97 0.00 0.74 0.65 0.00 0.00 0.00 0.00 0.00 0.83 0.00 0.00 0.00 0.85 0.00 0.00 0.00 0.00 0.00 0.00 0.00 0.00 0.00 0.00 0.00 0.00 0.64 0.00 0.53 0.72 0.00 0.51 0.00 0.00 0.00 0.00 0.00 0.00 0.00 0.92 0.59 0.00 0.00 0.00 0.83 0.00 0.63 0.59 0.55 0.00 0.00 0.00 0.84 0.55 0.00 0.00 0.00 0.00 0.00 0.00 0.00 0.00 0.90 0.00 0.00 0.00 0.00 0.00 0.00 0.91 0.00 0.00 0.00 0.00 0.00 0.71 0.00 0.00 0.00 0.00 0.00 0.83 0.00 0.00 0.00 0.62 0.00 0.00 0.00 0.00 0.00 0.00 0.00 0.68 0.00 0.00 0.00 0.63 0.00 0.00 0.00 0.00 0.00 0.00 0.00 0.00 0.00 0.00 0.00 0.00 0.00 0.58 0.00 0.00 0.00 0.61 0.00 0.00 0.00 0.00 0.00 0.00 0.00 0.00 0.00 0.98 0.00
0.00 0.00 0.00 0.00 0.00 0.54 0.00 0.00 0.00 0.00 0.00 0.00 0.00 0.00 0.00 0.00 0.00 0.00 0.78 0.66 0.00 0.00 0.00 0.00 0.56 0.00 0.00 0.00 0.00 0.93 0.00 0.00 0.00 0.00 0.79 0.00 0.00 0.00 0.00 0.00 0.00 0.00 0.00 0.74 0.00 0.00 0.00 0.00 0.00 0.00 0.00 0.00 0.00 0.79 0.00 0.00 0.00 0.00 0.00 0.00 0.00 0.00 0.00 0.00 0.81 0.53 0.00 0.00 0.62 0.00 0.00 0.00 0.00 0.00 0.70 0.00 0.00 0.00 0.72 0.00 0.00 0.54 0.96 0.00 0.00 0.00 0.00 0.00 0.00 0.55 0.00 0.00 0.00 0.00 0.00 0.00 0.00 0.00 0.00 0.00 0.00 0.76 0.00 0.00 0.00 0.00 0.00 0.00 0.00 0.00 0.00 0.00 0.72 0.72 0.00 0.00 0.69 0.00 0.00 0.00 0.00 0.00 0.00 0.71 0.00 0.00 0.75 0.00 0.00 0.00 0.00 0.67 0.00 0.00 0.00 0.00 0.00 0.00 0.00 0.00
0.00 0.00 0.00 0.00 0.00 0.00 0.00 0.00 0.96 0.00 0.00 0.00 0.00 0.00 0.00 0.00 0.00 0.00 0.00 0.00 0.00 0.00 0.95 0.00 0.00 0.00 0.00 0.00 0.62 0.94 0.52 0.00 0.00 0.00 0.00 0.00 0.00 0.00 0.00 0.83 0.00 0.58 0.00 0.00 0.67 0.00 0.00 0.00 0.00 0.00 0.00 0.00 0.00 0.00 0.00 0.00 0.00 0.00 0.68 0.00 0.00 0.00 0.99 0.00 0.00 0.00 0.81 0.00 0.00 0.00 0.51 0.98 0.00 0.00 0.00 0.00 0.00 0.00 0.00 0.00 0.00 0.00 0.70 0.00 0.00 0.84 0.00 0.00 0.00 0.00 0.85 0.00 0.00 0.00 1.00 0.00 0.00 0.00 0.00 0.00 0.96 0.00 0.00 0.00 0.00 0.00 0.00 0.00 0.00 0.00 0.00 0.00 0.00 0.00 0.00 0.00 0.67 0.00 0.99 0.73 0.00 0.00 0.00 0.00 0.00 0.58 0.00 0.98 0.00 0.00 0.00 0.00 0.00 0.00 0.00 0.00 0.00 0.00 0.86 0.00
0.00 0.00 0.58 0.75 0.79 0.00 0.71 0.75 0.00 0.00 0.00 0.73 0.00 0.00 0.00 0.00 0.00 0.73 0.00 0.00 0.00 0.00 0.87 0.00 0.00 0.00 0.00 0.00 0.00 0.00 0.00 0.00 0.00 0.00 0.00 0.00 0.00 0.87 0.00 0.00 0.00 0.65 0.00 0.00 0.00 0.00 0.00 0.00 0.00 0.00 0.00 0.00 0.96 0.69 0.81 0.00 0.00 0.00 0.00 0.91 0.00 0.00 0.00 0.00 0.80 0.00 0.00 0.00 0.00 0.00 0.00 0.00 0.00 0.66 0.00 0.00 0.90 0.00 0.00 0.00 0.00 0.00 0.00 0.00 0.00 0.56 0.00 0.68 0.80 0.71 0.00 0.00 0.77 0.00 0.00 0.00 0.00 0.00 0.00 0.00 0.00 0.00 0.63 0.00 0.00 0.00 0.00 0.00 0.75 0.94 0.92 0.00 0.00 0.00 0.68 0.00 0.00 0.00 0.00 0.75 0.00 0.00 0.00 0.00 0.00 0.00 0.00 0.00 0.00 0.00 0.00 0.00 0.00 0.00 0.00 0.00 0.00 0.00 0.83 0.00
0.00 0.58 0.00 0.64 0.00 0.00 0.00 0.86 0.99 0.00 0.00 0.00 0.00 0.00 0.00 0.00 0.00 0.00 0.98 0.00 0.89 0.00 0.00 0.00 0.81 0.92 0.00 0.00 0.59 0.00 0.00 0.00 0.94 0.00 0.00 0.90 0.00 0.00 0.58 0.00 0.00 0.00 0.00 0.00 0.61 0.00 0.00 0.00 0.00 0.00 0.00 0.00 0.87 0.00 0.00 0.90 0.00 0.00 0.65 0.00 0.00 0.00 0.00 0.57 0.00 0.00 0.00 0.00 0.00 0.00 0.00 0.00 0.00 0.00 0.00 0.69 0.00 0.00 0.83 0.00 0.00 0.00 0.00 0.00 0.53 0.00 0.00 0.00 0.69 0.00 0.00 0.00 0.00 0.72 0.78 0.00 0.00 0.00 0.00 0.00 0.00 0.00 0.79 0.73 0.00 0.00 0.00 0.57 0.00 0.00 0.00 0.86 0.58 0.00 0.00 0.00 0.94 0.61 0.00 0.00 0.00 0.00 0.00 0.00 0.00 0.00 0.00 0.00 0.00 0.00 0.00 0.00 0.00 0.00 0.00 0.00 0.00 0.00 0.00 0.00
0.00 0.00 0.00 0.58 0.66 0.00 0.00 0.00 0.67 0.59 0.00 0.00 0.56 0.00 0.00 0.00 0.00 0.51 0.00 0.00 0.81 0.63 0.00 0.73 0.00 0.80 0.98 0.00 0.00 0.00 0.00 0.00 0.52 0.00 0.00 0.00 0.00 0.00 0.00 0.00 0.00 0.00 0.00 0.00 0.73 0.64 0.00 0.00 0.00 0.50 0.77 0.00 0.00 0.00 0.00 0.00 0.00 0.82 0.00 0.00 0.00 0.76 0.00 0.56 0.55 0.00 0.81 0.00 0.00 0.76 0.00 0.00 0.00 0.00 0.00 0.00 0.00 0.00 0.00 0.00 0.00 0.00 0.71 0.00 0.00 0.00 0.00 0.00 0.00 0.00 0.00 0.93 0.00 0.00 0.00 0.00 0.00 0.00 0.89 0.84 0.00 0.65 0.00 0.00 0.00 0.79 0.00 0.00 0.00 0.78 0.00 0.00 0.00 0.00 0.00 0.00 0.00 0.81 0.00 0.66 0.00 0.00 0.00 0.00 0.99 0.00 0.55 0.00 0.00 0.00 0.00 0.92 0.00 0.68 0.00 0.57 0.70 0.00 0.83 0.00
0.00 0.00 0.95 0.00 0.00 0.00 0.00 0.00 0.93 0.00 0.00 0.75 0.62 0.92 0.88 0.00 0.00 0.81 0.00 0.00 0.00 0.00 0.00 0.00 0.93 0.00 0.00 0.00 0.00 0.51 0.00 0.00 0.00 0.00 0.00 0.00 0.00 0.00 0.69 0.00 0.97 0.00 0.00 0.60 0.00 0.00 0.84 0.00 0.00 0.00 0.00 0.00 0.00 0.00 0.58 0.00 0.00 0.00 0.00 0.66 0.00 0.00 0.78 0.00 0.00 0.79 0.00 0.00 0.00 0.00 0.00 0.00 0.63 0.56 0.00 0.00 0.00 0.00 0.00 0.66 0.00 0.82 0.00 0.82 0.00 0.00 0.00 0.69 0.00 0.81 0.00 0.83 0.00 0.00 0.00 0.00 0.00 0.00 0.59 0.00 0.00 0.56 0.00 0.82 0.00 0.75 0.00 0.00 0.00 0.00 0.00 0.00 0.00 0.00 0.00 0.62 0.00 0.00 0.00 0.74 0.00 0.00 0.62 0.00 0.00 0.00 0.75 0.00 0.00 0.00 0.00 0.00 0.00 0.00 0.00 0.00 0.00 0.00 0.00 0.00
0.00 0.00 0.00 0.00 0.00 0.00 0.00 0.55 0.00 0.00 0.00 0.73 0.66 0.87 0.00 0.00 0.00 0.00 0.00 0.73 0.00 0.00 0.00 0.00 0.00 0.00 0.67 0.00 0.00 1.00 0.00 0.00 0.00 0.00 0.72 0.00 0.00 0.00 0.00 0.93 0.55 0.00 0.00 0.00 0.00 0.82 0.00 0.00 0.68 0.00 0.00 0.00 0.00 0.99 0.00 0.00 0.00 0.00 0.00 0.00 0.00 0.00 0.00 0.00 0.00 0.00 0.00 0.00 0.83 0.75 0.00 0.71 0.00 0.82 0.00 0.00 0.00 0.00 0.65 0.51 0.00 0.00 0.00 0.00 0.60 0.00 0.00 0.00 0.69 0.00 0.98 0.00 0.00 0.97 0.58 0.68 0.00 0.78 0.00 0.00 0.00 0.00 0.00 0.00 0.00 0.00 0.00 0.00 0.00 0.00 0.00 0.00 0.00 0.00 0.65 0.00 0.00 0.00 0.00 0.00 0.00 0.00 0.00 0.00 0.00 0.00 0.00 0.00 0.81 0.00 0.00 0.00 0.85 0.00 0.00 0.51 0.77 0.00 0.81 0.00
0.00 0.75 0.00 0.00 0.96 0.00 0.85 0.00 0.00 0.00 0.00 0.00 0.00 0.00 0.97 0.00 0.91 0.00 0.79 0.00 0.00 0.00 0.00 0.00 0.00 0.74 0.00 0.97 0.00 0.00 0.00 1.00 0.00 0.00 0.00 0.00 0.00 0.99 0.97 0.82 0.51 0.00 0.00 0.00 0.00 0.00 0.00 0.00 0.00 0.00 0.00 0.72 0.00 0.54 0.00 0.60 0.82 0.00 0.00 0.00 0.00 0.00 0.00 0.76 0.00 0.00 0.00 0.00 0.00 0.00 0.00 0.53 0.00 0.00 0.69 0.81 0.00 0.56 0.00 0.98 0.71 0.00 0.00 0.00 0.00 0.00 1.00 0.72 0.00 0.89 0.00 0.00 0.00 0.72 0.00 0.00 0.00 0.00 0.00 0.93 0.00 0.00 0.00 0.00 0.00 0.00 0.00 0.00 0.00 0.00 0.65 0.00 0.00 0.00 0.81 0.00 0.61 0.00 0.00 0.00 0.00 0.00 0.98 0.00 0.71 0.00 0.00 0.00 0.00 0.00 0.00 0.00 0.58 0.00 0.00 0.00 0.00 0.00 0.00 0.85
0.00 0.00 0.00 0.00 0.00 0.00 0.00 0.00 0.53 0.51 0.00 0.00 0.00 0.00 0.00 0.00 0.00 0.00 0.96 0.00 0.00 0.83 0.00 0.00 0.00 0.00 0.00 0.84 0.00 0.00 0.00 0.00 0.00 0.75 0.00 0.00 0.85 0.70 0.00 0.00 0.00 0.00 0.60 0.00 0.96 0.00 0.75 0.00 0.00 0.97 0.00 0.00 0.00 0.00 0.67 0.00 0.00 0.00 0.00 0.00 0.00 0.00 0.00 0.00 0.73 0.51 0.00 0.00 0.00 0.00 0.00 0.00 0.00 0.74 0.00 0.00 0.00 0.00 0.00 0.79 0.70 0.66 0.00 0.00 0.69 0.00 0.00 0.00 0.00 0.00 0.00 0.00 0.00 0.00 0.00 0.00 0.59 0.00 0.00 0.00 0.00 0.00 0.00 0.00 0.87 0.00 0.00 0.00 0.68 0.00 0.00 0.00 0.00 0.57 0.95 0.00 0.00 0.00 0.00 0.00 0.60 0.00 0.00 0.00 0.00 0.00 0.00 0.00 0.00 0.00 0.00 0.00 0.00 0.00 0.00 0.98 0.60 0.00 0.00 0.77
0.00 0.55 0.00 0.00 0.63 0.75 0.00 0.91 0.95 0.00 0.95 0.00 0.00 0.58 0.00 0.00 0.00 0.00 0.00 0.00 0.00 0.00 0.56 0.00 0.00 0.00 0.00 0.00 0.00 0.00 0.52 0.83 0.00 0.00 0.00 0.00 0.75 0.00 0.56 0.00 0.00 0.00 0.00 0.81 0.00 0.00 0.00 0.00 0.00 0.00 0.83 0.00 0.00 0.00 0.00 0.00 0.00 0.00 0.00 0.00 0.00 0.00 0.84 0.88 0.73 0.00 0.00 0.00 0.00 0.94 0.00 0.00 0.00 0.00 0.00 0.00 0.00 0.00 0.00 0.51 0.00 0.00 0.82 0.98 0.00 0.75 0.00 0.00 0.00 0.76 0.74 0.51 0.00 0.00 0.00 0.57 0.00 0.00 0.00 0.00 0.00 0.53 0.00 0.75 0.00 0.90 0.83 0.00 0.82 0.58 0.98 0.00 0.00 0.00 0.00 0.00 0.00 0.65 0.95 0.00 0.85 0.00 0.79 0.00 0.00 0.00 0.00 0.00 0.00 0.00 0.00 0.00 0.54 0.00 0.00 0.00 0.96 0.00 0.00 0.00
0.85 0.00 0.00 0.00 0.00 0.00 0.00 0.00 0.00 1.00 0.00 0.00 0.00 0.00 0.00 0.00 0.00 0.00 0.00 0.57 0.00 0.00 0.98 0.00 0.00 0.00 0.00 0.00 0.00 0.67 0.00 0.00 0.00 0.00 0.51 0.00 0.00 0.53 0.00 0.94 0.00 0.00 0.00 0.00 0.00 0.00 0.00 0.00 0.00 0.00 0.00 0.00 0.00 0.00 0.00 0.00 0.56 0.72 0.00 0.00 0.00 0.00 0.00 0.97 0.00 0.63 0.80 0.00 0.00 0.00 0.86 0.93 0.00 0.00 0.00 0.00 0.00 0.00 0.00 0.00 0.86 0.00 0.00 0.00 0.00 0.00 0.00 0.00 0.81 0.00 0.00 0.00 0.91 0.00 0.00 0.00 0.00 0.00 0.00 0.00 0.00 0.00 0.00 0.00 0.00 0.00 0.00 0.00 0.00 0.00 0.00 0.00 0.00 0.00 0.93 0.00 0.00 0.00 0.91 0.00 0.51 0.84 0.00 0.00 0.00 0.86 0.00 0.97 0.00 0.00 0.00 0.00 0.84 0.71 0.00 0.70 0.00 0.80 0.70 0.00
0.00 0.85 0.00 0.00 0.85 0.97 0.00 0.00 0.00 0.00 0.57 0.00 0.00 0.00 0.00 0.00 0.00 0.00 0.00 0.91 0.96 0.00 0.82 0.00 0.00 0.00 0.00 0.70 0.00 0.00 0.00 0.00 0.00 0.72 0.00 0.00 0.00 0.00 0.00 0.00 0.00 0.00 0.00 0.90 0.00 0.84 0.00 0.00 0.00 0.00 0.00 0.00 0.00 0.00 0.00 0.00 0.70 0.00 0.80 0.00 0.00 0.85 0.00 0.50 0.00 0.00 0.00 0.00 0.00 0.00 0.00 0.00 0.00 0.93 0.00 0.00 0.00 0.00 0.00 0.00 0.00 0.00 0.00 0.82 0.67 0.00 0.00 0.00 0.80 0.00 0.00 0.91 0.00 1.00 0.00 0.78 0.56 0.00 0.00 0.00 0.00 0.57 0.84 0.73 0.00 0.00 0.00 0.00 0.00 0.00 0.97 0.71 0.00 0.60 0.00 0.00 0.00 0.00 0.00 0.00 0.98 0.57 0.00 0.82 0.00 0.00 0.00 0.50 0.00 0.71 0.00 0.00 0.67 0.00 0.00 0.00 0.00 0.00 0.94 0.78
0.84 0.76 0.00 0.00 0.00 0.00 0.00 0.00 0.69 0.00 0.00 0.00 0.00 0.00 0.00 0.00 0.00 0.00 0.65 0.00 0.00 0.00 0.67 0.00 0.85 0.00 0.53 0.81 0.00 0.00 0.76 0.00 0.69 0.00 0.00 0.00 0.00 0.00 0.00 0.00 0.00 0.88 0.00 0.00 0.00 0.00 0.00 0.00 0.00 0.00 0.70 0.69 0.00 0.00 0.00 0.00 0.87 0.00 0.00 0.00 0.50 0.00 0.00 0.00 0.00 0.00 0.64 0.00 0.61 0.00 0.00 0.00 0.00 0.00 0.00 0.00 0.00 0.00 0.00 0.00 0.00 0.90 0.52 0.00 0.00 0.00 0.00 0.00 0.00 0.00 0.99 0.00 0.00 0.51 0.71 0.00 0.00 0.00 0.00 0.00 0.00 0.00 0.00 0.00 0.00 0.00 0.00 0.78 0.00 0.68 0.00 0.64 0.58 0.76 0.62 0.00 0.00 0.00 0.87 0.98 0.55 0.55 0.00 0.00 0.00 0.00 0.00 0.00 0.00 0.00 0.00 0.50 0.53 0.00 0.00 0.00 0.00 0.00 0.00 0.00
0.00 0.00 0.00 0.00 0.00 0.00 0.00 0.00 0.84 0.00 0.00 0.00 0.00 0.00 0.00 0.78 0.81 0.00 0.00 0.00 0.00 0.00 0.00 0.00 0.00 0.00 0.00 0.00 0.00 0.68 0.00 0.64 0.00 0.96 0.00 0.00 0.00 0.00 0.85 0.00 0.00 0.00 0.00 0.90 0.00 0.84 0.00 0.00 0.00 0.00 0.00 0.00 0.00 0.77 0.00 0.00 0.00 0.00 0.00 0.94 0.74 0.00 0.60 0.00 0.00 0.00 0.00 0.00 0.00 0.00 0.82 0.77 0.57 0.00 0.00 0.00 0.00 0.00 0.83 0.00 0.59 0.00 0.00 0.00 0.00 0.00 0.83 0.00 0.00 0.00 0.00 0.00 0.98 0.58 0.00 0.00 0.00 0.83 0.00 0.66 0.00 0.00 0.00 0.00 0.00 0.00 0.93 0.00 0.67 0.00 0.00 0.00 0.00 0.00 0.00 0.00 0.00 0.00 0.00 0.00 0.00 0.00 0.70 0.00 0.58 0.00 0.00 0.00 0.00 0.66 0.00 0.00 0.00 0.00 0.00 0.84 0.56 0.00 0.00 0.00
0.00 0.98 0.00 0.00 0.00 0.79 0.00 0.00 0.00 0.59 0.00 0.00 0.00 0.00 0.00 0.00 0.60 1.00 0.00 0.00 0.00 0.00 0.00 0.00 0.00 0.00 0.00 0.00 0.72 0.00 0.00 0.00 0.93 0.53 0.61 0.00 0.00 0.00 0.00 0.00 0.00 0.00 0.00 0.74 0.00 0.00 0.67 0.00 0.00 0.96 0.00 0.83 0.00 0.00 0.00 0.84 0.00 0.00 0.50 0.00 0.00 0.00 0.80 0.00 0.00 0.00 0.00 0.00 0.00 0.00 0.00 0.00 0.00 0.55 0.87 0.00 0.00 0.00 0.00 0.00 0.00 0.00 0.00 0.00 0.00 0.00 0.89 0.66 0.00 0.59 0.50 0.75 0.00 0.00 0.00 0.00 0.00 0.00 0.00 0.87 0.66 0.00 0.00 0.89 0.00 0.00 0.86 0.00 0.00 0.00 0.00 0.00 0.00 0.00 0.00 0.86 0.00 0.00 0.00 0.00 0.00 0.00 0.00 0.54 0.00 0.00 0.00 0.74 0.00 0.00 0.00 0.00 0.00 0.00 0.00 0.00 0.00 0.00 0.00 0.00
0.00 0.00 0.88 0.71 0.00 0.54 0.00 0.00 0.00 0.00 0.00 0.00 0.00 0.62 0.00 0.00 0.00 0.00 0.00 0.00 0.97 0.00 0.00 0.00 0.86 0.00 0.00 0.00 0.00 0.00 0.00 0.00 0.00 0.00 0.00 0.00 0.00 0.99 0.00 0.00 0.51 0.00 0.74 0.00 0.00 0.00 0.00 0.00 0.73 0.00 0.00 0.00 0.00 0.00 0.00 0.00 0.00 0.00 0.00 0.78 0.00 0.00 0.00 0.00 0.00 0.00 0.00 0.00 0.91 0.00 0.00 0.89 0.00 0.00 0.00 0.00 0.92 0.00 0.00 0.63 0.00 0.00 0.74 0.00 0.00 0.00 0.73 0.53 0.00 0.00 0.00 0.71 0.00 0.00 0.00 0.00 0.00 0.00 0.00 0.00 0.00 0.70 0.00 0.00 0.68 0.00 0.00 0.00 0.00 0.00 0.00 0.00 0.00 0.00 0.00 0.92 0.00 0.00 0.00 0.76 0.00 0.00 0.00 0.62 0.00 0.00 0.00 0.00 0.72 0.00 0.00 0.00 0.00 0.00 0.00 0.00 0.00 0.00 0.00 0.00
0.00 0.89 0.00 0.00 0.00 0.00 0.97 0.00 0.00 0.00 0.00 0.00 0.81 0.58 0.00 0.00 0.00 0.00 0.00 0.51 0.00 0.00 0.84 0.00 0.00 0.00 0.52 0.00 0.93 0.00 0.00 0.00 0.00 0.00 0.00 0.73 0.00 0.00 0.00 0.00 0.00 0.00 0.00 0.78 0.00 0.00 0.00 0.00 0.00 0.00 0.00 0.00 0.00 0.00 0.00 0.00 0.00 0.00 0.75 0.52 0.00 0.00 0.00 0.00 0.63 0.00 0.96 0.00 0.00 0.00 0.00 0.00 0.00 0.00 0.00 0.00 0.00 0.76 0.00 0.00 0.00 0.00 0.00 0.00 0.93 0.74 0.00 0.00 0.00 0.00 0.00 0.00 0.00 0.00 0.00 0.00 0.00 0.00 0.00 0.00 0.00 0.00 0.00 0.67 0.54 0.00 0.88 0.00 0.81 0.00 0.60 0.00 0.00 0.00 0.00 0.00 0.54 0.00 0.00 0.91 0.00 0.00 0.00 0.93 0.82 0.00 0.00 0.94 0.71 0.00 0.81 0.00 0.76 0.00 0.00 0.00 0.00 0.96 0.50 0.88
0.00 0.00 0.00 0.94 0.00 0.00 0.00 0.00 0.00 0.65 0.00 0.00 0.85 0.00 0.97 0.00 0.00 0.90 0.00 0.00 0.00 0.00 0.00 0.00 0.00 0.64 0.00 0.56 0.74 0.00 0.00 0.00 0.00 0.00 0.00 0.00 0.00 0.00 0.00 0.00 0.79 0.00 0.00 0.00 0.00 0.00 0.00 0.00 0.68 0.00 0.00 0.00 0.00 0.00 0.00 0.75 0.00 0.88 0.00 0.00 0.66 0.00 0.00 0.00 0.00 0.00 0.00 0.00 0.00 0.73 0.00 0.00 0.90 0.73 0.52 0.00 0.00 0.00 0.00 0.92 0.00 0.00 0.00 0.00 0.00 0.00 0.00 0.53 0.00 0.98 0.00 0.00 0.68 0.00 0.00 0.00 0.74 0.60 0.00 0.00 0.00 0.65 0.64 0.00 0.00 0.00 0.00 0.00 0.00 0.00 0.00 0.00 0.00 0.79 0.00 0.00 0.00 0.00 0.00 0.00 0.00 0.00 0.77 0.69 0.00 0.00 0.00 0.00 0.88 0.78 0.00 0.00 0.00 0.00 0.58 0.00 0.00 0.00 0.67 0.00
0.00 0.00 0.00 0.00 0.84 0.00 0.00 0.00 0.00 0.00 0.00 0.00 0.00 0.00 0.00 0.00 0.00 0.67 0.85 0.00 0.00 0.00 0.00 0.00 0.00 0.00 0.00 0.00 0.00 0.78 0.00 0.00 0.00 0.00 0.00 0.00 0.00 0.65 0.00 0.00 0.00 0.00 0.59 0.70 0.00 0.00 0.00 0.66 0.00 0.76 0.52 0.00 0.88 0.00 0.56 0.00 0.00 0.91 0.76 0.00 0.00 0.00 0.00 0.00 0.00 0.80 0.00 0.00 0.00 0.00 0.00 0.00 0.62 0.00 0.54 0.00 0.61 0.00 0.00 0.00 0.76 0.96 0.54 0.00 0.00 0.00 0.00 0.00 0.00 0.00 0.00 0.82 0.00 0.69 0.00 0.00 0.00 0.00 0.00 0.00 0.00 0.00 0.00 0.00 0.00 0.75 0.84 0.00 0.85 0.00 0.93 0.00 0.00 0.00 0.00 0.83 0.83 0.54 0.00 0.00 0.00 0.00 0.00 0.00 0.00 0.00 0.00 0.00 0.00 0.77 0.00 0.00 0.59 0.00 0.00 0.00 0.61 0.00 0.00 0.00
0.00 0.00 0.00 0.68 0.89 0.00 0.00 0.00 0.00 0.00 0.00 0.78 0.00 0.00 0.00 0.00 0.00 0.00 0.00 0.00 0.00 0.63 0.00 0.00 0.00 0.00 0.00 0.00 0.00 0.93 0.00 0.00 0.00 0.00 0.00 0.00 0.00 0.00 0.00 0.00 0.00 0.00 0.00 0.56 0.00 0.00 0.00 0.67 0.00 0.00 0.67 0.00 0.00 0.83 0.00 0.00 0.81 0.57 0.00 0.58 0.00 0.00 0.79 0.00 0.00 0.00 0.00 0.00 0.00 0.85 0.83 0.61 0.00 0.00 0.00 0.00 0.00 0.00 0.00 0.00 0.00 0.89 0.00 0.82 0.00 0.00 0.00 0.00 0.00 0.00 0.00 0.00 0.00 0.00 0.75 0.00 0.00 0.56 0.85 0.00 0.00 0.97 0.00 0.76 0.54 0.00 0.00 0.00 0.97 0.00 0.00 0.00 0.00 0.00 0.79 0.00 0.00 0.00 0.00 0.00 0.00 0.00 0.00 0.00 0.00 0.00 0.70 0.00 0.70 0.00 0.97 0.00 0.00 0.63 0.00 0.70 0.00 0.68 0.00 0.00
0.00 0.00 0.00 0.00 0.00 0.00 0.00 0.00 0.00 0.00 0.00 0.00 0.00 0.00 0.92 0.65 0.00 0.00 0.00 0.00 0.00 0.00 0.90 0.00 0.00 0.71 0.00 0.00 0.83 0.00 0.00 0.91 0.53 0.00 0.52 0.79 0.00 0.00 0.00 0.00 0.00 0.00 0.51 0.00 0.62 0.00 0.00 0.85 0.00 0.00 0.00 0.00 0.00 0.00 0.00 0.00 0.00 0.00 0.00 0.00 0.00 0.00 0.00 0.00 0.00 0.00 0.00 0.68 0.00 0.00 0.00 0.00 0.00 0.00 0.00 0.00 0.00 0.00 0.00 0.00 0.61 0.00 0.00 0.94 0.00 0.00 0.00 0.00 0.00 0.00 0.85 0.98 0.00 0.00 0.00 0.00 0.95 0.00 0.00 0.82 0.51 0.63 0.86 0.73 0.74 0.76 0.00 0.62 0.89 0.00 0.00 0.00 0.00 0.00 0.00 0.78 0.00 0.00 0.00 0.00 0.00 0.00 0.00 0.00 0.00 0.00 0.00 0.00 0.62 0.70 0.00 0.79 0.00 0.56 0.00 0.00 0.00 0.00 0.00 0.00
0.00 0.00 0.52 0.00 0.00 0.00 0.00 0.80 0.00 0.00 0.83 0.68 0.00 0.58 0.00 0.51 0.00 0.00 0.88 0.00 0.00 0.00 0.00 0.00 0.00 0.00 0.00 0.00 0.00 0.00 0.00 0.00 0.00 0.00 0.00 0.00 0.00 0.00 0.00 0.00 0.00 0.00 0.00 0.00 0.00 0.71 0.00 0.00 0.00 0.99 0.57 0.00 0.00 0.00 0.72 0.00 0.00 0.00 0.00 0.00 0.00 0.78 0.00 0.50 0.00 0.00 0.00 0.00 0.00 0.00 0.00 0.00 0.00 0.00 0.87 0.93 0.00 0.00 0.76 0.00 0.00 0.00 0.00 0.00 0.77 0.00 0.00 0.00 0.00 0.00 0.00 0.64 0.00 0.00 0.00 0.83 0.00 0.00 0.00 0.00 0.88 0.68 0.00 0.00 0.00 0.00 0.00 0.00 0.79 0.00 0.00 0.00 0.58 0.00 0.00 0.00 0.98 0.93 0.00 0.00 0.00 0.00 0.75 0.00 0.00 0.00 0.63 0.87 0.00 0.00 0.96 0.00 0.59 0.93 0.00 0.69 0.00 0.00 0.00 0.00
0.00 0.00 0.00 0.00 0.00 0.00 0.00 0.00 0.68 0.00 0.00 0.00 0.00 0.00 0.00 0.00 0.00 0.59 0.00 0.00 0.00 0.00 0.50 0.00 0.96 0.00 0.00 0.68 0.80 0.93 0.00 0.00 0.64 0.00 0.00 0.89 0.78 0.00 0.00 0.00 0.83 0.81 0.74 0.52 0.00 0.00 0.70 0.00 0.00 0.00 0.00 0.00 0.00 0.50 0.00 0.00 0.00 0.00 0.00 0.00 0.00 0.00 0.00 0.00 0.00 0.00 0.00 0.00 0.00 0.00 0.00 0.00 0.00 0.00 0.00 0.00 0.00 1.00 0.00 0.00 0.00 0.00 0.92 0.00 0.00 0.00 0.73 0.00 0.00 0.00 0.00 0.97 0.00 0.00 0.00 0.00 0.86 0.00 0.00 0.00 0.00 0.00 0.00 0.00 0.00 0.66 0.00 0.00 0.00 0.71 0.00 0.00 0.00 0.00 0.58 0.00 0.00 0.00 0.63 0.00 0.60 0.00 0.00 0.00 0.00 0.00 0.00 0.00 0.00 0.00 0.00 0.00 0.00 0.00 0.00 0.00 0.90 0.00 0.00 0.00
0.00 0.84 0.00 0.00 0.00 0.00 0.86 0.00 0.00 0.00 0.00 0.00 0.00 0.00 0.00 0.00 0.00 0.00 0.00 0.00 0.66 0.00 0.94 0.00 0.00 0.65 0.00 0.68 0.00 0.00 0.00 0.00 0.00 0.00 0.53 0.00 0.70 0.00 0.55 0.63 0.00 0.00 0.00 0.00 0.00 0.00 0.00 0.00 0.56 0.00 0.00 0.78 0.00 0.00 0.91 0.63 0.00 0.79 0.00 0.00 0.00 0.00 0.00 0.00 0.59 0.00 0.00 0.89 0.74 0.80 0.00 0.00 0.00 0.72 0.00 0.00 0.00 0.00 0.00 0.00 0.00 0.00 0.00 0.00 0.00 0.00 0.74 0.60 0.00 0.00 0.00 0.00 0.00 0.00 0.78 0.00 0.00 0.00 0.00 0.00 0.00 0.00 0.00 0.00 0.00 0.00 0.00 0.00 0.56 0.00 0.70 0.00 0.00 0.69 0.00 0.00 0.00 0.00 0.00 0.00 0.00 0.00 0.00 0.00 0.00 0.00 0.00 0.00 0.00 0.00 0.00 0.00 0.00 0.00 0.00 0.00 0.00 0.68 0.00 0.97
0.00 0.66 0.00 0.00 0.00 0.00 0.00 0.00 0.00 0.00 0.00 0.74 0.59 0.77 0.00 0.00 0.91 0.00 0.00 0.00 0.00 0.00 0.00 0.00 0.00 0.00 0.00 0.66 0.00 0.00 0.00 0.81 0.00 0.00 0.86 0.00 0.00 0.72 0.00 0.00 0.00 0.56 0.00 0.00 0.61 0.00 0.00 0.84 0.00 0.00 0.00 0.99 0.00 0.00 0.00 0.56 0.00 0.00 0.00 0.00 0.81 0.00 0.00 0.00 0.52 0.00 0.83 0.00 0.94 0.92 0.00 0.91 0.00 0.00 0.00 0.00 0.72 0.00 0.60 0.00 0.00 0.00 0.00 0.00 0.93 1.00 0.72 0.93 0.00 0.00 0.88 0.00 0.00 0.00 0.00 0.00 0.00 0.00 0.00 0.00 0.96 0.00 0.00 0.00 0.00 0.00 0.00 0.86 0.76 0.00 0.78 0.00 0.81 0.00 0.85 0.77 0.00 0.00 0.00 0.00 0.00 0.00 0.00 0.00 0.00 0.00 0.00 0.00 0.00 0.00 0.00 0.00 0.87 0.00 0.76 0.00 0.00 0.00 0.00 0.00
0.00 0.00 0.00 0.00 0.00 0.52 0.81 0.00 0.56 0.00 0.00 0.00 0.00 0.00 0.78 0.00 0.00 0.00 0.00 0.00 0.00 0.00 0.00 0.73 0.85 0.00 0.00 0.00 0.00 0.00 0.64 0.00 0.00 0.00 0.89 0.00 0.00 0.53 0.00 0.67 0.00 0.78 0.00 0.00 0.00 0.00 0.90 0.58 0.00 0.00 0.00 0.00 0.00 0.79 0.00 0.00 0.00 0.00 0.00 0.00 0.00 0.00 0.53 0.00 0.00 0.00 0.86 0.00 0.00 0.56 0.00 0.00 0.52 0.63 0.00 0.91 0.89 0.00 0.00 0.00 0.00 0.80 0.00 0.00 0.00 0.00 0.00 0.00 0.00 0.70 0.00 0.65 0.00 0.00 0.81 0.00 0.00 0.00 0.85 0.00 0.00 0.00 0.00 0.00 0.99 0.00 0.00 0.00 0.00 0.00 0.00 0.00 0.00 0.00 0.00 0.00 0.00 0.91 0.00 0.84 0.00 0.00 0.00 0.00 0.00 0.82 0.84 0.00 0.00 0.00 0.00 0.00 0.00 0.00 0.00 0.00 0.00 0.00 0.00 0.92
0.00 0.99 0.00 0.00 0.00 0.00 0.00 0.57 0.92 0.00 0.00 0.97 0.00 0.60 0.98 0.00 0.00 0.75 0.00 0.00 0.00 0.00 0.00 0.00 0.98 0.00 0.00 0.00 0.84 0.91 0.00 0.00 0.00 0.00 0.89 0.55 0.00 0.00 0.50 0.00 0.89 0.00 0.00 0.00 0.00 0.00 0.62 0.51 0.86 0.90 0.76 0.00 0.00 0.00 0.00 0.78 0.00 0.00 0.00 0.00 0.00 0.00 0.00 0.00 0.00 0.74 0.00 0.55 0.00 0.62 0.72 0.00 0.84 0.00 0.95 0.88 0.00 0.00 0.00 0.00 0.00 0.00 0.00 0.00 0.97 0.83 0.00 0.00 0.00 0.00 0.65 0.73 0.00 0.00 0.86 0.00 0.00 0.00 0.00 0.00 0.00 0.00 0.76 0.69 0.00 0.51 0.00 0.00 0.00 0.00 0.00 0.00 0.00 0.00 0.00 0.00 0.00 0.76 0.00 0.00 0.00 0.00 0.00 0.62 0.00 0.00 0.00 0.00 0.00 0.70 0.00 0.00 0.00 0.00 0.00 0.00 0.00 0.00 0.00 0.00
0.52 0.00 0.51 0.00 0.00 0.51 0.00 0.75 0.00 0.00 0.74 0.00 0.00 0.00 0.00 0.00 0.00 0.00 0.00 0.00 0.51 0.00 0.00 0.00 0.00 0.00 0.63 0.00 0.00 0.00 0.90 0.00 0.00 0.00 0.00 0.00 0.96 0.00 0.00 0.00 0.00 0.00 0.00 0.00 0.00 0.64 0.00 0.00 0.94 0.55 0.00 0.00 0.00 0.00 0.95 0.00 0.00 0.00 0.00 0.00 0.00 0.00 0.00 0.00 0.00 0.00 0.00 0.75 0.51 0.00 0.00 0.00 0.00 0.56 0.94 0.00 0.00 0.00 0.00 0.00 0.00 0.00 0.00 0.00 0.56 0.57 0.00 0.00 0.69 0.00 0.00 0.00 0.00 0.00 0.75 0.00 0.90 0.00 0.00 0.61 0.00 0.00 0.00 0.00 0.00 0.00 0.00 0.00 0.00 0.00 0.00 0.00 0.00 0.00 0.00 0.57 0.91 0.00 0.00 0.76 0.00 0.00 0.00 0.00 0.00 0.66 0.00 0.00 0.68 0.00 0.00 0.59 0.00 0.00 0.00 0.00 0.00 0.00 0.00 0.00
0.00 0.67 0.00 0.00 0.00 0.00 0.00 0.76 0.00 0.00 0.00 0.00 0.00 0.00 0.00 0.00 0.00 0.00 0.00 0.00 0.00 0.00 0.00 0.00 0.97 0.00 0.52 0.00 0.61 0.87 0.00 0.00 0.00 0.00 0.74 0.70 0.00 0.00 0.00 0.00 0.00 0.76 0.00 0.00 0.65 0.00 0.00 0.00 0.99 0.00 0.00 0.00 0.00 0.00 0.00 0.00 0.55 0.82 0.00 0.94 0.00 0.00 0.69 0.00 0.00 0.00 0.00 0.00 0.00 0.00 0.00 0.00 0.65 0.00 0.00 0.00 0.00 0.00 0.92 0.00 0.00 0.60 0.00 0.00 0.00 0.00 0.00 0.00 0.00 0.00 0.00 0.00 0.68 0.00 0.67 0.00 0.00 0.00 0.00 0.00 0.00 0.00 0.00 0.00 0.00 0.78 0.00 0.00 0.00 0.00 0.00 0.00 0.80 0.00 0.92 0.00 0.99 0.00 0.00 0.76 0.00 0.00 0.00 0.00 0.75 0.00 0.00 0.00 0.00 0.00 0.00 0.00 0.00 0.00 0.00 0.00 0.00 0.93 0.00 0.00
0.00 0.78 0.87 0.74 0.53 0.00 0.88 0.00 0.00 0.00 0.00 0.80 0.00 0.00 0.00 0.00 0.00 0.00 0.00 0.67 0.00 0.00 0.00 0.00 0.00 0.00 0.00 0.00 0.00 0.00 0.99 0.00 0.94 0.88 0.00 0.00 0.00 0.00 0.88 0.00 0.58 0.00 0.70 0.00 0.00 0.00 0.00 0.60 0.00 0.00 0.00 0.00 0.00 0.75 0.00 0.00 0.00 0.00 0.00 0.82 0.00 0.00 0.61 0.00 0.00 0.00 0.00 0.82 0.00 0.00 0.75 0.00 0.00 0.00 0.00 0.00 0.00 0.98 0.93 0.00 0.00 0.00 0.00 0.00 0.00 0.51 0.00 0.00 0.00 0.00 0.00 0.00 0.00 0.50 0.00 0.00 0.00 0.00 1.00 0.75 0.00 0.00 0.00 0.00 0.52 0.00 0.00 0.00 0.00 0.00 0.80 0.00 0.00 0.00 0.00 0.88 0.66 0.00 0.00 0.00 0.00 0.00 0.00 0.88 0.67 0.00 0.00 0.00 0.00 0.00 0.00 0.57 0.00 0.00 0.00 0.00 0.89 0.00 0.65 0.00
0.00 0.87 0.00 0.65 0.00 0.00 0.00 0.00 0.99 0.97 0.00 0.70 0.66 0.00 0.00 0.91 0.00 0.00 0.00 0.77 0.92 0.00 0.00 0.00 0.00 0.00 0.00 0.00 0.00 0.00 0.00 0.00 0.00 0.00 0.92 0.00 0.00 0.00 0.00 0.00 0.00 0.00 0.00 0.97 0.82 0.00 0.00 0.00 0.00 0.00 0.00 0.00 0.00 0.00 0.00 0.00 0.00 0.77 0.00 0.61 0.00 0.00 0.00 0.00 0.70 0.00 0.58 0.00 0.53 0.00 0.00 0.00 0.00 0.00 0.00 0.84 0.00 0.64 0.00 0.00 0.00 0.64 0.62 0.00 0.00 0.00 0.00 0.00 0.00 0.85 0.76 0.00 0.00 0.00 0.00 0.00 0.00 0.95 0.00 0.00 0.00 0.00 0.00 0.00 0.00 0.00 0.00 0.62 0.00 0.00 0.77 0.00 0.00 0.00 0.00 0.84 0.00 0.00 0.00 0.55 0.00 0.00 0.00 0.55 0.00 0.00 0.00 0.00 0.70 0.77 0.00 0.00 0.00 0.00 0.55 0.00 0.00 0.00 0.00 0.94
0.00 0.00 0.00 0.00 0.76 0.94 0.00 0.66 0.00 0.00 0.00 0.00 0.00 0.00 0.77 0.00 0.00 0.00 0.94 0.00 0.00 0.98 0.91 0.00 0.81 0.00 0.00 0.00 0.69 0.00 0.00 0.85 0.00 0.00 0.00 0.59 0.00 0.00 0.00 0.00 0.00 0.91 0.00 0.00 0.00 0.00 0.00 0.00 0.60 0.80 0.00 0.92 0.00 0.00 0.00 0.00 0.00 0.00 0.73 0.73 0.83 0.00 0.00 0.00 0.00 0.00 0.00 0.70 0.00 0.00 0.00 0.00 0.00 0.00 0.00 0.00 0.00 0.74 0.00 0.00 0.00 0.00 0.00 0.65 0.00 0.96 0.00 0.00 0.94 0.96 0.00 0.78 0.71 0.94 0.00 0.00 0.00 0.00 0.00 0.00 0.78 0.00 0.00 0.00 0.85 0.61 0.00 0.00 0.94 0.00 0.00 0.00 0.95 0.81 0.00 0.00 0.00 0.00 0.64 0.00 0.00 0.00 0.00 0.00 0.53 0.81 0.00 0.00 0.00 0.81 0.00 0.00 0.00 0.00 0.00 0.61 0.00 0.00 0.00 0.00
0.00 0.00 0.00 0.00 0.00 0.00 0.00 0.00 0.00 0.00 0.00 0.69 0.00 0.00 0.00 0.00 0.00 0.54 0.00 0.00 0.00 0.67 0.00 0.00 0.00 0.00 0.00 0.00 0.00 0.00 0.00 0.00 0.69 0.00 0.00 0.00 0.00 0.72 0.77 0.00 0.75 0.00 0.00 0.00 0.00 0.00 0.00 0.00 0.00 0.98 0.59 0.00 0.99 0.92 0.62 0.64 0.00 0.00 0.00 0.00 0.00 0.00 0.51 0.00 0.00 0.67 0.00 0.00 0.00 0.00 0.00 0.00 0.00 0.90 0.00 0.00 0.00 0.00 0.00 0.00 0.00 0.00 0.00 0.54 0.00 0.00 0.00 0.00 0.00 0.00 0.00 0.61 0.00 0.00 0.00 0.00 0.00 0.67 0.00 0.00 0.00 0.00 0.00 0.00 0.00 0.57 0.00 0.00 0.00 0.89 0.00 0.00 0.00 0.00 0.00 0.00 0.00 0.00 0.00 0.00 0.00 0.60 0.00 0.00 0.00 0.61 0.00 0.00 0.00 0.00 0.95 0.71 0.99 0.00 0.00 0.00 0.54 0.00 0.00 0.00
0.00 0.00 0.00 0.00 0.82 0.00 0.00 0.81 0.81 0.00 0.00 0.00 0.00 0.00 0.61 0.00 0.72 0.96 0.00 0.86 0.56 0.00 0.00 0.00 0.00 0.00 0.00 0.69 0.52 0.95 0.00 0.00 0.00 0.56 0.00 0.00 0.00 0.00 0.00 0.00 0.00 0.00 0.00 0.00 0.00 0.00 0.69 0.00 0.00 0.00 0.00 0.00 0.00 0.00 0.00 0.00 0.00 0.00 0.00 0.00 0.00 0.62 0.00 0.81 0.00 0.00 0.00 0.00 0.00 0.79 0.00 0.00 0.78 0.00 0.00 0.00 0.00 0.00 0.00 0.00 0.00 0.00 0.00 0.00 0.00 0.00 0.00 0.00 0.00 0.00 1.00 0.00 0.00 0.78 0.00 0.00 0.00 0.00 0.00 0.00 0.65 0.00 0.00 0.00 0.00 0.00 0.00 0.00 0.95 0.00 0.00 0.00 0.00 0.82 0.00 0.00 0.00 0.00 0.54 0.90 0.78 0.00 0.00 0.00 0.00 0.61 0.00 0.00 0.00 0.67 0.00 0.66 0.00 0.00 0.00 0.00 0.00 0.00 0.00 0.00
0.00 0.00 0.00 0.00 0.00 0.00 0.00 0.62 0.00 0.00 0.00 0.00 0.00 0.00 0.62 0.00 0.00 0.00 0.00 0.00 0.00 0.00 0.00 0.00 0.00 0.00 0.00 0.00 0.91 0.00 0.00 0.00 0.00 0.71 0.00 0.00 0.00 0.00 0.00 0.84 0.00 0.00 0.00 0.00 0.88 0.00 0.00 0.65 0.86 0.00 0.00 0.00 0.00 0.00 0.00 0.00 0.00 0.00 0.00 0.74 0.00 0.00 0.76 0.00 0.00 0.00 0.00 0.00 0.75 0.00 0.00 0.89 0.00 0.00 0.00 0.51 0.00 0.00 0.00 0.53 0.00 0.95 0.98 0.00 0.00 0.00 0.00 0.75 0.00 0.00 0.00 0.00 0.77 0.00 0.00 0.00 0.00 0.73 0.00 0.86 0.00 0.00 0.00 0.00 0.00 0.00 0.00 0.00 0.00 0.97 0.00 0.00 0.00 0.00 0.00 0.00 0.00 0.00 0.00 0.00 0.99 0.56 0.00 0.00 0.00 0.73 0.71 0.00 0.00 0.00 0.92 0.00 0.00 0.00 0.60 0.00 0.00 0.00 0.00 0.63
0.00 0.00 0.96 0.00 0.65 0.00 0.53 0.69 0.00 0.65 0.87 0.00 0.00 0.00 0.00 0.86 0.97 0.00 0.00 0.00 0.00 0.90 0.63 0.00 0.00 0.00 0.00 0.00 0.00 0.00 0.00 0.00 0.00 0.00 0.64 0.00 0.61 0.00 0.77 0.00 0.71 0.00 1.00 0.89 0.00 0.94 0.00 0.00 0.00 0.00 0.00 0.71 0.00 0.00 0.72 0.00 0.00 0.00 0.83 0.00 0.00 0.00 0.00 0.00 0.00 0.58 0.76 0.00 0.00 0.00 0.92 0.00 0.00 0.00 0.00 0.00 0.74 0.65 0.00 0.00 0.00 0.00 0.00 0.81 0.73 0.00 0.00 0.00 0.00 0.00 0.00 0.90 0.00 0.00 0.78 0.00 0.00 0.00 0.00 0.00 0.64 0.00 0.00 0.00 0.00 0.00 0.00 0.00 0.00 0.00 0.00 0.78 0.00 0.00 0.00 0.00 0.96 0.00 0.93 0.00 0.00 0.00 0.00 0.00 0.00 0.00 0.00 0.00 0.00 0.79 0.64 0.00 0.00 0.00 0.00 0.00 0.00 0.00 0.00 0.00
0.00 0.00 0.00 0.00 0.00 0.50 0.00 0.00 0.00 0.00 0.00 0.00 0.00 0.00 0.82 0.00 0.00 0.00 0.75 0.00 0.96 0.00 0.00 0.00 0.00 0.00 0.00 0.89 0.00 0.00 0.00 0.00 0.00 0.56 0.00 0.00 0.87 0.00 0.00 0.00 0.65 0.00 0.00 0.00 0.00 0.60 0.00 0.00 0.00 0.00 0.00 0.81 0.77 0.00 0.00 0.00 0.00 0.00 0.00 0.00 0.00 0.74 0.00 0.00 0.00 0.98 0.87 0.00 0.00 0.00 0.00 0.00 1.00 0.00 0.00 0.00 0.69 0.00 0.00 0.64 0.00 0.00 0.00 0.00 0.00 0.94 0.00 0.00 0.00 0.00 0.88 0.00 0.00 0.00 0.00 0.00 0.00 0.85 0.00 0.00 0.00 0.00 0.00 0.00 0.90 0.00 0.00 0.00 0.00 0.00 0.98 0.00 0.00 0.97 0.98 0.00 0.00 0.88 0.00 0.00 0.00 0.00 0.00 0.00 0.00 0.00 0.00 0.00 0.00 0.00 0.00 0.00 0.00 0.00 0.00 0.62 0.00 0.00 0.00 0.00
0.00 0.00 0.00 0.00 0.00 0.00 0.00 0.85 0.00 0.00 0.00 0.00 0.00 0.00 0.00 0.00 0.00 0.00 0.00 0.00 0.00 0.00 0.00 0.00 0.00 0.00 0.00 0.00 0.00 0.00 0.00 0.00 0.61 0.00 0.00 0.00 0.00 0.78 0.00 0.00 0.66 0.00 0.00 0.00 0.00 0.00 0.00 0.00 0.00 0.00 0.51 1.00 0.00 0.00 0.00 0.00 0.00 0.00 0.85 0.00 0.00 0.00 0.00 0.00 0.00 0.00 0.00 0.94 0.51 0.00 0.00 0.00 0.00 0.00 0.00 0.00 0.00 0.95 0.85 0.00 0.00 0.00 0.00 0.00 0.00 0.88 0.84 0.00 0.00 0.59 0.00 0.00 0.52 0.00 0.00 0.00 0.00 0.00 0.00 0.00 0.00 0.00 0.00 0.00 0.00 0.00 0.00 0.00 0.00 0.59 0.00 0.00 0.92 0.00 0.76 0.00 0.64 0.00 0.00 0.00 0.00 0.00 0.85 0.00 0.93 0.00 0.00 0.00 0.89 0.91 0.80 0.53 0.75 0.96 0.00 0.00 0.00 0.00 0.00 0.00
0.00 0.00 0.00 0.00 0.00 0.00 0.00 0.00 0.00 0.92 0.00 0.00 0.00 0.00 0.78 0.00 0.00 0.00 0.00 0.00 0.00 0.00 0.00 0.00 0.00 0.00 0.00 0.00 0.00 0.59 0.00 0.00 0.00 0.00 0.92 0.00 0.00 0.87 0.00 0.00 0.62 0.00 0.00 0.00 0.00 0.00 0.00 0.00 0.00 0.00 0.00 0.00 0.88 0.00 0.00 0.77 0.00 0.77 0.00 0.00 0.62 0.00 0.00 0.00 0.00 0.00 0.80 0.00 0.00 0.98 0.00 0.58 0.00 0.00 0.00 0.00 0.00 0.78 0.00 0.00 0.85 0.00 0.00 0.00 0.00 0.00 0.00 0.00 0.00 0.00 0.00 0.70 0.00 0.00 0.95 0.00 0.00 0.00 0.00 0.00 0.00 0.00 0.60 0.00 0.98 0.52 0.69 0.00 0.00 0.00 0.00 0.00 0.83 0.76 0.90 0.00 0.00 0.00 0.66 0.00 0.00 0.00 0.00 0.00 0.61 0.00 0.69 0.00 0.00 0.67 0.00 0.93 0.00 0.00 0.00 0.00 0.00 0.00 0.00 0.00
0.00 0.00 0.00 0.00 0.00 0.00 0.85 0.00 0.95 0.00 0.00 0.00 0.00 0.00 0.00 0.00 0.00 0.00 0.00 0.00 0.00 0.00 0.95 0.00 0.00 0.00 0.00 0.95 0.57 0.62 0.62 0.52 0.00 0.00 0.92 0.00 0.96 0.00 0.55 0.00 0.00 0.00 0.00 0.00 0.00 0.61 0.00 0.00 0.00 0.00 0.74 0.00 0.00 0.00 0.00 0.00 0.00 0.00 0.00 0.00 0.00 0.00 0.84 0.00 0.91 0.00 0.00 0.00 0.00 0.00 0.83 0.00 0.00 0.00 0.00 0.00 0.00 0.00 0.00 0.00 0.00 0.00 0.98 0.00 0.63 0.00 0.00 0.00 0.81 0.00 0.00 0.00 0.00 0.00 0.00 0.00 0.00 0.00 0.64 0.00 0.00 0.00 0.73 0.00 0.00 0.00 0.00 0.00 0.00 0.00 0.00 0.00 0.00 0.96 0.00 0.69 0.00 0.00 0.00 0.00 0.00 0.00 0.00 0.00 0.00 0.00 0.00 0.00 0.00 0.00 0.00 0.97 0.00 0.00 0.85 0.00 0.00 0.00 0.86 0.61
0.71 0.00 0.00 0.00 0.00 0.00 0.00 0.57 0.00 0.00 0.00 0.88 0.00 0.98 0.96 0.00 0.00 0.00 0.57 0.00 0.00 0.00 0.00 0.00 0.00 0.00 0.00 0.00 0.00 0.00 0.00 0.00 0.00 0.00 0.00 0.00 0.00 0.54 0.00 0.00 0.00 0.66 0.81 0.00 0.00 0.00 0.54 0.00 0.00 0.70 0.00 0.00 0.00 0.00 0.00 0.00 0.00 0.84 0.00 0.00 0.00 0.00 0.00 0.00 0.00 0.00 0.00 0.53 0.00 0.68 0.00 0.00 0.00 0.00 0.00 0.00 0.00 0.00 0.81 0.00 0.00 0.00 0.00 0.00 0.88 0.00 0.00 0.00 0.00 0.58 0.00 0.00 0.00 0.00 0.00 0.59 0.00 0.00 0.82 0.70 0.00 0.00 0.00 0.00 0.00 0.00 0.00 0.87 0.00 0.00 0.00 0.00 0.00 0.00 0.00 0.91 0.00 0.00 0.00 0.00 0.00 0.00 0.00 0.00 0.00 0.00 0.00 0.00 0.00 0.00 0.00 0.00 0.00 0.78 0.00 0.00 0.00 0.00 0.00 0.00
0.00 0.00 0.00 0.00 0.00 0.00 0.00 0.00 0.97 0.00 0.00 0.00 0.00 0.00 0.99 0.00 0.92 0.00 0.81 0.72 0.00 0.83 0.00 0.00 0.00 0.90 0.00 0.00 0.00 0.71 0.00 0.56 0.00 0.57 0.00 0.00 0.00 0.00 0.00 0.76 0.00 0.00 0.87 0.00 0.00 0.00 0.00 0.00 0.00 0.00 0.00 0.00 0.97 0.00 0.00 0.00 0.75 0.00 0.00 0.00 0.54 0.00 0.76 0.00 0.76 0.69 0.00 0.00 0.00 0.00 0.00 0.00 0.00 0.00 0.00 0.00 0.00 0.00 0.00 0.00 0.00 0.00 0.00 0.00 0.00 0.00 0.00 0.00 0.00 0.00 0.00 0.00 0.88 0.99 0.00 0.00 0.00 0.81 0.00 0.00 0.00 0.00 0.91 0.00 0.00 0.00 0.00 0.00 0.00 0.00 0.00 0.00 0.00 0.00 0.83 0.00 0.00 0.00 0.00 0.00 0.62 0.00 0.00 0.88 0.00 0.00 0.80 0.00 0.00 0.00 0.92 0.00 0.00 0.81 0.00 0.00 0.00 0.00 0.00 0.00
0.00 0.00 0.00 0.00 0.00 0.00 0.00 0.79 0.00 0.85 0.00 0.83 0.93 0.90 0.91 0.00 0.00 0.00 0.00 0.00 0.54 0.00 0.00 0.00 0.00 0.88 0.00 0.00 0.00 0.00 0.00 0.00 0.00 0.00 0.00 0.00 0.00 0.00 0.00 0.00 0.00 0.00 0.51 0.80 0.76 0.00 0.00 0.00 0.00 0.00 0.00 0.57 0.00 0.55 0.00 0.00 0.00 0.00 0.63 0.00 0.00 0.00 0.00 0.00 0.00 0.00 0.00 0.00 0.00 0.00 0.00 0.00 0.00 0.00 0.00 0.84 0.00 0.00 0.00 0.79 0.00 0.00 0.00 0.83 0.80 0.88 0.89 0.00 0.00 0.00 0.00 0.00 0.99 0.00 0.00 0.00 0.96 0.00 0.91 0.00 0.00 0.59 0.00 0.00 0.00 0.00 0.00 0.00 0.00 0.77 0.00 0.00 0.00 0.00 0.00 0.85 0.00 0.00 0.00 0.00 0.00 0.77 0.00 0.00 0.00 0.00 0.00 0.00 0.00 0.00 0.66 0.00 0.00 0.92 0.00 0.00 0.96 0.55 0.00 0.00
0.00 0.00 0.00 0.00 0.00 0.94 0.00 0.74 0.87 0.55 0.00 0.00 0.00 0.74 0.70 0.80 0.00 0.81 0.00 0.00 0.00 0.00 0.64 0.00 0.00 0.00 0.00 0.00 0.57 0.00 0.00 0.55 0.00 0.00 0.00 0.88 0.00 0.00 0.76 0.95 0.71 0.00 0.00 0.90 0.00 0.00 0.00 0.00 0.00 0.00 0.00 0.00 0.00 0.96 0.00 0.00 0.00 0.00 0.70 0.96 0.00 0.00 0.58 0.00 0.00 0.00 0.00 0.00 0.00 0.00 0.00 0.77 0.00 0.00 0.00 0.58 0.00 0.00 0.00 0.00 0.82 0.00 0.00 0.00 0.55 0.00 0.00 0.00 0.00 0.00 0.00 0.00 0.81 0.60 0.50 0.00 0.85 0.00 0.00 0.00 0.00 0.00 0.00 0.87 0.00 0.95 0.00 0.00 0.00 0.00 0.00 0.75 0.00 0.00 0.00 0.00 0.00 0.00 0.00 0.00 0.00 0.93 0.00 0.00 0.00 0.00 0.74 0.00 0.00 0.74 0.00 0.00 0.89 0.00 0.00 0.00 0.60 0.00 0.00 0.00
0.00 0.00 0.00 0.00 0.00 0.00 0.62 0.00 0.00 0.00 0.54 0.82 0.00 0.90 0.00 0.00 0.00 0.00 0.00 0.00 0.60 0.00 0.68 0.00 0.70 0.94 0.00 0.00 0.97 0.00 0.00 0.00 0.72 0.00 0.51 0.90 0.00 0.52 0.00 0.95 0.00 0.00 0.00 0.00 0.00 0.65 0.00 0.00 0.81 0.00 0.00 0.00 0.00 0.00 0.00 0.00 0.00 0.00 0.00 0.00 0.95 0.00 0.00 0.00 0.00 0.00 0.00 0.00 0.00 0.95 0.00 0.00 0.00 0.00 0.00 0.92 0.00 0.00 0.00 0.62 0.00 0.00 0.00 0.00 0.83 0.00 0.93 0.56 0.00 0.00 0.00 0.52 0.00 0.92 0.00 0.70 0.00 0.00 0.00 0.00 0.66 0.70 0.00 0.80 0.55 0.00 0.00 0.00 0.00 0.00 0.63 0.61 0.76 0.91 0.00 0.72 0.00 0.00 0.00 0.00 0.00 0.00 0.78 0.00 0.60 0.00 0.61 0.00 0.00 0.00 0.00 0.77 0.00 0.00 0.00 0.00 0.00 0.00 0.00 0.70
0.00 0.56 0.00 0.00 0.00 0.00 0.00 0.00 0.00 0.00 0.00 0.00 0.00 0.00 0.00 0.00 0.00 0.76 0.99 0.00 0.00 0.00 0.65 0.56 0.00 0.00 0.00 0.00 0.00 0.00 0.00 0.00 0.00 0.97 0.00 0.00 0.00 0.00 0.00 0.00 0.00 0.91 0.00 0.00 0.00 0.00 0.00 0.00 0.94 0.92 0.00 0.00 0.89 0.00 0.00 0.00 0.00 0.00 0.61 0.00 0.00 0.94 0.00 0.00 0.00 0.00 0.63 0.00 0.00 0.00 0.00 0.00 0.96 0.00 0.00 0.97 0.96 0.00 0.00 0.00 0.00 0.00 0.00 0.99 0.72 0.65 0.00 0.00 0.00 0.00 0.00 0.52 0.53 0.00 0.00 0.00 0.62 0.00 0.00 0.81 0.00 0.00 0.00 0.00 0.00 0.00 0.00 0.00 0.00 0.00 0.98 0.00 0.00 0.88 0.50 0.00 0.00 0.00 0.00 0.69 0.00 0.53 0.00 0.96 0.00 0.00 0.00 0.00 0.00 0.89 0.00 0.00 0.00 0.00 0.00 0.00 0.00 0.00 0.00 0.00
0.55 0.00 0.00 0.00 0.00 0.99 0.00 0.00 0.00 0.54 0.00 0.00 0.00 0.87 0.00 0.00 0.00 0.00 0.00 0.00 0.00 0.00 0.00 0.70 0.00 0.00 0.69 0.00 0.00 0.00 0.00 0.00 0.00 0.76 0.00 0.00 0.94 0.00 0.00 0.00 0.00 0.00 0.00 0.00 0.00 0.00 0.00 0.50 0.74 0.00 0.00 0.00 0.82 0.00 0.00 0.00 0.91 0.00 0.00 0.00 0.00 0.00 0.00 0.00 0.00 0.00 0.60 0.00 0.00 0.00 0.00 0.00 0.00 0.00 0.00 0.00 0.72 0.56 0.00 0.60 0.00 0.00 0.00 0.00 0.00 0.00 0.00 0.67 0.00 0.00 0.00 0.56 0.00 0.72 0.00 0.83 0.00 0.00 0.00 0.58 0.00 0.00 0.00 0.94 0.00 0.00 0.59 0.87 0.00 0.00 0.00 0.00 0.00 1.00 0.00 0.59 0.00 0.74 0.00 0.00 0.00 0.00 0.68 0.00 0.00 0.00 0.00 0.00 0.94 0.00 0.00 0.61 0.00 0.00 0.00 0.00 0.00 0.00 0.00 0.00
0.00 0.00 0.61 0.00 0.00 0.81 0.52 0.00 0.00 0.00 0.00 0.78 0.00 0.00 0.86 0.00 0.00 0.59 0.00 0.00 0.00 0.96 0.84 0.00 0.00 0.00 0.87 0.00 0.00 0.00 0.00 0.99 0.00 0.00 0.00 0.57 0.75 0.00 0.96 0.74 0.00 0.00 0.00 0.00 0.00 0.00 0.00 0.00 0.00 0.00 0.00 0.00 0.00 0.00 0.00 0.00 0.82 0.00 0.00 0.70 0.00 0.00 0.00 0.00 0.00 0.78 0.00 0.00 0.00 0.00 0.88 0.00 0.00 0.00 0.00 0.00 0.00 0.79 0.72 0.00 0.00 0.00 0.00 0.90 0.80 0.00 0.00 0.96 0.61 0.60 0.70 0.00 0.53 0.98 0.00 0.00 0.00 0.97 0.00 0.00 0.00 0.00 0.00 0.00 0.00 0.91 0.00 0.00 0.74 0.91 0.80 0.00 0.00 0.52 0.00 0.00 0.00 0.00 0.86 0.00 0.00 0.00 0.00 0.00 0.00 0.00 0.86 0.00 0.00 0.00 0.00 0.00 0.00 0.00 0.00 0.00 0.00 0.00 0.00 0.00
0.61 0.79 0.00 0.96 0.00 0.00 0.96 0.00 0.00 0.00 0.00 0.81 0.00 0.00 0.00 0.00 0.00 0.00 0.00 0.90 0.00 0.00 0.73 0.00 0.00 0.00 0.00 0.63 0.00 0.00 0.00 0.54 0.70 0.00 0.00 0.60 0.00 0.00 0.00 0.00 0.96 0.65 0.69 0.00 0.00 0.00 0.00 0.00 0.00 0.83 0.00 0.60 0.00 0.00 0.00 0.00 0.00 0.00 0.00 0.00 0.00 0.00 0.00 0.93 0.00 0.00 0.00 0.00 0.00 0.00 0.00 0.82 0.64 0.00 0.00 0.00 0.00 0.00 0.00 0.00 0.00 0.00 0.00 0.59 0.00 0.00 0.00 0.00 0.70 0.00 0.00 0.00 0.57 0.00 0.00 0.70 0.56 0.00 0.00 0.00 0.00 0.00 0.00 0.00 0.00 0.76 0.94 0.67 0.00 0.00 0.00 0.00 0.00 0.91 0.54 0.00 0.00 0.00 0.00 0.00 0.62 0.00 0.00 0.90 0.00 0.00 0.72 0.53 0.98 0.00 0.00 0.00 0.00 0.00 0.00 0.00 0.00 0.00 0.00 0.00
0.00 0.00 0.67 0.00 0.00 0.00 0.00 0.56 0.00 0.00 0.00 0.00 0.77 0.00 0.63 0.00 0.00 0.72 0.00 0.85 0.00 0.00 0.00 0.00 0.00 0.00 0.62 0.72 0.00 0.00 0.00 0.61 0.00 0.00 0.00 0.00 0.00 0.00 0.00 0.00 0.00 0.00 0.00 0.00 0.00 0.00 0.00 0.00 0.00 0.00 0.00 0.00 0.00 0.00 0.00 0.00 0.00 0.00 0.58 0.79 0.87 0.00 0.00 0.00 0.91 0.88 0.00 0.00 0.83 0.00 0.00 0.00 0.00 0.99 0.74 0.00 0.84 0.81 0.00 0.76 0.00 0.00 0.00 0.00 0.00 0.55 0.00 0.00 0.00 0.00 0.00 0.62 0.00 0.00 0.00 0.00 0.00 0.00 0.75 0.00 0.00 0.00 0.00 0.82 0.00 0.56 0.57 0.00 0.55 0.00 0.00 0.00 0.00 0.00 0.00 0.84 0.00 0.73 0.00 0.99 0.00 0.00 0.00 0.00 0.76 0.00 0.00 0.00 0.00 0.70 0.83 0.87 0.00 0.00 0.00 0.00 0.00 0.00 0.00 0.00
0.70 0.00 0.56 0.00 0.95 0.00 0.79 0.00 0.00 0.00 0.67 0.00 0.00 0.68 0.00 0.00 0.99 0.88 0.00 0.00 0.66 0.00 0.55 0.00 0.00 0.00 0.00 0.00 0.92 0.00 0.00 0.00 0.00 0.00 0.88 0.00 0.00 0.94 0.00 0.95 0.84 0.70 0.00 0.00 0.83 0.00 0.00 0.00 0.00 0.00 0.62 0.00 0.00 0.00 0.59 0.00 0.71 0.00 0.72 0.00 0.00 0.00 0.00 0.00 0.71 0.00 0.73 0.00 0.00 0.00 0.00 0.00 0.00 0.00 0.00 0.00 0.00 0.00 0.00 0.00 0.00 0.00 0.00 0.00 0.00 0.00 0.00 0.00 0.00 0.00 0.00 0.71 0.00 0.00 0.00 0.00 0.00 0.59 0.00 0.97 0.00 0.00 0.00 0.00 0.00 0.00 0.00 0.00 0.84 0.00 0.00 0.00 0.00 0.75 0.00 0.00 0.00 0.00 0.00 0.00 0.00 0.00 0.00 0.00 0.00 0.84 0.00 0.00 0.00 0.00 0.00 0.00 0.00 0.00 0.00 0.00 0.00 0.67 0.00 0.97
0.00 0.00 0.00 0.00 0.00 0.00 0.00 0.00 0.00 0.00 0.00 0.00 0.72 0.00 0.00 0.73 0.00 0.00 0.92 0.00 0.00 0.00 0.00 0.00 1.00 0.00 0.00 0.00 0.55 0.72 0.86 0.00 0.00 0.57 0.00 0.00 0.83 0.00 0.00 0.62 0.00 0.00 0.00 0.00 0.00 0.00 0.00 0.00 0.00 0.00 0.00 0.00 0.00 0.00 0.00 0.87 0.00 0.59 0.00 0.00 0.00 0.00 0.00 0.00 0.00 0.00 0.00 0.00 0.00 0.00 0.00 0.00 0.00 0.00 0.00 0.71 0.00 0.00 0.00 0.63 0.00 0.79 0.00 0.00 0.00 0.00 0.00 0.00 0.00 0.59 0.00 0.00 0.55 0.67 0.00 0.00 0.00 0.00 0.00 0.00 0.00 0.86 0.00 0.00 0.00 0.00 0.00 0.00 0.00 0.90 0.00 0.00 0.00 0.00 0.00 0.00 0.00 0.00 0.00 0.00 0.00 0.51 0.00 0.00 0.00 0.00 0.00 0.00 0.00 0.00 0.51 0.00 0.00 0.00 0.00 0.63 0.00 0.60 0.00 0.00
0.00 0.00 0.00 0.00 0.00 0.84 0.00 0.82 0.00 0.70 0.00 0.00 0.00 0.00 0.00 0.00 0.00 0.00 0.00 0.00 0.00 0.00 0.00 0.00 0.00 0.75 0.93 0.00 0.72 0.00 0.00 0.00 0.00 0.55 0.00 0.00 0.86 0.00 0.00 0.00 0.00 0.00 0.00 0.00 0.00 0.96 0.73 0.91 0.00 0.00 0.61 0.00 0.00 0.58 0.00 0.00 0.00 0.00 0.00 0.00 0.55 0.80 0.00 0.00 0.00 0.61 0.00 0.78 0.00 0.67 0.69 0.00 0.00 0.74 0.51 0.00 0.00 0.00 0.00 0.00 0.00 0.00 0.00 0.00 0.00 0.00 0.00 0.00 0.76 0.69 0.55 0.00 0.00 0.00 0.00 0.00 0.00 0.00 0.00 0.00 0.00 0.78 0.00 0.00 0.00 0.00 0.55 0.00 0.00 0.69 0.00 0.00 0.00 0.00 0.69 0.00 0.00 0.00 0.00 0.82 0.00 0.00 0.00 0.00 0.00 0.00 0.00 0.00 0.00 0.00 0.62 0.00 0.74 0.00 0.00 0.95 0.00 0.00 0.88 0.60
0.00 0.00 0.00 0.00 0.00 0.00 0.68 0.91 0.99 0.00 0.75 0.00 0.00 0.00 0.00 0.00 0.00 0.00 0.93 0.72 0.00 0.81 0.00 0.00 0.71 0.00 0.00 0.00 0.00 0.00 0.92 0.93 0.00 0.00 0.00 0.00 0.00 0.00 0.00 0.71 0.00 0.00 0.00 0.00 0.00 0.00 0.00 0.00 0.00 0.00 0.00 0.00 0.78 0.00 0.00 0.00 0.97 0.00 0.65 0.00 0.00 0.94 0.67 0.00 0.00 0.00 0.00 0.00 0.00 0.00 0.00 0.00 0.80 0.00 0.00 0.00 0.00 0.72 0.00 0.00 0.00 0.95 0.99 0.66 0.00 0.00 0.51 0.00 0.00 0.00 0.00 0.00 0.00 0.00 0.77 0.00 0.98 0.00 0.51 0.00 0.00 0.00 0.92 0.00 0.00 0.00 0.00 0.00 0.00 0.90 0.66 0.00 0.00 0.00 0.66 0.00 0.00 0.00 0.00 0.00 0.00 0.00 0.00 0.00 0.94 0.00 0.00 0.00 0.00 0.00 0.79 0.00 0.00 0.00 0.00 0.00 0.00 0.00 0.00 0.73
0.00 0.00 0.00 0.00 0.00 0.00 0.63 0.00 0.00 0.63 0.62 0.00 0.00 0.00 0.79 0.00 0.00 0.60 0.00 0.00 0.00 0.00 0.00 0.00 0.00 0.00 0.00 0.00 0.00 0.77 0.00 0.00 0.00 0.00 0.00 0.00 0.57 0.87 0.93 0.93 0.00 0.55 0.00 0.95 0.00 0.00 0.00 0.00 0.00 0.82 0.00 0.00 0.00 0.00 0.00 0.56 0.00 0.00 0.69 0.00 0.00 0.76 0.00 0.00 0.00 0.79 0.00 0.00 0.92 0.00 0.00 0.00 0.00 0.00 0.00 1.00 0.00 0.00 0.00 0.00 0.00 0.00 0.67 0.00 0.00 0.67 0.00 0.00 0.00 0.00 0.00 0.53 0.00 0.00 0.63 0.83 0.00 0.00 0.00 0.00 0.00 0.00 0.00 0.00 0.00 0.00 0.00 0.00 0.66 0.00 0.00 0.00 0.00 0.51 0.00 0.00 0.00 0.72 0.69 0.00 0.00 0.00 0.00 0.95 0.00 0.00 0.00 0.00 0.00 0.00 0.00 0.68 0.00 0.00 0.00 0.00 0.00 0.00 0.57 0.00
0.00 0.94 0.96 0.00 0.00 0.00 0.00 0.00 0.00 0.00 0.00 0.00 0.00 0.00 0.00 0.00 0.92 0.59 0.69 0.00 0.00 0.00 0.76 0.00 0.00 0.50 0.87 0.00 0.58 0.56 0.87 0.00 0.00 0.00 0.00 0.96 0.00 0.00 0.00 0.00 0.00 0.00 0.75 0.95 0.85 0.00 0.72 0.00 0.00 0.00 0.00 0.00 0.75 0.00 0.00 0.00 0.75 0.00 0.68 0.00 0.98 0.00 0.00 0.00 0.00 0.00 0.79 0.99 0.00 0.00 0.00 0.00 0.00 0.00 0.00 0.88 0.00 0.00 0.00 0.00 0.00 0.00 0.00 0.00 0.00 0.70 0.52 0.92 0.00 0.00 0.00 0.00 0.00 0.00 0.65 0.00 0.00 0.83 0.82 0.00 0.00 0.00 0.00 0.00 0.64 0.00 0.00 0.00 0.86 0.00 0.00 0.00 0.00 0.00 0.00 0.00 0.56 0.00 0.00 0.83 0.00 0.59 0.00 0.65 0.00 0.00 0.00 0.00 0.59 0.00 0.00 0.00 0.00 0.86 0.00 0.54 0.69 0.00 0.00 0.00
0.00 0.00 0.94 0.00 0.00 0.00 0.61 0.00 0.00 0.00 0.00 0.66 0.00 0.00 0.00 0.00 0.00 0.00 0.00 0.00 0.00 0.00 0.00 0.53 0.00 0.00 0.00 0.70 0.00 0.70 0.00 0.00 0.00 0.00 0.00 0.00 0.00 0.00 0.00 0.00 0.00 0.00 0.00 0.72 0.50 0.00 0.00 0.00 0.00 0.66 0.00 0.00 0.00 0.00 0.00 0.00 0.00 0.83 0.00 0.00 0.00 0.98 1.00 0.00 0.00 0.00 0.00 0.77 0.00 0.77 0.99 0.00 0.00 0.96 0.00 0.00 0.00 0.00 0.00 0.62 0.00 0.00 0.00 0.00 0.50 0.00 0.00 0.00 0.00 0.00 0.00 0.00 0.00 0.00 0.00 0.00 0.00 0.00 0.00 0.00 0.73 0.00 0.56 0.00 0.00 0.00 0.00 0.00 0.58 0.00 0.00 0.00 0.62 0.00 0.00 0.00 0.96 0.75 0.00 0.62 0.63 0.00 0.00 0.00 0.00 0.00 0.00 0.59 0.00 0.86 0.00 0.00 0.00 0.00 0.00 0.00 0.00 0.00 0.00 0.00
0.00 0.00 0.00 0.00 0.00 0.00 0.00 0.00 0.00 0.59 0.00 0.91 0.00 0.00 0.00 0.00 0.00 0.00 0.98 0.00 0.00 0.00 0.00 0.88 0.80 0.64 0.00 0.00 0.00 0.00 0.00 0.00 0.58 0.75 0.00 0.00 0.00 0.93 0.00 0.00 0.91 0.00 0.85 0.00 0.56 0.00 0.00 0.00 0.00 0.65 0.00 0.00 0.00 0.00 0.00 0.00 0.00 0.90 0.00 0.00 0.00 0.00 0.96 0.00 0.84 0.00 0.00 0.00 0.00 0.00 0.00 0.00 0.00 0.00 0.00 0.00 0.00 0.00 0.00 0.00 0.00 0.93 0.00 0.00 0.00 0.00 0.00 0.00 0.00 0.00 0.00 0.00 0.00 0.00 0.87 0.84 0.00 0.00 0.00 0.00 0.00 0.00 0.00 0.94 0.92 0.92 0.00 0.00 0.00 0.00 0.00 0.91 0.00 0.00 0.00 0.58 0.00 0.00 0.00 0.00 0.00 0.00 0.00 0.00 0.00 0.66 0.00 0.92 0.72 0.00 0.60 0.00 0.00 0.00 0.55 0.00 0.00 0.00 0.00 0.00
0.81 0.00 0.00 0.00 0.90 0.00 0.88 0.83 0.00 0.00 0.00 0.65 0.00 0.00 0.00 0.65 0.00 0.00 0.76 0.00 0.00 0.00 0.00 0.00 0.00 0.00 0.00 0.00 0.00 0.00 0.00 0.00 0.00 0.00 0.69 0.67 0.00 0.00 0.00 0.00 0.00 0.00 0.00 0.00 0.00 0.00 0.00 0.00 0.00 0.00 0.00 0.00 0.00 0.56 0.00 0.00 0.00 0.00 0.00 0.00 0.00 0.00 0.68 0.00 0.00 0.00 0.69 0.00 0.54 0.00 0.00 0.00 0.73 0.00 0.60 0.00 0.00 0.00 0.00 0.00 0.69 0.00 0.00 0.00 0.00 0.00 0.00 0.00 0.99 0.00 0.62 0.00 0.00 0.00 0.00 0.00 0.00 0.00 0.00 0.55 0.00 0.00 0.50 0.82 0.00 0.52 0.00 0.00 0.00 0.56 0.00 0.00 0.00 0.00 0.00 0.00 0.00 0.81 0.00 0.00 0.00 0.00 0.00 0.00 0.59 0.00 0.00 0.87 0.00 0.00 0.00 0.68 0.00 0.00 0.00 0.00 0.00 0.00 0.00 0.00
0.00 0.00 0.00 0.00 0.00 0.00 0.00 0.98 0.00 0.00 0.00 0.00 0.00 0.00 0.69 0.96 0.72 0.00 0.00 0.00 0.00 0.00 0.00 0.93 0.00 0.00 0.00 0.00 0.00 0.00 0.00 0.00 0.93 0.00 0.00 0.00 0.50 0.84 0.00 0.00 0.85 0.75 0.00 0.50 0.00 0.00 0.00 0.00 0.00 0.00 0.00 0.00 0.00 0.65 0.00 0.00 0.95 0.00 0.99 0.00 0.00 0.00 0.52 0.00 0.00 0.00 0.00 0.00 0.00 0.90 0.00 0.00 0.00 0.00 0.00 0.00 0.00 0.00 0.00 0.00 0.00 0.00 0.00 0.00 0.00 0.00 0.00 0.77 0.85 0.00 0.00 0.00 0.53 0.00 0.00 0.97 0.00 0.00 0.00 0.00 0.58 0.00 0.00 0.00 0.85 0.00 0.00 0.00 0.67 0.00 0.89 0.00 0.00 0.00 0.61 0.60 0.00 0.00 0.00 0.00 0.00 0.00 0.75 0.00 0.00 0.00 0.00 0.52 0.00 0.00 0.00 0.00 0.00 0.00 0.00 0.54 0.00 0.00 0.00 0.00
0.98 0.00 0.00 0.87 0.00 0.00 0.00 0.00 0.00 0.00 0.00 0.00 0.00 0.00 0.00 0.00 0.00 0.77 0.00 0.00 0.00 0.00 0.00 0.00 0.59 0.00 0.00 0.87 0.00 0.00 0.00 0.57 0.00 0.00 0.00 0.00 0.00 0.50 0.00 0.00 0.57 0.00 0.62 0.00 0.00 0.00 0.81 0.00 0.61 0.00 0.00 0.00 0.00 0.00 0.00 0.00 0.00 0.00 0.00 0.00 0.00 0.00 0.00 0.00 0.00 0.00 0.00 0.00 0.66 0.64 0.00 0.00 0.93 0.00 0.00 0.00 0.65 0.52 0.00 0.00 0.00 0.00 0.00 0.00 0.00 0.79 0.00 0.00 0.00 0.00 0.64 0.97 0.00 0.00 0.89 0.00 0.00 0.59 0.00 0.00 0.00 0.00 0.55 0.00 0.00 0.00 0.00 0.00 0.80 0.53 0.81 0.75 0.00 0.99 0.00 0.00 0.00 0.00 0.00 0.00 0.00 0.74 0.00 0.00 0.00 0.00 0.82 0.00 0.00 0.78 0.92 0.00 0.00 0.00 0.00 0.73 0.55 0.97 0.00 0.00
0.00 0.00 0.00 0.99 0.00 0.00 0.00 0.00 0.00 0.00 0.56 0.00 0.00 0.00 0.60 0.93 0.00 0.00 0.84 0.00 0.00 0.00 0.00 0.00 0.00 0.00 0.63 0.00 0.00 0.00 0.00 0.00 0.00 0.00 0.00 0.69 0.00 0.00 0.00 0.00 0.00 0.00 0.00 0.71 0.00 0.00 0.93 0.00 0.00 0.00 0.00 0.00 0.00 0.00 0.00 0.00 0.00 0.82 0.00 0.70 0.69 0.00 0.69 0.99 0.00 0.00 0.00 0.70 0.00 0.00 0.00 0.87 0.00 0.66 0.00 0.00 0.00 0.00 0.00 0.00 0.00 0.00 0.00 0.00 0.00 0.00 0.00 0.00 0.00 0.65 0.00 0.00 0.00 0.00 0.00 0.00 0.00 0.51 0.00 0.97 0.00 0.58 0.00 0.87 0.00 0.00 0.00 0.81 0.00 0.59 0.81 0.00 0.00 0.00 0.81 0.00 0.00 0.69 0.00 0.00 0.00 0.72 0.88 0.00 0.00 0.00 0.00 0.00 0.00 0.00 0.51 0.00 0.00 0.00 0.00 0.00 0.00 0.00 0.00 0.51
0.00 0.00 0.00 0.00 0.00 0.00 0.00 0.00 0.00 0.58 0.00 0.00 0.91 0.00 0.00 0.00 0.00 0.00 0.00 0.00 0.71 0.66 1.00 0.00 0.00 0.00 0.00 0.64 0.00 0.86 0.00 0.00 0.00 0.00 0.00 0.00 0.82 0.59 0.00 0.00 0.00 0.00 0.00 0.00 0.51 0.00 0.00 0.00 0.00 0.00 0.00 0.00 0.00 0.70 0.00 0.00 0.00 0.00 0.00 0.00 0.00 0.00 0.00 0.00 0.00 0.00 0.00 0.00 0.00 0.00 0.00 0.00 0.00 0.00 0.00 0.00 0.00 0.00 0.00 0.00 0.00 0.00 0.71 0.62 0.00 0.77 0.00 0.00 0.00 0.00 0.00 0.00 0.00 0.00 0.71 0.00 0.96 0.00 0.00 0.81 0.00 0.00 0.63 0.00 0.00 0.00 0.00 0.00 0.00 0.00 0.00 0.00 0.97 0.00 0.72 0.00 0.00 0.00 0.00 0.00 0.92 0.00 0.00 0.00 0.00 0.00 0.00 0.00 0.00 0.00 0.00 0.00 0.00 0.00 0.61 0.83 0.00 0.00 0.00 0.00
0.00 0.00 0.85 0.78 0.00 0.00 0.76 0.00 0.00 0.92 0.00 0.80 0.00 0.78 0.64 0.00 0.80 0.00 0.54 0.70 0.00 0.00 0.00 0.00 0.77 0.00 0.74 0.74 0.66 0.00 0.00 0.00 0.00 0.00 0.00 0.79 0.00 0.68 0.00 0.00 0.00 0.00 0.95 0.00 0.83 0.00 0.00 0.00 0.85 0.80 0.00 0.00 0.77 0.00 0.92 0.00 0.77 0.00 0.00 0.00 0.00 0.00 0.00 0.00 0.00 0.55 0.54 0.00 0.53 0.00 0.00 0.00 0.00 0.00 0.00 0.00 0.00 0.00 0.00 0.00 0.98 0.54 0.00 0.89 0.00 0.00 0.00 0.00 0.65 0.00 0.00 0.00 0.62 0.63 0.00 0.00 0.00 0.98 0.00 0.00 0.00 0.00 0.00 0.88 0.58 0.65 1.00 0.00 0.00 0.00 0.00 0.00 0.00 0.82 0.00 0.00 0.00 0.00 0.74 0.00 0.00 0.00 0.00 0.00 0.00 0.72 0.00 0.00 0.00 0.00 0.00 0.00 0.98 0.00 0.77 0.00 0.00 0.00 0.00 0.00
0.00 0.00 0.00 0.00 0.00 0.00 0.00 0.00 0.00 0.95 0.00 0.86 0.00 0.00 0.60 0.00 0.00 0.00 0.00 0.00 0.00 0.00 0.00 0.00 0.93 0.00 0.00 0.00 0.00 0.66 0.00 0.00 0.00 0.89 0.00 0.00 0.00 0.00 0.00 0.00 0.00 0.00 0.88 0.00 0.73 0.00 0.00 0.00 0.00 0.00 0.73 0.89 0.00 0.92 0.00 0.00 0.00 0.69 0.00 0.86 0.00 0.78 0.00 0.00 0.00 0.00 0.00 0.00 0.80 0.00 0.00 0.97 0.00 0.00 0.00 0.00 0.00 0.00 0.00 0.00 0.00 0.00 0.00 0.00 0.00 0.00 0.00 0.00 0.56 0.00 0.00 0.00 0.00 0.00 0.00 0.00 0.00 0.00 0.71 0.00 0.00 0.00 0.00 0.00 0.00 0.96 0.00 0.00 0.00 0.00 0.00 0.00 0.88 0.00 0.60 0.55 0.00 0.00 0.00 0.00 0.00 0.00 0.00 0.00 0.64 0.61 0.00 0.00 0.94 0.00 0.00 0.00 0.00 0.00 0.00 0.00 0.00 0.00 0.71 0.00
0.00 0.00 0.00 0.85 0.00 0.00 0.76 0.00 0.00 0.00 0.00 0.00 0.94 0.00 0.00 0.00 0.55 0.00 0.00 0.00 0.00 0.00 0.00 0.00 0.00 0.00 0.00 0.00 0.00 0.00 0.91 0.94 0.90 0.92 0.00 0.00 0.00 0.92 0.00 0.00 0.00 0.00 0.00 0.00 0.00 0.00 0.00 0.90 0.00 0.00 0.55 0.00 0.00 0.00 0.00 0.00 0.97 0.87 0.00 0.00 0.93 0.70 0.00 0.00 0.00 0.00 0.00 0.00 0.00 0.98 0.00 0.00 0.54 0.93 0.00 0.60 0.00 0.66 0.00 0.00 0.93 0.00 0.00 0.00 0.00 0.00 0.00 0.00 0.00 0.57 0.00 0.00 0.00 0.00 0.00 0.00 0.00 0.00 0.00 0.00 0.00 0.00 0.00 0.00 0.93 0.00 0.92 0.00 0.00 0.00 0.00 0.00 0.00 0.52 0.00 0.00 0.00 0.00 0.00 0.00 0.00 0.00 0.00 0.00 0.00 0.00 0.00 0.00 0.00 0.00 0.00 0.66 0.72 0.55 0.00 0.00 0.00 0.00 0.00 0.00
0.00 0.00 0.00 0.00 0.00 0.00 0.76 0.00 0.00 0.00 0.00 0.00 0.00 0.00 0.00 0.00 0.00 0.00 0.50 0.00 0.00 0.00 0.00 0.00 0.89 0.00 0.00 0.00 0.00 0.00 0.99 0.97 0.00 0.00 0.63 0.00 0.00 0.52 0.00 0.00 0.00 0.00 0.93 0.00 0.00 0.00 0.95 0.00 0.00 0.00 0.00 0.00 0.00 0.00 0.00 0.00 0.00 0.79 0.00 0.00 0.00 0.00 0.71 0.97 0.00 0.00 0.00 0.64 0.96 0.00 0.00 0.00 0.92 0.00 0.00 0.00 0.00 0.00 0.00 0.00 0.93 0.00 0.67 0.81 0.00 0.00 0.00 0.00 0.00 0.00 0.00 0.00 0.00 0.00 0.00 0.00 0.59 0.00 0.00 0.00 0.00 0.00 0.00 0.00 0.92 0.00 0.00 0.00 0.00 0.00 0.51 0.51 0.00 0.76 0.00 0.00 0.00 0.84 0.00 0.00 0.67 0.00 0.90 0.84 0.00 0.00 0.00 0.00 0.00 0.00 0.00 0.00 0.00 0.90 0.00 0.77 0.00 0.00 0.00 0.00
0.00 0.00 0.00 0.00 0.00 0.00 0.00 0.00 0.00 0.00 0.68 0.00 0.00 0.00 0.00 0.00 0.00 0.00 0.00 0.00 0.00 0.00 0.00 0.00 0.00 0.00 0.83 0.00 0.00 0.00 0.00 0.94 0.00 0.56 0.89 0.00 0.00 0.00 0.56 0.00 0.00 0.97 0.00 0.92 0.00 0.00 0.00 0.00 0.71 0.00 0.00 0.00 0.00 0.88 0.70 0.00 0.00 0.00 0.69 0.53 0.00 0.70 0.00 0.99 0.00 0.00 0.00 0.00 0.51 0.00 0.73 0.00 0.99 0.00 0.00 0.00 0.00 0.00 0.00 0.00 0.00 0.00 0.00 0.00 0.73 0.00 0.00 0.95 0.00 0.00 0.00 0.00 0.00 0.00 0.00 0.00 0.00 0.86 0.00 0.73 0.00 0.00 0.00 0.00 0.00 0.00 0.00 0.00 0.00 0.00 0.00 0.00 0.00 0.73 0.00 0.00 0.00 0.00 0.00 0.00 0.00 0.00 0.00 0.00 0.00 0.00 0.00 0.00 0.00 0.00 0.00 0.00 0.00 0.00 0.00 0.00 0.00 0.00 0.00 0.00
0.00 0.00 0.00 0.77 0.00 0.00 0.00 0.00 0.00 0.00 0.71 0.00 0.00 0.00 0.00 0.00 0.00 0.71 0.81 0.00 0.00 0.00 0.00 0.00 0.00 0.00 0.00 0.00 0.00 0.72 0.00 0.00 0.53 0.76 0.00 0.61 0.00 0.00 0.80 0.59 0.00 0.00 0.68 0.00 0.00 0.00 0.00 0.98 0.00 0.00 0.00 0.00 0.00 0.00 0.00 0.00 0.00 0.00 0.00 0.00 0.87 0.00 0.00 0.00 0.00 0.91 0.00 0.00 0.00 0.00 0.00 0.00 0.00 0.00 0.99 0.00 0.00 0.00 0.00 0.00 0.00 0.00 0.00 0.00 0.86 0.00 0.00 0.00 0.00 0.00 0.00 0.00 0.00 0.00 0.00 1.00 0.00 0.00 0.72 0.00 0.00 0.00 0.00 0.00 0.00 0.00 0.00 0.00 0.95 0.00 0.00 0.00 0.00 0.00 0.00 0.95 0.00 0.00 0.00 0.00 0.00 0.00 0.00 0.00 0.57 0.00 0.00 0.00 0.00 0.00 0.76 0.00 0.00 0.00 0.00 0.54 0.00 0.00 0.98 0.00
0.56 0.00 0.00 0.00 0.71 0.00 0.00 0.00 0.00 0.00 0.00 0.00 0.83 0.51 0.00 0.00 0.00 0.00 0.00 0.00 0.00 0.00 0.00 0.00 0.00 0.63 0.00 0.00 0.00 0.00 0.00 0.74 0.80 0.68 0.00 0.00 0.00 0.00 0.00 0.00 0.00 0.00 0.52 0.00 0.00 0.00 0.00 0.00 0.00 0.84 0.00 0.00 0.00 0.00 0.00 0.00 0.00 0.00 0.00 0.00 0.00 0.00 0.00 0.00 0.00 0.00 0.00 0.00 0.00 0.97 0.00 0.92 0.00 0.00 0.00 0.00 0.00 0.00 0.00 0.00 0.00 0.00 0.00 0.00 0.00 0.00 0.00 0.00 0.00 0.00 0.77 0.00 0.00 0.00 0.00 0.00 0.83 0.00 0.51 0.00 0.00 0.00 0.00 0.67 0.00 0.00 0.00 0.00 0.00 0.59 0.00 0.00 0.00 0.53 0.00 0.00 0.00 0.00 0.00 0.00 0.00 0.00 0.00 0.00 0.00 0.00 0.62 0.00 0.77 0.00 0.00 0.00 0.00 0.76 0.00 0.00 0.65 0.00 0.00 0.00
0.00 0.63 0.00 0.00 0.00 0.00 0.00 0.00 0.00 0.61 0.00 0.00 0.79 0.00 0.00 0.00 0.00 0.70 0.00 0.56 0.00 0.00 0.52 0.00 0.00 0.62 0.00 0.00 0.85 0.00 0.00 0.00 0.00 0.00 0.98 0.00 0.00 0.00 0.00 0.00 0.00 0.00 0.69 0.00 0.00 0.81 0.00 0.00 0.00 0.00 0.69 0.00 0.00 0.00 0.00 0.00 0.00 0.00 0.59 0.84 0.00 0.00 0.00 0.00 0.00 0.00 0.66 0.82 0.00 0.00 0.00 0.00 0.00 0.00 0.00 0.00 0.83 0.73 0.00 0.00 0.61 0.00 0.84 0.00 0.00 0.00 0.00 0.00 0.00 0.56 0.00 0.54 0.00 0.72 0.00 0.00 0.00 0.00 0.00 0.00 0.00 0.00 0.94 0.00 0.00 0.00 0.88 0.54 0.00 0.70 0.00 0.00 0.00 0.51 0.00 0.00 0.00 0.00 0.86 0.00 0.62 0.00 0.00 0.00 0.00 0.00 0.00 0.00 0.00 0.73 0.87 0.00 0.00 0.00 0.00 0.96 0.00 0.00 0.00 0.00
0.80 0.57 0.00 0.00 0.98 0.00 0.00 0.00 0.57 0.00 0.00 0.00 0.00 0.00 0.00 0.00 0.00 0.00 0.69 0.00 0.00 0.00 0.00 0.00 0.84 0.00 0.00 0.71 0.00 0.00 0.00 0.81 0.00 0.00 0.00 0.00 0.99 0.00 0.70 0.00 0.00 0.00 0.00 0.95 0.00 0.00 0.00 0.00 0.00 0.00 0.65 0.00 0.00 0.00 0.00 0.00 0.66 0.00 0.00 0.00 0.00 0.00 0.00 0.00 0.00 0.00 0.00 0.00 0.00 0.00 0.00 0.73 0.59 0.00 1.00 0.00 0.00 0.00 0.00 0.00 0.55 0.00 0.97 0.97 0.00 0.00 0.00 0.61 0.00 0.00 0.00 0.00 0.79 0.00 0.00 0.71 0.00 0.00 0.00 0.87 0.00 0.00 0.00 0.00 0.72 0.63 0.00 0.00 0.64 0.00 0.67 0.51 0.00 0.00 0.00 0.60 0.83 0.00 0.00 0.00 0.00 0.87 0.00 0.00 0.00 0.00 0.85 0.00 0.00 0.00 0.00 0.97 0.00 0.00 0.93 0.87 0.60 0.00 0.00 0.00
0.00 0.00 0.00 0.99 0.00 0.00 0.57 0.00 0.00 0.81 0.00 0.58 0.00 0.00 0.00 0.98 0.00 0.65 0.00 0.00 0.00 0.00 0.00 0.71 0.00 0.00 0.00 0.92 0.00 0.00 0.00 0.00 0.00 0.00 0.87 0.00 0.00 0.00 0.00 0.00 0.00 0.51 0.79 0.00 0.00 0.00 0.00 0.00 0.00 0.00 0.00 0.00 0.73 0.69 0.00 0.52 0.00 0.00 0.00 0.98 0.55 0.00 0.00 0.00 0.00 0.86 0.00 0.83 0.00 0.00 0.00 0.00 0.00 0.00 0.00 0.00 0.65 0.00 0.00 0.55 0.00 0.53 0.00 0.00 0.00 0.00 0.75 0.00 0.00 0.00 0.00 0.00 0.00 0.00 0.00 0.65 0.00 0.67 0.00 0.99 0.00 0.93 0.00 0.00 0.85 0.00 0.00 0.00 0.00 0.00 0.00 0.00 0.77 0.92 0.00 0.00 0.00 0.00 0.00 0.61 0.62 0.95 0.00 0.59 0.00 0.00 0.00 0.00 0.00 0.00 0.00 0.64 0.00 0.00 0.58 0.00 0.00 0.00 0.00 0.00
0.00 0.00 0.00 0.00 0.00 0.00 0.00 0.63 0.00 0.00 0.00 0.00 0.00 0.00 0.00 0.88 0.00 0.00 0.68 0.00 0.89 0.98 0.00 0.00 0.00 0.00 0.92 0.00 0.55 0.00 0.00 0.00 0.00 0.00 0.00 0.00 0.00 0.00 0.55 0.00 0.00 0.00 0.00 0.00 0.00 0.00 0.00 0.00 0.00 0.00 0.00 0.97 0.96 0.00 0.00 0.00 0.68 0.00 0.00 0.00 0.00 0.00 0.00 0.00 0.00 0.88 0.00 0.00 0.00 0.64 0.62 0.00 0.00 0.00 0.00 0.00 0.77 0.00 0.00 0.00 0.00 0.00 0.00 0.00 0.00 0.00 0.00 0.00 0.00 0.00 0.00 0.00 0.00 0.00 0.80 0.00 0.00 0.00 0.00 0.00 0.00 0.00 0.00 0.00 0.00 0.00 0.00 0.00 0.00 0.00 0.00 0.00 0.68 0.00 0.00 0.00 0.96 0.00 0.00 0.00 0.00 0.78 0.00 0.00 0.00 0.00 0.00 0.00 0.00 0.00 0.00 0.99 0.00 0.00 0.00 0.00 0.00 0.00 0.00 0.00
0.00 0.00 0.74 0.00 0.00 0.00 0.00 0.00 0.85 0.00 0.00 0.00 0.00 0.00 0.00 0.00 0.56 0.00 0.93 0.53 0.81 0.00 0.99 0.91 0.00 0.73 0.00 0.99 0.80 0.00 0.00 0.00 0.00 0.84 0.00 0.00 0.00 0.00 0.00 0.00 0.00 0.00 0.76 0.00 0.00 0.99 0.00 0.00 0.80 0.00 0.85 0.00 0.90 0.00 0.00 0.00 0.00 0.00 0.62 0.56 0.56 0.56 0.00 0.00 0.00 0.73 0.00 0.99 0.00 0.00 0.00 0.00 0.92 0.00 0.58 0.00 0.00 0.00 0.00 0.00 0.00 0.00 0.72 0.00 0.00 0.00 0.00 0.00 0.00 0.00 0.00 0.00 0.00 0.00 0.90 0.96 0.00 0.53 0.00 0.00 0.00 0.00 0.00 0.00 0.70 0.00 0.00 0.00 0.00 0.00 0.00 0.00 0.00 0.00 0.65 0.00 0.00 0.00 0.00 0.00 0.00 0.00 0.58 0.87 0.00 0.00 0.77 0.00 0.72 0.67 0.00 0.00 0.58 0.00 0.00 0.00 0.67 0.00 0.00 0.00
0.67 0.00 0.00 0.95 0.00 0.00 0.91 0.82 0.00 0.00 0.56 0.00 0.00 0.00 0.83 0.00 0.00 0.00 0.00 0.00 0.00 0.00 0.00 0.00 0.00 0.00 0.00 0.00 0.00 0.00 0.00 0.00 0.00 0.00 0.00 0.00 0.00 0.00 0.80 0.00 0.00 0.00 0.00 0.00 0.00 0.00 0.00 0.00 0.00 0.00 0.00 0.57 0.00 0.00 0.88 0.00 0.00 0.00 0.63 0.95 0.00 0.00 0.00 0.00 0.00 0.00 0.00 0.00 0.00 0.53 0.00 0.54 0.00 0.78 0.00 0.00 0.00 0.00 0.00 0.00 0.00 0.63 0.00 0.00 0.52 0.56 0.00 0.00 0.81 0.88 0.00 0.76 0.00 0.00 0.00 0.00 0.00 0.00 0.00 0.00 0.00 0.00 0.00 0.00 0.00 0.00 0.77 0.00 0.00 0.58 0.51 0.00 0.54 0.00 0.00 0.00 0.68 0.00 0.00 0.00 0.86 0.00 0.00 0.00 0.00 0.66 0.00 0.75 0.00 0.00 0.00 0.00 0.00 0.00 0.53 0.66 0.00 0.00 0.00 0.00
0.00 0.57 0.64 0.00 0.00 0.85 0.00 0.84 0.00 0.72 0.00 0.00 0.00 0.00 0.00 0.00 0.00 0.00 0.00 0.00 0.00 0.00 0.72 0.00 0.00 0.62 0.00 0.65 0.69 0.00 0.00 1.00 0.00 0.00 0.00 0.00 0.00 0.00 0.00 0.00 0.59 0.63 0.00 0.00 0.00 0.00 0.51 0.00 0.00 0.00 0.00 0.00 0.00 0.00 0.00 0.00 0.00 0.00 0.00 0.00 0.00 0.86 0.00 0.00 0.00 0.00 0.00 0.00 0.00 0.00 0.00 0.00 0.00 0.00 0.00 0.79 0.00 0.00 0.00 0.00 0.00 0.00 0.78 0.00 0.00 0.00 0.80 0.00 0.00 0.00 0.00 0.68 0.56 0.00 0.97 0.00 0.00 0.74 0.00 0.00 0.99 0.00 0.00 0.00 0.00 0.00 0.00 0.00 0.00 0.86 0.00 0.00 0.00 0.58 0.75 0.00 0.00 0.00 0.60 0.72 0.73 0.00 0.74 0.00 0.00 0.00 0.87 0.00 0.00 0.89 0.00 0.00 0.00 0.00 0.00 0.00 0.00 0.00 0.00 0.94
0.00 0.00 0.00 0.00 0.00 0.00 0.00 0.00 0.00 0.00 0.57 0.00 0.00 0.00 0.97 0.00 0.78 0.75 0.00 0.00 0.71 0.00 0.00 0.00 0.00 0.00 0.00 0.00 0.00 0.64 0.00 0.00 0.67 0.96 0.00 0.00 0.00 0.00 0.00 0.61 0.00 0.00 0.00 0.00 0.00 0.00 0.00 0.00 0.00 0.00 0.00 0.99 0.00 0.00 0.00 0.00 0.00 0.56 0.00 0.00 1.00 0.00 0.00 0.73 0.61 0.00 0.00 0.00 0.00 0.00 0.00 0.00 0.73 0.59 0.00 0.00 0.00 0.94 0.00 0.00 0.00 0.80 0.00 0.00 0.00 0.00 0.00 0.00 0.00 0.00 0.00 0.00 0.00 0.00 0.00 0.84 0.52 0.00 0.50 0.00 0.00 0.00 0.00 0.00 0.00 0.00 0.00 0.00 0.63 0.00 0.00 0.69 0.00 0.00 0.00 0.00 0.00 0.00 0.00 0.64 0.93 0.00 0.00 0.00 0.60 0.00 0.90 0.00 0.00 0.00 0.00 0.73 0.00 0.00 0.00 0.70 0.00 0.00 0.60 0.00
0.00 0.00 0.00 0.00 0.00 0.00 0.00 0.00 0.00 0.72 0.00 0.00 0.71 0.00 0.00 0.00 0.00 0.00 0.00 0.00 0.00 0.98 0.00 0.75 1.00 0.00 0.00 0.00 0.53 0.00 0.00 0.90 0.00 0.00 0.00 0.00 0.00 0.00 0.00 0.00 0.00 0.00 0.00 0.00 0.00 0.00 0.00 0.00 0.00 0.00 0.00 0.00 0.00 0.00 0.00 0.00 0.00 0.00 0.00 0.95 0.52 0.00 0.00 0.00 0.00 0.00 0.84 0.00 0.63 0.70 0.00 0.00 0.67 0.00 0.00 0.00 0.00 0.00 0.00 0.00 0.00 0.00 0.00 0.00 0.00 0.00 0.00 0.90 0.00 0.00 0.00 0.77 0.00 0.00 0.00 0.00 0.00 0.00 0.00 0.00 0.00 0.00 0.00 0.87 0.00 0.56 0.71 0.00 0.99 0.00 0.00 0.00 0.87 0.92 0.00 0.00 0.00 0.00 0.00 0.00 0.00 0.00 0.00 0.00 0.00 0.00 0.00 0.00 0.00 0.00 0.00 0.67 0.00 0.00 0.53 0.72 0.00 0.00 0.00 0.73
0.00 0.00 0.92 0.00 0.74 0.00 0.00 0.00 0.00 0.00 0.00 0.00 0.00 0.00 0.00 0.00 0.00 0.00 0.00 0.82 0.00 0.00 0.00 0.00 0.00 0.69 0.99 0.00 0.00 0.51 0.00 0.71 0.00 0.00 0.79 0.00 0.89 0.00 0.00 0.00 0.00 0.00 0.00 0.00 0.00 0.00 0.00 0.00 0.00 0.00 0.79 0.00 0.00 0.00 0.81 0.00 0.00 0.00 0.00 0.96 0.94 0.60 0.00 0.00 0.00 0.00 0.00 0.00 0.00 0.00 0.00 0.94 0.99 0.00 0.00 0.00 0.00 0.00 0.00 0.00 0.00 0.00 0.00 0.00 0.61 0.00 0.00 0.00 0.00 0.00 0.59 0.68 0.00 0.00 0.00 0.00 0.00 0.88 0.00 0.60 0.00 0.63 0.64 0.57 0.00 0.00 0.00 0.00 0.62 0.00 0.58 0.59 0.56 0.00 0.00 0.00 0.00 0.00 0.00 0.67 0.00 0.00 0.99 0.00 0.00 0.00 0.00 0.00 0.00 0.00 0.00 0.00 0.00 0.00 0.71 0.00 0.00 0.00 0.00 0.00
0.66 0.54 0.00 0.00 0.00 0.00 0.00 0.00 0.00 0.00 0.00 0.00 0.79 0.00 0.00 0.00 0.00 0.00 0.00 0.00 0.00 0.00 0.00 0.00 0.00 0.00 0.57 0.00 0.00 0.00 0.00 0.00 0.67 0.79 0.00 0.00 0.00 0.98 0.00 0.00 0.00 0.00 0.00 0.00 0.00 0.00 0.74 0.00 0.00 0.00 0.96 0.00 0.00 0.00 0.00 0.00 0.00 0.87 0.77 0.58 0.89 0.00 0.00 0.00 0.00 0.00 0.00 0.00 0.00 0.00 0.00 0.00 0.00 0.00 0.00 0.63 0.00 0.70 0.00 0.00 0.00 0.00 0.00 0.00 0.00 0.87 0.00 0.00 0.72 0.65 0.00 0.00 0.00 0.87 0.00 0.00 0.00 0.00 0.00 0.00 0.00 0.00 0.00 0.00 0.00 0.00 0.00 0.62 0.00 0.00 0.00 0.00 0.00 0.00 0.69 0.00 0.00 0.69 0.00 0.00 0.00 0.00 0.78 0.00 0.00 0.00 0.00 0.00 0.00 0.69 0.00 0.00 0.00 0.00 0.00 0.00 0.00 0.72 0.00 0.00
0.53 0.54 0.00 0.91 0.00 0.00 0.00 0.00 0.00 0.00 0.00 0.00 0.79 0.00 0.87 0.78 0.00 0.00 0.00 0.66 0.00 0.74 0.78 0.00 0.00 0.00 0.00 0.00 0.00 0.00 0.54 0.00 0.00 0.67 0.00 0.00 0.00 0.00 0.00 0.00 0.56 0.00 0.00 0.00 0.00 0.00 0.86 0.00 0.54 0.00 0.00 0.00 0.63 0.00 0.00 0.00 0.00 0.00 0.00 0.00 0.83 0.00 0.00 0.00 0.00 0.62 0.00 0.00 0.00 0.00 0.00 0.00 0.00 0.00 0.98 0.76 0.69 0.00 0.00 0.00 0.00 0.00 0.00 0.00 0.00 0.00 0.00 0.00 0.00 0.00 0.64 0.00 0.00 0.00 0.00 0.63 0.84 0.91 0.00 0.00 0.72 0.76 0.00 0.00 0.96 0.00 0.00 0.00 0.00 0.00 0.00 0.00 0.00 0.00 0.00 0.00 0.00 0.00 0.78 0.00 0.00 0.00 0.00 0.00 0.82 0.97 0.93 0.00 0.00 0.00 0.00 0.00 0.00 0.00 0.66 0.00 0.00 0.81 0.00 0.00
0.00 0.00 0.00 0.00 0.00 0.00 0.76 0.00 0.00 0.00 0.96 0.00 0.53 0.00 0.00 0.00 0.00 0.00 0.53 0.00 0.00 0.00 0.00 0.65 0.00 0.00 0.00 0.00 0.00 0.00 0.00 0.00 0.00 0.00 0.00 0.84 0.00 0.00 0.00 0.00 0.00 0.00 0.00 0.00 0.00 0.00 0.00 0.00 0.00 0.00 0.85 0.00 0.00 0.00 0.00 0.00 0.62 0.00 0.00 0.00 0.00 0.00 0.00 0.00 0.00 0.70 0.00 0.00 0.00 0.62 0.00 0.00 0.00 0.00 0.00 0.00 0.79 0.80 0.00 0.00 0.00 0.89 0.59 0.00 0.00 0.00 0.00 0.00 0.00 0.87 0.00 0.00 0.00 0.00 0.00 0.00 0.00 0.92 0.00 0.00 0.00 0.71 0.00 0.00 0.00 0.00 0.00 0.00 0.00 0.00 0.00 0.66 0.00 0.00 0.00 0.00 0.00 0.00 0.51 0.00 0.00 0.72 0.00 0.00 0.00 0.00 0.00 0.00 0.00 0.00 0.00 0.65 0.52 0.00 0.00 0.00 0.00 0.00 0.00 0.00
0.00 0.00 0.80 0.00 0.00 0.96 0.00 0.51 0.00 0.00 0.00 0.00 0.00 0.00 0.66 0.00 0.68 0.00 0.00 0.00 0.00 0.59 0.00 0.00 0.00 0.00 0.57 0.56 0.56 0.00 0.00 0.00 0.00 0.86 0.76 0.80 0.00 0.00 0.89 0.84 0.00 0.00 0.57 0.00 0.85 0.00 0.00 0.74 0.00 0.00 0.00 0.00 0.00 0.00 0.00 1.00 0.00 0.00 0.00 0.98 0.51 0.00 0.00 0.00 0.00 0.00 0.00 0.00 0.00 0.00 0.00 0.00 0.00 0.00 0.00 0.00 0.00 0.00 0.00 0.00 0.00 0.00 0.00 0.00 0.76 0.00 0.00 0.00 0.00 0.00 0.92 0.00 0.58 0.00 0.00 0.59 0.00 0.00 0.00 0.00 0.00 0.00 0.00 0.98 0.00 0.00 0.00 0.00 0.59 0.00 0.76 0.00 0.00 0.00 0.00 0.00 0.00 0.52 0.91 0.00 0.62 0.00 0.00 0.00 0.84 0.00 0.00 0.00 0.77 0.00 0.00 0.00 0.00 0.54 0.55 0.00 0.00 0.92 0.00 0.00
0.88 0.00 0.96 0.00 0.00 0.00 0.00 0.00 0.00 0.00 0.00 0.79 0.61 0.00 0.84 0.00 0.87 0.00 0.65 0.00 0.52 0.00 0.00 0.93 0.00 0.00 0.00 0.78 0.99 0.00 0.00 0.51 0.00 0.00 0.00 0.00 0.00 0.00 0.00 0.00 0.00 0.00 0.00 0.00 0.00 0.92 0.00 0.00 0.00 0.00 0.00 0.86 0.00 0.00 0.00 0.00 0.00 0.00 0.63 0.00 0.00 0.00 0.00 0.00 0.00 0.00 0.92 0.00 0.00 0.00 0.00 0.00 0.00 0.00 0.00 0.56 0.00 0.00 0.59 0.53 0.00 0.00 0.00 0.00 0.00 0.00 0.00 0.00 0.94 0.00 0.00 0.00 0.00 0.00 0.99 0.00 0.00 0.00 0.00 0.00 0.00 0.00 0.70 0.00 0.00 0.00 0.00 0.00 0.00 0.00 0.00 0.00 0.00 0.00 0.00 0.00 0.00 0.00 0.00 0.00 0.00 0.00 0.00 0.00 0.00 0.00 0.00 0.58 0.00 0.00 0.00 0.00 0.00 0.00 0.89 0.99 0.57 0.00 0.00 0.00
0.00 0.00 0.00 0.00 0.00 0.00 0.61 0.00 0.00 0.00 0.61 0.00 0.00 0.00 0.62 0.00 0.00 0.00 0.65 0.00 0.00 0.66 0.56 0.84 0.82 0.00 0.00 0.71 0.00 0.00 0.00 0.00 0.00 0.00 0.00 0.00 0.00 0.99 0.00 0.00 0.00 0.94 0.70 0.00 0.00 0.00 0.00 0.00 0.00 0.72 0.89 0.86 0.00 0.00 0.00 0.00 0.00 0.00 0.00 0.00 0.00 0.84 0.92 0.00 0.00 0.00 0.00 0.00 0.00 0.00 0.81 0.00 0.89 0.00 0.00 0.00 0.00 0.00 0.54 0.00 0.00 0.53 0.00 0.70 0.90 0.00 0.69 0.00 0.00 0.00 0.00 0.60 0.52 0.00 0.00 0.00 0.00 0.00 0.00 0.70 0.00 0.90 0.00 0.00 0.00 0.00 0.00 0.00 0.00 0.51 0.00 0.00 0.00 0.00 0.71 0.95 0.00 0.64 0.00 0.00 0.72 0.00 0.99 0.00 0.00 0.00 0.00 0.00 0.77 0.67 0.00 0.00 0.70 0.63 0.00 0.88 0.00 0.00 0.95 0.00
0.00 0.00 0.00 0.78 0.00 0.85 0.86 0.62 0.00 0.59 0.00 0.97 0.00 0.77 0.00 0.00 0.00 0.00 0.00 0.00 0.00 0.74 0.00 0.00 0.92 0.78 0.00 0.00 0.00 0.00 0.00 0.67 0.00 0.00 0.00 0.00 0.00 0.00 0.58 0.00 0.00 0.00 0.00 0.00 0.00 0.00 0.00 0.00 0.57 0.61 0.00 0.00 0.00 0.00 0.00 0.00 0.70 0.95 0.00 0.00 0.00 0.62 0.00 0.00 0.00 0.00 0.76 0.00 0.69 0.91 0.56 0.54 0.73 0.00 0.00 0.00 0.87 0.00 0.00 0.00 0.00 0.51 0.00 0.00 0.75 0.00 0.00 0.00 0.00 0.00 0.00 0.00 0.00 0.73 0.00 0.00 0.00 0.51 0.00 0.00 0.00 0.00 0.90 0.00 0.69 0.00 0.82 0.69 0.00 0.00 0.00 0.58 0.00 0.00 0.62 0.00 0.62 0.00 0.00 0.00 0.55 0.00 0.00 0.00 0.00 0.00 0.00 0.00 0.00 0.00 0.00 0.00 0.00 0.89 0.00 0.00 0.94 0.00 0.52 0.00
0.00 0.00 0.00 0.96 0.00 0.00 0.83 0.00 0.00 0.00 0.00 0.00 0.00 0.00 0.00 0.00 0.00 0.73 0.00 0.00 0.55 0.00 0.00 0.00 0.00 0.00 0.00 0.00 0.00 0.00 0.00 0.00 0.00 0.00 0.68 0.00 0.00 0.00 0.81 0.00 0.54 0.00 0.00 0.98 0.56 0.00 0.00 0.00 0.00 0.00 0.00 0.00 0.00 0.00 0.00 0.00 0.00 0.00 0.00 0.00 0.00 0.00 0.00 0.00 0.00 0.00 0.70 0.00 0.00 0.00 0.85 0.00 0.00 0.00 0.98 0.92 0.00 0.00 0.00 0.00 0.00 0.00 0.00 0.81 0.00 0.00 0.00 0.55 0.91 0.77 0.00 0.00 0.56 0.88 0.00 0.00 0.00 0.00 0.00 0.00 0.59 0.86 0.00 0.71 0.00 0.00 0.00 0.67 0.00 0.79 0.00 0.00 0.81 0.00 0.00 0.00 0.00 0.00 0.00 0.00 0.65 0.00 0.00 0.00 0.00 0.68 0.00 0.00 0.00 0.00 0.86 0.00 0.00 0.00 0.00 0.00 0.00 0.00 0.97 0.00
0.00 0.00 0.97 0.00 0.00 0.00 0.00 0.00 0.93 0.00 0.00 0.00 0.00 0.72 0.00 0.00 0.00 0.00 0.00 0.90 0.00 0.00 0.00 0.00 0.00 0.00 0.00 0.00 0.67 0.00 0.00 0.00 0.66 0.00 0.00 0.00 0.80 0.00 0.00 0.00 0.53 0.00 0.00 0.00 0.00 0.00 0.00 0.95 0.00 0.00 0.00 0.86 0.95 0.00 0.00 0.77 0.00 0.67 0.58 0.00 0.77 0.00 0.00 0.00 0.00 0.00 0.00 0.98 0.68 0.64 0.56 0.92 0.00 0.86 0.86 0.00 0.00 0.00 0.00 0.00 0.00 0.00 0.00 0.00 0.00 0.00 0.67 0.00 0.00 0.55 0.00 0.00 0.00 0.00 0.00 0.00 0.88 0.00 0.00 0.00 0.00 0.80 0.91 0.00 0.00 0.00 0.00 0.86 0.00 0.00 0.00 0.00 0.98 0.00 0.00 0.00 0.00 0.00 0.00 0.72 0.54 0.00 0.75 0.00 0.75 0.00 0.00 0.00 0.00 0.00 0.00 0.00 0.00 0.72 0.00 0.00 0.00 0.00 0.83 0.00
0.00 0.00 0.00 0.00 0.00 0.00 0.00 0.00 0.00 0.00 0.00 0.00 0.69 0.00 0.00 0.00 0.00 0.72 0.00 0.00 0.00 0.00 0.00 0.00 0.00 0.00 0.00 0.00 0.00 0.00 0.00 0.00 0.00 0.00 0.00 0.00 0.00 0.00 0.00 0.58 0.00 0.00 0.00 0.92 0.00 0.00 0.00 0.00 0.00 0.00 0.00 0.00 0.00 0.00 0.72 0.00 0.00 0.00 0.70 0.00 0.00 0.53 0.78 0.00 0.00 0.98 0.00 0.00 0.00 0.00 0.00 1.00 0.92 0.94 0.00 0.86 0.58 0.00 0.00 0.00 0.00 0.00 0.00 0.00 0.00 0.00 0.00 0.00 0.79 0.00 0.00 0.90 0.00 0.69 0.00 0.91 0.00 0.00 0.00 0.00 0.00 0.00 0.00 0.00 0.00 0.00 0.00 0.00 0.00 0.63 0.00 0.00 0.00 0.00 0.00 0.00 0.00 0.00 0.00 0.82 0.79 0.00 0.00 0.00 0.00 0.00 0.00 0.00 0.00 0.00 0.00 0.00 0.55 0.60 0.60 0.00 0.91 0.00 0.00 0.00
0.51 0.68 0.00 0.00 0.00 0.00 0.00 0.00 0.00 0.00 0.00 0.00 0.61 0.61 0.00 0.85 0.00 0.00 0.00 0.00 0.00 0.86 0.69 0.98 0.00 0.00 0.69 0.00 0.00 0.00 0.00 0.00 0.00 0.51 0.98 0.00 0.00 0.00 0.63 0.00 0.70 0.00 0.00 0.00 0.00 0.00 0.00 0.00 0.00 0.00 0.00 0.00 0.00 0.00 0.00 0.00 0.00 0.00 0.81 0.00 0.74 0.00 0.00 0.00 0.00 0.00 0.00 0.00 0.00 0.00 0.00 0.00 0.00 0.00 0.00 0.88 0.00 0.00 0.58 0.57 0.00 0.91 0.00 0.00 0.00 0.59 0.00 0.00 0.00 0.00 0.00 0.75 0.00 0.00 0.00 0.96 0.00 0.55 0.00 0.00 0.00 0.00 0.00 0.00 0.84 0.80 0.00 0.00 0.00 0.00 0.00 0.00 0.59 0.00 0.00 0.00 0.00 0.00 0.00 1.00 0.00 0.00 0.00 0.00 0.55 0.00 0.68 0.00 0.00 0.72 0.00 0.85 0.00 0.00 0.00 0.00 0.00 0.00 0.51 0.00
0.00 0.00 0.00 0.00 0.00 0.00 0.66 0.00 0.00 0.00 0.00 0.00 0.77 0.00 0.00 0.00 0.00 0.00 0.00 0.96 0.93 0.00 0.00 0.00 0.00 0.00 0.00 0.00 0.00 0.00 0.00 0.00 0.99 0.00 0.00 0.00 0.00 0.00 0.00 0.00 0.00 0.00 0.00 0.00 0.00 0.00 0.00 0.00 0.50 0.00 0.00 0.00 0.80 0.00 0.00 0.00 0.00 0.00 0.69 0.00 0.79 0.00 0.96 0.63 0.00 0.67 0.58 0.00 0.00 0.64 0.00 0.00 0.00 0.00 0.00 0.00 0.00 0.00 0.80 0.00 0.00 0.89 0.00 0.00 0.00 0.93 0.00 0.00 0.00 0.00 0.85 0.00 0.00 0.00 0.00 0.00 0.00 0.00 0.00 0.00 0.00 0.61 0.00 0.00 0.50 0.00 0.00 0.00 0.00 0.00 0.76 0.00 0.00 0.00 0.53 0.00 0.00 0.00 0.77 0.61 0.00 0.00 0.00 0.68 0.00 0.00 0.55 0.00 0.00 0.00 0.63 0.00 0.79 0.00 0.00 0.00 0.00 0.00 0.00 0.61
0.00 0.65 0.00 0.00 0.00 0.00 0.00 0.00 0.00 0.00 0.00 0.00 0.00 0.00 0.00 0.00 0.87 0.00 0.63 0.00 0.00 0.00 0.00 0.00 0.00 0.00 0.00 0.00 0.00 0.00 0.00 0.00 0.00 0.00 0.00 0.97 0.00 0.84 0.00 0.00 0.00 0.00 0.00 0.63 0.00 0.00 0.00 0.00 0.93 0.00 0.00 0.00 0.00 0.00 0.71 0.00 0.72 0.00 0.00 0.00 0.76 0.00 0.00 0.58 0.00 0.00 0.00 0.84 0.00 0.00 0.00 0.00 0.00 0.79 0.00 0.72 0.92 0.60 0.00 0.00 0.00 0.68 0.00 0.00 0.00 0.00 0.00 0.00 0.00 0.00 0.00 0.00 0.00 0.00 0.00 0.00 0.53 0.00 0.00 0.00 0.00 0.00 0.00 0.00 0.00 0.86 0.00 0.00 0.00 0.00 0.00 0.00 0.00 0.60 0.00 0.00 0.00 0.86 0.00 0.52 0.00 0.67 0.00 0.00 0.00 0.91 0.51 0.00 0.00 0.00 0.00 0.60 0.00 0.00 0.00 0.51 0.00 0.00 0.00 0.00
0.00 0.00 0.87 0.88 0.00 0.00 0.00 0.00 0.00 0.00 0.57 0.55 0.00 0.57 0.00 0.00 0.67 0.00 0.00 0.00 0.52 0.00 0.00 0.00 0.00 0.00 0.00 0.00 0.00 0.00 0.00 0.00 0.00 0.00 0.62 0.00 0.00 0.00 0.80 0.00 0.87 0.00 0.00 0.86 0.00 0.00 0.00 0.00 0.75 0.00 0.00 0.89 0.00 0.57 0.00 0.00 0.87 0.00 0.00 0.71 0.00 0.00 0.00 0.00 0.00 0.00 0.00 0.00 0.00 0.00 0.00 0.56 0.56 0.00 0.00 0.00 0.00 0.00 0.00 0.00 0.00 0.00 0.00 0.00 0.00 0.00 0.50 0.00 0.00 0.00 0.78 0.00 0.00 0.62 0.00 0.00 0.00 0.00 0.00 0.00 0.00 0.00 0.00 0.00 0.00 0.00 0.00 0.70 0.00 0.00 0.00 0.00 0.00 0.00 0.00 0.00 0.00 0.00 0.66 0.00 0.64 0.00 0.00 0.00 0.00 0.00 0.00 0.00 0.85 0.79 0.00 0.00 0.00 0.00 0.67 0.95 0.00 0.00 0.00 0.00
0.75 0.00 0.00 0.00 0.00 0.00 0.86 0.00 0.00 0.71 0.00 0.79 0.00 0.00 0.75 0.00 0.66 0.00 0.00 0.00 0.00 0.00 0.53 0.00 0.84 0.00 0.00 0.00 0.00 0.00 0.00 0.00 0.00 0.00 0.75 0.81 0.00 0.00 0.00 0.00 0.00 0.00 0.00 0.00 0.00 0.00 0.00 0.00 0.00 0.00 0.00 0.00 0.00 0.00 0.00 0.00 0.99 0.00 0.00 0.74 0.85 0.94 0.95 0.00 0.00 0.96 0.00 0.00 0.00 0.00 0.85 0.00 0.00 0.00 0.00 0.00 0.00 0.65 0.00 0.00 0.57 0.86 0.00 0.00 0.00 0.00 0.65 0.00 0.00 0.00 0.00 0.00 0.81 0.00 0.00 0.00 0.00 0.00 0.00 0.00 0.00 0.00 0.00 0.00 0.81 0.00 0.81 0.00 0.81 0.00 0.00 0.00 0.00 0.80 0.00 0.00 0.00 0.00 0.00 0.00 0.00 0.00 0.00 0.00 0.53 1.00 0.00 0.00 0.00 0.00 0.00 0.00 0.84 0.00 0.69 0.64 0.90 0.88 0.00 0.00
0.94 0.00 0.51 0.00 0.75 0.00 0.00 0.81 0.00 0.00 0.00 0.00 0.00 0.00 0.95 0.00 0.00 0.79 0.00 0.00 0.83 0.00 0.00 0.55 0.00 0.00 0.00 0.00 0.00 0.53 0.76 0.00 0.91 0.00 0.00 0.00 0.00 0.00 0.00 0.00 0.00 0.00 0.00 0.00 0.00 0.00 0.00 0.00 0.00 0.00 0.00 0.00 0.00 0.61 0.75 0.00 0.00 0.00 0.88 0.00 0.79 0.00 0.53 0.00 0.00 0.00 0.00 0.00 0.94 0.00 0.61 0.59 0.00 0.00 0.00 0.92 0.00 0.00 0.00 0.00 0.00 0.00 0.00 0.00 0.00 0.00 0.57 0.64 0.00 0.00 0.00 0.00 0.69 0.00 0.99 0.00 0.56 0.00 0.00 0.74 0.61 0.00 0.00 0.00 0.95 0.00 0.00 0.94 0.00 0.82 0.00 0.00 0.00 0.00 0.00 0.00 0.00 0.00 0.00 0.00 0.00 0.00 0.00 0.00 0.00 0.00 0.00 0.00 0.00 0.00 0.00 0.50 0.00 0.00 0.00 0.00 0.00 0.00 0.98 0.00
0.00 0.00 0.00 0.72 0.00 0.00 0.00 0.73 0.00 0.00 0.72 0.00 0.00 0.00 0.00 0.00 0.00 0.93 0.66 0.00 0.00 0.00 0.61 0.73 0.00 0.00 0.00 0.00 0.00 0.00 1.00 0.00 0.00 0.00 0.85 0.00 0.00 0.00 0.00 0.00 0.00 0.00 0.00 0.00 0.00 0.00 0.00 0.00 0.00 0.00 0.00 0.00 0.96 0.00 0.00 0.00 0.00 0.00 0.66 0.75 0.00 0.64 0.00 0.96 0.00 0.00 0.00 0.65 0.00 0.00 0.00 0.00 0.79 0.96 0.51 0.00 0.00 0.00 0.00 0.00 0.89 0.82 0.00 0.73 0.71 0.00 0.00 0.69 0.00 0.00 0.00 0.00 0.00 0.00 0.63 0.64 0.00 0.00 0.00 0.00 0.00 0.00 0.00 0.00 0.00 0.00 0.00 0.80 0.00 0.00 0.95 0.00 0.00 0.00 0.00 0.00 0.00 0.52 0.97 0.95 0.00 0.00 0.00 0.00 0.00 0.00 0.00 0.00 0.00 0.00 0.53 0.00 0.00 0.00 0.56 0.00 0.00 0.00 0.00 0.00
0.00 1.00 0.00 0.00 0.75 0.00 0.00 0.00 0.00 0.00 0.51 0.00 0.00 0.00 0.75 0.00 0.00 0.00 0.00 0.67 0.00 0.00 0.00 0.00 0.00 0.68 0.00 0.00 0.00 0.75 0.68 0.00 0.63 0.00 0.88 0.84 0.00 0.60 0.79 0.00 0.00 0.00 0.00 0.73 0.00 0.62 0.00 0.00 0.00 0.56 0.65 0.00 0.95 0.50 0.00 0.00 0.84 0.99 0.94 0.00 0.70 0.00 0.00 0.00 0.00 0.85 0.87 0.00 0.00 0.00 0.68 0.00 0.00 0.00 0.00 0.00 0.81 0.00 0.00 0.00 0.63 0.00 0.00 0.00 0.00 0.00 0.97 0.00 0.00 0.85 0.64 0.00 0.00 0.00 0.00 0.00 0.00 0.00 0.60 0.00 0.00 0.00 0.00 0.00 0.00 0.00 0.00 0.00 0.00 0.00 0.00 0.00 0.63 0.00 0.00 0.00 0.00 0.66 0.00 0.00 0.00 0.87 0.00 0.00 0.00 0.66 0.00 0.00 0.00 0.00 0.00 0.75 0.00 0.00 0.00 0.00 0.00 0.00 0.00 0.00
0.00 0.91 0.64 0.00 0.77 0.00 0.00 0.00 0.62 0.00 0.90 0.00 0.00 0.83 0.00 0.00 0.82 0.79 0.00 0.00 0.00 0.62 0.68 0.79 0.00 0.00 0.00 0.00 0.00 0.00 0.00 0.00 0.00 0.74 0.00 0.00 0.00 0.00 0.00 0.00 0.00 0.00 0.00 0.00 0.00 0.00 0.00 0.00 0.52 0.00 0.00 0.00 0.00 0.00 0.00 0.00 0.00 0.00 0.00 0.00 0.00 0.67 0.00 0.00 0.00 0.00 0.70 0.80 0.00 0.00 0.00 0.00 0.00 0.58 0.00 0.00 0.00 0.00 0.00 0.00 0.00 0.00 0.00 0.00 0.00 0.00 0.00 0.00 0.00 0.00 0.75 0.00 0.89 0.00 0.00 0.53 0.00 0.00 0.78 0.52 0.00 0.00 0.00 0.00 0.79 0.00 0.00 0.00 0.00 0.00 0.00 0.00 0.54 0.00 0.74 0.00 0.00 0.00 0.00 0.83 0.79 0.00 0.53 0.60 0.00 0.90 0.00 0.64 0.00 0.00 0.68 0.00 0.71 0.00 0.00 0.00 0.00 0.00 0.00 0.00
0.00 0.88 0.99 0.00 0.00 0.00 0.00 0.00 0.00 0.00 0.00 0.00 0.00 0.00 0.00 0.00 0.00 0.00 0.00 0.00 0.00 0.66 0.00 0.00 0.00 0.91 0.00 0.00 0.70 0.00 0.86 0.00 0.00 0.00 0.00 0.00 0.00 0.00 0.00 0.00 0.65 0.00 0.00 0.00 0.00 0.00 0.96 0.00 0.85 0.79 0.00 0.00 0.83 0.00 0.00 0.00 0.00 0.00 0.00 0.86 0.00 0.00 0.00 0.00 0.71 0.00 0.00 0.00 0.00 0.00 0.77 0.00 0.00 0.88 0.00 0.83 0.00 0.00 0.00 0.00 0.00 0.00 0.00 0.95 0.00 0.80 0.00 0.00 0.76 0.00 0.96 0.55 1.00 0.00 0.00 0.52 0.00 0.00 0.00 0.00 0.00 0.00 0.00 0.00 0.00 0.00 0.00 0.00 0.00 0.56 0.00 0.00 0.00 0.00 0.84 0.00 0.00 0.00 0.00 0.00 0.00 0.00 0.00 0.00 0.00 0.00 0.75 0.00 0.00 0.00 0.00 0.00 0.00 0.00 0.00 0.59 0.00 0.00 0.00 0.58
0.00 0.00 0.00 0.89 0.66 0.00 0.00 0.00 0.00 0.00 0.00 0.00 0.00 0.00 0.00 0.00 0.00 0.77 0.00 0.91 0.00 0.91 0.00 0.00 0.00 0.00 0.96 0.00 0.00 0.00 0.00 0.00 0.00 0.00 0.96 0.00 0.94 0.00 0.00 0.00 0.00 0.91 0.00 0.52 0.00 0.00 0.00 0.00 0.00 0.00 0.92 0.00 0.63 0.00 0.00 0.00 0.92 0.74 0.00 0.00 0.00 0.00 0.00 0.00 0.53 0.00 0.00 0.00 0.00 0.00 0.00 0.00 1.00 0.00 0.00 0.92 0.00 0.63 0.00 0.00 0.00 0.00 0.00 0.00 0.00 0.00 0.00 0.00 0.73 0.00 0.00 0.00 0.00 0.00 0.00 0.00 0.56 0.00 0.67 0.00 0.00 0.00 0.00 0.00 0.00 0.00 0.00 0.00 0.59 0.00 0.00 0.00 0.00 0.00 0.00 0.00 0.00 0.00 0.00 0.00 0.00 0.00 0.51 0.00 0.93 0.00 0.00 0.00 0.00 0.00 0.00 0.00 0.00 0.00 0.00 0.00 0.88 0.00 0.00 0.00
0.00 0.00 0.84 0.00 0.71 0.00 0.00 0.00 0.00 0.00 0.77 0.73 0.00 0.00 0.00 0.00 0.00 0.00 0.00 0.00 0.00 0.00 0.00 0.00 0.00 0.76 0.00 0.00 0.00 0.00 0.00 0.00 0.00 0.00 0.00 0.53 0.83 0.85 0.00 0.00 0.96 0.00 0.00 0.00 0.00 0.00 0.00 0.00 0.00 0.00 0.76 0.97 0.00 0.52 0.00 0.00 0.00 0.00 0.61 0.00 0.00 0.00 0.00 0.00 0.00 0.00 0.78 0.82 0.00 0.51 0.93 0.00 0.00 0.00 0.63 0.00 0.00 0.52 0.00 0.78 0.79 0.00 0.00 0.00 0.98 0.00 0.00 0.00 0.82 0.96 0.00 0.00 0.00 0.00 0.00 0.53 0.00 0.86 0.00 0.00 0.00 0.00 0.00 0.54 0.81 0.00 0.00 0.00 0.00 0.00 0.88 0.56 0.00 0.00 0.00 0.00 0.00 0.68 0.00 0.00 0.00 0.94 0.00 0.00 0.00 0.00 0.00 0.00 0.55 0.00 0.00 0.00 0.00 0.99 0.00 0.82 0.63 0.00 0.00 0.53
0.00 0.00 0.00 0.00 0.00 0.57 0.00 0.66 0.78 0.00 0.00 0.00 0.00 0.79 0.00 0.00 0.00 0.00 0.00 0.00 0.00 0.00 0.00 0.00 0.00 0.00 0.00 0.94 0.00 0.00 0.00 0.00 0.00 0.00 0.88 0.00 0.53 0.64 0.81 0.79 0.00 0.00 0.72 0.00 0.00 0.00 0.00 0.00 0.00 0.00 0.00 0.00 0.00 0.60 0.00 0.00 0.00 0.00 0.96 0.00 0.00 0.00 0.00 0.95 0.72 0.00 0.55 0.00 0.00 0.00 0.99 0.00 0.00 0.00 0.00 0.00 0.95 0.00 0.00 0.00 0.00 0.00 0.00 0.82 0.00 0.00 0.00 0.00 0.56 0.00 0.00 0.00 0.98 0.00 0.00 0.00 0.67 0.00 0.00 0.00 0.00 0.89 0.00 0.55 0.61 0.00 0.89 0.00 0.88 0.00 0.00 0.53 0.51 0.00 0.00 0.75 0.00 0.00 0.00 0.00 0.00 0.00 0.00 0.00 0.00 0.00 0.00 0.53 0.00 0.00 0.00 0.00 0.00 0.00 0.00 0.00 0.00 0.00 0.00 0.00
0.00 0.00 0.00 0.68 0.00 0.00 0.00 0.00 0.00 0.00 0.00 0.00 0.00 0.00 0.61 0.00 0.00 0.55 0.92 0.00 0.00 0.00 0.53 0.00 0.00 0.00 0.00 0.00 0.69 0.00 0.00 0.00 0.00 0.00 0.88 0.00 0.00 0.00 0.00 0.00 0.00 0.00 0.00 0.00 0.00 0.00 0.00 0.00 0.00 0.00 0.94 0.00 0.00 0.00 0.00 0.00 0.00 0.00 0.00 0.00 0.00 0.00 0.00 0.00 0.00 0.00 0.00 0.67 0.00 0.00 0.00 0.00 0.00 0.00 0.00 0.78 0.00 0.00 0.00 0.85 0.00 0.00 0.50 0.74 0.00 0.00 0.00 0.00 0.00 0.00 0.86 0.95 0.00 0.96 0.00 0.70 0.00 0.00 0.00 0.51 0.57 0.67 0.70 0.82 0.91 0.00 0.00 0.00 0.00 0.00 0.00 0.58 0.94 0.97 0.00 0.00 0.68 0.00 0.00 0.00 0.00 0.00 1.00 0.85 0.00 0.58 0.00 0.00 0.00 0.00 0.00 0.00 0.00 0.66 0.00 0.00 0.82 0.96 0.00 0.64
0.00 0.66 0.00 0.00 0.00 0.00 0.97 0.97 0.00 0.00 0.00 0.00 0.00 0.00 0.00 0.00 0.00 0.00 0.00 0.00 0.00 0.70 0.00 0.00 0.74 0.00 0.00 0.00 0.53 0.00 0.00 0.00 0.00 0.65 0.00 0.00 0.00 0.00 0.75 0.00 0.00 0.00 0.00 0.00 0.00 0.00 0.59 0.00 0.00 0.00 0.90 0.00 0.94 0.00 0.00 0.00 0.00 0.00 0.00 0.00 0.00 0.00 0.00 0.70 0.85 0.00 0.00 0.00 0.00 0.00 0.00 0.00 0.00 0.00 0.53 0.00 0.00 0.00 0.00 0.00 0.00 0.69 0.00 0.00 0.00 0.00 0.93 0.76 0.00 0.57 0.00 0.00 0.00 0.00 0.75 0.00 0.00 0.00 0.00 0.89 0.00 0.66 0.00 0.00 0.00 0.00 0.00 0.00 0.00 0.68 0.00 0.00 0.68 0.00 0.00 0.96 0.00 0.56 0.54 0.00 0.58 0.00 0.00 0.00 0.00 0.00 0.00 0.00 0.00 0.00 0.00 0.00 0.00 0.00 0.85 0.57 0.00 0.00 0.00 0.78
0.00 0.86 0.00 0.00 0.85 0.00 0.62 0.00 0.00 0.00 0.00 0.00 0.54 0.00 0.00 0.94 0.62 0.57 0.00 0.00 0.00 0.00 0.74 0.00 0.00 0.00 0.00 0.60 0.00 0.00 0.84 0.00 0.71 0.00 0.77 0.00 0.00 0.00 0.00 0.98 0.72 0.00 0.74 0.00 0.00 0.00 0.00 0.00 0.00 0.00 0.87 0.00 0.00 0.00 0.71 0.00 0.00 0.53 0.00 0.00 0.00 0.00 0.59 0.00 0.00 0.98 0.00 0.77 0.00 0.82 0.75 0.67 0.00 0.00 0.86 0.00 0.00 0.78 0.00 0.00 0.00 0.75 0.00 0.00 0.83 0.67 0.00 0.00 0.00 0.00 0.00 0.00 0.00 0.00 0.76 0.00 0.00 0.00 0.00 0.00 0.00 0.95 0.00 0.00 0.00 0.00 0.00 0.00 0.00 0.00 0.76 0.00 0.00 0.00 0.00 0.00 0.00 0.00 0.00 0.00 0.00 0.00 0.00 0.00 0.56 0.00 0.00 0.00 0.66 0.00 0.00 0.00 0.00 0.00 0.00 0.00 0.00 0.00 0.00 0.00
0.70 0.00 0.00 0.00 0.00 0.00 0.00 0.64 0.00 0.79 0.81 0.00 0.00 0.00 0.00 0.00 0.92 0.00 0.00 0.00 0.00 0.00 0.00 0.00 0.57 0.95 0.00 0.00 0.00 0.00 0.53 0.00 0.00 0.00 0.00 0.00 0.00 0.00 0.00 0.00 0.00 0.00 0.85 0.00 0.00 0.00 0.00 0.00 0.98 0.00 0.00 0.83 0.59 0.00 0.00 0.00 0.94 0.00 0.00 0.00 0.00 0.56 0.00 0.82 0.77 0.00 0.00 0.00 0.00 0.00 0.80 0.00 0.00 0.00 0.00 0.00 0.00 0.00 0.00 0.00 0.00 0.00 0.00 0.00 0.75 0.00 0.00 0.53 0.00 0.00 0.00 0.00 0.00 0.00 0.00 0.87 0.97 0.00 0.00 0.00 0.78 0.00 0.00 0.00 0.00 0.00 0.00 0.00 0.00 0.00 0.68 0.00 0.70 0.00 0.00 0.00 0.00 0.00 0.58 0.00 0.00 0.00 0.91 0.00 0.00 0.87 0.00 0.00 0.00 0.93 0.00 0.00 0.00 0.00 0.00 0.00 0.00 0.89 0.00 0.51
0.00 0.58 0.00 0.00 0.00 0.00 0.00 0.00 0.00 0.00 0.00 0.00 0.00 0.00 0.55 0.00 0.00 0.00 0.00 0.00 0.00 0.00 0.55 0.00 0.71 0.69 0.00 0.71 0.00 0.00 0.78 0.00 0.00 0.00 0.00 0.00 0.58 0.00 0.00 0.00 0.00 0.00 0.92 0.00 0.00 0.00 0.00 0.94 0.94 0.00 0.00 0.00 0.00 0.00 0.00 0.00 0.00 0.00 0.00 0.00 0.00 0.00 0.93 0.91 0.00 0.00 0.00 0.00 0.62 0.00 0.00 0.00 0.00 0.00 0.00 0.00 0.00 0.00 0.00 0.00 0.00 0.54 0.00 0.00 0.00 0.00 0.00 0.00 0.63 0.73 0.00 0.00 0.00 0.00 0.00 0.00 0.00 0.00 0.79 0.76 0.65 0.00 0.00 0.00 0.00 0.00 0.00 0.00 0.00 0.00 0.00 0.00 0.00 0.00 0.77 0.00 0.00 0.76 0.00 0.00 0.97 0.00 0.00 0.00 0.00 0.00 0.51 0.80 0.00 0.00 0.00 0.00 0.00 0.00 0.00 0.00 0.00 0.00 0.92 0.00
0.70 0.62 0.00 0.00 0.00 0.00 0.00 0.00 0.00 0.00 0.87 0.00 0.00 0.00 0.00 0.00 0.00 0.00 0.00 0.70 0.65 0.00 0.00 0.00 0.00 0.89 0.00 0.00 0.00 0.00 0.00 0.94 0.00 0.00 0.00 0.00 0.00 0.70 0.00 0.00 0.00 0.00 0.00 0.00 0.00 0.55 0.00 0.00 0.00 0.00 0.56 0.00 0.96 0.84 0.00 0.00 0.00 0.00 0.76 0.73 0.51 0.00 0.00 0.00 0.00 0.00 0.98 0.84 0.72 0.00 0.00 0.00 0.00 0.58 0.69 0.00 0.00 0.56 0.00 0.00 0.62 0.00 0.00 0.00 0.00 0.00 0.00 0.00 0.00 0.00 0.00 0.00 0.00 0.00 0.00 0.00 0.00 0.00 0.00 0.00 0.00 0.63 0.71 0.00 0.00 0.86 0.00 0.50 0.00 0.00 0.00 0.00 0.00 0.93 0.00 0.00 0.00 0.00 0.00 0.00 0.00 0.00 0.97 0.00 0.00 0.00 0.00 0.00 0.00 0.60 0.00 0.00 0.00 0.00 0.00 0.00 0.58 0.00 0.66 0.00
0.76 0.00 0.00 0.00 0.00 0.00 0.00 0.00 0.00 0.00 0.61 0.91 0.00 0.00 0.74 0.00 0.00 0.00 0.00 0.79 0.00 0.00 0.00 0.00 0.00 0.00 0.79 0.00 0.00 0.00 0.00 0.00 0.00 0.00 0.00 0.57 0.86 0.00 0.00 0.00 0.00 0.56 0.00 0.00 0.00 0.00 0.57 0.00 0.00 0.74 0.00 0.71 0.00 0.77 0.00 0.00 0.00 0.00 0.65 0.00 0.00 0.00 0.00 0.00 0.00 0.00 0.00 0.00 0.00 0.00 0.00 0.00 0.00 1.00 0.76 0.78 0.00 0.00 0.00 0.00 0.00 0.00 0.00 0.00 0.00 0.00 0.00 0.00 0.00 0.56 0.00 0.00 0.00 0.66 0.76 0.00 0.00 0.00 0.00 0.00 0.75 0.90 0.00 0.00 0.00 0.61 0.00 0.00 0.00 0.70 0.00 0.00 0.00 0.00 0.00 0.00 0.00 0.00 0.00 0.00 0.00 0.50 0.00 0.99 0.00 0.00 0.00 0.72 0.00 0.00 0.00 0.00 0.00 0.00 0.54 0.00 0.00 0.00 0.00 0.00
0.00 0.00 0.66 0.00 0.00 0.00 0.00 0.00 0.00 0.00 0.00 0.00 0.92 0.00 0.77 0.00 0.00 0.00 0.00 0.00 0.00 0.00 0.00 0.00 0.00 0.00 0.00 0.00 0.00 0.00 0.00 0.00 0.00 0.89 0.00 0.00 0.00 0.00 0.00 0.90 0.00 0.00 0.00 0.87 0.00 0.00 0.00 0.00 0.00 0.63 0.00 0.71 0.00 0.00 0.00 0.56 0.00 0.74 0.00 0.00 0.00 0.00 0.00 0.00 0.00 0.00 0.00 0.00 0.00 0.00 0.00 0.00 0.00 0.00 0.00 0.00 0.98 0.00 0.00 0.90 0.00 0.00 0.00 0.00 0.00 0.00 0.00 0.00 0.92 0.00 0.00 0.00 0.00 0.00 1.00 0.00 0.00 0.00 0.00 0.70 0.86 0.00 0.00 0.00 0.00 0.00 0.51 0.79 0.00 0.00 0.00 0.00 0.00 0.00 0.81 0.00 0.00 0.71 0.00 0.00 0.56 0.00 0.00 0.00 0.00 0.83 0.00 0.00 0.66 0.00 0.00 0.00 0.00 0.00 0.00 0.00 0.00 0.00 0.00 0.00
0.00 0.00 0.00 0.00 0.00 0.00 0.00 0.00 0.83 0.00 0.00 0.00 0.00 0.00 0.00 0.00 0.00 0.56 0.00 0.00 0.00 0.66 0.00 0.00 0.61 0.98 0.00 0.00 0.00 0.87 0.66 0.00 0.00 0.55 0.64 0.00 0.00 0.00 0.00 0.61 0.00 0.00 0.00 0.00 0.00 0.00 0.00 0.74 0.00 0.00 0.00 0.00 0.88 0.00 0.00 0.85 0.51 0.00 0.00 0.00 0.00 0.00 0.00 0.95 0.00 0.00 0.88 0.00 0.00 0.00 0.82 0.00 0.00 0.00 0.00 0.00 0.91 1.00 0.00 0.50 0.00 0.77 0.00 0.00 0.00 0.00 0.00 0.00 0.00 0.00 0.00 0.00 0.00 0.00 0.00 0.84 0.00 0.00 0.00 0.00 0.00 0.00 0.55 0.00 0.58 0.00 0.00 0.00 0.00 0.68 0.00 0.00 0.00 0.00 0.00 0.00 0.00 0.00 0.00 0.00 0.00 0.00 0.58 0.89 0.00 0.59 0.00 0.00 0.00 0.00 0.92 0.00 0.00 0.00 0.90 0.00 0.00 0.00 0.68 0.00
0.00 0.00 0.88 0.50 0.00 0.00 0.69 0.00 0.00 0.84 0.00 0.00 0.86 0.55 0.00 0.00 0.00 0.88 0.00 0.74 0.00 0.72 0.00 0.83 0.00 0.61 0.00 0.00 0.00 0.00 0.00 0.58 0.00 0.00 0.00 0.99 0.89 0.00 0.00 0.00 0.94 0.00 0.00 0.75 0.00 0.00 0.00 0.00 0.00 0.65 0.00 0.00 0.00 0.00 0.73 0.00 0.00 0.00 0.00 0.00 0.00 0.00 0.91 0.00 0.00 0.00 0.00 0.00 0.00 0.00 0.00 0.00 0.00 0.00 0.00 0.00 0.00 0.00 0.00 0.00 0.00 0.00 0.00 0.00 0.56 0.00 0.69 0.00 0.00 0.63 0.00 0.00 0.00 0.00 0.66 0.00 0.00 0.00 0.00 0.00 0.00 0.67 0.00 0.00 0.86 0.00 0.00 0.00 0.00 0.00 0.00 0.52 0.00 0.00 0.81 0.00 0.00 0.00 0.00 0.00 0.00 0.00 0.00 0.00 0.00 0.00 0.00 0.00 0.00 0.96 0.56 0.00 0.00 0.00 0.00 0.00 0.00 0.00 0.00 0.00
0.00 0.00 0.00 0.00 0.93 0.00 0.00 0.00 0.00 0.00 0.00 0.00 0.00 0.79 0.90 0.00 0.00 0.00 0.00 0.00 0.00 0.00 0.00 0.00 0.87 0.00 0.00 0.00 0.84 0.00 0.00 0.00 0.82 0.60 0.00 0.00 0.00 0.00 0.00 0.62 0.00 0.00 0.00 0.00 0.57 0.00 0.00 0.69 0.00 0.80 0.72 0.00 0.00 0.78 0.00 0.00 0.00 0.00 0.00 0.00 0.00 0.00 0.00 0.00 0.00 0.00 0.00 0.00 0.00 0.00 0.97 0.52 0.95 0.00 0.00 0.00 0.00 0.00 0.00 0.00 0.00 0.00 0.81 0.00 0.00 0.00 0.72 0.00 0.00 0.00 0.00 0.00 0.76 0.00 0.00 0.92 0.53 0.00 0.00 0.00 0.69 0.00 0.00 0.00 0.00 0.00 0.66 0.00 0.00 0.00 0.00 0.00 0.00 0.00 0.00 0.00 0.00 0.53 0.00 0.89 0.00 0.00 0.00 0.00 0.00 0.91 0.00 0.00 0.53 0.00 0.00 0.85 0.00 0.00 0.00 0.00 0.00 0.00 0.00 0.00
