62
0.00 0.53 0.00 0.68 0.00 0.00 0.62 0.00 0.85 0.00 0.00 0.00 0.00 0.00 0.00 0.00 0.00 0.00 0.00 0.00 0.79 0.65 0.00 0.00 0.00 0.00 0.00 0.70 0.00 0.00 0.98 0.00 0.00 0.00 0.80 0.00 0.78 0.00 0.00 0.00 0.00 0.00 0.64 0.00 0.00 0.00 0.00 0.00 0.00 0.89 0.90 0.00 0.00 0.00 0.00 0.00 0.93 0.00 0.78 0.00 0.00 0.00
0.00 0.00 0.00 0.00 0.00 0.00 0.00 0.00 0.00 0.00 0.00 0.00 0.53 0.00 0.88 0.00 0.67 0.96 0.00 0.00 0.55 0.00 0.00 0.00 0.69 0.66 0.00 0.00 0.81 0.00 0.00 0.00 0.00 0.00 0.00 0.00 0.00 0.00 0.00 0.00 0.00 0.00 0.00 0.00 0.00 0.00 0.53 0.00 0.00 0.73 0.90 0.00 0.00 0.00 0.00 0.00 0.00 0.00 0.99 0.00 0.00 0.00
0.00 0.00 0.00 0.86 0.00 0.00 0.82 0.00 0.00 0.00 0.59 0.00 0.00 0.00 0.80 0.54 0.00 0.00 0.00 0.00 0.00 0.00 0.00 0.00 0.00 0.00 0.00 0.00 0.00 0.00 0.63 0.69 0.00 0.57 0.00 0.00 0.00 0.00 0.00 0.00 0.93 0.69 0.00 0.53 0.00 0.00 0.56 0.00 0.00 0.81 0.00 0.00 0.00 0.00 0.99 0.00 0.00 0.77 0.00 0.00 0.00 0.00
0.00 0.00 0.00 0.00 0.77 0.83 0.00 0.00 0.00 0.00 0.00 0.00 0.69 0.00 0.00 0.00 0.00 0.00 0.71 0.74 0.98 0.70 0.00 0.00 0.00 0.00 0.00 0.00 0.00 0.00 0.00 0.72 0.00 0.00 0.64 0.00 0.00 0.00 0.00 0.00 0.00 0.82 0.00 0.00 0.99 0.00 0.00 0.00 0.00 0.00 0.00 0.00 0.00 0.00 0.00 0.00 0.00 0.97 0.87 0.00 0.00 0.00
0.00 0.00 0.00 0.00 0.00 0.00 0.87 0.87 0.81 0.00 0.00 0.00 0.00 0.00 0.00 0.00 0.55 0.64 0.00 0.00 0.00 0.00 0.00 0.00 0.78 0.00 0.00 0.00 0.00 0.00 0.86 0.00 0.00 0.00 0.00 0.00 0.00 0.00 0.68 0.57 0.00 0.00 0.00 0.78 0.00 0.00 0.00 0.56 0.00 0.00 0.00 0.00 0.00 0.00 0.00 0.00 0.00 0.00 0.00 0.00 0.00 0.00
0.00 0.00 0.00 0.56 0.00 0.00 0.00 0.00 0.58 0.89 0.00 0.00 0.00 0.00 0.00 0.00 0.00 0.00 0.59 0.00 0.00 0.73 0.72 0.87 0.00 0.00 0.98 0.00 0.00 0.00 0.00 0.00 0.00 0.00 0.61 0.00 0.00 0.00 0.00 0.87 0.00 0.58 0.00 0.00 0.00 0.00 0.00 0.00 0.00 0.00 0.93 0.00 0.58 0.00 0.00 0.00 0.00 0.00 0.00 0.00 0.00 0.00
0.00 0.93 0.00 0.00 0.00 0.00 0.00 0.00 0.00 0.00 0.00 0.00 0.00 0.00 0.94 0.62 0.00 0.00 0.00 0.00 0.97 0.00 0.93 0.00 0.00 0.52 0.00 0.00 0.00 0.57 0.00 0.00 0.00 0.00 0.00 0.73 0.54 0.00 0.63 0.00 0.78 0.00 0.00 0.79 0.93 0.00 0.00 0.00 0.00 0.00 0.00 0.77 0.63 0.00 0.00 0.00 0.00 0.00 0.68 0.00 0.00 0.96
0.00 0.00 0.78 0.98 0.00 0.53 0.00 0.00 0.00 0.00 0.57 0.00 0.00 0.98 0.00 0.88 0.00 0.00 0.00 0.00 0.75 0.00 0.00 0.00 0.00 1.00 0.00 0.78 0.00 0.00 0.61 0.00 0.00 0.00 0.00 0.00 0.00 0.00 0.00 0.00 1.00 0.00 0.00 0.00 0.00 0.00 0.00 0.00 0.00 0.00 0.00 0.00 0.00 0.00 0.92 0.00 0.00 0.00 0.00 0.59 0.00 0.00
0.00 0.59 0.00 0.00 0.00 0.00 0.00 0.00 0.00 0.00 0.75 0.00 0.56 0.00 0.00 0.78 0.00 0.00 0.00 0.00 0.80 0.57 0.00 0.00 0.00 0.00 0.77 0.00 0.00 0.00 0.00 0.99 0.00 0.00 0.00 0.67 0.00 0.00 0.00 0.77 0.00 0.00 0.00 0.00 0.00 0.00 0.00 0.00 0.00 0.00 0.91 0.58 1.00 0.00 0.00 0.00 0.00 0.58 0.00 0.00 0.00 0.91
0.00 0.00 0.00 0.00 0.00 0.51 0.00 0.00 0.63 0.00 0.00 0.00 0.00 0.82 0.00 0.00 0.00 0.00 0.00 0.00 0.00 0.00 0.67 0.00 0.62 0.00 0.80 0.00 0.00 0.00 0.00 0.00 0.00 0.00 0.64 0.65 0.00 0.55 0.86 0.00 0.00 0.00 0.56 0.00 0.00 0.00 0.67 0.00 0.00 0.00 0.00 0.68 0.00 0.00 0.00 0.68 0.95 0.00 0.84 0.81 0.00 0.84
0.00 0.00 0.00 0.96 0.00 0.00 0.00 0.77 0.00 0.00 0.00 0.00 0.00 0.85 0.00 0.00 0.00 0.66 0.00 0.73 0.00 0.00 0.00 0.00 0.00 0.00 0.00 0.98 0.00 0.00 0.00 0.00 0.94 0.00 0.00 0.00 0.00 0.89 0.00 0.00 0.00 0.00 0.00 0.00 0.00 0.69 0.00 0.77 0.00 0.78 0.00 0.00 0.00 0.00 0.00 0.00 0.00 0.00 0.00 0.00 1.00 0.57
0.00 0.00 0.84 0.00 0.00 0.00 0.00 0.00 0.00 0.00 0.00 0.00 0.00 0.00 0.00 0.00 0.00 0.00 0.00 0.00 0.91 0.00 0.74 1.00 0.00 0.00 0.00 0.00 0.00 0.81 0.00 0.61 0.00 0.00 0.00 0.00 0.60 0.00 0.55 0.90 0.00 0.00 0.00 0.78 0.88 0.62 0.00 0.00 0.92 0.52 0.00 0.00 0.00 0.00 0.00 0.92 0.00 0.00 0.00 0.00 1.00 0.00
0.88 0.00 0.53 0.00 0.50 0.61 0.00 0.00 0.00 0.00 0.00 0.00 0.00 0.00 0.00 0.00 0.59 0.96 0.83 0.59 0.00 0.00 0.00 0.00 0.00 0.00 0.00 0.00 0.65 0.00 0.72 0.00 0.00 0.50 0.00 0.00 0.92 0.00 0.93 0.00 0.00 0.00 0.00 0.66 0.00 0.00 0.00 0.00 0.00 0.74 0.71 0.00 0.00 0.85 0.00 0.00 0.00 0.68 0.00 0.86 0.00 0.00
0.00 0.00 0.00 0.00 0.00 0.00 0.00 0.00 0.83 0.00 0.00 0.83 0.00 0.00 0.00 0.00 0.00 0.00 0.00 0.00 0.00 0.00 0.00 0.70 0.00 0.89 0.00 0.00 0.00 0.78 0.00 0.00 0.00 0.00 0.00 0.00 0.87 0.87 0.00 0.52 0.00 0.78 0.54 0.00 0.00 0.00 0.00 0.00 0.00 0.00 0.00 0.00 0.83 0.00 0.00 0.56 0.69 0.63 0.00 0.00 0.00 0.69
0.81 0.78 0.95 0.00 0.83 0.84 0.00 0.00 0.00 0.00 0.96 0.00 0.00 0.91 0.00 0.00 0.00 0.00 0.00 0.69 0.00 0.00 0.84 0.92 0.00 0.00 0.00 0.98 0.72 0.00 0.00 0.71 0.00 0.00 0.00 0.00 0.00 0.00 0.00 0.87 0.00 0.54 0.56 0.00 0.00 0.00 0.00 0.00 0.00 0.00 0.75 0.00 0.00 0.00 0.80 0.75 0.00 0.00 0.00 0.76 0.00 0.00
0.00 0.00 0.00 0.00 0.00 0.00 0.00 0.00 0.72 0.00 0.00 0.98 0.00 0.00 0.00 0.00 0.00 0.67 0.00 0.66 0.00 0.00 0.00 0.00 0.00 0.54 0.00 0.00 1.00 0.00 0.67 0.00 0.84 0.00 0.00 0.93 0.00 0.00 0.00 0.00 0.00 0.00 0.00 0.97 0.00 0.00 0.68 0.59 0.00 0.00 0.00 0.00 0.00 0.61 0.95 0.00 0.00 0.00 0.00 0.00 0.00 0.00
0.00 0.00 0.00 0.00 0.00 0.00 0.99 0.00 0.00 0.00 0.57 0.00 0.00 0.00 0.00 0.00 0.00 0.00 0.00 0.00 0.95 0.00 0.00 0.00 0.56 0.00 0.00 0.58 0.71 0.51 0.00 0.99 0.82 0.00 0.00 0.71 0.94 0.00 0.79 0.00 0.00 0.00 0.00 0.50 0.00 0.00 0.59 0.00 0.00 0.00 0.00 0.70 0.00 0.00 0.00 0.59 0.00 0.00 0.79 0.00 0.00 0.00
0.00 0.00 0.61 0.00 0.96 0.00 0.00 0.61 0.00 0.00 0.69 0.00 0.00 0.00 0.00 0.00 0.00 0.00 0.00 0.00 0.51 0.00 0.00 0.88 0.00 0.00 0.00 0.68 0.00 0.00 0.00 0.77 0.00 0.00 0.00 0.00 0.71 0.00 0.00 0.00 0.00 0.00 0.00 0.00 0.00 0.00 0.00 0.00 0.94 0.00 0.00 0.83 0.00 0.00 0.00 0.00 0.00 0.78 0.00 0.88 0.94 0.00
0.00 0.00 0.00 0.00 0.00 0.68 0.00 0.00 0.78 0.00 0.00 0.79 0.00 0.00 0.00 0.00 0.00 0.00 0.00 0.00 0.00 0.00 0.82 0.00 0.00 0.58 0.73 0.00 0.88 0.00 0.67 0.00 0.66 0.00 0.00 0.67 0.57 0.00 0.00 0.60 0.00 0.63 0.00 0.55 0.00 0.60 0.91 0.00 0.00 0.93 0.00 0.00 0.83 0.00 0.00 0.00 0.83 0.00 0.00 0.86 0.60 0.00
0.00 0.68 0.94 0.00 0.00 0.00 0.00 0.00 0.74 0.00 0.54 0.00 0.00 0.00 0.93 0.00 0.90 0.00 0.00 0.00 0.00 0.00 0.00 0.00 0.00 0.00 0.00 0.00 0.00 0.00 0.94 0.00 0.00 0.00 0.00 0.00 0.00 0.54 0.55 0.00 0.00 0.00 0.00 0.00 0.93 0.00 0.00 0.00 0.00 0.00 0.86 0.00 0.00 0.00 0.00 0.62 0.00 0.00 0.00 0.00 0.78 0.69
0.00 0.91 0.80 0.00 0.00 0.00 0.00 0.00 0.00 0.83 0.66 0.00 0.00 0.00 0.00 0.00 0.00 0.00 0.00 0.58 0.00 0.00 0.00 0.00 0.00 0.00 0.00 0.00 0.76 0.00 0.00 0.00 0.00 0.95 0.00 0.00 0.00 0.00 0.00 0.88 0.00 0.00 0.00 0.83 0.00 0.00 0.00 0.00 0.00 0.00 0.00 0.00 0.00 0.00 0.00 0.86 0.63 0.67 0.00 0.00 0.00 0.00
0.00 0.00 0.68 0.00 0.00 0.00 0.00 0.00 0.00 0.00 0.00 0.00 0.00 0.00 0.00 0.00 0.00 0.00 0.58 0.00 0.00 0.00 0.00 0.00 0.00 0.00 0.00 0.00 0.00 0.00 0.69 0.00 0.00 0.00 0.00 0.60 0.00 0.00 0.00 0.00 0.00 0.00 0.00 0.60 0.00 0.00 0.00 0.00 0.00 0.00 0.00 0.76 0.00 0.00 0.62 0.00 0.00 0.70 0.00 0.00 0.68 0.54
0.93 0.00 0.82 0.00 0.85 0.97 0.00 0.00 0.82 0.00 0.60 0.00 0.00 0.53 0.00 0.85 0.67 0.00 0.00 0.00 0.00 0.00 0.00 0.00 0.00 0.00 0.00 0.00 0.00 0.00 0.00 0.00 0.86 0.53 0.00 0.00 0.00 0.00 0.56 0.60 0.00 0.77 0.00 0.00 0.93 0.00 0.00 0.00 0.00 0.00 0.00 0.00 0.00 0.00 0.00 0.00 0.76 0.00 0.00 0.83 0.74 0.00
0.00 0.77 0.81 0.00 0.00 0.00 0.86 0.00 0.00 0.00 0.00 0.91 0.00 0.99 0.00 0.00 0.75 0.00 0.00 0.00 0.00 0.00 0.79 0.00 0.00 0.00 0.00 0.00 0.83 0.00 0.00 0.00 0.00 0.00 0.00 0.00 0.00 0.00 0.00 0.85 0.94 0.75 0.60 0.00 0.00 0.00 0.00 0.88 0.00 0.75 0.00 0.00 0.00 0.00 0.00 0.00 0.76 0.00 0.00 0.00 0.00 0.00
0.00 0.00 0.82 0.00 0.66 0.00 0.00 0.00 0.00 0.00 0.00 0.00 0.98 0.00 0.60 0.66 0.89 0.71 0.00 0.00 0.00 0.00 0.00 0.00 0.00 0.00 0.90 0.00 0.00 0.00 0.00 0.78 0.67 0.00 0.00 0.73 0.00 0.00 0.60 0.00 0.00 0.00 0.00 0.00 0.00 0.00 0.00 0.00 0.77 0.00 0.00 0.00 0.00 0.94 0.00 0.00 0.00 0.00 0.00 0.79 0.00 0.00
0.00 0.00 0.00 0.00 0.94 0.00 0.00 0.00 0.00 0.93 0.00 0.00 0.00 0.00 0.00 0.00 0.00 0.68 0.00 0.62 0.00 0.54 0.00 0.64 0.00 0.00 0.00 0.00 0.00 0.00 0.56 0.00 0.00 0.53 0.00 0.76 0.00 0.00 0.00 0.00 0.00 0.67 0.00 0.66 0.79 0.00 0.00 0.00 0.00 0.00 0.00 0.00 0.00 0.00 0.51 0.00 0.00 0.87 0.00 0.00 0.00 0.90
0.00 0.00 0.00 0.00 0.00 0.00 0.00 0.00 0.00 0.86 0.00 0.96 0.68 0.00 0.57 0.00 0.00 0.00 0.79 0.00 0.00 0.00 0.00 0.96 0.00 0.00 0.00 0.00 0.00 0.00 0.00 0.00 0.00 0.81 0.87 0.96 0.00 0.00 0.00 0.00 0.00 0.00 0.00 0.00 0.62 0.00 0.93 0.00 0.62 0.00 0.00 0.98 0.00 0.00 0.00 0.00 0.62 0.00 0.00 0.00 0.85 0.00
0.00 0.00 0.00 0.00 0.00 0.00 0.63 0.00 0.00 0.00 0.00 0.00 0.00 0.00 0.93 0.00 0.00 0.00 0.00 0.70 0.56 0.00 0.00 0.00 0.71 0.86 0.00 0.00 0.00 0.00 0.00 0.00 0.00 0.00 0.84 0.77 0.00 0.00 0.00 0.80 0.00 0.00 0.65 0.00 0.53 0.00 0.72 0.00 0.00 0.00 0.00 0.00 0.73 0.00 0.00 0.00 0.00 0.57 0.82 0.00 0.00 0.00
0.86 0.00 0.00 0.68 0.00 0.00 0.00 0.00 0.00 0.00 0.00 0.00 0.65 0.00 0.74 0.79 0.00 0.00 0.00 0.00 0.00 0.00 0.96 0.00 0.00 0.00 0.00 0.00 0.00 0.78 0.00 0.99 0.00 0.00 0.00 0.00 0.00 0.81 0.00 0.84 0.00 0.53 0.91 0.81 0.56 0.00 0.75 0.95 0.73 0.00 0.00 0.00 0.99 0.00 0.86 0.00 0.98 0.00 0.00 0.00 0.00 0.00
0.00 0.00 0.00 0.00 0.68 0.00 0.00 0.00 0.00 0.68 0.00 0.00 0.60 0.00 0.00 0.00 0.00 0.00 0.65 0.00 0.00 0.00 0.00 0.00 0.67 0.00 0.00 0.00 0.00 0.00 0.57 0.00 0.00 0.91 0.00 0.00 0.00 0.00 0.00 0.00 0.77 0.00 0.00 0.00 0.98 0.62 0.00 0.00 0.66 0.00 0.00 0.00 0.00 0.84 0.00 0.00 0.67 0.00 0.00 0.00 0.00 0.00
0.94 0.00 0.00 0.59 0.68 0.00 0.96 0.74 0.00 0.00 0.81 0.00 0.76 0.00 0.00 0.00 0.96 0.00 0.00 0.00 0.00 0.00 0.00 0.61 0.00 0.76 0.00 0.62 0.75 0.00 0.00 0.00 0.00 0.00 0.00 0.61 0.00 0.00 0.00 0.73 0.00 0.55 0.81 0.00 0.00 0.00 0.00 0.66 0.00 0.00 0.00 0.94 0.00 0.00 0.00 0.00 0.00 0.00 0.76 0.00 0.00 0.00
0.78 0.87 0.00 0.00 0.98 0.00 0.00 0.80 0.00 0.00 0.00 0.86 0.00 0.00 0.00 0.72 0.00 0.00 0.00 0.60 0.74 0.00 0.00 0.00 0.00 0.89 0.00 0.83 0.54 0.70 0.00 0.00 0.56 0.00 0.00 0.00 0.00 0.00 0.00 0.00 0.00 0.00 0.00 0.00 0.90 0.55 0.00 0.00 0.00 0.00 0.79 0.00 0.00 0.00 0.95 0.00 0.00 0.00 0.00 0.64 0.75 0.00
0.00 0.00 0.00 0.00 0.00 0.59 0.00 0.00 0.00 0.00 0.00 0.00 0.87 0.00 0.00 0.91 0.00 0.00 0.00 0.00 0.00 0.00 0.00 0.00 0.93 0.95 0.98 0.00 0.00 0.00 0.00 0.00 0.00 0.00 0.00 0.73 0.00 0.00 0.93 0.00 0.00 0.00 0.00 0.00 0.00 0.96 0.00 0.00 0.00 0.00 0.87 0.00 0.00 0.00 0.00 0.91 0.00 0.00 0.73 0.00 0.00 0.00
0.00 0.88 0.00 0.00 0.00 0.00 0.63 0.00 0.69 0.00 0.95 0.00 0.00 0.00 0.00 0.69 0.00 0.90 0.00 0.65 0.00 0.00 0.00 0.00 0.00 0.00 0.92 0.57 0.89 0.00 0.00 0.00 0.91 0.00 0.70 0.00 0.00 0.00 0.00 0.00 0.00 0.67 0.52 0.00 0.57 0.54 0.00 0.00 0.00 0.00 0.00 0.59 0.74 0.00 0.00 0.50 0.61 0.55 0.00 0.00 0.00 0.56
0.00 0.00 0.00 0.00 0.00 0.00 0.00 0.72 0.00 0.00 0.00 0.84 0.00 0.61 0.68 0.89 0.00 0.00 0.00 0.00 0.00 0.00 0.00 0.00 0.00 0.00 0.00 0.00 0.60 0.00 0.00 0.00 0.76 0.00 0.00 0.00 0.00 0.00 0.00 0.00 0.00 0.73 0.00 0.00 0.00 0.00 0.00 0.76 0.00 0.64 0.00 0.00 0.00 0.63 0.00 0.00 0.71 0.00 0.00 0.00 0.00 0.00
0.00 0.79 0.00 0.00 0.56 0.00 0.97 0.66 0.54 0.72 0.00 0.00 0.00 0.00 1.00 0.00 0.72 0.00 0.00 0.00 0.00 0.00 0.00 0.00 0.00 0.00 0.00 0.00 0.00 0.82 0.00 0.00 0.81 0.72 0.00 0.00 0.00 0.00 0.79 0.96 0.81 0.00 0.00 0.00 0.00 0.74 0.84 0.00 0.00 0.00 0.00 0.00 0.00 0.00 0.00 0.00 0.00 0.00 0.00 0.00 0.00 0.79
0.00 0.00 0.00 0.00 0.00 0.00 0.00 0.00 0.00 0.71 0.00 0.95 0.97 0.96 0.80 0.00 0.00 0.85 0.63 0.63 0.00 0.00 0.00 0.00 0.00 0.00 0.00 0.00 0.00 0.00 0.00 0.00 0.87 0.58 0.00 0.00 0.00 0.93 0.00 0.66 0.84 0.59 0.00 0.00 0.00 0.00 0.00 0.00 0.66 0.80 0.00 0.00 0.00 0.00 0.00 0.00 0.00 0.00 0.00 0.50 0.00 0.00
0.74 0.00 0.00 0.00 0.00 0.00 0.00 0.00 0.00 0.92 0.00 0.00 0.00 0.00 0.00 0.53 0.00 0.00 0.00 0.00 0.00 0.00 0.92 0.52 0.52 0.00 0.00 0.00 0.00 0.00 0.00 0.74 0.00 0.00 0.00 0.00 0.00 0.00 0.00 0.00 0.90 0.00 0.67 0.00 0.00 0.90 0.00 0.00 0.00 0.00 0.91 0.00 0.00 0.00 0.56 0.85 0.00 0.00 0.00 0.74 0.00 0.56
0.00 0.00 0.00 0.83 0.00 0.00 0.00 0.00 0.00 0.00 0.55 0.00 0.00 0.00 0.00 0.00 0.00 0.00 0.72 0.77 0.00 0.00 0.00 0.00 0.00 0.62 0.94 0.00 0.00 0.74 0.00 0.00 0.00 0.00 0.00 0.89 0.00 0.00 0.00 0.00 0.00 0.00 0.00 0.00 0.00 0.00 0.00 0.00 0.66 0.00 0.00 0.57 0.88 0.59 0.82 0.00 0.00 0.00 0.00 0.00 0.00 0.00
0.00 0.00 0.96 0.56 0.84 0.00 0.00 0.00 0.67 0.00 0.00 0.00 0.00 0.00 0.63 0.00 0.00 0.00 0.87 0.00 0.00 0.51 0.00 0.00 0.84 0.00 0.00 0.00 0.62 0.00 0.88 0.00 0.00 0.00 0.00 0.00 0.00 0.77 0.00 0.00 0.00 0.00 0.00 0.00 0.00 0.00 0.00 0.00 0.53 0.00 0.98 0.00 0.69 0.00 0.00 0.00 0.00 0.00 0.00 0.00 0.62 0.00
0.94 0.00 0.00 0.00 0.58 0.00 0.00 0.00 0.00 0.89 0.00 0.00 0.00 0.00 0.00 0.87 0.00 0.00 0.00 0.00 0.85 0.00 0.00 0.00 0.00 0.00 0.53 0.00 0.00 0.00 0.00 0.81 0.00 0.00 0.00 0.52 0.00 0.55 0.00 0.00 0.00 0.00 0.00 0.00 0.00 0.00 0.00 0.00 0.00 0.00 0.00 0.00 0.00 0.85 0.52 0.00 0.00 0.00 0.00 0.00 0.90 0.00
0.00 0.00 0.00 0.00 0.00 0.75 0.00 0.00 0.00 0.00 0.00 0.62 0.70 0.00 0.00 0.83 0.00 0.00 0.00 0.00 0.00 0.00 0.00 0.00 0.97 0.00 0.00 0.82 0.00 0.00 0.00 0.00 0.00 0.00 0.94 0.90 0.00 0.00 0.00 0.00 0.00 0.00 0.00 0.95 0.00 0.00 0.00 0.00 0.76 0.81 0.00 0.00 0.00 0.00 0.00 0.00 0.00 0.96 0.00 0.00 0.00 0.00
0.00 0.00 0.00 0.56 0.70 0.00 0.00 0.00 0.56 0.73 0.00 0.00 0.00 0.00 0.00 0.00 0.00 0.87 0.00 0.00 0.00 0.51 0.00 0.00 0.00 0.57 0.00 0.80 0.00 0.65 0.51 0.00 0.00 0.00 0.00 0.70 0.74 0.00 0.00 0.62 0.63 0.85 0.00 0.00 0.70 0.00 0.00 0.00 0.64 0.00 0.00 0.97 0.00 0.00 0.00 0.00 0.00 0.94 0.00 0.00 0.99 0.00
0.00 0.61 0.00 0.00 0.79 0.00 0.00 0.00 0.00 0.00 0.56 0.00 0.00 0.00 0.00 0.00 0.00 0.00 0.00 0.00 0.71 0.00 0.73 0.00 0.00 0.00 0.00 0.00 0.00 0.00 0.00 0.00 0.81 0.00 0.00 0.70 0.83 0.00 0.00 0.00 0.00 0.00 0.85 0.00 0.00 0.00 0.00 0.00 0.00 0.00 0.00 0.00 0.00 0.00 0.00 0.00 0.00 0.64 0.00 0.93 0.00 0.60
0.00 0.00 1.00 0.00 0.85 0.00 0.00 0.00 0.89 0.00 0.00 0.00 0.62 0.00 0.00 0.00 0.56 0.00 0.00 0.00 0.00 0.00 0.94 0.00 0.90 0.00 0.00 0.00 0.00 0.89 0.00 0.96 0.00 0.00 0.00 0.00 0.00 0.71 0.00 0.00 0.00 0.00 0.00 0.00 0.00 0.00 0.00 0.92 0.00 0.82 0.00 0.91 0.00 0.67 0.00 0.57 0.00 0.00 0.00 0.00 0.00 0.97
0.00 0.00 0.00 0.00 0.89 0.88 0.00 0.92 0.00 0.00 0.00 0.00 0.00 0.69 0.00 0.00 0.60 0.00 0.00 0.00 0.00 0.00 0.00 0.00 0.00 0.00 0.00 0.00 0.00 0.50 0.68 0.00 0.97 0.65 0.78 0.00 0.00 0.00 0.00 0.00 0.00 0.00 0.71 0.00 0.00 0.00 0.00 0.00 0.00 0.00 0.00 0.00 0.00 0.00 0.00 0.00 0.00 0.00 0.95 0.00 0.00 0.00
0.00 0.65 0.00 0.00 0.00 0.00 0.96 0.00 0.00 0.78 0.00 0.00 0.00 0.89 0.72 0.85 0.00 0.00 0.00 0.00 0.00 0.91 0.00 0.81 0.00 0.00 0.00 0.00 0.00 0.00 0.00 0.00 0.00 0.00 0.52 0.00 0.00 0.90 0.00 0.00 0.00 0.00 0.00 0.00 0.80 0.00 0.00 0.00 0.00 0.51 0.00 0.00 0.62 0.00 0.00 0.00 0.00 0.00 0.00 0.00 0.00 0.00
0.00 0.00 0.00 0.00 0.00 0.63 0.92 0.00 0.00 0.65 0.00 0.00 0.00 0.00 0.00 0.00 0.87 0.00 0.00 0.00 0.00 0.00 0.00 0.93 0.00 0.00 0.00 0.00 0.00 0.00 0.53 0.00 0.70 0.00 0.83 0.00 0.83 0.00 0.00 0.00 0.00 0.00 0.00 0.91 0.00 0.00 0.00 0.00 0.00 0.00 0.00 0.64 0.00 0.89 0.76 0.00 0.00 0.00 0.00 0.00 0.55 0.00
0.00 0.00 0.00 0.00 0.00 0.00 0.00 0.00 0.00 0.00 0.00 0.00 0.00 0.00 0.00 0.00 0.53 0.00 0.99 0.00 0.79 0.52 0.00 0.74 0.00 0.00 0.00 0.00 0.00 0.00 0.00 0.00 0.00 0.00 0.58 0.00 0.00 0.00 0.72 0.00 0.00 0.00 0.00 0.00 0.00 0.00 0.57 0.00 0.00 0.00 0.84 0.00 0.00 0.94 0.00 0.00 0.00 0.00 0.00 0.00 0.00 0.80
0.00 0.00 0.71 0.66 0.00 0.00 0.00 0.00 0.00 0.63 0.50 0.00 0.95 0.70 0.00 0.00 0.00 0.00 0.00 0.00 0.51 0.75 0.00 0.00 0.00 0.00 0.00 0.00 0.00 0.00 0.00 0.00 0.00 0.68 0.67 0.00 0.00 0.76 0.00 0.00 0.00 0.51 0.00 0.73 0.00 0.00 0.00 0.00 0.00 0.00 0.00 0.00 0.00 0.78 0.65 0.00 0.60 0.00 0.00 0.00 0.00 0.58
0.69 0.00 0.00 0.87 0.69 0.00 0.00 0.00 0.00 0.00 0.00 0.00 0.00 0.00 0.00 0.83 0.00 0.91 0.69 0.57 0.00 0.00 0.00 0.00 0.00 0.00 1.00 0.00 0.00 0.00 0.00 0.56 0.00 0.79 0.00 0.00 0.00 0.00 0.00 0.68 0.00 0.00 0.64 0.72 0.61 0.00 0.00 0.00 0.00 0.00 0.00 0.00 0.00 0.60 0.53 0.00 0.00 0.00 0.79 0.00 0.00 0.76
0.00 0.00 0.80 0.00 0.00 0.00 0.00 0.00 0.00 0.67 0.00 0.00 0.00 0.00 0.75 0.00 0.00 0.00 0.00 0.00 0.00 0.73 0.00 0.00 0.00 0.00 0.00 0.00 0.00 0.00 0.00 0.00 0.00 0.00 0.00 0.00 0.00 0.00 0.00 0.00 0.00 0.00 0.00 0.00 0.00 0.00 0.00 0.00 0.00 0.71 0.00 0.00 0.00 0.00 0.00 0.00 0.00 0.00 0.00 0.00 0.00 0.00
0.00 0.72 0.00 0.00 0.00 0.63 0.00 0.00 0.00 0.69 0.74 0.00 0.88 1.00 0.74 0.00 0.00 0.94 0.73 0.87 0.00 0.55 0.92 0.00 0.55 0.71 0.97 0.00 0.00 0.82 0.00 0.00 0.72 0.00 0.95 0.00 0.00 0.00 0.00 0.53 0.88 0.00 0.72 0.00 0.00 0.00 0.57 0.00 0.56 0.00 0.00 0.00 0.00 0.00 0.80 0.00 0.00 0.99 0.00 0.00 0.00 0.00
0.00 0.00 0.00 0.65 0.99 0.00 0.00 0.56 0.00 0.78 0.82 0.00 0.00 0.00 0.72 0.00 0.00 0.00 0.00 0.00 0.00 0.00 0.00 0.00 0.00 0.00 0.00 0.00 0.00 0.00 0.00 0.00 0.00 0.69 0.00 0.00 0.00 0.00 0.00 0.00 0.70 0.84 0.00 0.00 0.00 0.00 0.97 0.00 0.61 0.77 0.00 0.00 0.82 0.00 0.00 0.00 0.70 0.58 0.00 0.00 0.97 0.00
0.00 0.00 0.00 0.87 0.00 0.00 0.00 0.00 0.00 0.00 0.00 0.61 0.00 0.00 0.00 0.97 0.00 0.00 0.00 0.00 0.64 0.00 0.00 0.00 0.00 0.00 0.58 0.00 0.86 0.00 0.67 0.00 0.00 0.00 0.00 0.00 0.00 0.91 0.56 0.00 0.00 0.00 0.00 0.81 0.00 0.00 0.97 0.00 0.00 0.61 0.00 0.00 0.00 0.00 0.00 0.00 0.00 0.00 0.00 0.00 0.52 0.00
0.00 0.81 0.00 0.00 0.00 0.00 0.00 0.00 0.79 0.00 0.00 0.00 0.87 0.60 0.00 0.00 0.87 0.00 0.00 0.00 0.00 0.83 0.55 0.00 0.00 0.55 0.00 0.00 0.00 0.00 0.00 0.00 0.00 0.00 0.56 0.00 0.00 0.00 0.00 0.00 0.00 0.00 0.00 0.65 0.00 0.77 0.00 0.00 0.00 0.55 0.00 0.52 0.70 0.00 0.00 0.00 0.54 0.86 0.00 0.64 0.64 0.00
0.00 0.00 0.00 0.00 0.00 0.00 0.00 0.00 0.00 0.00 0.00 0.00 0.00 0.62 0.00 0.00 0.00 0.00 0.90 0.00 0.00 0.84 0.00 0.53 0.00 0.00 0.00 0.00 0.00 0.00 0.00 0.00 0.00 0.00 0.00 0.00 0.65 0.00 0.00 0.00 0.58 0.00 0.00 0.00 0.00 0.77 0.64 0.00 0.00 0.00 0.00 0.00 0.00 0.00 0.00 0.00 0.00 0.00 0.00 0.00 0.63 0.78
0.77 0.93 0.00 0.00 0.00 0.00 0.57 0.91 0.00 0.00 0.00 0.98 0.00 0.94 0.00 0.00 0.76 0.86 0.00 0.00 0.00 0.00 0.00 0.00 0.00 0.87 0.83 0.00 0.00 0.00 0.00 0.00 0.00 0.00 0.00 0.00 0.83 0.00 0.65 0.00 0.00 0.00 0.00 0.00 0.00 0.00 0.50 0.85 0.00 0.55 0.00 0.00 0.00 0.00 0.00 0.76 0.94 0.00 0.00 0.00 0.53 0.99
0.00 0.00 0.82 0.00 0.90 0.00 0.00 0.88 0.64 0.00 0.00 0.59 0.89 0.63 0.00 0.83 0.00 0.59 0.00 0.00 0.00 0.00 0.00 0.00 0.00 0.00 0.00 0.00 0.00 0.00 0.00 0.00 0.91 0.00 0.00 0.00 0.00 0.00 0.00 0.64 0.72 0.00 0.00 0.99 0.00 0.77 0.93 0.00 0.73 0.63 0.54 0.65 0.00 0.00 0.76 0.00 0.00 0.00 0.00 0.00 0.00 0.00
0.00 0.86 0.00 0.70 0.85 0.00 0.00 0.59 0.00 0.00 0.00 0.00 0.56 0.71 0.00 0.00 0.76 0.74 0.00 0.93 0.84 0.00 0.00 0.68 0.00 0.00 0.00 0.00 0.86 0.00 0.00 0.00 0.00 0.00 0.00 0.00 0.00 0.00 0.70 0.00 0.62 0.00 0.00 0.00 0.91 0.00 0.00 0.85 0.00 0.00 0.00 0.00 0.00 0.68 0.84 0.00 0.00 0.00 0.00 0.00 0.00 0.00
0.00 0.89 0.63 0.00 0.00 0.00 0.00 0.86 0.00 0.75 0.00 0.00 0.00 0.57 0.00 0.00 0.53 0.00 0.00 0.66 0.00 0.00 0.00 0.00 0.00 0.00 0.94 0.00 0.98 0.00 0.00 0.00 0.62 0.94 0.00 0.00 0.62 0.82 0.00 0.00 0.00 0.88 0.00 0.00 0.00 0.00 0.00 0.92 0.52 0.00 0.00 0.00 0.00 0.00 0.00 0.00 0.99 0.00 0.00 0.00 0.00 0.00
0.97 0.96 0.00 0.00 0.00 0.00 0.00 0.71 0.00 0.94 0.68 0.00 0.00 0.00 0.79 0.00 0.82 0.69 0.00 0.52 0.00 0.00 0.00 0.77 0.79 0.00 0.00 0.00 0.00 0.93 0.00 0.72 0.00 0.00 0.00 0.00 0.00 0.00 0.00 0.00 0.00 0.00 0.60 0.85 0.00 0.00 0.00 0.67 0.00 0.00 0.00 0.00 0.73 0.00 0.00 0.00 0.00 0.00 0.66 0.00 0.00 0.00
