140
0.00 0.00 0.00 0.00 0.00 0.00 0.00 0.00 0.00 0.55 0.00 0.92 0.00 0.00 0.00 0.00 0.00 0.00 0.00 0.00 0.00 0.00 0.00 0.00 0.00 0.73 0.00 0.00 0.00 0.00 0.00 0.00 0.61 0.00 0.00 0.00 0.00 0.00 0.00 0.00 0.00 0.00 0.00 0.89 0.00 0.00 0.54 0.00 0.00 0.91 0.00 0.00 0.00 0.00 0.00 0.00 0.00 0.00 0.00 0.00 0.66 0.63 0.00 0.00 0.00 0.99 0.00 0.85 0.59 0.00 0.00 0.54 0.00 0.60 0.00 0.00 1.00 0.71 0.00 0.00 0.00 0.00 0.00 0.90 0.00 0.00 0.00 0.00 0.90 0.70 0.67 0.00 0.00 0.65 0.00 0.00 0.67 0.00 0.00 0.00 0.00 0.60 0.00 0.00 0.00 0.00 0.52 0.00 0.00 0.91 0.00 0.00 0.00 0.57 0.71 0.00 0.00 0.00 0.00 0.00 0.77 0.68 0.64 0.63 0.00 0.00 0.97 0.00 0.00 0.00 0.00 0.00 0.00 0.88 0.00 0.00 0.00 0.00 0.85 0.58
0.70 0.00 0.00 0.67 0.00 0.91 0.00 0.00 0.00 0.00 0.98 0.00 0.75 0.00 0.00 0.00 0.00 0.00 0.65 0.00 0.00 0.79 0.00 0.00 0.00 0.00 0.00 0.00 0.00 0.93 0.00 0.79 0.00 0.84 0.00 0.00 1.00 0.00 0.00 0.00 0.00 0.00 0.00 0.00 0.56 0.56 0.00 0.00 0.00 0.00 0.77 0.00 0.00 0.64 0.00 0.00 0.00 0.98 0.00 0.00 0.89 0.00 0.00 0.00 0.93 0.00 0.90 0.00 0.00 0.74 0.00 0.00 0.66 0.00 0.00 0.00 0.00 0.89 0.00 0.00 0.90 0.00 0.00 0.00 0.79 0.00 0.00 0.00 0.00 0.00 0.00 0.95 0.00 0.00 0.00 0.00 0.00 0.00 0.00 0.00 0.00 0.00 0.00 0.99 0.00 0.00 0.00 0.00 0.00 0.00 0.00 0.00 0.00 0.00 0.00 0.56 0.00 0.00 0.00 0.00 0.00 0.00 0.00 0.00 0.00 0.00 0.97 0.73 0.00 0.00 0.00 0.51 0.00 0.00 0.00 0.00 0.73 0.67 0.00 0.00
0.61 0.00 0.00 0.00 0.77 0.00 0.00 0.00 0.00 0.85 0.00 0.92 0.64 0.00 0.00 0.62 0.00 0.00 0.00 0.00 0.00 0.00 0.00 0.00 0.00 0.00 0.00 0.00 0.00 0.00 0.00 0.00 0.00 0.00 0.00 0.00 0.62 0.00 0.69 0.00 0.71 0.00 0.00 0.00 0.00 0.00 0.00 0.00 0.00 0.93 0.73 0.00 0.00 0.81 0.52 0.00 0.00 0.00 0.00 0.62 0.00 0.67 0.00 0.00 0.00 0.00 0.00 0.00 0.00 0.00 0.00 0.00 0.90 0.00 0.00 0.00 0.51 0.00 0.97 0.00 0.00 0.64 0.00 0.00 0.00 0.00 0.00 0.00 0.00 0.61 0.00 0.70 0.00 0.00 0.59 0.94 0.90 0.71 0.91 0.00 0.76 0.00 0.00 0.99 0.77 0.00 0.00 0.62 0.00 0.00 0.00 0.00 0.00 0.00 0.00 0.00 0.00 0.00 0.00 0.00 0.84 0.00 0.00 0.00 0.00 0.00 0.00 0.00 0.00 1.00 0.00 0.00 0.00 0.84 0.00 0.00 0.00 0.00 0.00 0.95
0.00 0.00 0.00 0.00 0.00 0.58 0.00 0.00 0.74 0.83 0.00 0.00 0.87 0.00 0.00 0.68 0.00 0.00 0.00 0.00 0.00 0.64 0.00 0.00 0.00 0.00 0.00 0.00 0.00 0.00 0.65 0.00 0.56 0.53 0.00 0.00 0.68 0.76 0.00 0.00 0.00 0.00 0.00 0.00 0.00 0.00 0.00 0.00 0.00 0.00 0.00 0.00 0.00 0.00 0.00 0.00 0.56 0.00 0.00 0.00 0.00 0.00 0.00 0.91 0.00 0.00 0.00 0.00 0.00 0.00 0.76 0.00 0.00 0.00 0.94 0.00 0.00 0.00 0.57 0.93 0.80 0.00 0.00 0.00 0.00 0.77 0.00 0.00 0.00 0.00 0.53 0.84 0.00 0.00 0.00 0.00 0.00 0.96 0.81 0.56 0.00 0.94 0.95 0.00 0.00 0.00 0.00 0.00 0.00 0.00 0.00 0.00 0.00 0.00 0.00 0.69 0.00 0.56 0.79 0.80 0.00 0.00 0.00 0.00 0.00 0.00 0.00 0.00 0.00 0.92 0.00 0.81 0.00 0.00 0.00 0.00 0.00 0.93 0.00 0.64
0.00 0.00 0.00 0.51 0.00 0.00 0.00 0.00 0.00 0.66 0.00 0.00 0.00 0.00 0.00 0.70 0.88 0.00 0.00 0.00 0.00 0.00 0.00 0.00 0.87 0.00 0.00 0.00 0.77 0.51 0.00 0.00 0.62 0.84 0.00 0.00 0.00 0.58 0.79 0.00 0.00 0.00 0.00 0.66 0.00 0.58 0.00 0.00 0.00 0.00 0.87 0.00 0.00 0.00 0.00 0.00 0.00 0.00 0.00 0.00 0.00 0.00 0.00 0.00 0.00 0.00 0.84 0.00 0.00 0.00 0.00 0.00 0.00 0.00 0.00 0.00 0.00 0.00 0.00 0.00 0.00 0.00 0.00 0.68 0.00 0.00 0.00 0.00 0.00 0.00 0.00 0.00 0.00 0.00 0.76 0.90 0.00 0.00 0.53 0.00 0.00 0.00 0.77 0.00 0.00 0.00 0.00 0.00 0.00 0.00 0.00 0.00 0.00 0.00 0.00 0.00 0.00 0.00 0.00 0.00 0.98 0.65 0.00 0.00 1.00 0.00 0.00 0.92 0.00 0.00 0.00 0.90 0.00 0.00 0.82 0.00 0.00 0.70 0.95 0.00
0.00 0.71 0.00 0.50 0.00 0.00 0.00 0.00 0.60 0.00 0.00 0.00 0.00 0.00 0.00 0.77 0.00 0.00 0.00 0.00 0.00 0.00 0.00 0.00 0.85 0.99 0.00 0.00 0.55 0.58 0.00 0.00 0.00 0.00 0.90 0.00 0.00 0.79 0.00 0.00 0.00 0.79 0.00 0.00 0.00 0.84 0.00 0.00 0.00 0.00 0.00 0.75 0.00 0.00 0.00 0.00 0.00 0.00 0.00 0.00 0.00 0.00 0.92 0.88 0.00 0.00 0.00 0.62 0.00 0.00 0.00 0.00 0.00 0.00 0.00 0.00 0.00 0.00 0.54 0.00 0.00 0.00 0.00 0.00 0.00 0.00 0.00 0.00 0.61 0.76 0.00 0.00 0.00 0.56 0.00 0.00 0.00 0.89 0.00 0.54 0.00 0.00 0.00 0.00 0.00 0.00 0.98 0.00 0.00 0.00 0.00 0.00 0.00 0.00 0.00 0.00 0.00 0.00 0.96 0.00 0.61 0.68 0.79 0.00 0.80 0.00 0.00 0.00 0.00 0.00 0.00 0.00 0.00 0.00 0.81 0.00 0.00 0.00 0.00 0.00
0.00 0.00 0.00 0.00 0.00 0.96 0.00 0.00 0.00 0.00 0.00 0.00 0.00 0.00 0.00 0.00 0.00 0.00 0.66 0.00 0.54 0.00 0.00 0.95 0.61 0.00 0.96 0.50 0.00 0.94 0.00 0.00 0.00 0.00 0.95 0.73 0.00 0.00 0.00 0.00 0.00 0.68 0.00 0.00 0.00 0.84 0.00 0.80 0.00 0.00 0.91 0.00 0.00 0.00 0.54 0.00 0.00 0.00 0.00 0.00 0.00 0.00 0.00 0.00 0.71 0.00 0.00 0.69 0.00 0.00 0.00 0.00 0.00 0.86 0.00 0.74 0.00 0.00 0.00 0.00 0.00 0.00 0.86 0.00 0.00 0.00 0.00 0.00 0.62 0.00 0.00 0.00 0.86 0.00 0.00 0.00 0.00 0.00 0.00 0.00 0.00 0.00 0.00 0.93 0.00 0.00 0.00 0.83 0.00 0.00 0.00 0.00 0.00 0.89 0.00 0.65 0.00 0.00 0.67 0.00 0.00 0.00 0.00 0.00 0.00 0.00 0.00 0.00 0.00 0.00 0.00 0.00 0.00 0.00 0.00 0.00 0.00 0.00 0.00 0.00
0.00 0.87 0.63 0.00 0.51 0.00 0.00 0.00 0.00 0.79 0.00 0.00 0.00 0.61 0.66 0.00 0.00 0.77 0.00 0.00 0.00 0.00 0.00 0.00 0.94 0.00 0.98 0.00 0.00 0.00 0.00 0.63 0.00 0.00 0.00 0.00 0.00 0.00 0.97 0.77 0.00 0.97 0.61 0.00 0.00 0.57 0.81 0.00 0.64 0.00 0.00 0.96 0.00 0.00 0.00 0.00 0.00 0.00 0.00 0.00 0.66 0.00 0.00 0.96 0.00 0.00 0.00 0.74 0.00 0.00 0.56 0.00 0.00 0.00 0.00 0.79 0.00 0.72 0.70 0.81 0.92 0.00 0.00 0.00 0.00 0.00 0.00 0.00 0.00 0.59 0.00 0.00 0.00 0.00 0.00 0.00 0.00 0.00 1.00 0.00 0.00 0.93 0.00 0.00 0.00 0.00 0.00 0.00 0.63 0.00 0.00 0.00 0.87 0.00 0.00 0.95 0.59 0.00 0.68 0.00 0.62 0.00 0.00 0.00 0.00 0.00 0.00 0.00 0.00 0.00 0.58 0.00 0.00 0.00 0.52 0.74 0.00 0.00 0.96 0.54
0.00 0.00 0.00 0.00 0.99 0.00 0.00 0.00 0.00 0.00 0.00 0.76 0.79 0.00 0.68 0.74 0.00 0.00 0.79 0.00 0.81 0.00 0.00 0.00 0.00 0.00 0.00 0.00 0.00 0.00 0.00 0.97 0.00 0.00 0.00 0.60 0.00 0.00 0.00 0.64 0.00 0.00 0.00 0.00 0.00 0.79 0.00 0.00 0.00 0.00 0.00 0.00 0.00 0.00 0.70 0.00 0.00 0.62 0.00 0.74 0.00 0.00 0.00 0.00 0.00 0.00 0.00 0.80 0.00 0.00 0.00 0.00 0.63 0.00 0.60 0.00 0.72 0.84 0.00 0.00 0.00 0.00 0.00 0.00 0.00 0.00 0.76 0.00 0.00 0.00 0.78 0.00 0.00 0.00 0.56 0.00 0.92 0.00 0.00 0.00 0.00 0.00 0.89 0.00 0.00 0.00 0.00 0.00 0.94 0.00 0.00 0.00 0.53 0.00 0.00 0.00 0.00 0.58 0.00 0.62 0.00 0.98 0.00 0.00 0.00 0.00 0.00 0.00 0.00 0.00 0.00 0.00 0.64 0.00 0.00 0.00 0.00 0.00 0.00 0.67
0.00 0.00 0.65 0.00 0.00 0.00 0.00 0.00 0.61 0.00 0.00 0.00 0.89 0.00 0.81 0.00 0.00 0.00 0.00 0.00 0.00 0.00 0.00 0.82 0.89 0.00 0.00 0.00 0.00 0.00 0.00 0.91 0.00 0.00 0.00 0.82 0.00 0.00 0.81 0.00 0.00 0.00 0.00 0.86 0.00 0.00 0.00 0.00 0.00 0.00 0.52 0.73 0.62 0.00 0.89 0.00 0.00 0.00 0.00 0.97 0.00 0.93 0.59 0.00 0.57 0.00 0.63 0.00 0.00 0.00 0.00 0.93 0.00 0.00 0.00 0.00 0.00 0.00 0.00 0.00 0.00 0.00 0.00 0.00 0.00 0.00 0.00 0.00 0.00 0.00 0.00 0.00 0.00 0.00 0.00 0.00 0.00 0.00 0.00 0.80 0.00 0.00 0.00 0.75 0.87 0.00 0.00 0.00 0.00 0.00 0.00 0.00 0.93 0.00 0.00 0.00 0.00 0.00 0.00 0.00 0.83 0.00 0.00 0.00 0.00 0.00 0.00 0.00 0.00 0.00 0.66 0.00 0.00 0.00 0.75 0.00 0.00 0.59 0.00 0.00
0.00 0.00 0.73 0.00 0.00 0.00 0.00 0.00 0.00 0.00 0.00 0.75 0.00 0.00 0.00 0.00 0.00 0.83 0.00 0.00 0.00 0.00 0.95 0.88 0.00 0.00 0.00 0.00 0.00 0.76 0.55 0.75 0.00 0.00 0.00 0.82 0.00 0.00 0.00 0.00 0.00 0.00 0.00 0.00 0.00 0.00 0.69 0.00 0.00 0.00 0.82 0.00 0.00 0.00 0.00 0.00 0.00 0.87 0.70 0.00 0.00 0.00 0.00 0.00 1.00 0.00 0.00 0.82 0.54 0.00 0.00 0.00 0.00 0.57 0.00 0.00 0.00 0.00 0.00 0.00 0.00 0.00 0.51 0.00 0.00 0.00 0.00 0.00 0.00 0.92 0.00 0.00 0.00 0.00 0.00 0.00 0.00 0.00 0.00 0.00 0.00 0.00 0.00 0.91 0.00 0.00 0.00 0.78 0.00 0.00 0.82 0.87 0.00 0.00 0.00 0.00 0.00 0.00 0.00 0.00 0.50 0.00 0.00 0.00 0.70 0.00 0.00 0.61 0.61 0.00 0.00 0.81 0.00 0.00 0.00 0.00 0.00 0.77 0.00 0.00
0.50 0.00 0.64 0.96 0.00 0.54 0.85 0.78 0.00 0.00 0.00 0.00 0.00 0.84 0.00 0.00 0.00 0.00 0.51 0.62 0.00 0.88 0.74 0.00 0.00 0.00 0.94 0.00 0.00 0.00 0.00 0.94 0.00 0.57 0.53 0.58 0.00 0.91 0.99 0.61 0.00 0.76 0.59 0.00 0.00 0.00 0.00 0.00 0.00 0.00 0.00 0.00 0.91 0.00 0.63 0.00 0.72 0.00 0.00 0.00 0.00 0.00 0.00 0.00 0.79 0.00 0.00 0.00 0.00 0.00 0.00 0.00 0.00 0.00 0.00 0.00 0.00 0.00 0.00 0.00 0.00 0.00 0.00 0.00 0.00 0.00 0.00 0.00 0.73 0.00 0.00 0.00 0.00 0.00 0.52 0.00 0.00 0.95 0.00 0.00 0.00 0.85 0.00 0.00 0.61 0.67 0.00 0.66 0.95 0.00 0.00 0.00 0.00 0.00 0.00 0.00 0.97 0.68 0.00 0.00 0.00 0.81 0.90 0.00 0.00 0.00 0.00 0.00 0.00 0.00 0.79 0.00 0.00 0.00 0.00 0.00 0.00 0.00 0.00 0.80
0.00 0.91 0.00 0.00 0.93 0.00 0.53 0.00 0.00 0.00 0.00 0.79 0.00 0.00 0.64 0.00 0.60 0.00 0.65 0.69 0.00 0.88 0.84 0.78 0.00 0.00 0.00 0.55 0.00 0.00 0.00 0.00 0.00 0.00 0.00 0.00 0.00 0.00 0.00 0.00 0.00 0.55 0.00 0.00 0.00 0.63 0.00 0.00 0.00 0.97 0.00 0.00 0.00 0.77 0.00 0.00 0.00 0.00 0.00 0.00 0.00 0.66 0.96 0.00 0.00 0.79 0.00 0.00 0.51 0.00 0.00 0.00 0.00 0.00 0.00 0.00 0.00 0.00 0.00 0.00 0.00 0.90 0.00 0.00 0.00 0.00 0.00 0.00 0.00 0.00 0.00 0.00 0.00 0.96 0.00 0.00 0.00 0.00 0.00 0.00 0.00 0.00 0.00 0.00 0.00 0.00 0.00 0.00 0.00 0.00 0.00 0.00 0.59 0.00 0.63 0.00 0.00 0.00 0.69 0.69 0.00 0.75 0.61 0.00 0.00 0.00 0.00 0.00 0.00 0.00 0.00 0.00 0.00 0.00 0.00 0.00 0.00 0.00 0.00 0.74
0.00 0.89 0.00 0.00 0.00 0.00 0.00 0.00 0.52 0.68 0.00 0.00 0.00 0.00 0.81 0.00 0.61 0.00 0.66 0.99 0.00 0.84 0.00 0.60 0.00 0.00 0.00 0.00 0.00 0.00 0.00 0.00 0.00 0.00 0.00 0.00 0.00 0.81 0.00 0.00 0.00 0.82 0.00 0.89 0.58 0.84 0.59 0.00 0.94 0.81 0.00 0.00 0.00 0.00 0.00 0.96 1.00 0.00 0.00 0.00 0.00 0.71 0.00 0.00 0.00 0.00 0.00 0.00 0.00 0.00 0.00 0.51 0.60 0.00 0.00 0.00 0.00 0.00 0.00 0.00 0.85 0.00 0.00 0.00 0.00 0.00 0.00 0.00 0.00 0.00 0.63 0.51 0.00 0.78 0.00 0.00 0.88 0.00 0.00 0.00 0.00 0.00 0.00 0.00 0.00 0.60 0.00 0.00 0.00 0.55 0.00 0.00 0.69 0.00 0.99 0.00 0.00 0.00 0.00 0.00 0.71 0.66 0.00 0.85 0.00 0.00 0.79 0.00 0.00 0.88 0.00 0.00 0.00 0.00 0.00 0.00 0.00 0.00 0.87 0.00
0.00 0.70 0.00 0.00 0.64 0.00 0.90 0.00 0.00 0.00 0.00 0.00 0.00 0.00 0.00 0.00 0.00 0.53 0.00 0.69 0.74 0.00 0.00 0.00 0.00 0.96 0.00 0.83 0.00 0.00 0.00 0.00 0.00 0.00 0.00 0.00 0.00 0.80 0.00 0.83 0.81 0.00 0.79 0.00 0.00 0.00 0.00 0.83 0.68 0.81 0.00 0.00 0.00 0.59 0.00 0.00 0.00 0.00 0.92 0.00 0.70 0.00 0.50 0.00 0.00 0.00 0.00 0.00 0.00 0.00 0.00 0.00 0.00 0.00 0.00 0.00 0.00 0.00 0.00 0.00 0.00 0.00 0.00 0.00 0.56 0.00 0.00 0.00 0.00 0.00 0.00 0.00 0.00 0.00 0.00 0.00 0.00 0.00 0.00 0.00 0.51 0.94 0.00 0.97 0.00 0.73 0.00 0.00 0.00 0.00 0.00 0.00 0.59 0.00 0.00 0.95 0.00 0.00 0.00 0.57 0.00 0.00 0.00 0.00 0.00 0.89 0.53 0.65 0.00 0.00 0.00 0.00 0.00 0.00 0.00 0.00 0.00 0.79 0.00 0.78
0.00 0.00 0.00 0.00 0.00 0.55 0.00 0.00 0.92 0.00 0.00 0.00 0.00 0.00 0.00 0.00 0.00 0.00 0.75 0.74 0.57 0.93 0.53 0.00 0.00 0.70 0.00 0.00 0.94 0.93 0.00 0.00 0.00 0.00 0.68 0.69 0.00 0.00 0.00 0.00 0.00 0.00 0.70 0.00 0.60 0.00 0.00 0.00 0.00 0.00 0.56 0.00 0.00 0.00 0.59 0.97 0.00 0.00 0.00 0.00 0.00 0.78 0.00 0.00 0.82 0.00 0.00 0.00 0.00 0.00 0.00 0.00 0.00 0.00 0.00 0.00 0.52 0.00 0.85 0.00 0.00 0.00 0.00 0.66 0.94 0.00 0.00 0.00 0.00 0.00 0.00 0.00 0.00 0.00 0.00 0.00 0.00 0.00 0.00 0.00 0.98 0.00 0.00 0.00 0.00 0.00 0.00 0.00 0.55 0.00 0.90 0.00 0.00 0.00 0.00 0.00 0.70 0.00 0.86 0.00 0.00 0.00 0.00 0.00 0.00 0.00 0.00 0.00 0.00 0.00 0.00 0.00 0.95 0.00 0.00 0.00 0.00 0.00 0.00 0.00
0.54 0.00 0.66 0.00 0.00 0.00 0.00 0.00 0.00 0.00 0.81 0.00 0.00 0.00 0.00 0.91 0.00 0.00 0.00 0.90 0.00 0.00 0.71 0.00 0.00 0.00 0.00 0.52 0.00 0.00 0.00 0.00 0.00 0.00 0.00 0.00 0.89 0.00 0.00 0.00 0.00 0.00 0.00 0.00 0.64 0.00 0.00 0.00 0.90 0.00 0.00 0.00 0.00 0.00 0.00 0.00 0.80 0.00 0.00 0.67 0.00 0.66 0.00 0.00 0.00 0.00 0.00 0.70 0.78 0.00 0.60 0.00 0.72 0.00 0.92 0.00 0.00 0.00 0.00 0.00 0.00 0.57 0.00 0.00 0.00 0.00 0.00 0.00 0.00 0.00 0.00 0.00 0.00 0.00 0.00 0.81 0.97 0.00 0.95 0.00 0.00 0.54 0.00 0.00 0.00 0.65 0.00 0.00 0.00 0.88 0.00 0.00 0.96 0.00 0.00 0.55 0.00 0.00 0.00 0.00 0.00 0.00 0.00 0.00 0.00 0.00 0.00 0.00 0.00 0.00 0.00 0.00 0.00 0.00 0.00 0.00 0.57 0.00 0.00 0.00
0.00 0.54 0.00 0.97 0.00 0.00 0.00 0.00 0.00 0.00 0.99 0.00 0.00 0.00 0.00 0.66 0.00 0.00 0.00 0.00 0.00 0.80 0.00 0.00 0.00 0.00 0.00 0.00 0.00 0.00 0.00 0.61 0.00 0.00 0.00 0.00 0.00 0.00 0.00 0.97 0.00 0.66 0.64 0.00 0.00 0.00 0.00 0.00 0.00 0.00 0.00 0.00 0.00 0.00 0.00 0.00 0.00 0.00 0.77 0.89 0.00 0.00 0.80 0.00 0.96 0.00 0.00 0.83 0.85 0.93 0.00 0.76 0.00 0.00 0.00 0.00 0.00 0.00 0.76 0.00 0.00 0.00 0.00 0.00 0.00 0.00 0.00 0.00 0.00 0.00 0.80 0.00 0.00 0.00 0.00 0.61 0.00 0.00 0.00 0.00 0.00 0.71 0.89 0.82 0.00 0.85 0.00 0.80 0.00 0.58 0.00 0.00 0.00 0.00 0.00 0.00 0.00 0.00 0.65 0.00 0.65 0.00 0.75 0.82 0.00 0.00 0.79 0.00 0.68 0.77 0.00 0.00 0.91 0.00 0.00 0.69 0.77 0.00 0.00 0.00
0.95 0.00 0.54 0.00 0.00 0.00 0.73 0.00 0.00 0.00 0.00 0.00 0.84 0.00 0.00 0.97 0.87 0.56 0.00 0.76 0.00 0.00 0.00 0.00 0.62 0.00 0.93 0.00 0.00 0.00 0.00 0.00 0.00 0.00 0.00 0.86 0.00 0.85 0.00 0.51 0.85 0.00 0.00 0.00 0.00 0.00 0.00 0.96 0.00 0.79 0.00 0.92 0.00 0.00 0.00 0.00 0.92 0.88 0.00 0.00 0.00 0.00 0.83 0.00 0.00 0.00 0.00 0.00 0.00 0.00 0.00 0.00 0.00 0.00 0.00 0.00 0.98 0.51 0.58 0.00 0.00 0.95 0.00 0.71 0.76 0.00 0.00 0.00 0.00 0.80 0.00 0.00 0.67 0.00 0.00 0.00 0.00 0.66 0.00 0.00 0.00 0.00 0.00 0.00 0.00 0.00 0.71 0.60 0.00 0.00 0.98 0.00 0.00 0.00 0.00 0.00 0.00 0.00 0.00 0.00 0.00 0.97 0.82 0.00 0.00 0.00 0.00 0.67 0.00 0.00 0.00 0.00 0.00 0.00 0.00 0.00 0.00 0.00 0.00 0.90
0.00 0.00 0.00 0.00 0.00 0.00 0.00 0.00 0.83 0.73 0.00 0.00 0.00 0.00 0.00 0.00 0.00 0.61 0.00 0.00 0.00 0.00 0.00 0.00 0.00 0.00 0.00 0.00 0.57 0.00 0.81 0.00 0.00 0.00 0.00 0.00 0.00 0.00 0.00 0.00 0.00 0.00 0.00 0.00 0.62 0.00 0.69 0.00 0.00 0.57 0.62 0.00 0.00 0.00 0.00 0.00 0.00 0.00 0.00 0.00 0.00 0.96 0.86 0.00 0.00 0.00 0.00 0.00 0.75 0.00 0.00 0.00 0.52 0.00 0.00 0.00 0.00 0.00 0.00 0.00 0.00 0.00 0.00 0.79 0.78 0.88 0.50 0.00 0.76 0.54 0.00 0.00 0.00 0.71 0.00 0.00 0.00 0.00 0.00 0.96 0.70 0.76 0.00 0.00 0.00 0.59 0.86 0.00 0.00 0.00 0.00 0.93 0.00 0.00 0.00 0.00 0.00 0.98 0.60 0.52 0.00 0.68 0.00 0.00 0.00 0.00 0.57 0.00 0.00 0.00 0.00 0.00 0.00 0.52 0.00 0.00 0.00 0.00 0.00 0.00
0.73 0.00 0.00 0.72 0.00 0.00 0.00 0.00 0.84 0.00 0.00 0.54 0.00 0.61 0.00 0.00 0.57 0.71 0.00 0.00 0.00 0.00 0.00 0.00 0.00 0.00 0.00 0.00 0.00 0.00 0.00 0.00 0.00 0.00 0.78 0.00 0.00 0.53 0.00 0.69 0.00 0.00 0.00 0.00 0.00 0.00 0.00 0.00 0.00 0.00 0.00 0.83 0.00 0.00 0.00 0.70 0.00 0.79 0.00 0.00 0.00 0.72 0.00 0.00 0.84 0.00 0.00 0.00 0.00 0.00 0.00 0.00 0.00 0.89 0.00 0.00 0.00 0.00 0.00 0.00 0.00 0.75 0.00 0.00 0.00 0.78 0.00 0.52 0.00 0.00 0.00 0.00 0.00 0.00 0.83 0.56 0.00 0.00 0.00 0.00 0.96 0.00 0.00 0.51 0.00 0.00 0.00 0.00 0.00 0.00 0.55 0.00 0.74 0.91 0.00 0.00 0.81 0.00 0.00 0.00 0.00 0.00 0.00 0.00 0.00 0.00 0.00 0.00 0.00 0.00 0.00 0.00 0.00 0.00 0.00 0.00 0.93 0.00 0.59 0.00
0.00 0.00 0.00 0.00 0.00 0.00 0.00 0.00 0.00 0.00 0.00 0.00 0.00 0.67 0.00 0.00 0.00 0.74 0.00 0.83 0.00 0.00 0.00 0.00 0.00 0.00 0.00 0.00 0.00 0.00 0.00 0.00 0.00 0.00 0.00 0.74 0.00 0.88 0.00 0.66 0.00 0.00 0.00 0.00 0.00 0.00 0.00 0.00 0.81 0.74 0.51 0.00 0.00 0.00 0.00 0.00 0.00 0.00 0.75 0.00 0.00 0.00 0.00 0.57 0.00 0.62 0.00 0.00 0.00 0.00 0.00 0.00 0.00 0.61 0.00 0.00 0.00 0.00 0.00 0.00 0.55 0.00 0.00 0.00 0.00 0.76 0.58 0.00 0.53 0.53 0.57 0.00 0.00 0.00 0.71 0.00 0.00 0.00 0.00 0.00 0.74 0.00 0.68 0.00 0.00 0.00 0.00 0.00 0.00 0.00 0.00 0.00 0.00 0.71 0.00 0.00 0.91 0.00 0.75 0.80 0.92 0.00 0.84 0.00 0.00 0.00 0.94 0.64 0.00 0.53 0.00 0.63 0.00 0.00 0.00 0.00 0.00 0.93 0.00 0.00
0.00 0.00 0.71 0.00 0.00 0.74 0.84 0.00 0.72 0.00 0.00 0.00 0.00 0.59 0.74 0.00 0.99 0.00 0.00 0.00 0.00 0.74 0.00 0.00 0.00 0.00 0.00 0.00 0.00 0.00 0.67 0.67 0.00 0.00 0.00 0.00 0.00 0.95 0.00 0.00 0.64 0.00 0.89 0.00 0.00 0.66 0.92 0.00 0.00 0.00 0.00 0.00 0.00 0.00 0.00 0.97 0.94 0.99 0.00 0.00 0.00 0.89 0.00 0.00 0.00 0.69 0.00 0.00 0.83 0.00 0.91 0.00 0.00 0.93 0.00 0.80 0.58 0.92 0.00 0.69 0.51 0.00 0.00 0.00 0.90 0.00 0.00 0.81 0.00 0.88 0.00 0.00 0.00 0.00 0.67 0.53 0.98 0.00 0.00 0.58 0.00 0.00 0.00 0.00 0.00 0.00 0.89 0.61 0.00 0.00 0.00 0.00 0.00 0.00 0.99 0.00 0.00 0.00 0.00 0.69 0.00 0.00 0.00 0.00 0.00 0.87 0.00 0.00 0.00 0.00 0.00 0.00 0.00 0.00 0.00 0.00 0.00 0.00 0.00 0.69
0.00 0.00 0.86 0.00 0.00 0.00 0.66 0.00 0.00 0.00 0.00 0.00 0.00 0.66 0.64 0.64 0.00 0.96 0.00 0.00 0.68 0.00 0.00 0.00 0.00 0.00 0.96 0.75 0.00 0.00 0.00 0.95 0.00 0.00 0.00 0.00 0.00 0.00 0.00 0.93 0.00 0.64 0.00 0.79 0.00 0.00 0.00 0.00 0.00 0.00 0.00 0.88 0.62 0.00 0.00 0.66 0.00 0.00 0.00 0.00 0.52 0.00 0.00 0.00 0.00 0.00 0.00 0.00 0.68 0.00 0.00 0.00 0.00 0.00 0.00 0.00 0.00 0.00 0.55 0.00 0.00 0.00 0.00 0.00 0.00 0.00 0.78 0.00 0.00 0.00 0.68 0.00 0.70 0.00 0.00 0.00 0.77 0.00 0.82 0.00 0.60 0.00 0.00 0.00 0.75 0.00 0.00 0.00 0.78 0.00 0.82 0.00 0.00 0.62 0.00 0.00 0.00 0.00 0.00 0.00 0.00 0.00 0.00 0.00 0.62 0.00 0.00 0.00 0.00 0.00 0.00 0.00 0.00 0.64 0.53 0.00 0.91 0.00 0.00 0.99
0.00 0.68 0.00 0.61 0.74 0.00 0.00 0.90 0.00 0.73 0.00 0.00 0.63 0.00 0.00 0.00 0.00 0.00 0.00 0.00 0.00 0.00 0.00 0.00 0.00 0.00 0.00 0.99 0.00 0.00 0.00 0.00 0.00 0.00 0.00 0.00 0.00 0.00 0.94 0.98 0.71 0.51 0.00 0.65 0.00 0.00 0.00 0.00 0.00 0.00 0.00 0.00 0.00 0.00 0.00 0.00 0.00 0.00 0.00 0.00 0.00 0.74 0.00 0.00 0.00 0.51 0.00 0.90 0.00 0.00 0.00 0.76 0.60 0.00 0.64 0.00 0.00 0.00 0.00 0.00 0.87 0.00 0.58 0.00 0.00 0.76 0.51 0.00 0.00 0.52 0.00 0.00 0.00 0.00 0.00 0.91 0.00 0.00 0.00 0.77 0.00 0.00 0.53 0.00 0.00 0.00 0.51 0.00 0.00 0.00 0.00 0.00 0.00 0.00 0.00 0.00 0.78 0.00 0.00 0.92 0.88 0.00 0.00 0.00 0.00 0.00 0.00 0.00 0.00 0.92 0.00 0.00 0.00 0.00 0.00 0.00 0.00 0.00 0.00 0.00
0.00 0.00 0.00 0.00 0.00 0.00 0.88 0.00 0.79 0.00 0.00 0.00 0.98 0.55 0.00 0.00 0.58 0.00 0.00 0.00 0.00 0.98 0.72 0.00 0.00 0.00 0.00 0.00 0.83 0.00 0.00 0.00 0.00 0.00 0.00 0.00 0.00 0.00 0.00 0.63 0.00 0.00 0.00 0.00 0.00 0.00 0.00 0.00 0.00 0.00 0.53 0.62 0.00 0.70 0.00 0.00 0.00 0.75 0.00 0.00 0.00 0.00 0.00 0.00 0.00 0.00 0.00 0.00 0.68 0.96 0.00 0.93 0.70 0.94 0.00 0.61 0.00 0.62 0.00 0.00 0.00 0.62 0.00 0.00 0.00 0.00 0.00 0.53 0.56 0.00 0.00 0.00 0.00 0.00 0.00 0.67 0.00 0.00 0.00 0.64 0.00 0.00 0.00 0.00 0.00 0.00 0.93 0.00 0.00 0.00 0.78 0.00 0.00 0.00 0.00 0.00 0.00 0.66 0.00 0.00 0.53 0.00 0.00 0.00 0.00 0.00 0.00 0.00 0.00 0.00 0.00 0.51 0.00 0.00 0.82 0.96 0.00 0.00 0.00 0.82
0.00 0.00 0.00 0.00 0.00 0.00 0.65 0.00 0.00 0.00 0.00 0.00 0.00 0.00 0.00 0.00 0.00 0.00 0.00 0.59 0.00 0.00 0.00 0.77 0.00 0.00 0.00 0.74 0.00 0.00 0.00 0.00 0.00 0.00 0.00 0.00 0.00 0.00 0.00 0.00 0.00 1.00 0.00 0.00 0.00 0.00 0.63 0.00 0.00 0.00 0.00 0.00 0.00 0.00 0.00 0.00 0.00 0.00 0.00 0.00 0.00 0.00 0.00 0.00 0.00 0.00 0.00 0.00 0.63 0.00 0.00 0.84 0.00 0.00 0.00 0.00 0.00 0.00 0.00 0.00 0.00 0.00 0.00 0.00 0.00 0.00 0.00 0.00 0.00 0.00 0.00 0.73 0.00 0.00 0.00 0.52 0.00 0.00 0.00 0.00 0.00 0.00 0.74 0.88 0.00 0.00 0.00 0.00 0.00 0.00 0.00 0.00 0.00 0.00 0.70 0.00 0.00 0.00 0.00 0.00 0.00 0.00 0.86 0.00 0.00 0.00 0.00 0.00 0.00 0.00 0.00 0.00 0.00 0.00 0.62 0.00 0.00 0.00 0.00 0.67
0.00 0.00 0.00 0.82 0.00 0.58 0.00 0.00 0.00 0.58 0.85 0.00 0.00 0.00 0.00 0.60 0.00 0.91 0.00 0.00 0.00 0.00 0.00 0.00 0.00 0.00 0.00 0.00 0.90 0.00 0.00 0.00 0.00 0.00 0.00 0.00 0.00 0.00 0.00 0.00 0.00 0.00 0.00 0.00 0.00 0.00 0.00 0.00 0.00 0.99 0.00 0.00 0.00 0.00 0.00 1.00 0.00 1.00 0.00 0.00 0.00 0.00 0.00 0.00 0.69 0.97 0.70 0.00 0.00 0.00 0.00 0.00 0.00 0.00 0.81 0.67 0.81 0.00 0.00 0.00 0.00 0.00 0.00 0.00 0.00 0.00 0.00 0.72 0.00 0.00 0.92 0.00 0.00 0.59 0.00 0.87 0.00 0.00 0.00 0.00 0.00 0.00 0.00 0.00 0.00 0.00 0.70 0.89 0.00 0.00 0.00 0.73 0.53 0.00 0.00 0.00 0.00 0.94 0.00 0.00 0.00 0.74 0.00 0.00 0.53 0.82 0.00 0.00 0.00 0.00 0.00 0.00 0.53 0.00 0.00 0.00 0.90 0.00 0.00 0.00
0.00 0.00 0.72 0.00 0.00 0.00 0.00 0.00 0.61 0.00 0.62 0.00 0.00 0.53 0.00 0.00 0.00 0.00 0.00 0.00 0.00 0.00 0.86 0.00 0.55 0.00 0.55 0.00 0.00 0.00 0.00 0.00 0.00 0.00 0.84 0.00 0.00 0.00 0.00 0.00 0.00 0.00 0.00 0.00 0.75 0.00 0.00 0.60 0.00 0.00 0.76 0.00 0.67 0.00 0.00 0.77 0.00 0.00 0.62 0.00 0.00 0.98 0.00 0.00 0.00 0.00 0.63 0.00 0.54 0.00 0.66 0.00 0.00 0.00 0.00 0.00 0.80 0.00 0.82 0.55 0.00 0.00 0.00 0.56 0.71 0.00 0.00 0.00 0.00 0.00 0.94 0.00 0.00 0.00 0.00 0.00 0.00 0.00 0.00 0.00 0.00 0.00 0.57 0.00 0.00 0.00 0.00 0.00 0.54 0.77 0.83 0.00 0.00 0.00 0.00 0.00 0.00 0.95 0.50 0.00 0.62 0.99 0.00 0.00 0.95 0.00 0.00 0.00 0.78 0.83 0.00 0.92 0.00 0.00 0.00 0.56 0.00 0.00 0.00 0.51
0.00 0.79 0.00 0.00 0.00 0.00 0.00 0.00 0.00 0.00 0.00 0.86 0.00 0.80 0.00 0.00 0.00 0.00 0.00 0.00 0.79 0.00 0.60 0.00 0.00 0.00 0.55 0.00 0.00 0.00 0.00 0.00 0.00 0.51 0.00 0.73 0.00 0.97 0.00 0.00 0.93 0.00 0.00 0.00 0.00 0.00 0.00 0.91 0.00 0.60 0.00 0.00 0.00 0.00 0.00 0.00 0.00 0.00 0.00 0.00 0.00 0.86 0.00 0.00 0.00 0.56 0.00 0.00 0.00 0.00 0.00 0.00 0.00 0.00 0.00 0.00 0.00 0.00 0.93 0.82 0.00 0.00 0.00 0.00 0.67 0.00 0.80 0.84 0.00 0.00 0.00 0.00 0.00 0.00 0.00 0.85 0.00 0.00 0.00 0.00 0.70 0.00 0.00 0.00 0.00 0.00 0.00 0.00 0.00 0.00 0.00 0.00 0.00 0.00 0.00 0.00 0.82 0.00 0.00 0.00 0.00 0.54 0.00 0.00 0.84 0.00 0.00 0.00 0.00 0.85 0.00 0.00 0.00 0.00 0.00 0.00 0.00 0.71 0.00 0.00
0.00 0.00 0.74 0.74 0.88 0.00 0.00 0.00 0.00 0.00 0.00 0.00 0.00 0.00 0.00 0.00 0.54 0.00 0.00 0.00 0.74 0.00 0.00 0.91 0.00 0.00 0.65 0.00 0.00 0.00 0.00 0.00 0.00 0.00 0.00 0.00 0.00 0.00 0.00 0.00 0.00 0.68 0.00 0.00 0.00 0.00 0.00 0.00 0.00 0.00 0.00 0.82 0.00 0.00 0.00 0.79 0.00 0.00 0.62 0.00 0.58 0.00 0.00 0.00 0.00 0.00 0.00 0.00 0.00 0.00 0.00 0.00 0.00 0.77 0.00 0.00 0.92 0.00 0.00 0.61 0.00 0.00 0.00 0.87 0.00 0.77 0.00 0.00 0.00 0.00 0.00 0.79 0.00 0.00 0.00 0.90 0.94 0.63 0.00 0.00 0.85 0.00 0.00 0.57 0.00 0.00 0.00 0.93 0.51 0.90 0.00 0.00 0.00 0.00 0.56 0.74 0.00 0.00 0.00 0.00 0.00 0.00 0.00 0.00 0.00 0.57 0.00 0.00 0.00 0.83 0.80 0.00 0.00 0.73 0.00 0.00 0.00 0.00 0.00 0.00
0.00 0.00 0.00 0.00 0.00 0.00 0.00 0.67 0.00 0.00 0.00 0.00 0.00 0.00 0.00 0.50 0.00 0.00 0.00 0.00 0.00 0.71 0.00 0.00 0.92 0.83 0.00 0.00 0.00 0.71 0.00 0.00 0.00 0.00 0.73 0.61 0.82 0.00 0.00 0.00 0.00 0.75 0.00 0.00 0.00 0.64 0.00 0.77 0.00 0.00 0.00 0.00 0.00 0.00 0.00 0.00 0.00 0.00 0.00 0.00 0.95 0.00 0.00 0.65 0.51 0.00 0.00 0.00 0.00 0.00 0.00 0.00 0.00 0.00 0.89 0.00 0.00 0.00 0.62 0.75 0.00 0.00 0.00 0.00 0.00 0.00 0.00 0.00 0.00 0.76 0.91 0.00 0.89 0.00 0.00 0.00 0.00 0.00 0.93 0.00 0.00 0.95 0.00 0.00 0.00 0.00 0.00 0.74 0.00 0.00 0.00 0.92 0.00 0.00 0.00 0.00 0.86 0.00 0.00 0.52 0.00 0.85 0.00 0.60 0.00 0.00 0.00 0.00 0.00 0.00 0.61 0.00 0.00 0.00 0.00 0.84 0.00 0.00 0.00 0.00
0.00 0.00 0.00 0.00 0.00 0.66 0.00 0.90 0.00 0.00 0.00 0.00 0.82 0.00 0.00 0.51 0.00 0.57 0.00 0.58 0.00 0.00 0.00 0.00 0.94 0.00 0.00 0.00 0.00 0.00 0.56 0.00 0.00 0.71 0.59 0.00 0.00 0.00 0.00 0.00 0.00 0.00 0.00 0.77 0.00 0.97 0.00 0.91 0.00 0.00 0.00 0.00 0.00 0.00 0.00 0.00 0.00 0.00 0.00 0.00 0.00 0.00 0.00 0.00 0.00 0.00 0.56 0.00 0.00 0.00 0.66 0.00 0.90 0.00 0.00 0.00 0.00 0.90 0.00 0.00 0.64 0.00 0.00 0.00 0.00 0.00 0.00 0.00 0.00 0.00 0.00 0.00 0.00 0.00 0.00 0.69 0.00 0.00 0.77 0.00 0.00 0.00 0.00 0.00 0.00 0.00 0.00 0.88 0.60 0.00 0.00 0.00 0.00 0.00 0.00 0.00 0.66 0.00 0.00 0.00 0.86 0.00 0.59 0.00 0.54 0.00 0.00 0.73 0.54 0.00 0.00 0.00 0.00 0.00 0.90 0.81 0.00 0.00 0.00 0.00
0.00 0.00 0.00 0.91 0.00 0.71 0.00 0.00 0.00 0.00 0.00 0.52 0.74 0.00 0.00 0.00 0.64 0.68 0.00 0.00 0.92 0.00 0.00 0.00 0.00 0.00 0.00 0.00 0.51 0.76 0.00 0.00 0.93 0.00 0.00 0.50 0.00 0.00 0.00 0.00 0.00 0.00 0.00 0.00 0.00 0.86 0.00 0.00 0.78 0.00 0.00 0.00 0.00 0.98 0.95 0.00 0.00 0.00 0.00 0.00 0.00 0.00 0.00 0.00 0.00 0.00 0.00 0.00 0.00 0.69 0.00 0.82 0.00 0.00 0.00 0.00 0.00 0.00 0.00 0.00 0.00 0.00 0.00 0.00 0.63 0.00 0.00 0.77 0.63 0.61 0.00 0.84 0.00 0.00 0.00 0.85 0.55 0.00 0.00 0.00 0.00 0.00 0.56 0.73 0.00 0.78 0.00 0.00 0.00 0.00 0.00 0.00 0.00 0.00 0.00 0.95 0.00 0.00 0.00 0.00 0.70 0.00 0.00 0.00 0.68 0.00 0.00 0.00 0.00 0.00 0.00 0.00 0.00 0.00 0.00 0.00 0.00 0.00 0.93 0.00
0.00 0.00 0.00 0.00 0.00 0.00 0.00 0.00 0.00 0.00 0.00 0.00 0.00 0.00 0.70 0.00 0.77 0.00 0.00 0.99 0.70 0.00 0.00 0.00 0.00 0.51 0.00 0.84 0.00 0.00 0.00 0.58 0.00 0.62 0.00 0.00 0.00 0.00 0.00 0.00 0.00 0.00 0.00 1.00 0.00 0.00 0.00 0.00 0.00 0.00 0.00 0.00 0.00 0.00 0.00 0.00 0.00 0.00 0.00 0.00 0.00 0.96 0.00 0.00 0.59 0.00 0.00 0.00 0.00 0.79 0.00 0.00 0.00 0.00 0.00 0.00 0.00 0.00 0.00 0.00 0.78 0.00 0.00 0.00 0.00 0.00 0.96 0.76 0.75 0.00 0.00 0.00 0.73 0.00 0.57 0.00 0.64 0.72 0.00 0.00 0.54 0.00 0.00 0.90 0.53 0.00 0.87 0.80 0.00 0.00 0.00 0.00 0.00 0.00 0.00 0.00 0.00 0.73 0.00 0.00 0.00 0.00 0.00 0.00 0.00 0.00 0.00 0.00 0.72 0.00 0.82 0.00 0.00 0.00 0.00 0.58 0.70 0.00 0.00 0.81
0.00 0.00 0.00 0.95 0.00 0.00 0.94 0.57 0.00 0.95 0.00 0.00 0.00 0.87 0.00 0.00 0.00 0.00 0.00 0.00 0.00 0.00 0.00 0.80 0.76 0.00 0.00 0.00 0.00 0.00 0.00 0.00 0.68 0.00 0.00 0.00 0.00 0.00 0.00 0.00 0.00 0.97 0.00 0.00 0.99 0.00 0.00 0.00 0.00 0.00 0.00 0.00 0.72 0.00 0.00 0.00 0.00 0.68 0.00 0.00 0.00 0.00 0.00 0.00 0.00 0.76 0.00 0.00 0.00 0.00 0.00 0.82 0.00 0.00 0.00 0.00 0.00 0.00 0.91 0.00 0.00 0.69 0.00 0.94 0.00 0.00 0.00 0.00 0.00 0.00 0.00 0.00 0.00 0.00 0.85 0.00 0.00 0.53 0.99 0.57 0.00 0.00 0.00 0.00 0.83 0.00 0.00 0.00 0.00 0.00 0.00 0.00 0.50 0.88 0.00 0.00 0.00 0.00 0.00 0.00 0.00 0.00 0.82 0.00 0.00 0.00 0.00 0.00 0.00 0.00 0.00 0.00 0.00 0.51 0.00 0.00 0.00 0.50 0.00 0.00
0.00 0.00 0.00 0.00 0.94 0.88 0.00 0.00 0.00 0.00 0.72 0.00 0.00 0.00 0.00 0.00 0.00 0.00 0.00 0.00 0.00 0.81 0.00 0.94 0.00 0.00 0.00 0.00 0.00 0.00 0.66 0.00 0.00 0.00 0.00 0.00 0.00 0.94 0.00 0.00 0.00 0.00 0.00 0.00 0.87 0.52 0.93 0.00 0.00 0.00 0.76 0.83 0.00 0.00 0.00 0.00 0.00 0.00 0.96 0.00 0.00 0.00 0.00 0.00 0.00 0.00 0.00 0.52 0.00 0.00 0.00 0.54 0.00 0.00 0.00 0.00 0.00 0.00 0.00 0.77 0.00 0.00 0.61 0.00 0.92 0.00 0.00 0.00 0.00 0.00 0.00 0.00 0.00 0.00 0.00 0.51 0.99 0.00 0.59 0.00 0.00 0.82 0.00 0.00 0.66 0.00 0.00 0.51 0.00 0.59 0.00 0.00 0.00 0.00 0.57 0.00 0.55 0.00 0.00 0.00 0.00 0.93 0.89 0.00 0.86 0.00 0.00 0.00 0.00 0.00 0.00 0.00 0.00 0.00 0.55 0.00 0.00 0.79 0.00 0.00
0.00 0.00 0.00 0.84 0.00 0.00 0.00 0.00 0.00 0.00 0.00 0.00 0.00 0.00 0.00 0.00 0.00 0.00 0.00 0.00 0.00 0.00 0.00 0.00 0.00 0.00 0.77 0.00 0.64 0.00 0.00 0.81 0.00 0.00 0.00 0.00 0.87 0.00 0.00 0.00 0.00 0.00 0.00 0.88 0.00 0.00 0.00 0.00 0.00 0.71 0.00 0.51 0.00 0.00 0.00 0.63 0.00 0.00 0.00 0.51 0.96 0.79 0.00 0.80 0.00 0.00 0.51 0.00 0.00 0.00 0.00 0.00 0.00 0.00 0.00 0.81 0.00 0.00 0.00 0.00 0.00 0.54 0.89 0.00 0.00 0.00 0.00 0.00 0.59 0.00 0.00 0.53 0.00 0.00 0.00 0.87 0.61 0.00 0.00 0.91 0.57 0.00 0.00 0.00 0.00 0.00 0.00 0.00 0.87 0.00 0.00 0.00 0.00 0.00 0.00 0.00 0.70 0.00 0.00 0.00 0.00 0.00 0.00 0.00 0.00 0.00 0.00 0.00 0.00 0.88 0.00 0.00 0.00 0.00 0.61 0.66 0.00 0.00 0.00 0.00
0.00 0.72 0.00 0.00 0.00 0.00 0.00 0.00 0.76 0.86 0.52 0.00 0.84 0.00 0.00 0.85 0.00 0.00 0.00 0.00 0.00 0.00 0.00 0.00 0.00 0.00 0.83 0.00 0.95 0.00 0.00 0.00 0.00 0.00 0.00 0.00 0.00 0.00 0.00 0.00 0.00 0.98 0.00 0.00 0.00 0.00 0.00 0.00 0.00 0.00 0.00 0.92 0.66 0.00 0.00 0.00 0.00 0.63 0.76 0.00 0.00 0.00 0.67 0.83 0.00 0.00 0.00 0.64 0.00 0.70 0.75 0.00 0.00 0.00 0.00 0.00 0.85 0.00 0.00 0.00 0.00 0.00 0.91 0.00 0.00 0.00 0.00 0.96 0.87 0.00 0.59 0.00 0.00 0.57 0.84 0.00 0.59 0.00 0.00 0.00 0.00 0.80 0.00 0.70 0.00 0.00 0.00 0.00 0.81 0.00 0.00 0.00 0.00 0.00 0.00 0.00 0.68 0.00 0.00 0.00 0.00 0.95 0.00 0.00 0.00 0.00 0.00 0.92 0.00 0.00 0.51 0.00 0.00 0.00 0.00 0.00 0.84 0.00 0.00 0.00
0.00 0.00 0.00 0.55 0.00 0.00 0.00 0.00 0.00 0.00 0.00 0.00 0.00 0.00 0.00 0.00 0.00 0.53 0.00 0.00 0.66 0.00 0.84 0.96 0.00 0.80 0.00 0.99 0.00 0.00 0.00 0.00 0.00 0.00 0.00 0.00 0.00 0.00 0.95 0.00 0.00 0.00 0.00 0.00 0.00 0.52 0.53 0.00 0.00 0.00 0.00 0.00 0.73 0.54 0.78 0.00 0.00 0.86 0.00 0.00 0.00 0.00 0.64 0.00 0.53 0.00 0.00 0.00 0.82 0.00 0.00 0.00 0.00 0.00 0.00 0.00 0.92 0.00 0.00 0.50 0.00 0.00 0.00 0.00 0.00 0.00 0.82 0.00 0.00 0.00 0.00 0.00 0.00 0.00 0.00 0.00 0.89 0.00 0.00 0.00 0.91 0.00 0.00 0.00 0.70 0.00 0.00 0.00 0.00 0.68 0.00 0.00 0.86 0.00 0.00 0.88 0.00 0.00 0.71 0.00 0.00 0.00 0.00 0.00 0.00 0.91 0.94 0.84 0.98 0.56 0.00 0.00 0.94 0.00 0.00 0.00 0.00 0.00 0.00 0.00
0.00 0.00 0.80 0.00 0.70 0.00 0.98 0.57 0.00 0.00 0.00 0.00 0.00 0.00 0.00 0.00 0.83 0.00 0.00 0.00 0.00 0.00 0.00 0.00 0.00 0.00 0.00 0.00 0.00 0.00 0.00 0.83 0.00 0.00 0.00 0.00 0.59 0.00 0.00 0.00 0.00 0.00 0.00 0.98 0.79 0.66 0.00 0.00 0.00 0.00 0.00 0.00 0.00 0.00 0.97 0.70 1.00 0.88 0.00 0.00 0.00 0.00 0.00 0.00 0.00 0.96 0.00 0.00 0.00 0.00 0.00 0.00 0.00 0.00 0.00 0.79 0.80 0.54 0.00 0.00 0.00 0.00 0.59 0.00 0.00 0.00 0.00 0.68 0.00 0.00 0.00 0.00 0.00 0.96 0.00 0.88 0.00 0.00 0.00 0.00 0.84 0.73 0.78 0.00 0.00 0.00 0.78 0.94 0.00 0.63 0.00 0.00 0.00 0.00 0.76 0.00 0.00 0.93 0.00 0.82 0.00 0.00 0.00 0.54 0.00 0.00 0.97 0.00 0.52 0.94 0.73 0.00 0.00 0.77 0.00 0.00 0.00 0.00 0.00 0.00
0.00 0.00 0.00 0.00 0.00 0.00 0.00 0.99 0.00 0.00 0.00 0.00 0.57 0.00 0.00 0.00 0.00 0.62 0.00 0.00 0.00 0.00 0.00 0.00 0.00 0.54 0.00 0.00 0.00 0.00 0.72 0.86 0.00 0.00 0.00 0.86 0.00 0.77 0.00 0.00 0.78 0.00 0.92 0.00 0.00 0.00 0.00 0.00 0.00 0.00 0.00 0.51 0.00 0.00 0.00 0.00 0.00 0.00 0.00 0.00 0.79 0.00 0.00 0.93 0.00 0.62 0.00 0.00 0.00 0.75 0.00 0.94 0.00 0.00 0.91 0.00 0.76 0.00 0.86 0.00 0.59 0.00 0.00 0.00 0.00 0.66 0.00 0.00 0.65 0.79 0.00 0.91 0.00 0.53 0.00 0.00 0.00 0.54 0.00 0.00 0.76 0.00 0.00 0.00 0.00 0.00 0.00 0.76 0.00 0.00 0.00 0.00 0.00 0.71 0.52 0.00 0.00 0.00 0.59 0.73 0.00 0.00 0.00 0.88 0.00 0.00 0.80 0.65 0.96 0.00 0.00 0.00 0.88 0.00 0.63 0.00 0.00 0.00 0.00 0.99
0.00 0.00 0.00 0.96 0.00 0.00 0.00 0.62 0.00 0.00 0.90 0.00 0.00 0.00 0.00 0.59 0.00 0.00 0.00 0.00 0.77 0.51 0.73 0.00 0.00 0.00 0.00 0.00 0.00 0.90 0.00 0.00 0.62 0.70 0.00 0.96 0.00 0.00 0.00 0.00 0.00 0.88 0.00 0.00 0.00 0.71 0.86 0.00 0.00 0.00 0.00 0.00 0.00 0.00 0.00 0.00 0.00 0.62 0.00 0.00 0.00 0.00 0.68 0.70 0.00 0.00 0.00 0.00 0.76 0.87 0.00 0.00 0.00 0.00 0.00 0.00 0.00 0.00 0.00 0.99 0.80 0.00 0.00 0.00 0.58 0.62 0.00 0.00 0.00 0.00 0.00 0.00 0.00 0.00 0.00 0.00 0.52 0.60 0.00 0.00 0.99 0.00 0.90 0.00 0.00 0.00 0.00 0.00 0.00 0.83 0.00 0.00 0.00 0.00 0.00 0.00 0.00 0.00 0.00 0.00 0.00 0.00 0.00 0.00 0.70 0.00 0.00 0.00 0.00 0.00 0.00 0.75 0.52 0.00 0.96 0.91 0.00 0.00 0.71 0.67
0.00 0.96 0.00 0.00 0.00 0.00 0.00 0.00 0.00 0.00 0.55 0.00 0.72 0.00 0.00 0.00 0.00 0.60 0.00 0.00 0.59 0.61 0.79 0.00 0.00 0.00 0.00 0.00 0.00 0.00 0.00 0.00 0.00 0.00 0.00 0.61 0.00 0.00 0.65 0.00 0.00 0.00 0.78 0.00 0.00 0.00 0.00 0.00 0.00 0.57 0.97 0.00 0.00 0.00 0.00 0.64 0.00 0.00 0.00 0.00 0.00 0.67 0.69 0.00 0.79 0.92 0.00 0.00 0.00 0.64 0.00 0.00 0.00 0.00 0.82 0.81 0.00 0.00 0.00 0.00 0.00 0.00 0.00 0.00 0.00 0.00 0.00 0.00 0.00 0.84 0.00 0.00 0.00 0.00 0.00 0.00 0.00 0.00 0.00 0.53 0.67 0.56 0.00 0.89 0.55 0.99 0.00 0.00 0.98 0.98 0.92 0.00 0.00 0.00 0.00 0.00 0.00 0.72 0.00 0.58 0.00 0.00 0.66 0.00 0.00 0.00 0.58 0.82 0.00 0.00 0.00 0.00 0.00 0.00 0.98 0.98 0.00 0.00 0.00 0.00
0.00 0.00 0.00 0.94 0.00 0.72 0.00 0.00 0.00 0.00 0.00 0.00 0.00 0.80 0.00 0.00 0.00 0.81 0.00 0.78 0.00 0.00 0.96 0.00 0.84 0.00 0.00 0.00 0.00 0.95 0.00 0.00 0.00 0.00 0.00 0.00 0.00 0.69 0.00 0.00 0.67 0.00 0.00 0.00 0.00 0.00 0.00 0.00 0.00 0.00 0.00 0.83 0.58 0.00 0.67 0.00 0.00 0.00 0.00 0.55 0.00 0.00 0.00 0.00 0.00 0.00 0.54 0.87 0.53 0.00 0.00 0.00 0.00 0.00 0.00 0.00 0.00 0.57 0.00 0.00 0.00 0.00 0.00 0.00 0.81 0.58 0.00 0.00 0.97 0.00 0.00 0.00 0.00 0.00 0.00 0.00 0.00 0.00 0.60 0.00 0.84 0.63 0.86 0.62 0.00 0.00 0.60 0.00 0.00 0.00 0.00 0.00 0.00 0.68 0.00 0.52 0.00 0.00 0.00 0.00 0.00 0.98 0.95 0.00 0.00 0.00 0.00 0.00 0.00 0.63 0.54 0.00 0.92 0.00 0.00 0.00 0.92 0.00 0.66 0.00
0.00 0.00 0.80 0.00 0.00 0.00 0.00 0.76 0.00 0.00 0.00 0.00 0.00 0.61 1.00 0.61 0.00 0.00 0.00 0.00 0.00 0.00 0.00 0.00 0.00 0.00 0.00 0.73 0.00 0.00 0.00 0.00 0.00 0.00 0.00 0.00 0.00 0.00 0.00 0.00 0.62 0.00 0.00 0.00 0.00 0.00 0.00 0.00 0.00 0.00 0.00 0.68 0.00 0.59 0.00 0.00 0.00 0.72 0.00 0.00 0.00 0.00 0.00 0.00 0.00 0.00 0.00 0.00 0.00 0.00 0.00 0.00 0.88 0.00 0.00 0.54 0.50 0.00 0.00 0.00 0.00 0.00 0.78 1.00 0.52 0.00 0.00 0.58 0.00 0.83 0.90 0.00 0.00 0.00 0.00 0.96 0.00 0.80 0.00 0.00 0.00 0.00 0.00 0.00 0.00 0.00 0.89 0.00 0.00 0.77 0.73 0.00 0.00 0.75 0.00 0.60 0.00 0.00 0.00 0.00 0.51 0.81 0.00 0.00 0.00 0.00 0.94 0.53 0.00 0.00 0.00 0.56 0.90 0.66 0.00 0.00 0.00 0.00 0.00 0.00
0.80 0.00 0.80 0.00 0.00 0.55 0.54 0.00 0.00 0.00 0.00 0.00 0.00 0.00 0.00 0.00 0.00 0.00 0.00 0.00 0.00 0.96 0.78 0.00 0.00 0.00 0.00 0.00 0.64 0.68 0.00 0.00 0.00 0.00 0.00 0.00 0.89 0.00 0.00 0.00 0.00 0.62 0.71 0.00 0.00 0.00 0.00 0.00 0.00 0.00 0.00 0.00 0.00 0.00 0.61 0.00 0.00 0.98 0.00 0.62 0.00 0.60 0.00 0.63 0.00 0.00 0.00 0.00 0.00 0.00 0.00 0.00 0.00 0.00 0.00 0.00 0.00 0.00 0.00 0.00 0.00 0.00 0.77 0.79 0.00 0.00 0.00 0.00 0.00 0.73 0.75 0.00 0.00 0.00 0.00 0.00 0.00 0.00 0.00 0.00 0.00 0.00 0.00 0.00 0.00 0.00 0.00 0.00 0.00 0.00 0.72 0.00 0.59 0.00 0.00 0.00 0.00 0.00 0.00 0.00 0.00 0.00 0.00 0.00 0.00 0.00 0.00 0.61 0.00 0.00 0.00 0.83 0.59 0.00 0.00 0.00 0.00 0.53 0.00 0.00
0.00 0.57 0.00 0.00 0.00 0.00 0.00 0.00 0.00 0.00 0.00 0.00 0.00 0.00 0.61 0.00 0.00 0.85 0.56 0.00 0.73 0.00 0.00 0.00 0.98 0.00 0.00 0.00 0.00 0.81 0.00 0.54 0.74 0.00 0.00 0.00 0.91 0.57 0.00 0.00 0.00 0.00 0.91 0.63 0.00 0.00 0.00 0.00 0.00 0.00 0.00 0.00 0.00 0.00 0.00 0.89 0.00 0.00 0.00 0.00 0.00 0.66 0.00 0.00 0.00 0.00 0.00 0.00 0.00 0.00 0.00 0.00 0.86 0.00 0.00 0.00 0.00 0.00 0.00 0.00 0.00 0.00 0.00 0.00 0.60 0.00 0.00 0.00 0.00 0.00 0.00 0.00 0.61 0.00 0.00 0.79 0.00 0.00 0.00 0.73 0.00 0.00 0.00 0.00 0.87 0.00 0.53 0.00 0.00 0.00 0.00 0.00 0.00 0.00 0.94 0.00 0.80 0.00 0.00 0.00 0.00 0.00 0.91 0.00 0.85 0.54 0.00 0.00 0.00 0.00 0.00 0.82 0.53 0.79 0.00 0.00 0.00 0.51 0.00 0.00
0.00 0.00 0.00 0.97 0.00 0.00 0.00 0.00 0.00 0.00 0.00 0.00 0.00 0.00 0.55 0.00 0.63 0.00 0.00 0.75 0.00 0.00 0.00 0.00 0.81 0.72 0.00 0.00 0.00 1.00 0.96 0.00 0.71 0.00 0.54 0.92 0.85 0.00 0.00 0.75 0.00 0.00 0.00 0.00 0.00 0.00 0.95 0.00 0.00 0.00 0.96 0.00 0.00 0.00 0.00 0.00 0.00 0.00 0.00 0.00 0.00 0.00 0.00 0.77 0.00 0.96 0.00 0.00 0.00 0.00 0.00 0.00 0.00 0.00 0.00 0.00 0.00 0.00 0.00 0.00 0.00 0.00 0.00 0.53 0.00 0.00 0.00 0.78 1.00 0.00 0.52 0.00 0.00 0.00 0.00 0.00 0.72 0.79 0.00 0.00 0.00 0.75 0.00 0.00 0.00 0.00 0.00 0.94 0.57 0.78 0.00 0.00 0.00 0.65 0.00 0.00 0.00 0.00 0.61 0.00 0.00 0.84 0.00 0.75 0.74 0.00 0.00 0.70 0.00 0.00 0.00 0.00 0.94 0.00 0.70 0.00 0.00 0.00 0.60 0.55
0.00 0.00 0.00 0.00 0.00 0.00 0.00 0.00 0.00 0.00 0.00 0.00 0.00 0.00 0.00 0.00 0.74 0.00 0.00 0.00 0.00 0.00 0.00 0.00 0.00 0.75 0.89 0.00 0.85 0.52 0.00 0.00 0.74 0.00 0.00 0.53 0.00 0.67 0.75 0.00 0.00 0.00 0.00 0.79 0.00 0.00 0.00 0.97 0.00 0.00 0.00 0.00 0.00 0.00 0.00 0.00 0.00 0.00 0.00 0.00 0.00 0.00 0.69 0.00 0.00 0.00 0.00 0.57 0.00 0.00 0.86 0.66 0.00 0.00 0.00 0.53 0.51 0.00 0.00 0.00 0.91 0.00 0.00 0.00 0.00 0.00 0.00 0.00 0.00 0.00 0.00 0.56 0.51 0.00 0.00 0.82 0.00 0.00 0.00 0.58 0.00 0.00 0.00 0.52 0.83 0.00 0.67 0.60 0.64 0.00 0.00 0.00 0.00 0.67 0.00 0.76 0.00 0.63 0.00 0.00 0.00 0.65 0.65 0.00 0.00 0.00 0.00 0.00 0.00 0.71 0.60 0.00 0.00 0.00 0.00 0.00 0.00 0.00 0.66 0.00
0.00 0.00 0.00 0.00 0.00 0.00 0.00 0.00 0.00 0.00 0.76 0.00 0.00 0.00 0.59 0.00 0.56 0.00 0.00 0.00 0.96 0.00 0.00 0.00 0.97 0.00 0.00 0.00 0.00 0.00 0.00 0.00 0.00 0.00 0.00 0.00 0.00 0.87 0.00 0.67 0.68 0.89 0.00 0.00 0.00 0.00 0.00 0.00 0.00 0.00 0.00 0.00 0.93 0.00 0.78 0.00 0.00 0.00 0.00 0.00 0.00 0.00 0.00 0.00 0.00 0.97 0.00 0.00 0.00 0.58 0.00 0.00 0.00 0.00 0.80 0.00 0.00 0.00 0.00 0.00 0.84 0.00 0.00 0.00 0.00 0.60 0.00 0.00 0.00 0.00 0.00 0.00 0.00 0.00 0.00 0.68 0.00 0.00 0.00 0.00 0.00 0.00 0.77 0.00 0.00 0.00 0.00 0.00 0.00 0.00 0.00 0.00 0.00 0.00 0.00 0.00 0.00 0.00 0.00 0.00 0.00 0.00 0.84 0.00 0.65 0.00 0.51 0.96 0.90 0.00 0.00 0.00 0.00 0.00 0.00 0.00 0.00 0.00 0.00 0.00
0.00 0.00 0.00 0.00 0.00 0.00 0.00 0.00 0.00 0.53 0.00 0.00 0.00 0.00 0.00 0.00 0.00 0.00 0.00 0.00 0.00 0.00 0.00 0.00 0.59 0.00 0.00 0.00 0.00 0.00 0.00 0.00 0.00 0.00 0.75 0.00 0.00 0.81 0.00 0.00 0.58 0.64 0.00 0.00 0.00 0.76 0.00 0.67 0.00 0.00 0.00 0.00 0.56 0.65 0.88 0.55 0.00 0.79 0.00 0.00 0.80 0.00 0.89 0.00 0.00 0.00 0.68 0.00 0.76 0.92 0.96 0.00 0.00 0.53 0.00 0.00 0.90 0.00 0.00 0.00 0.00 0.00 0.00 0.55 0.00 0.00 0.67 0.00 0.68 0.00 0.00 0.69 1.00 0.00 0.00 0.00 0.82 0.00 0.00 0.00 0.00 0.00 0.00 0.00 0.00 0.00 0.85 0.64 0.00 0.00 0.00 0.58 0.00 0.55 0.00 0.00 1.00 0.00 0.76 0.00 0.00 0.00 0.00 0.98 0.57 0.00 0.00 0.00 0.00 0.88 0.00 0.00 0.00 0.00 0.00 0.00 0.88 0.00 0.00 0.00
0.84 0.00 0.00 0.91 0.00 0.87 0.00 0.84 0.00 0.56 0.00 0.00 0.00 0.00 0.00 0.00 0.00 0.00 0.00 0.60 0.00 0.00 0.00 0.00 0.00 0.84 0.00 0.00 0.00 0.79 0.00 0.94 0.00 0.00 0.00 0.00 0.00 0.00 0.00 0.00 0.00 0.00 0.00 0.80 0.00 0.00 0.00 0.00 0.00 0.00 0.00 0.00 0.00 0.89 0.00 0.00 0.00 0.00 0.00 0.00 0.00 0.50 0.00 0.00 0.00 0.00 0.00 0.00 0.68 0.00 0.00 0.97 0.67 0.00 0.00 0.00 0.00 0.00 0.69 0.00 0.00 0.00 0.00 0.89 0.54 0.00 0.68 0.00 0.00 0.00 0.00 0.00 0.99 0.00 0.00 0.58 0.00 0.00 0.00 0.00 0.00 0.00 0.00 0.00 0.00 0.00 0.00 0.00 0.00 0.00 0.70 0.00 0.00 0.00 0.64 0.93 0.74 0.00 0.00 0.00 0.00 0.74 0.71 0.58 0.00 0.00 0.82 0.00 0.00 0.00 0.00 0.00 0.00 0.00 0.97 0.00 0.81 0.00 0.62 0.72
0.00 0.76 0.00 0.98 0.00 0.00 0.00 0.00 0.00 0.00 0.60 0.00 0.00 0.62 0.00 0.00 0.00 0.00 0.00 0.00 0.00 0.00 0.53 0.00 0.00 0.00 0.00 0.00 0.00 0.00 0.00 0.00 1.00 0.80 0.00 0.00 0.85 0.00 0.00 0.00 0.00 0.00 0.00 0.00 0.00 0.63 0.51 0.00 0.89 0.00 1.00 0.00 0.85 0.00 0.00 0.00 0.99 0.00 0.00 0.77 0.66 0.00 0.00 0.00 0.00 0.84 0.00 0.00 0.00 0.00 0.84 0.00 0.00 0.00 0.00 0.00 0.00 0.00 0.00 0.76 0.00 0.00 0.00 0.00 0.00 0.00 0.00 0.54 0.00 0.00 0.00 0.00 0.58 0.00 0.00 0.72 0.00 0.00 0.00 0.00 0.00 0.67 0.00 0.00 0.00 0.00 0.72 0.00 0.00 0.50 0.97 0.00 0.90 0.00 0.81 0.67 0.00 0.00 0.00 0.56 0.00 0.00 0.55 0.92 0.00 0.00 0.00 0.00 0.00 0.00 0.00 0.00 0.65 0.00 0.00 0.00 0.00 0.00 0.00 0.00
0.00 0.00 0.80 0.81 0.00 0.00 0.00 0.00 0.00 0.55 0.60 0.00 0.75 0.00 0.00 0.00 0.77 0.00 0.00 0.57 0.89 0.58 0.96 0.00 0.00 0.00 0.00 0.96 0.00 0.00 0.00 0.00 0.00 0.00 0.98 0.84 0.90 0.00 0.00 0.00 0.00 0.00 0.00 0.00 0.66 0.00 0.00 0.84 0.00 0.00 0.00 0.00 0.00 0.00 0.00 0.00 0.00 0.00 0.54 0.89 0.00 0.59 0.00 0.00 0.99 0.00 0.00 0.00 0.00 0.00 0.00 0.00 0.00 0.00 0.69 0.00 0.00 0.00 0.00 0.00 0.00 0.00 0.00 0.00 0.00 0.69 0.00 0.00 0.00 0.00 0.78 0.00 0.00 0.62 0.68 0.77 0.00 0.82 0.00 0.00 0.00 0.00 0.00 0.00 0.00 0.00 0.00 0.78 0.00 0.00 0.00 0.85 0.00 0.70 0.00 0.00 0.00 0.00 0.00 0.00 0.85 0.00 0.00 0.00 0.71 0.65 0.00 0.00 0.65 0.62 0.00 0.00 0.00 0.00 0.00 0.00 0.00 0.00 0.00 0.00
0.00 0.00 0.83 0.00 0.00 0.67 0.00 0.59 0.00 0.00 0.00 0.00 0.00 0.00 0.00 0.00 0.57 0.00 0.00 0.56 0.00 0.00 0.00 0.00 0.93 0.00 0.70 0.91 0.00 0.00 0.90 0.00 0.85 0.00 0.00 0.00 0.65 0.00 0.00 0.00 0.00 0.00 0.51 0.00 0.00 0.00 0.00 0.00 0.72 0.00 0.00 0.00 0.00 0.00 0.00 0.00 0.00 0.00 0.00 0.00 0.70 0.00 0.00 0.00 0.00 0.00 0.00 0.00 0.79 0.70 0.00 0.00 0.00 0.00 0.00 0.00 0.00 0.00 0.00 0.59 0.00 0.00 0.69 0.00 0.00 0.00 0.00 0.00 0.00 0.00 0.00 0.00 0.00 0.00 0.00 0.00 0.00 0.59 0.00 0.74 0.00 0.58 0.00 0.00 0.84 0.00 0.00 0.00 0.00 0.00 0.66 0.00 0.00 0.00 0.77 0.00 0.94 0.00 0.00 0.00 0.00 0.00 0.00 0.00 0.00 0.00 0.71 0.00 0.00 0.00 0.95 0.00 0.00 0.00 0.98 0.74 0.00 0.00 0.00 0.61
0.00 0.00 0.98 0.00 0.00 0.00 0.77 0.97 0.00 0.00 0.00 0.93 0.00 0.00 0.00 0.00 0.00 0.00 0.00 0.96 0.00 0.00 0.00 0.65 0.59 0.00 0.00 0.00 0.57 0.00 0.00 0.00 0.53 0.81 0.00 0.00 0.74 0.00 0.00 0.63 0.00 0.00 0.00 0.00 0.85 0.00 0.00 0.82 0.00 0.00 0.00 0.74 0.00 0.00 0.00 0.00 0.00 0.00 0.00 0.00 0.00 0.97 0.00 0.00 0.67 0.00 0.00 0.00 0.00 0.77 0.00 0.59 0.00 0.00 0.00 0.00 0.65 0.00 0.95 0.00 0.00 0.00 0.93 0.00 0.00 0.00 0.00 0.76 0.75 0.00 0.00 0.00 0.00 0.00 0.00 0.00 0.00 0.00 0.00 0.54 0.00 0.00 0.00 0.00 0.00 0.00 0.00 0.71 0.00 0.00 0.00 0.94 0.61 0.00 0.57 0.61 0.00 0.98 0.00 0.00 0.63 0.00 0.00 0.75 0.00 0.00 0.00 0.00 0.00 0.00 0.00 0.00 0.00 0.00 0.00 0.00 0.00 0.00 0.00 0.00
0.00 0.00 0.00 0.00 0.87 0.00 0.00 0.00 0.67 0.00 0.00 0.00 0.00 0.00 0.00 0.00 0.00 0.00 0.00 0.00 0.00 0.94 0.00 0.00 0.86 0.77 0.81 0.00 0.00 0.00 0.00 0.00 0.00 0.00 0.00 0.00 0.00 0.00 0.00 0.00 0.89 0.00 0.73 0.00 0.00 0.99 0.85 0.74 0.00 0.00 0.00 0.00 0.52 0.00 0.86 0.00 0.00 0.00 0.56 0.00 0.00 0.00 0.69 0.00 0.50 0.00 0.00 0.72 0.51 0.00 0.00 0.00 0.00 0.00 0.90 0.00 0.00 0.00 0.00 0.00 0.98 0.00 0.00 0.00 0.73 0.00 0.00 0.00 0.00 0.00 0.00 0.00 0.57 0.00 0.00 0.00 0.67 0.00 0.00 0.00 0.00 0.96 0.71 0.98 0.00 0.00 0.63 0.00 0.00 0.00 0.00 0.70 0.00 0.00 0.00 0.00 0.00 0.91 0.00 0.78 0.00 0.00 0.95 0.00 0.97 0.00 0.00 0.00 0.00 0.00 0.75 0.00 0.00 0.75 0.00 0.96 0.00 0.00 0.00 0.00
0.96 0.83 0.00 0.00 0.85 0.00 0.00 0.00 0.54 0.00 0.00 0.00 0.00 0.00 0.00 0.00 0.82 0.71 0.00 0.00 0.00 0.00 0.00 0.00 0.87 0.91 0.74 0.88 0.00 0.00 0.00 0.00 0.00 0.00 0.00 0.00 0.00 0.00 0.00 0.00 0.00 0.91 0.78 0.00 0.00 0.00 0.00 0.00 0.00 0.00 0.00 0.81 0.00 0.00 0.68 0.00 0.97 0.53 0.00 0.00 0.00 0.00 0.00 0.00 0.00 0.00 0.00 0.00 0.79 0.00 0.00 0.00 0.00 0.00 0.00 0.00 0.00 0.00 0.77 0.00 0.00 0.92 0.00 0.00 0.00 0.58 0.00 0.89 0.54 0.00 0.00 0.00 0.00 0.55 0.00 0.66 0.00 0.00 0.61 0.00 0.00 0.00 0.00 0.00 0.66 0.00 0.00 0.70 0.00 0.00 0.00 0.00 0.00 0.00 0.00 0.00 0.00 0.00 0.00 0.00 1.00 0.76 0.85 0.00 0.63 0.00 0.00 0.00 0.00 0.00 0.00 0.00 0.00 0.00 0.00 0.00 0.92 0.00 0.00 0.00
0.00 0.00 0.81 0.00 0.00 0.00 0.89 0.00 0.67 0.88 0.72 0.00 0.00 0.00 0.00 0.61 0.00 0.00 0.00 0.00 0.00 0.55 0.00 0.00 0.00 0.00 0.00 0.00 0.00 0.00 0.00 0.00 0.72 0.94 0.95 0.78 0.00 0.84 0.52 0.91 0.00 0.55 0.00 0.00 0.00 0.86 0.63 0.00 0.00 0.65 0.00 0.00 0.00 0.00 0.00 0.00 0.00 0.00 0.00 0.00 0.00 0.00 0.54 0.59 0.00 0.00 0.91 0.00 0.74 0.00 0.00 0.96 0.00 0.00 0.00 0.00 0.87 0.00 0.74 0.00 0.00 0.96 0.00 0.00 0.00 0.00 0.00 0.00 0.00 0.00 0.00 0.00 0.57 0.00 0.91 0.64 0.00 0.00 0.00 0.94 0.00 0.00 0.00 0.00 0.00 0.00 0.00 0.00 0.00 0.00 0.00 0.00 0.00 0.65 0.00 0.00 0.00 0.00 0.00 0.54 0.00 0.00 0.00 0.00 0.93 0.00 0.00 0.00 0.00 0.81 0.91 0.00 0.00 0.00 0.00 0.00 0.00 0.00 0.83 0.00
0.00 0.00 0.00 0.00 0.00 0.00 0.00 0.00 0.00 0.68 0.97 0.00 0.65 0.00 0.00 0.00 0.70 0.00 0.00 0.00 0.00 0.00 0.79 0.00 0.00 0.00 0.00 0.00 0.00 0.00 0.00 0.80 0.68 0.00 0.00 0.00 0.00 0.00 0.00 0.00 0.87 0.56 0.00 0.00 0.00 0.00 0.00 0.86 0.00 0.00 0.00 0.59 0.00 0.50 0.56 0.00 0.00 0.00 0.00 0.00 0.00 0.00 0.51 0.00 0.00 0.90 0.91 0.87 0.00 0.95 0.00 0.00 0.94 0.00 0.00 0.50 0.00 0.00 0.00 0.65 0.00 0.00 0.00 0.00 0.00 0.00 0.00 0.00 0.00 0.66 0.00 0.52 0.52 0.00 0.00 0.00 0.00 0.00 0.00 0.00 0.00 0.00 0.00 0.98 0.70 0.00 0.00 0.00 0.00 0.84 0.00 0.00 0.00 0.00 0.00 0.00 0.00 0.00 0.88 0.00 0.00 0.62 0.00 0.51 0.00 0.00 0.00 0.00 0.00 0.00 0.00 0.00 0.00 0.00 0.00 0.00 0.00 0.00 0.00 0.00
0.71 0.00 0.63 0.00 0.00 0.00 0.00 0.99 0.00 0.00 0.00 0.00 0.00 0.98 0.77 0.73 0.00 0.00 0.00 0.00 0.00 0.00 0.76 0.98 0.00 0.00 0.00 0.00 0.00 0.00 0.00 0.00 0.00 0.00 0.00 0.90 0.00 0.00 0.00 0.00 0.00 0.00 0.51 0.00 0.99 0.00 0.00 0.00 0.00 0.00 0.00 0.86 0.00 0.00 0.65 0.00 0.00 0.00 0.90 0.00 0.66 0.00 0.00 0.00 0.00 0.00 0.90 0.00 0.00 0.79 0.98 0.00 0.00 0.00 0.00 0.98 0.00 0.00 0.00 0.00 0.75 0.00 0.00 0.00 0.00 0.00 0.00 0.00 0.59 0.00 0.00 0.00 0.00 0.67 0.56 0.80 0.00 0.59 0.00 0.00 0.00 0.00 0.82 0.51 0.58 0.00 0.00 0.00 0.00 0.00 0.00 0.00 0.00 0.90 0.00 0.86 0.79 0.00 0.96 0.00 0.00 0.00 0.00 0.00 0.00 0.52 0.00 0.00 0.00 0.00 0.00 0.00 0.00 0.76 0.75 0.58 0.00 0.00 0.52 0.00
0.00 0.56 0.00 0.00 0.00 0.00 0.94 0.00 0.00 0.00 0.00 0.00 0.90 0.87 0.00 0.00 0.00 0.80 0.00 0.00 0.00 0.00 0.00 0.00 0.00 0.00 0.00 0.00 0.51 0.00 0.00 0.93 0.65 0.00 0.00 0.00 0.00 0.80 0.00 0.00 0.00 0.00 0.00 0.52 0.00 0.00 0.00 0.67 0.00 0.00 0.00 0.00 0.00 0.00 0.00 0.00 0.00 0.00 0.96 0.00 0.52 0.00 0.00 0.00 0.00 0.00 0.00 0.00 0.00 0.93 0.00 0.82 0.95 0.00 0.00 0.00 0.53 0.00 0.00 0.94 0.00 0.87 0.00 0.93 0.00 0.51 0.58 0.00 0.00 0.00 0.00 0.00 0.74 0.78 0.00 0.00 0.00 0.00 0.00 0.00 0.00 0.00 0.50 0.83 0.00 0.00 0.85 0.00 0.90 0.00 0.00 0.00 0.00 0.64 0.00 0.00 0.00 0.00 0.00 0.00 0.00 0.00 0.75 0.00 0.00 0.99 0.00 0.82 0.00 0.00 0.63 0.00 0.00 0.86 0.00 0.00 0.00 0.73 0.71 0.89
0.00 0.00 0.00 0.00 0.00 0.00 0.00 0.82 0.00 0.00 0.00 0.00 0.80 0.00 0.00 0.00 0.62 0.00 0.00 0.00 0.00 0.00 0.00 0.00 0.00 0.66 0.00 0.00 0.65 0.00 0.00 0.00 0.00 0.93 0.00 0.00 0.00 0.89 0.00 0.00 0.00 0.00 0.00 0.00 0.52 0.00 0.00 0.00 0.00 0.00 0.00 0.00 0.00 0.00 0.00 0.00 0.00 0.00 0.00 0.00 0.00 0.00 0.00 0.00 0.00 0.00 0.51 0.00 0.00 0.00 0.00 0.00 0.00 0.91 0.00 0.00 0.97 0.65 0.00 0.97 0.00 0.00 0.54 0.00 0.00 0.00 0.00 0.00 0.66 0.00 0.00 0.00 0.85 0.00 0.00 0.00 1.00 0.00 0.00 0.00 0.00 0.52 0.00 0.00 0.83 0.00 0.00 0.00 0.80 0.00 0.88 0.86 0.00 0.00 0.00 0.00 0.00 0.00 0.00 0.97 0.68 0.00 0.00 0.55 0.00 0.00 0.84 0.00 0.00 0.73 0.00 0.00 0.00 0.55 0.00 0.00 0.75 0.00 0.00 0.00
0.00 0.00 0.00 0.00 0.00 0.00 0.00 0.00 0.00 0.00 0.59 0.00 0.00 0.00 0.00 0.00 0.00 0.71 0.00 0.00 0.00 0.00 0.00 0.00 0.00 0.00 0.00 0.00 0.85 0.00 0.00 0.00 0.96 0.58 0.74 0.00 0.00 0.96 0.52 0.00 0.00 0.00 0.00 0.00 0.00 0.00 0.00 0.00 0.00 0.00 0.00 0.97 0.00 0.00 0.00 0.00 0.99 0.70 0.95 0.00 0.64 0.00 0.00 0.00 0.00 0.00 0.00 0.00 0.50 0.00 0.00 0.00 0.00 0.78 0.00 0.00 0.58 0.00 0.00 0.00 0.00 0.00 0.00 0.00 0.57 0.80 0.97 0.00 0.00 0.00 0.00 0.00 0.73 0.00 0.00 0.00 0.00 0.00 0.00 0.00 0.00 0.72 0.90 0.00 0.00 0.00 0.00 0.00 0.00 0.00 0.00 0.00 0.86 0.00 0.00 0.00 0.00 0.00 0.00 0.00 0.00 0.00 0.00 0.00 0.00 0.00 0.00 0.90 0.00 0.00 0.00 0.00 0.00 0.00 0.00 0.00 0.00 0.84 0.00 0.00
0.58 0.00 0.00 0.00 0.81 0.00 0.00 0.00 0.63 0.00 0.00 0.00 0.00 0.55 0.88 0.00 0.00 0.00 0.00 0.00 0.00 0.91 0.75 0.00 0.67 0.00 0.84 0.00 0.00 0.00 0.00 0.98 0.95 0.69 0.00 0.00 0.00 0.00 0.00 0.00 0.53 0.00 0.00 0.00 0.00 0.00 0.84 0.00 0.55 0.00 0.00 0.00 0.00 0.00 0.00 0.59 0.00 0.00 0.93 0.53 0.00 0.00 0.78 0.00 0.00 0.00 0.00 0.51 0.00 0.00 0.00 0.86 0.86 0.81 0.00 0.00 0.00 0.00 0.88 0.00 0.00 0.00 0.00 0.90 0.00 0.00 0.00 0.00 0.00 0.67 0.85 0.00 0.00 0.00 0.00 0.00 0.00 0.00 0.00 0.81 0.00 0.00 0.00 0.55 0.68 0.67 0.00 0.00 0.00 0.00 0.00 0.00 0.00 0.69 0.00 0.00 0.00 0.00 0.52 0.00 0.00 0.00 0.00 0.00 0.78 0.00 0.00 0.00 0.79 0.00 0.00 0.00 0.00 0.00 0.00 0.00 0.00 0.00 0.88 0.00
0.00 0.90 0.00 0.00 0.00 0.82 0.00 0.00 0.00 0.00 0.99 0.95 0.00 0.00 0.70 0.00 0.00 0.00 0.00 0.00 0.00 0.00 0.00 0.00 0.00 0.00 0.00 0.00 0.98 0.00 0.00 0.00 0.00 0.00 0.00 0.98 0.00 0.00 0.00 0.00 0.00 0.00 0.00 0.00 0.00 0.00 0.00 0.00 0.00 0.00 0.72 0.00 0.92 0.00 0.00 0.00 0.00 0.00 0.00 0.89 0.64 0.00 0.00 0.00 0.00 0.00 0.00 0.00 0.00 0.00 0.00 0.00 0.00 0.89 0.00 0.00 0.00 0.00 0.00 0.78 0.94 0.74 0.00 0.00 0.00 0.00 0.00 0.00 0.00 0.73 0.00 0.00 0.84 0.00 0.00 0.00 0.75 0.00 0.00 0.60 0.00 0.00 0.00 0.00 0.54 0.00 0.00 0.00 0.00 0.00 0.00 0.00 0.00 0.00 0.00 0.00 0.00 0.00 0.00 0.00 0.00 0.00 0.89 0.55 0.00 0.64 0.00 0.00 0.00 0.00 0.59 0.51 0.00 0.00 0.00 0.00 0.00 0.00 0.00 0.00
0.61 0.81 0.00 0.85 0.00 0.93 0.00 0.00 0.00 0.00 0.79 0.97 0.00 0.00 0.00 0.00 0.00 0.54 0.77 0.00 0.00 0.00 0.00 0.00 0.00 0.64 0.66 0.00 0.00 0.78 0.00 0.90 0.00 0.95 0.00 0.00 0.52 0.61 0.00 0.00 0.00 0.00 0.00 0.00 0.00 0.00 0.00 0.90 0.00 0.00 0.00 0.00 0.74 0.00 0.00 0.80 0.00 0.54 0.00 0.00 0.59 0.00 0.00 0.66 0.00 0.00 0.00 0.00 0.00 0.00 0.00 0.00 0.00 0.00 0.00 0.00 0.00 0.81 0.77 0.00 0.66 0.00 0.00 0.00 0.00 0.87 0.00 0.00 0.00 0.00 0.00 0.00 0.00 0.58 0.00 0.00 0.00 0.00 0.00 0.00 0.00 0.00 0.00 0.00 0.00 0.00 0.00 0.00 0.00 0.57 0.00 0.00 0.00 0.00 0.00 0.00 0.00 0.00 0.85 0.00 0.00 0.00 0.00 0.00 0.00 0.54 0.00 0.00 0.00 0.00 0.00 0.00 0.00 0.00 0.00 0.58 0.00 0.00 0.82 0.00
0.00 0.00 0.52 0.00 0.00 0.00 0.00 0.00 0.00 0.00 0.80 0.00 0.00 0.00 0.00 0.00 0.00 0.00 0.75 0.00 0.00 0.00 0.00 0.00 0.00 0.00 0.83 0.00 0.00 0.00 0.00 0.00 0.00 0.00 0.00 0.58 0.00 0.00 0.00 0.00 0.00 0.56 0.00 0.00 0.00 0.51 0.00 0.00 0.00 0.00 0.00 0.00 0.00 0.74 0.00 0.00 0.00 0.00 0.00 0.82 0.00 0.91 0.99 0.00 0.00 0.00 0.00 0.00 0.00 0.51 0.00 0.00 0.00 0.66 0.00 0.68 0.00 0.00 0.00 0.00 0.00 0.94 0.00 0.00 0.00 0.00 0.00 0.00 0.00 0.80 0.00 0.94 0.80 0.00 0.00 0.00 0.00 0.00 0.00 0.00 0.00 0.00 0.00 0.00 0.00 0.00 0.00 0.61 0.75 0.00 0.00 0.56 0.00 0.00 0.00 0.00 0.00 0.00 0.00 0.00 0.00 0.00 0.00 0.00 0.00 0.00 0.89 0.79 0.00 0.00 0.00 0.00 0.00 0.00 0.00 0.00 0.00 0.64 0.00 0.00
0.00 0.00 0.00 0.70 0.00 0.77 0.00 0.00 0.00 0.00 0.78 0.82 0.00 0.00 0.00 0.00 0.74 0.00 0.00 0.00 0.00 0.00 0.00 0.69 0.92 0.91 0.85 0.00 1.00 0.00 0.00 0.00 0.00 0.00 0.00 0.83 0.00 0.00 0.00 0.00 0.00 0.00 0.00 0.00 0.55 0.00 0.00 0.00 0.00 0.00 0.00 0.00 0.00 0.00 0.00 0.00 0.00 0.00 0.55 0.00 0.00 0.00 0.00 0.00 0.00 0.00 0.00 0.00 0.88 0.00 0.00 0.00 0.00 0.00 0.83 0.00 0.00 0.61 0.00 0.52 0.00 0.00 0.00 0.00 0.00 0.00 0.00 0.00 0.00 0.00 0.00 0.00 0.52 0.00 0.00 0.00 0.00 0.57 0.00 0.00 0.00 0.00 0.00 0.00 0.00 0.00 0.00 0.00 0.79 0.00 0.00 0.00 0.00 0.00 0.00 0.00 0.00 0.00 0.00 0.69 0.00 0.00 0.00 0.00 0.00 0.95 0.65 0.00 0.62 0.00 0.00 0.00 0.62 0.00 0.00 0.00 0.87 0.00 0.00 0.00
0.00 0.00 0.80 0.00 0.00 0.00 0.00 0.00 0.00 0.61 0.00 0.00 0.59 0.00 0.59 0.79 0.92 0.61 0.00 0.00 0.86 0.00 0.00 0.00 0.00 0.00 0.00 0.85 0.99 0.00 0.52 0.00 0.00 0.00 0.89 0.00 0.00 0.00 0.00 0.00 0.00 0.00 0.00 0.00 0.00 0.00 0.00 0.77 0.72 0.89 0.91 0.00 0.00 0.00 0.94 0.53 0.00 0.70 0.00 0.00 0.00 0.79 0.00 0.00 0.81 0.00 0.00 0.00 0.75 0.88 0.00 0.00 0.68 0.00 0.00 0.00 0.00 0.00 0.85 0.00 0.00 0.52 0.00 0.00 0.00 0.00 0.00 0.00 0.00 0.00 0.89 0.82 0.00 0.98 0.00 0.00 0.00 0.59 0.00 0.00 0.63 0.00 0.71 0.00 0.69 0.00 0.00 0.00 0.00 0.00 0.00 0.00 0.00 0.00 0.00 0.51 0.00 0.00 0.69 0.00 0.00 0.00 0.00 0.00 0.00 0.00 0.00 0.00 0.00 0.00 0.76 0.53 0.65 0.00 0.00 0.00 0.00 0.00 0.00 0.00
0.00 0.00 0.00 0.00 0.00 0.00 0.00 0.00 0.00 0.73 0.00 0.73 0.00 0.81 0.00 0.00 0.00 0.00 0.00 0.64 0.95 0.00 0.00 0.00 0.65 0.00 0.00 0.58 0.66 0.89 0.00 0.00 0.00 0.00 0.79 0.81 0.00 0.00 0.00 0.78 0.00 0.00 0.00 0.00 0.00 0.00 0.00 0.00 0.00 0.82 0.00 0.00 0.00 0.00 0.00 0.00 0.00 0.00 0.00 0.55 0.00 0.00 0.00 0.00 0.00 0.00 0.00 0.00 0.00 0.00 0.00 0.00 0.00 0.00 0.00 0.00 0.00 0.00 0.00 0.00 0.00 0.00 0.61 0.00 0.00 0.85 0.00 0.00 0.00 0.00 0.00 0.00 0.00 0.00 0.00 0.00 0.00 0.00 0.69 0.00 0.96 0.00 0.00 0.00 0.00 0.00 0.93 0.00 0.00 0.00 0.00 0.00 0.00 0.00 0.93 0.76 0.00 0.82 0.00 0.65 0.00 0.00 0.00 0.00 0.00 0.00 0.75 0.00 0.00 0.00 0.00 0.57 0.00 0.00 0.00 0.00 0.83 0.00 0.00 0.00
0.00 0.71 0.00 0.00 0.00 0.00 0.00 0.00 0.00 0.00 0.69 0.00 0.00 0.00 0.00 0.00 0.00 0.00 0.00 0.00 0.00 0.00 0.00 0.00 0.00 0.00 0.00 0.00 0.00 0.00 0.00 0.50 0.00 0.00 0.00 0.00 0.00 0.79 0.00 0.00 0.00 1.00 0.54 0.55 0.89 0.00 0.00 0.00 0.00 0.00 0.00 0.00 0.00 0.00 0.58 0.68 0.00 0.00 0.00 0.00 0.00 0.00 0.00 0.00 0.00 0.00 0.59 0.66 0.00 0.71 0.00 0.00 0.00 0.00 0.87 0.79 0.00 0.00 0.00 0.00 0.00 0.77 0.00 0.00 0.00 0.00 0.00 0.00 0.00 0.00 0.00 0.00 0.00 0.00 0.00 0.72 0.00 0.00 0.00 0.00 0.00 0.00 0.77 0.92 0.00 0.00 0.00 0.98 0.00 0.00 0.00 0.00 0.00 0.00 0.00 0.00 0.00 0.00 0.00 0.00 0.00 0.00 0.00 0.00 0.89 0.00 0.00 0.81 0.00 0.00 0.00 0.77 0.00 0.00 0.00 0.00 0.00 0.00 0.69 0.00
0.00 0.00 0.00 0.00 0.00 0.00 0.00 0.00 0.67 0.69 0.00 0.00 0.00 0.00 0.57 0.00 0.00 0.00 0.64 0.00 0.54 0.00 0.00 0.51 0.00 0.00 0.67 0.00 0.00 0.79 0.00 0.00 0.00 0.00 0.00 0.64 0.56 0.00 0.00 0.00 0.00 0.00 0.00 0.00 0.82 0.00 0.00 0.00 0.00 0.00 0.00 0.92 0.00 0.00 0.00 0.00 0.73 0.00 0.00 0.70 0.00 0.00 0.00 0.00 0.85 0.00 0.00 0.91 0.00 0.00 0.00 0.72 0.00 0.00 0.00 0.70 0.92 0.00 0.69 0.71 0.00 0.00 0.00 0.00 0.00 0.00 0.00 0.00 0.00 0.00 0.56 0.00 0.00 0.00 0.00 0.00 0.00 0.00 0.00 0.00 0.00 0.00 0.00 0.00 0.00 0.00 0.00 0.00 0.00 0.00 0.00 0.00 0.53 0.70 0.00 0.60 0.00 0.00 0.00 0.00 0.00 0.00 0.56 0.00 0.00 0.00 0.00 0.00 0.00 0.00 0.61 0.00 0.00 0.00 0.00 0.00 0.00 0.00 0.00 0.00
0.00 0.00 0.00 0.00 0.00 0.00 0.00 0.00 0.00 0.00 0.89 0.00 0.67 0.00 0.00 0.00 0.00 0.00 0.58 0.00 0.00 0.00 0.00 0.00 0.00 0.00 0.00 0.00 0.00 0.00 0.00 0.00 0.00 0.00 0.97 0.00 0.00 0.00 0.00 0.00 0.00 0.00 0.51 0.00 0.00 0.00 0.59 0.00 0.00 0.00 0.00 0.00 0.00 0.00 0.85 0.00 0.00 0.00 0.82 0.00 0.00 0.00 0.00 0.00 0.00 0.00 0.88 0.00 0.00 0.00 0.00 0.00 0.00 0.00 0.00 0.88 0.00 0.96 0.00 0.68 0.67 0.00 0.00 0.89 0.00 0.00 0.77 0.00 0.91 0.00 0.00 0.00 0.00 0.00 0.00 0.81 0.00 0.85 0.00 0.00 0.00 0.00 0.00 0.00 0.00 0.00 0.55 0.00 0.00 0.74 0.00 0.00 0.97 0.00 0.79 0.00 0.00 0.00 0.00 0.61 0.00 0.00 0.61 0.00 0.00 0.00 0.00 0.80 0.59 0.00 0.00 0.50 0.00 0.00 0.00 0.00 0.00 0.00 0.00 0.00
0.00 0.00 0.90 0.00 0.00 0.00 0.00 0.00 0.00 0.00 0.00 0.00 0.55 0.00 0.00 0.87 0.00 0.57 0.77 0.00 0.00 0.00 0.00 0.00 0.00 0.91 0.64 0.00 0.00 0.00 0.00 0.00 0.00 0.00 0.00 0.00 0.90 0.89 0.00 0.00 0.00 0.77 0.00 0.00 0.00 0.88 0.00 0.00 0.00 0.00 0.00 0.00 0.00 0.00 0.00 0.89 0.00 0.00 0.00 0.00 0.78 0.50 0.00 0.00 0.00 0.00 0.94 0.00 0.00 0.00 0.00 0.00 0.00 0.00 0.68 0.00 0.85 0.00 0.00 0.00 0.00 0.00 0.00 0.72 0.00 0.00 0.00 0.00 0.00 0.00 0.00 0.00 0.00 0.00 0.00 0.00 0.00 0.00 0.94 0.00 0.00 0.00 0.00 0.00 0.76 0.00 0.00 0.66 0.00 0.72 0.00 0.00 0.00 0.00 0.00 0.00 0.53 0.00 0.00 0.00 0.61 0.00 0.57 0.96 0.00 0.00 0.74 0.00 0.00 0.00 0.00 0.00 0.00 0.98 0.51 0.00 0.00 0.00 0.00 0.51
0.00 0.00 0.00 0.00 0.00 0.00 0.00 0.00 0.53 0.00 0.00 0.00 0.00 0.00 0.57 0.99 0.53 0.00 0.00 0.00 0.00 0.00 0.64 0.00 0.00 0.00 0.60 0.00 0.54 0.00 0.54 0.00 0.00 0.00 0.00 0.00 0.00 0.00 0.00 0.00 0.00 0.82 0.00 0.00 0.00 0.99 0.73 0.00 0.00 0.00 0.00 0.00 0.80 0.00 0.88 0.00 0.00 0.00 0.00 0.00 0.00 0.00 0.00 0.00 0.00 0.00 0.57 0.00 0.00 0.00 0.00 0.00 0.73 0.67 0.00 0.00 0.00 0.00 0.55 0.00 0.00 0.00 0.00 0.00 0.00 0.00 0.66 0.00 0.98 0.60 0.00 0.00 0.00 0.54 0.00 0.53 0.00 0.00 0.00 0.00 0.86 0.00 0.00 0.00 0.99 0.00 0.57 0.00 0.88 0.77 0.00 0.00 0.81 0.00 0.76 0.00 0.00 0.88 0.64 0.96 0.94 0.00 0.00 1.00 0.00 0.00 0.00 0.00 0.00 0.00 0.00 0.00 0.00 0.00 0.00 0.00 0.00 0.00 0.00 0.00
0.00 0.00 0.00 0.00 0.00 0.00 0.00 0.00 0.00 0.00 0.00 0.00 0.00 0.00 0.00 0.00 0.00 0.54 0.00 0.91 0.00 0.85 0.00 0.63 0.00 0.00 0.00 0.00 0.66 0.99 0.00 0.00 0.00 0.00 0.73 0.50 0.91 0.00 0.00 0.00 0.00 0.00 0.62 0.00 0.00 0.00 0.00 0.00 0.00 0.00 0.00 0.00 0.00 0.00 0.00 0.00 0.00 0.63 0.93 0.60 0.00 0.00 0.00 0.00 0.00 0.00 0.68 0.61 0.00 0.00 0.00 0.75 0.00 0.00 0.00 0.66 0.00 0.00 0.66 0.00 0.84 0.00 0.00 0.00 0.00 0.67 0.00 0.88 0.00 0.00 0.00 0.00 0.00 0.00 0.67 0.00 0.00 0.00 0.00 0.00 0.00 0.69 0.00 0.00 0.00 0.00 0.98 0.00 0.00 0.00 0.00 0.00 0.00 0.56 0.00 0.00 0.00 0.00 0.00 0.90 0.00 0.00 0.00 0.00 0.00 0.00 0.00 0.00 0.68 0.00 0.00 0.00 0.00 0.00 0.00 0.00 0.00 0.85 0.00 0.00
0.58 0.00 0.00 0.00 0.00 0.00 0.91 0.00 0.00 0.00 0.00 0.00 0.00 0.00 0.00 0.00 0.00 0.66 0.00 0.00 0.00 0.00 0.00 0.00 0.00 0.69 0.00 0.89 0.00 0.00 0.00 0.57 0.00 0.00 0.00 0.00 0.00 0.00 0.00 0.00 0.00 0.00 0.00 0.74 0.00 0.62 0.00 0.00 0.85 0.00 0.00 0.51 0.00 0.73 0.73 0.00 0.88 0.00 0.00 0.59 0.00 0.77 0.00 0.00 0.74 0.00 0.00 0.53 0.88 0.00 0.00 0.94 0.51 0.00 0.51 0.00 0.00 0.80 0.00 0.00 0.00 0.00 0.00 0.00 0.00 0.00 0.00 0.79 0.00 0.00 0.00 0.66 0.00 0.00 0.00 0.00 0.70 0.00 0.00 0.00 0.00 0.00 0.00 0.00 0.00 0.00 0.00 0.00 0.00 0.00 0.00 0.00 0.00 0.00 0.00 0.00 0.00 0.00 0.00 0.00 0.00 0.00 0.00 0.79 0.00 0.00 0.66 0.00 0.00 0.00 0.00 0.00 0.00 0.00 0.00 0.86 0.00 0.00 0.00 0.00
0.00 0.90 0.93 0.00 0.67 0.00 0.00 0.00 0.00 0.00 0.00 0.00 0.00 0.00 0.00 0.00 0.00 0.00 0.00 0.00 0.00 0.86 0.00 0.00 0.00 0.00 0.00 0.77 0.59 0.00 0.76 0.75 0.98 0.59 0.00 0.70 0.00 0.00 0.00 0.00 0.90 0.00 0.89 0.00 0.00 0.00 0.00 0.83 0.00 0.00 0.63 0.00 0.00 0.00 0.00 0.00 0.90 0.95 0.90 0.00 0.00 0.00 0.00 0.66 0.93 0.00 0.00 0.00 0.51 0.00 0.00 0.00 0.00 0.00 0.67 0.59 0.00 0.94 0.00 0.00 0.00 0.00 0.00 0.66 0.00 0.00 0.60 0.54 0.66 0.00 0.00 0.90 0.00 0.00 0.00 0.00 0.00 0.00 0.94 0.00 0.00 0.00 0.00 0.61 0.00 0.00 0.00 0.71 0.00 0.00 0.00 0.00 0.00 0.91 0.00 0.00 0.00 0.00 0.00 0.63 0.00 0.70 0.00 0.00 0.62 0.82 0.62 0.00 0.00 0.00 0.00 0.00 0.00 0.00 0.00 0.00 0.00 0.00 0.00 0.00
0.00 0.00 0.64 0.69 0.00 0.00 0.00 0.53 0.00 0.73 0.00 0.00 0.91 0.00 0.00 0.00 0.00 0.00 0.00 0.93 0.00 0.00 0.00 0.79 0.00 0.00 0.00 0.00 0.54 0.00 0.56 0.00 0.00 0.59 0.00 0.00 0.00 0.00 0.00 0.56 0.80 0.58 0.00 0.00 0.55 0.99 0.00 0.72 0.00 0.00 0.00 0.00 0.00 0.00 0.00 0.00 0.00 0.00 0.00 0.00 0.00 0.00 0.00 0.00 0.00 0.00 0.00 0.00 0.00 0.00 0.00 0.00 0.00 0.00 0.71 0.67 0.00 1.00 0.00 0.00 0.00 0.79 0.00 0.00 0.00 0.00 0.00 0.00 0.00 0.00 0.84 0.00 0.82 0.00 0.00 0.00 0.00 0.00 0.00 0.00 0.00 0.98 0.00 0.87 0.00 0.00 0.57 0.00 0.57 0.00 0.00 0.75 0.00 0.75 0.00 0.00 0.00 0.00 0.00 0.00 0.00 0.00 0.00 0.00 0.00 0.00 0.00 0.00 0.00 0.98 0.00 0.00 0.00 0.00 0.00 0.00 0.00 0.00 0.00 0.75
0.58 0.00 0.00 0.00 0.00 0.00 0.00 0.00 0.00 0.00 0.00 0.00 0.00 0.00 0.00 0.00 0.00 0.00 0.89 0.00 0.00 0.00 0.00 0.00 0.00 0.96 0.00 0.00 0.00 0.84 0.00 0.00 0.00 0.67 0.00 0.00 0.00 0.00 0.00 0.00 0.00 0.95 0.80 0.00 0.68 0.00 0.00 0.00 0.00 0.00 0.00 0.71 0.69 0.00 0.00 0.00 0.00 0.00 0.67 0.00 0.69 0.00 0.00 0.61 0.94 0.00 0.88 0.00 0.00 0.00 0.00 0.00 0.00 0.00 0.00 0.00 0.00 0.00 0.00 0.64 0.00 0.00 0.00 0.00 0.00 0.79 0.00 0.80 0.00 0.00 0.00 0.69 0.00 0.00 0.00 0.00 0.00 0.00 0.93 0.00 0.86 0.00 0.70 0.00 0.00 0.00 0.00 0.00 0.00 0.00 0.00 0.00 0.00 0.64 0.00 0.00 0.00 0.00 0.00 0.00 0.00 0.00 0.89 0.00 0.00 0.00 0.00 0.00 0.00 0.00 0.00 0.00 0.75 0.72 0.00 0.67 0.00 0.00 0.00 0.91
0.00 0.00 0.76 0.00 0.00 0.00 0.80 0.00 0.00 0.00 0.00 0.00 0.00 0.87 0.51 0.00 0.00 0.00 0.00 0.00 0.00 0.00 0.00 0.00 0.00 0.00 0.00 0.00 0.69 0.00 0.00 0.00 0.00 0.00 0.00 0.00 0.00 0.00 0.00 0.00 0.00 0.00 0.79 0.75 0.00 0.96 0.00 0.00 0.00 0.00 0.00 0.76 0.00 0.00 0.00 0.90 0.00 0.75 0.00 0.00 0.00 0.00 0.00 0.00 0.00 0.72 0.00 0.00 0.00 0.00 0.00 0.00 0.00 0.00 0.00 0.00 0.00 0.91 0.00 0.00 0.00 0.00 0.00 0.79 0.00 0.00 0.00 0.00 0.00 0.00 0.00 0.00 0.00 0.00 0.00 0.00 0.00 0.71 0.60 0.00 0.00 0.00 0.00 0.74 0.62 0.72 0.00 0.00 0.00 0.00 0.00 0.78 0.00 0.00 0.58 0.59 0.00 0.00 0.00 0.00 0.00 0.00 0.00 0.00 0.96 0.00 0.00 0.00 0.00 0.83 0.00 0.00 0.00 0.00 0.00 0.00 0.00 0.88 0.00 0.00
0.00 1.00 0.96 0.00 0.73 0.00 0.00 0.00 0.79 0.00 0.00 0.00 0.00 0.00 0.00 0.00 0.00 0.00 0.00 0.00 0.00 0.92 0.00 0.00 0.00 0.00 0.00 0.00 0.00 0.00 0.75 0.00 0.00 0.00 0.00 0.00 0.00 0.00 0.00 0.00 0.00 0.00 0.00 0.00 0.00 0.00 0.00 0.59 0.00 0.00 0.85 0.52 0.00 0.00 0.92 0.00 0.00 0.00 0.00 0.00 0.00 0.00 0.00 0.00 0.00 0.00 0.00 0.00 0.00 0.00 0.50 0.60 0.00 0.00 0.00 0.00 0.00 0.00 0.00 0.00 0.00 0.00 0.56 0.00 0.00 0.00 0.00 0.66 0.00 0.00 0.95 0.92 0.00 0.62 0.00 0.98 0.61 0.98 0.60 0.00 0.00 0.00 0.00 0.00 0.00 0.00 0.00 0.00 0.00 0.00 0.00 0.00 0.00 0.61 0.00 0.00 0.00 0.00 0.00 0.58 0.00 0.00 0.00 0.00 0.61 0.00 0.00 0.00 0.00 0.00 0.00 0.78 0.00 0.81 0.00 0.00 0.00 0.51 0.00 0.00
0.75 0.00 0.00 0.00 0.54 0.00 0.00 0.00 0.00 0.00 0.00 0.00 0.00 0.92 0.00 0.58 0.00 0.00 0.00 0.00 0.00 0.00 0.00 0.00 0.00 0.00 0.00 0.00 0.00 0.00 0.00 0.00 0.00 0.00 0.00 0.00 0.00 0.00 0.00 0.00 0.00 0.00 0.00 0.00 0.78 0.00 0.00 0.00 0.00 0.91 0.00 0.00 0.00 0.00 0.00 0.00 0.00 0.95 0.00 0.00 0.00 0.00 0.65 0.00 0.00 0.00 0.00 0.00 1.00 0.00 0.75 0.00 1.00 0.00 0.67 0.00 0.00 0.53 0.00 0.00 0.00 0.00 0.00 0.00 0.00 0.00 0.00 0.00 0.00 0.00 0.83 0.00 0.00 0.00 0.90 0.00 0.00 0.00 0.64 0.00 0.00 0.00 0.00 0.00 0.00 0.57 0.00 0.81 0.00 0.81 0.89 0.70 0.00 0.00 0.55 0.91 0.00 0.00 0.00 0.00 0.00 0.88 0.00 0.99 0.75 0.89 0.00 0.63 0.00 0.00 0.00 0.00 0.00 0.92 0.00 0.00 0.00 0.00 0.64 0.00
0.52 0.00 0.00 0.00 0.00 0.00 0.00 0.00 0.00 0.00 0.00 0.00 0.00 0.00 0.73 0.00 0.00 0.00 0.00 0.00 0.00 0.00 0.00 0.00 0.00 0.57 0.00 0.00 0.00 0.00 0.00 0.93 0.60 0.00 0.00 0.00 0.67 0.00 0.00 0.00 0.61 0.00 0.00 0.00 0.00 0.00 0.00 0.00 0.60 0.00 0.00 0.00 0.00 0.00 0.00 0.00 0.75 0.00 0.00 0.00 0.70 0.80 0.76 0.00 0.52 0.00 0.00 0.00 0.00 0.00 0.00 0.84 0.86 0.00 0.00 0.99 0.00 0.00 0.00 0.00 0.00 0.00 0.69 0.00 0.62 0.00 0.00 0.00 0.00 0.68 0.75 0.00 0.00 0.00 0.00 0.67 0.00 0.95 0.00 0.96 0.51 0.00 0.00 0.61 0.00 0.00 0.00 0.00 0.97 0.00 0.00 0.58 0.81 0.00 0.80 0.00 0.00 0.00 0.00 0.00 0.00 0.00 0.00 0.00 0.51 0.00 0.00 0.00 0.00 0.00 0.83 0.00 0.00 0.00 0.52 0.00 0.65 0.00 0.98 0.00
0.98 0.00 0.00 0.00 0.00 0.72 0.00 0.00 0.00 0.00 0.68 0.00 0.00 0.00 0.00 0.00 0.00 0.00 0.00 0.67 0.00 0.00 0.00 0.52 0.71 0.00 0.00 0.52 0.00 0.00 0.92 0.00 0.00 0.00 0.00 0.00 0.00 0.74 0.00 0.00 0.00 0.00 0.00 0.00 0.00 0.00 0.00 0.94 0.00 0.00 0.00 0.00 0.00 0.00 0.00 0.00 0.00 0.00 0.00 0.00 0.00 0.00 0.00 0.00 0.00 0.00 0.76 0.00 0.00 0.70 0.00 0.00 0.00 0.00 0.90 0.00 0.00 0.00 0.75 0.00 0.00 0.00 0.00 0.00 0.00 0.00 0.00 0.00 0.00 0.93 0.00 0.64 0.00 0.84 0.00 0.85 0.00 0.00 0.00 0.00 0.87 0.00 0.00 0.00 0.63 0.00 0.00 0.00 0.00 0.00 0.94 0.00 0.00 0.00 0.00 0.00 0.00 0.00 0.00 0.00 0.00 0.00 0.00 0.62 0.00 0.00 0.00 0.00 0.00 0.00 0.00 0.00 0.00 0.00 0.00 0.00 0.00 0.00 0.00 0.00
0.00 0.00 0.00 0.83 0.00 0.00 0.00 0.96 0.00 0.57 0.00 0.00 0.68 0.00 0.00 0.00 0.00 0.00 0.00 0.00 0.00 0.69 0.00 0.00 0.00 0.00 0.00 0.00 0.00 0.00 0.00 0.00 0.66 0.00 0.00 0.00 0.00 0.00 0.80 0.00 0.00 0.00 0.00 0.00 0.00 0.58 0.00 0.00 0.99 0.73 0.00 0.00 0.00 0.65 0.59 0.00 0.00 0.63 0.00 0.00 0.00 0.92 0.00 0.00 0.79 0.68 0.00 0.00 0.00 0.00 0.65 0.00 0.00 0.00 0.52 0.00 0.00 0.82 0.00 0.00 0.68 0.00 0.00 0.00 0.00 0.00 0.00 0.00 0.00 0.69 0.00 0.00 0.00 0.79 0.53 0.00 0.00 0.62 0.76 0.00 0.00 0.00 0.00 0.63 0.00 0.57 0.00 0.77 0.00 0.00 0.00 0.70 0.00 0.00 0.00 0.00 0.77 0.52 0.00 0.00 0.00 0.00 0.75 0.00 0.00 0.00 0.00 0.00 0.00 0.00 0.00 0.00 0.50 0.84 0.00 0.00 0.00 0.63 0.00 0.63
0.00 0.00 0.97 0.00 0.00 0.54 0.00 0.00 0.00 0.00 0.00 0.00 0.98 0.77 0.00 0.94 0.00 0.00 0.00 0.00 0.00 0.00 0.00 0.00 0.00 0.00 0.00 0.00 0.00 0.76 0.75 0.00 0.00 0.63 0.00 0.00 0.00 0.00 0.82 0.56 0.00 0.00 0.00 0.75 0.00 0.00 0.00 0.00 0.57 0.00 0.00 0.00 0.93 0.00 0.00 0.76 0.00 0.00 0.54 0.00 0.00 0.67 0.64 0.00 0.00 0.93 0.00 0.00 0.00 0.00 0.00 0.77 0.00 0.00 0.00 0.00 0.00 0.60 0.00 0.00 0.00 0.68 0.00 0.00 0.00 0.00 0.90 0.00 0.00 0.00 0.00 0.72 0.53 0.00 0.00 0.00 0.00 0.00 0.00 0.00 0.73 0.00 0.00 0.00 0.00 0.00 0.85 0.00 0.00 0.00 0.00 0.00 0.55 0.00 0.00 0.00 0.00 0.00 0.00 0.00 0.00 0.00 0.00 0.00 0.60 0.00 0.51 0.00 0.00 0.00 0.00 0.00 0.57 0.00 0.00 0.00 0.67 0.00 0.00 0.00
0.00 0.00 0.00 0.00 0.59 0.00 0.00 0.00 0.00 0.61 0.00 0.68 0.00 0.00 0.00 1.00 0.00 0.00 0.00 0.52 0.64 0.80 0.70 0.00 0.99 0.00 0.00 0.00 0.00 0.00 0.00 0.00 0.00 0.00 0.00 0.00 0.00 0.00 0.00 0.00 0.00 0.00 0.72 0.00 0.00 0.97 0.00 0.59 0.00 0.00 0.66 0.00 0.00 0.00 0.00 0.00 0.00 0.87 0.00 0.00 0.00 0.00 0.00 0.00 0.00 0.94 0.00 0.80 0.00 0.00 0.00 0.00 0.00 0.00 0.00 0.00 0.54 0.65 0.00 0.00 0.00 0.00 0.00 0.00 0.00 0.00 0.00 0.00 0.94 0.00 0.00 0.00 0.00 0.92 0.74 0.68 0.00 0.51 0.70 0.52 0.77 0.00 0.00 0.73 0.00 0.00 0.00 0.00 0.00 0.00 0.00 0.00 0.00 0.00 0.87 0.00 0.00 0.00 0.00 0.00 0.00 0.81 0.00 0.00 0.00 0.00 0.00 0.00 0.69 0.00 0.00 0.00 0.00 0.00 0.83 0.00 0.00 0.78 0.00 0.00
0.00 0.00 0.00 0.00 0.00 0.00 0.00 0.00 0.00 0.68 0.91 0.87 0.00 0.00 0.54 0.00 0.00 0.00 0.00 0.00 0.00 0.00 0.00 0.84 0.00 0.00 0.00 0.00 0.00 0.00 0.00 0.60 0.00 0.78 0.00 0.00 0.00 0.00 0.91 0.00 0.00 0.70 0.59 0.00 0.69 0.00 0.00 0.00 0.00 0.74 0.00 0.00 0.00 0.00 0.00 0.00 0.73 0.00 0.75 0.00 0.00 0.96 0.00 0.00 0.00 0.00 0.81 0.00 0.85 0.93 0.00 0.00 0.66 0.81 0.00 0.88 0.00 0.00 0.84 0.72 0.00 0.00 0.00 0.00 0.00 0.00 0.00 0.54 0.00 0.54 0.00 0.89 0.00 0.00 0.96 0.00 0.00 0.00 0.00 0.72 0.00 0.00 0.00 0.81 0.00 0.82 0.69 0.00 0.00 0.00 0.00 0.00 0.80 0.00 0.00 0.00 0.00 0.00 0.00 0.00 0.00 0.81 0.00 0.00 0.00 0.84 0.00 0.00 0.00 0.91 0.60 0.00 0.00 0.00 0.60 0.00 0.70 0.00 0.00 0.76
0.70 0.00 0.00 0.00 0.00 0.74 0.00 0.00 0.00 0.00 0.00 0.00 0.00 0.00 0.00 0.00 0.88 0.00 0.00 0.00 0.00 0.00 0.00 0.00 0.00 0.00 0.00 0.00 0.00 0.00 0.00 0.00 0.71 0.00 0.00 0.00 0.00 0.00 0.00 0.00 0.00 0.00 0.51 0.00 0.65 0.95 0.00 0.00 0.00 0.00 0.00 0.00 0.00 0.00 0.00 0.00 0.00 0.00 0.00 0.00 0.00 0.00 0.58 0.00 0.00 0.99 0.00 0.00 0.00 0.00 0.00 0.00 0.85 0.91 0.98 0.00 0.00 0.00 0.00 0.00 0.00 0.71 0.00 0.00 0.00 0.78 0.00 0.99 0.00 0.00 0.00 0.00 0.00 0.00 0.00 0.00 0.00 0.00 0.00 0.56 0.00 0.00 0.00 1.00 0.00 0.81 0.00 0.00 0.00 0.00 0.00 0.54 0.00 0.00 0.00 0.00 0.86 0.00 0.00 0.00 0.68 0.00 0.00 0.00 0.66 0.00 0.78 0.00 0.00 0.00 0.00 0.00 0.00 0.00 0.00 0.00 0.92 0.00 0.64 0.00
0.00 0.00 0.00 0.00 0.00 0.00 0.00 0.00 0.00 0.00 0.67 0.00 0.00 0.61 0.00 0.00 0.00 0.00 0.00 0.00 0.00 0.77 0.00 0.00 0.00 0.00 0.99 0.80 0.00 0.92 0.00 0.00 0.00 0.00 0.00 0.00 0.00 0.00 0.72 0.00 0.00 0.00 0.00 0.88 0.00 0.00 0.00 0.00 0.53 0.00 0.00 0.94 0.92 0.00 0.00 0.00 0.00 0.00 0.00 0.99 0.55 0.00 0.00 0.00 0.78 0.00 0.00 0.57 0.71 0.00 0.71 0.00 0.00 0.00 0.56 0.00 0.00 0.00 0.00 0.00 0.54 0.00 0.51 0.00 0.89 0.00 0.69 0.00 0.69 0.00 0.00 0.82 0.00 0.00 0.00 0.00 0.00 0.71 0.73 0.00 0.00 0.00 0.64 0.00 0.00 0.00 0.00 0.62 0.00 0.00 0.00 0.00 0.00 0.00 0.79 0.00 0.60 0.00 0.53 0.00 0.53 1.00 0.71 0.56 0.00 0.87 0.00 0.00 0.00 0.00 0.00 0.00 0.00 0.00 0.00 0.00 0.00 0.00 0.00 0.99
0.80 0.00 0.00 0.73 0.00 0.64 0.59 0.95 0.00 0.00 0.00 0.97 0.00 0.00 0.00 0.00 0.00 0.00 0.00 0.00 0.00 0.51 0.00 0.80 0.89 0.00 0.00 0.00 0.00 0.74 0.00 0.00 0.94 0.00 0.00 0.00 0.50 0.00 0.00 0.00 0.00 0.00 0.00 0.00 0.00 0.00 0.00 0.00 0.00 0.00 0.00 0.75 0.00 0.00 0.65 0.00 0.65 0.70 0.00 0.00 0.00 0.00 0.00 0.88 0.00 0.90 0.55 0.00 0.94 0.00 0.64 0.00 0.91 0.67 0.00 0.00 0.00 0.00 0.00 0.88 0.00 0.00 0.00 0.00 0.00 0.00 0.00 0.00 0.00 0.72 0.00 0.00 0.52 0.00 0.00 0.00 0.00 0.90 0.69 0.00 0.00 0.00 0.69 0.00 0.00 0.00 0.00 0.00 0.00 0.00 0.00 0.85 0.00 0.00 0.00 0.00 0.00 0.00 0.53 0.00 0.00 0.00 0.00 0.00 0.00 0.00 0.00 0.00 0.65 0.00 0.00 0.60 0.00 0.51 0.00 0.87 0.00 0.69 0.00 0.00
0.00 0.00 0.00 0.00 0.00 0.66 0.00 0.91 0.00 0.00 0.68 0.60 0.00 0.85 0.00 0.00 0.00 0.00 0.00 0.00 0.00 0.00 0.00 0.84 0.00 0.00 0.00 0.00 0.82 0.00 0.86 0.00 0.79 0.00 0.54 0.00 0.00 0.00 0.00 0.00 0.00 0.00 0.00 0.00 0.00 0.00 0.00 0.00 0.00 0.00 0.56 0.00 0.00 0.00 0.00 0.00 0.00 0.00 0.81 0.00 0.00 0.00 0.00 0.65 0.00 0.00 0.00 0.00 0.00 0.89 1.00 0.58 0.00 0.00 0.00 0.80 0.72 0.83 0.00 0.00 0.56 0.00 0.00 0.00 0.00 0.00 0.00 0.00 0.00 0.00 0.00 0.00 0.00 0.00 0.00 0.00 0.96 0.00 0.78 0.00 0.00 0.00 0.00 0.00 0.00 0.00 0.00 0.00 0.00 0.00 0.00 0.00 0.52 0.00 0.00 0.00 0.00 0.00 0.00 0.00 0.00 0.52 0.59 0.00 0.80 0.00 0.00 0.00 0.00 0.76 0.00 0.87 0.00 0.00 0.00 0.00 0.92 0.96 0.00 0.00
0.85 0.00 0.00 0.00 0.00 0.60 0.00 0.00 0.00 0.00 0.00 0.00 0.00 0.00 0.00 0.00 0.00 0.00 0.56 0.00 0.00 0.64 0.00 0.00 0.94 0.00 0.00 0.74 0.00 0.00 0.00 0.00 0.98 0.00 0.95 0.00 0.00 0.00 0.00 0.00 0.00 0.00 0.00 0.00 0.00 0.97 0.00 0.00 0.00 0.00 0.00 0.00 0.00 0.00 0.00 0.00 0.00 0.00 0.00 0.87 0.00 0.94 0.00 0.00 0.00 0.00 0.85 0.00 0.00 0.00 0.97 0.00 0.00 0.00 0.00 0.00 0.83 0.76 0.86 0.60 0.00 0.00 0.00 0.00 0.00 0.67 0.00 0.00 0.74 0.00 0.00 0.00 0.00 0.00 0.00 0.00 0.00 0.98 0.00 0.00 0.00 0.00 0.00 0.00 0.00 0.00 0.00 0.79 0.00 0.00 0.87 0.00 0.00 0.00 0.00 0.00 0.00 0.79 0.00 0.00 0.00 0.78 0.00 0.00 0.00 0.00 0.00 0.00 0.00 0.00 0.00 0.00 0.00 0.00 0.00 0.00 0.00 0.00 0.00 0.00
0.00 0.00 0.00 0.00 0.00 0.00 0.00 0.00 0.00 0.00 0.00 0.00 0.00 0.98 0.00 0.00 0.00 0.76 0.00 0.75 0.00 0.65 0.00 0.00 0.00 0.00 0.67 0.00 0.00 0.00 0.00 0.87 0.67 0.00 0.58 0.00 0.57 0.00 0.00 0.00 0.00 0.00 0.00 0.00 0.00 0.94 0.00 0.56 0.58 0.00 0.00 0.00 0.00 0.66 0.00 0.52 0.55 0.00 0.00 0.00 0.00 0.00 0.00 0.82 0.84 0.00 0.00 0.68 0.00 0.00 0.00 0.82 0.93 0.00 0.00 0.00 0.53 0.00 0.00 0.81 0.00 0.00 0.00 0.96 0.68 0.00 0.00 0.57 0.00 0.00 0.78 0.76 0.00 0.63 0.00 0.00 0.00 0.00 0.88 0.63 0.99 0.90 1.00 0.96 0.00 0.51 0.00 0.00 0.78 0.00 0.00 0.00 0.00 0.72 0.00 0.00 0.00 0.00 0.00 0.00 0.00 0.00 0.00 0.00 0.00 1.00 0.00 0.00 0.00 0.00 0.56 0.00 0.00 0.00 0.00 0.00 0.00 0.93 0.00 0.61
0.00 0.00 0.00 0.55 0.00 0.00 0.00 0.00 0.00 0.00 0.65 0.00 0.00 0.00 0.52 0.00 0.00 0.00 0.00 0.00 0.00 0.00 0.00 0.00 0.00 0.00 0.00 0.92 0.00 0.00 0.00 0.60 0.68 0.00 0.00 0.00 0.00 0.57 0.00 0.00 0.00 0.93 0.00 0.00 0.00 0.00 0.00 0.00 0.00 0.78 0.00 0.00 0.00 0.66 0.85 0.00 0.00 0.00 0.00 0.00 0.00 0.00 0.00 0.65 0.00 0.00 0.00 0.00 0.67 0.00 0.98 0.76 0.98 0.88 0.00 0.00 0.00 0.00 0.00 0.00 0.00 0.00 0.00 0.00 0.75 0.00 0.00 0.82 0.00 0.00 0.91 0.00 0.00 0.00 0.00 0.00 0.00 0.00 0.00 0.00 0.00 0.00 0.00 0.00 0.00 0.00 0.58 0.00 0.00 0.00 0.00 0.91 0.62 0.00 0.00 0.00 0.00 0.82 0.90 0.70 0.00 0.87 0.00 0.00 0.00 0.00 0.00 0.00 0.00 0.00 0.00 0.00 0.87 0.61 0.00 0.00 0.00 0.62 0.00 0.00
0.00 0.95 0.00 0.00 0.00 0.00 0.00 0.00 0.00 0.00 0.89 0.00 0.65 0.00 0.00 0.00 0.00 0.00 0.00 0.00 0.00 0.91 0.00 0.00 0.00 0.00 0.87 0.00 0.00 0.00 0.00 0.00 0.00 0.84 0.00 0.59 0.87 0.00 0.00 0.00 0.00 0.62 0.78 0.00 0.00 0.00 0.00 0.00 0.00 0.00 0.00 0.00 0.00 0.97 0.59 0.00 0.00 0.00 0.94 0.00 0.00 0.50 0.80 0.00 0.00 0.00 0.00 0.00 0.00 0.00 0.63 0.65 0.00 0.00 0.00 0.00 0.00 0.00 0.00 0.00 0.00 0.00 0.00 0.00 0.00 0.00 0.00 0.58 0.67 0.00 0.00 0.00 0.00 0.00 0.00 0.00 0.00 0.00 0.00 0.67 0.00 0.00 0.76 0.00 0.87 0.00 0.00 0.00 0.83 0.77 0.00 0.00 0.00 0.00 0.00 0.00 0.96 0.83 0.00 0.60 0.00 0.00 0.00 0.78 0.91 0.00 0.00 0.00 0.00 0.00 0.00 0.00 0.00 0.52 0.00 0.00 0.00 0.00 0.00 0.00
0.00 0.55 0.00 0.00 0.00 0.00 0.55 0.00 0.00 0.97 0.00 0.00 0.90 0.00 0.00 0.00 0.00 0.00 0.00 0.00 0.00 0.00 0.89 0.00 0.00 0.00 0.00 0.00 0.58 0.00 0.83 0.00 0.00 0.00 0.00 0.00 0.00 0.00 0.00 0.00 0.00 0.00 0.00 0.00 0.00 0.00 0.00 0.00 0.00 0.00 0.75 0.00 0.00 0.00 0.00 0.93 0.00 0.57 0.00 0.00 0.00 0.00 0.54 0.00 0.00 0.00 0.00 0.00 0.00 0.00 0.00 0.00 0.73 0.00 0.00 0.00 0.79 0.00 0.00 0.00 0.95 0.75 0.53 0.00 0.00 0.00 0.00 0.00 0.85 0.00 0.00 0.00 0.00 0.51 0.00 0.00 0.00 0.00 0.00 0.00 0.00 0.87 0.00 0.00 0.80 0.00 0.00 0.00 0.96 0.00 0.52 0.00 0.00 0.00 0.00 0.00 0.00 0.00 0.00 0.00 0.00 0.00 0.00 0.00 0.00 0.00 0.78 0.00 0.00 0.00 0.57 0.00 0.00 0.62 0.00 0.00 0.00 0.00 0.00 0.00
0.88 0.61 0.00 0.72 0.76 0.70 0.55 0.00 0.00 0.00 0.58 0.00 0.00 1.00 0.00 0.00 0.00 0.00 0.00 0.85 0.87 0.88 0.00 0.90 0.00 0.71 0.88 0.00 0.00 0.00 0.95 0.60 0.00 0.76 0.00 0.00 0.00 0.00 0.00 0.00 0.77 0.00 0.98 0.00 0.00 0.73 0.69 0.00 0.00 0.00 0.54 0.00 0.00 0.00 0.73 0.81 0.00 0.00 0.00 0.00 0.00 0.72 0.00 0.00 0.00 0.00 0.00 0.00 0.00 0.00 0.70 0.00 0.84 0.00 0.60 0.00 0.00 0.80 0.85 0.79 0.00 0.00 0.00 0.00 0.00 0.72 0.00 0.00 0.77 0.00 0.00 0.00 0.00 0.00 0.00 0.93 0.75 0.00 0.00 0.00 0.00 0.60 0.66 0.00 0.71 0.00 0.00 0.96 0.00 0.00 0.00 0.00 0.00 0.00 0.93 0.00 0.00 0.00 0.93 0.77 0.00 0.00 0.00 0.00 0.00 0.00 0.00 0.77 0.00 0.00 0.00 0.00 0.86 0.00 0.65 0.00 0.00 0.00 0.00 0.87
0.00 0.91 0.00 0.00 0.00 0.00 0.00 0.00 0.00 0.00 0.00 0.00 0.00 0.00 0.00 0.00 0.00 0.00 0.80 0.84 0.00 0.00 0.00 0.00 0.00 0.00 0.00 0.00 0.00 0.00 0.00 0.00 0.00 0.00 0.00 0.00 0.74 0.00 0.00 0.00 0.80 0.85 0.81 0.00 0.00 0.00 0.00 0.00 0.00 0.00 0.00 0.00 0.00 0.00 0.00 0.00 0.00 0.00 0.00 0.95 0.00 0.00 0.00 0.00 0.91 0.70 0.00 0.00 0.00 0.00 0.00 0.96 0.81 0.00 0.00 0.00 0.81 0.00 0.00 0.00 0.00 0.82 0.00 0.00 0.00 0.00 0.00 0.00 0.58 0.00 0.00 0.00 0.00 0.94 0.00 0.00 0.00 0.00 0.00 0.00 0.00 0.00 0.00 0.54 0.00 0.65 0.00 0.00 0.56 0.00 0.00 0.00 0.00 0.00 0.00 0.00 0.00 0.00 0.81 0.00 0.70 0.00 0.00 0.55 0.00 0.00 0.00 0.00 0.00 0.00 0.00 0.00 0.00 0.86 0.00 0.00 0.00 0.00 0.83 0.00
0.00 0.00 0.65 0.96 0.91 0.00 0.00 0.00 0.00 0.00 0.67 0.98 0.00 0.00 0.00 0.00 0.00 0.00 0.00 0.00 0.00 0.74 0.87 0.00 0.61 0.89 0.00 0.00 0.00 0.00 0.53 0.00 0.00 0.00 0.00 0.00 0.00 0.00 0.00 0.00 0.00 0.91 0.00 0.00 0.61 0.00 0.00 0.51 0.00 0.00 0.00 0.64 0.00 0.80 0.96 0.00 0.00 0.00 0.00 0.00 0.00 0.00 0.77 0.00 0.00 0.00 0.00 0.00 0.00 0.00 0.00 0.00 0.87 0.00 0.55 0.00 0.53 0.85 0.00 0.00 0.00 0.00 0.86 0.00 0.85 0.00 0.00 0.00 0.00 0.00 0.00 0.00 0.00 0.91 0.60 0.00 0.00 0.65 0.00 0.00 0.00 0.00 0.00 0.00 0.53 0.00 0.00 0.00 0.00 0.00 0.72 0.00 0.00 0.00 0.00 0.00 0.00 0.69 0.94 0.00 0.00 0.00 0.00 0.00 0.00 0.00 0.00 0.00 0.00 0.00 0.93 0.00 0.00 0.00 0.00 0.72 0.00 0.00 0.00 0.00
0.00 0.00 0.67 0.00 0.97 0.00 0.79 0.00 0.77 0.00 0.77 0.00 0.00 0.00 0.00 0.00 0.00 0.00 0.86 0.00 0.67 0.81 0.00 0.81 0.00 0.00 0.00 0.00 0.98 0.59 0.00 0.00 0.57 0.00 0.95 0.00 0.00 0.00 0.99 0.87 0.00 0.85 0.00 0.00 0.76 0.00 0.00 0.00 0.00 0.00 0.00 0.00 0.00 0.00 0.00 0.00 0.00 0.00 0.00 0.00 0.00 0.00 0.00 0.00 0.00 0.00 0.00 0.00 0.00 0.00 0.00 0.00 0.82 0.00 0.00 0.00 0.00 0.00 0.00 0.00 0.00 0.75 0.68 0.00 0.00 0.89 0.00 0.79 0.00 0.00 0.00 0.00 0.00 0.00 0.75 0.60 0.00 0.00 0.00 0.00 0.00 0.00 0.00 0.00 0.00 0.00 0.92 0.00 0.00 0.00 0.88 0.00 0.00 0.80 0.00 0.57 0.00 0.00 0.87 0.72 0.95 0.00 0.00 0.00 0.00 0.00 0.75 0.95 0.00 0.00 0.92 0.00 0.00 0.00 0.00 0.00 0.00 0.82 0.00 0.00
0.00 0.00 0.00 0.00 0.59 0.00 0.00 0.00 0.00 0.94 0.99 0.00 0.00 0.00 0.50 0.00 0.00 0.00 0.79 0.00 0.00 0.00 0.72 0.00 0.83 0.00 0.00 0.66 0.87 0.00 0.00 0.76 0.00 0.00 0.00 0.00 0.00 0.00 0.00 0.00 0.00 0.00 0.00 0.63 0.74 0.00 0.00 0.59 0.00 0.00 0.00 0.00 0.81 0.00 0.00 0.00 0.73 0.00 0.00 0.00 0.00 0.00 0.00 0.59 0.50 0.81 0.00 0.00 0.00 0.00 0.00 0.00 0.79 0.00 0.00 0.00 0.00 0.00 0.73 0.00 0.78 0.00 0.00 0.00 0.00 0.00 0.00 0.00 0.00 0.00 0.00 0.00 0.00 0.00 0.00 0.00 0.00 0.00 0.00 0.00 0.82 0.00 0.00 0.93 0.00 0.00 0.00 0.00 0.97 0.00 0.00 0.00 0.00 0.00 0.00 0.00 0.00 0.00 0.00 0.00 0.00 0.78 0.59 0.00 0.95 0.00 0.00 0.00 0.64 0.73 0.76 0.73 0.00 0.00 0.57 0.00 0.00 0.00 0.00 0.80
0.00 0.61 0.00 0.00 0.00 0.00 0.00 0.78 0.00 0.00 0.00 0.00 0.00 0.00 0.00 0.00 0.00 0.00 0.00 0.00 0.00 0.63 0.88 0.00 0.00 0.00 0.00 0.82 0.83 0.56 0.00 0.95 0.00 0.91 0.00 0.00 0.00 0.00 0.00 0.00 0.00 0.00 0.00 0.89 0.00 0.91 0.00 0.00 0.00 0.00 0.00 0.66 0.55 0.00 0.69 0.00 0.00 0.00 0.00 0.00 0.00 0.96 0.00 0.00 0.72 0.00 0.00 0.00 0.00 0.00 0.00 0.58 0.00 0.00 0.00 0.00 0.00 0.78 0.00 0.79 0.00 0.00 0.71 0.00 0.00 0.00 0.00 0.00 0.86 0.00 0.00 0.00 0.00 0.00 0.88 0.82 0.00 0.89 0.00 0.00 0.87 0.00 0.00 0.00 0.65 0.00 0.00 0.00 0.00 0.00 0.00 0.00 0.91 0.93 0.00 0.73 0.88 0.00 0.53 0.00 0.00 0.00 0.00 0.59 0.92 0.00 0.00 0.00 0.00 0.00 0.00 0.00 0.00 0.00 0.73 0.00 0.00 0.00 0.00 0.87
0.00 0.00 0.00 0.00 0.86 0.00 0.00 0.00 0.00 0.00 0.51 0.00 0.00 0.00 0.00 0.00 0.55 0.00 0.00 0.00 0.51 0.80 0.00 0.00 0.00 0.00 0.00 0.94 0.00 0.00 0.00 0.00 0.94 0.00 0.00 0.00 0.00 0.00 0.00 0.98 0.00 0.00 0.00 0.00 0.00 0.00 0.00 0.00 0.99 0.00 0.00 0.00 0.00 0.89 0.00 0.99 0.00 0.00 0.00 0.00 0.00 0.00 0.00 0.59 0.00 0.00 0.00 0.00 0.00 0.00 0.00 0.00 0.00 0.00 0.00 0.57 0.00 0.79 0.00 0.00 0.00 0.68 0.00 0.00 0.00 0.00 0.00 0.00 0.00 0.00 0.00 0.00 0.00 0.57 0.00 0.00 0.00 0.00 0.00 0.00 0.00 0.99 0.00 0.00 0.00 0.83 0.00 0.00 0.00 0.00 0.00 0.00 0.00 0.00 0.00 0.00 0.00 0.00 0.80 0.00 0.51 0.00 0.00 0.00 0.00 0.00 0.00 0.00 0.00 0.00 0.00 0.00 0.00 0.00 0.00 0.00 0.00 0.00 0.00 0.81
0.64 0.00 0.00 0.00 0.00 0.00 0.72 0.00 0.00 0.00 0.59 0.00 0.00 0.00 0.00 0.00 0.00 0.00 0.00 0.00 0.00 0.00 0.00 0.60 0.00 0.76 0.97 0.00 0.00 0.00 0.00 0.80 0.00 0.78 0.00 0.00 0.00 0.00 0.00 0.00 0.00 0.00 0.00 0.00 0.77 0.00 0.00 0.00 0.77 0.00 0.00 0.00 0.00 0.00 0.00 0.00 0.00 0.50 0.00 0.00 0.00 0.00 0.00 0.00 0.00 0.00 0.00 0.68 0.00 0.00 0.86 0.00 0.55 0.00 0.00 0.96 0.00 0.00 0.00 0.00 0.62 0.55 0.00 0.00 0.00 0.00 0.00 0.00 0.00 0.00 0.00 0.53 0.72 0.00 0.00 0.00 0.00 0.84 0.00 0.00 0.00 0.96 0.00 0.00 0.00 0.00 0.00 0.00 0.00 0.00 0.67 0.00 0.77 0.63 0.00 0.00 0.99 0.77 0.62 0.00 0.93 0.00 0.00 0.00 0.00 0.00 0.00 0.00 0.00 0.97 0.00 0.00 0.57 0.00 0.65 0.88 0.00 0.00 0.00 0.58
0.99 0.75 0.69 0.00 0.93 0.00 0.00 0.00 1.00 0.00 0.74 0.00 0.00 0.00 0.00 0.00 0.00 0.00 0.00 0.00 0.00 0.56 0.00 0.00 0.00 0.00 0.00 0.00 0.65 0.00 0.00 0.00 0.00 0.00 0.00 0.00 0.00 0.00 0.00 0.00 0.00 0.00 0.00 0.56 0.00 0.00 0.86 0.00 0.95 0.00 0.00 0.61 0.00 0.00 0.00 0.00 0.00 0.82 0.00 0.56 0.00 0.00 0.00 0.87 0.00 0.00 0.00 0.00 0.00 0.00 0.58 0.00 0.00 0.00 0.00 0.00 0.00 0.00 0.63 0.00 0.00 0.00 0.00 0.00 0.00 0.63 0.00 0.00 0.87 0.00 0.00 0.00 0.94 0.00 0.00 0.00 0.00 0.00 0.00 0.00 0.00 0.64 0.95 0.00 0.00 0.00 0.00 0.00 0.00 0.52 0.79 0.90 0.00 0.00 0.76 0.75 0.00 0.00 0.57 0.00 0.00 0.00 0.00 0.00 0.00 0.00 0.00 0.00 0.00 0.00 0.00 0.94 0.00 0.00 0.79 0.00 0.00 0.71 0.00 0.00
0.00 0.00 0.00 0.00 0.00 0.00 0.00 0.00 0.00 0.00 0.00 0.00 0.00 0.00 0.00 0.00 0.00 0.00 0.00 0.00 0.00 0.00 0.88 0.00 0.61 0.00 0.00 0.00 0.00 0.00 0.00 0.00 0.00 0.58 0.00 0.00 0.66 0.77 0.66 0.78 0.00 0.00 0.00 0.00 0.95 0.00 0.00 0.00 0.00 0.00 0.00 0.00 0.00 0.00 0.83 0.00 0.91 0.00 0.00 0.00 0.00 0.00 0.00 0.00 0.00 0.00 0.51 0.00 0.00 0.00 0.00 0.00 0.00 0.00 0.00 0.00 0.00 0.00 0.71 0.00 0.00 0.00 0.00 0.00 0.00 0.00 0.00 0.00 0.00 0.00 0.00 0.00 0.00 0.64 0.00 0.00 0.00 0.00 0.00 0.00 0.89 0.00 0.00 0.00 0.00 0.00 0.00 0.54 0.00 0.00 0.00 0.00 0.80 0.00 0.00 0.73 0.00 0.00 0.00 0.00 0.93 0.00 0.00 0.00 0.00 0.00 0.91 0.62 0.00 0.00 0.00 0.00 0.00 0.00 0.00 0.00 0.74 0.00 0.00 0.00
0.00 0.00 0.00 0.00 0.62 0.00 0.00 0.00 0.53 0.77 0.00 0.00 0.62 0.00 0.00 0.00 0.00 0.00 0.00 0.00 0.85 0.93 0.70 0.00 0.00 0.00 0.53 0.00 0.53 0.00 0.00 0.00 0.00 0.64 0.00 0.00 0.00 1.00 0.00 0.87 0.00 0.00 0.00 0.00 0.00 0.00 0.00 0.78 0.63 0.00 0.00 0.92 0.00 0.00 0.00 0.00 0.99 0.00 0.71 0.00 0.00 0.95 0.00 0.00 0.00 0.00 0.00 0.00 0.00 0.00 0.00 0.00 0.00 0.00 0.00 0.00 0.00 0.00 0.53 0.00 0.00 0.00 0.00 0.74 0.00 0.00 0.00 0.00 0.00 0.00 0.00 0.00 0.55 0.99 0.99 0.00 0.67 0.00 0.59 0.00 0.00 0.00 0.98 0.00 0.00 0.00 0.68 0.00 1.00 0.55 0.00 0.00 0.00 0.00 0.00 0.00 0.00 0.00 0.81 0.00 0.00 0.00 0.58 0.00 0.80 0.00 0.00 0.00 0.00 0.00 0.00 0.00 0.00 0.00 0.00 0.00 0.00 0.00 0.00 0.00
0.00 0.00 0.00 0.00 0.00 0.59 0.00 0.00 0.00 0.86 0.54 0.00 0.00 0.00 0.66 0.00 0.00 0.00 0.00 0.00 0.00 0.00 0.00 0.00 0.66 0.66 0.00 0.00 0.00 0.00 0.00 0.00 0.00 0.00 0.00 0.95 0.00 0.76 0.00 0.00 0.00 0.00 0.00 0.00 0.00 0.52 0.84 0.00 0.00 0.51 0.00 0.92 0.64 0.00 0.00 0.00 0.00 0.57 0.00 0.92 0.98 0.00 0.54 0.00 0.00 0.00 0.00 0.00 0.00 0.00 0.00 0.00 0.00 0.00 0.00 0.96 0.00 0.00 0.94 0.62 0.00 0.00 0.00 0.00 0.00 0.61 0.00 0.83 0.00 0.00 0.00 0.00 0.00 0.00 0.00 0.00 0.93 0.00 0.00 0.93 0.86 0.00 0.65 0.69 1.00 0.00 0.00 0.00 0.00 0.00 0.00 0.00 0.00 0.00 0.00 0.00 0.00 0.95 0.00 0.00 0.00 0.00 0.00 0.76 0.76 0.00 0.00 0.00 0.00 0.00 0.00 0.86 0.00 0.00 0.00 0.00 0.00 0.89 0.00 0.00
0.00 0.86 0.00 0.00 0.00 0.00 0.00 0.00 0.00 0.97 0.00 0.00 0.00 0.00 0.00 0.66 0.00 0.73 0.00 0.00 0.00 0.00 0.97 0.00 0.71 0.00 0.00 0.00 0.79 0.00 0.00 0.00 0.00 0.95 0.00 0.67 0.00 0.00 0.00 0.00 0.00 0.00 0.00 0.00 0.00 0.88 0.00 0.00 0.50 0.00 0.00 0.00 0.78 0.00 0.00 0.00 0.00 0.00 0.00 0.00 0.00 0.00 0.00 0.00 0.00 0.00 0.00 0.00 0.00 0.00 0.00 0.00 0.00 0.00 0.00 0.94 0.90 0.00 0.00 0.00 0.00 0.62 0.00 0.52 0.00 0.00 0.00 0.00 0.00 0.00 0.70 0.00 0.00 0.80 0.00 0.00 0.00 0.00 0.57 0.67 0.82 0.00 0.84 0.00 0.00 0.93 0.00 0.00 0.90 0.00 0.82 0.00 0.00 0.00 0.62 0.00 0.00 0.00 0.00 0.86 0.00 0.00 0.00 0.00 0.90 0.00 0.00 0.00 0.00 0.00 0.00 0.00 0.00 0.00 0.00 0.83 0.72 0.51 0.00 0.00
0.00 0.00 0.00 0.00 0.00 0.00 0.64 0.00 0.65 0.00 0.00 0.00 0.00 0.67 0.00 0.00 0.00 0.00 0.78 0.73 0.00 0.00 0.97 0.00 0.57 0.00 0.00 0.69 0.00 0.00 0.00 0.71 0.00 0.00 0.00 0.00 0.00 0.00 0.00 0.00 0.00 0.00 0.00 0.00 0.88 0.00 0.00 0.59 0.66 0.92 0.00 0.79 0.73 0.00 0.00 0.00 0.00 0.62 0.00 0.69 0.00 0.88 0.00 0.66 0.00 0.00 0.00 0.00 0.00 0.00 0.00 0.00 0.78 0.00 0.00 0.77 0.00 0.00 0.61 0.00 0.00 0.00 0.00 0.00 0.90 0.51 0.52 0.00 0.00 0.00 0.97 0.00 0.00 0.00 0.00 0.00 0.00 0.60 0.00 0.00 0.00 0.00 0.00 0.78 0.00 0.00 0.00 0.00 0.94 0.00 0.00 0.00 0.64 0.00 0.00 0.56 0.00 0.00 0.51 0.00 0.00 0.76 0.00 0.00 0.00 0.00 0.00 0.56 0.00 0.89 0.00 0.00 0.71 0.00 0.00 0.00 0.00 0.00 0.00 0.00
0.82 0.00 1.00 0.00 0.00 0.55 0.00 0.62 0.66 0.00 0.00 0.82 0.00 0.00 0.88 0.00 0.00 0.00 0.83 0.00 0.00 0.00 0.00 0.00 0.00 0.98 0.00 0.00 0.84 0.00 0.00 0.00 0.76 0.00 0.00 0.00 0.00 0.00 0.00 0.00 0.94 0.00 0.00 0.78 0.00 0.00 0.00 0.00 0.00 0.00 0.00 0.00 0.00 0.00 0.00 0.00 0.93 0.91 0.83 0.00 0.00 0.79 0.72 0.76 0.00 0.00 0.00 0.99 0.00 0.82 0.00 0.00 0.00 0.00 0.00 0.78 0.59 0.00 0.00 0.00 0.00 0.00 0.00 0.00 0.00 0.00 0.00 0.00 0.00 0.00 0.00 0.00 0.00 0.80 0.00 0.00 0.00 0.00 0.00 0.75 0.00 0.00 0.00 0.00 0.00 0.00 0.79 0.00 0.00 0.00 0.00 0.00 0.00 0.00 0.00 0.00 0.00 0.00 0.89 0.00 0.00 0.00 0.00 0.86 0.00 0.00 0.00 0.00 0.64 0.00 0.00 0.00 0.00 0.00 0.00 0.00 0.00 0.88 0.78 0.00
0.00 0.00 0.00 0.00 0.00 0.00 0.00 0.89 0.00 0.00 0.00 0.00 0.00 0.00 0.00 0.00 0.00 0.00 0.00 0.00 0.88 0.00 0.00 0.00 0.61 0.00 0.00 0.00 0.53 0.82 0.00 0.52 0.00 0.00 0.68 0.00 0.00 0.63 0.00 0.00 0.00 0.00 0.00 0.00 0.00 0.97 0.00 0.00 0.55 0.00 1.00 0.00 0.76 0.00 0.00 0.00 0.00 0.00 0.59 0.00 0.60 0.00 0.00 0.00 0.00 0.00 0.84 0.97 0.00 0.00 0.00 0.00 0.89 0.00 0.00 0.84 0.00 0.74 0.00 0.00 0.54 0.00 0.00 0.00 0.00 0.00 0.00 0.00 0.00 0.00 0.00 0.00 0.00 0.82 0.00 0.53 0.00 0.00 0.55 0.00 0.51 0.00 0.00 0.00 0.00 0.00 0.00 0.69 0.00 0.00 0.00 0.00 0.00 0.00 0.00 0.00 0.00 0.00 0.00 0.00 0.00 0.86 0.00 0.00 0.73 0.00 0.79 0.00 0.00 0.99 0.65 0.00 0.83 0.73 0.00 0.97 0.00 0.00 0.00 0.68
0.00 0.70 0.91 0.00 0.00 0.00 0.00 0.00 0.00 0.00 0.00 0.00 0.00 0.00 0.00 0.00 0.68 0.00 0.00 0.00 0.00 0.00 0.00 0.00 0.00 0.00 0.94 0.66 0.53 0.00 0.00 0.85 0.85 0.62 0.00 0.00 0.00 0.60 0.00 0.00 0.86 0.00 0.00 0.93 0.65 0.00 0.64 0.00 0.00 0.00 0.00 0.87 0.81 0.00 0.00 0.93 0.00 0.00 0.00 0.00 0.00 0.83 0.89 0.97 0.00 0.00 0.85 0.70 0.79 0.86 0.00 0.95 0.00 0.97 0.00 0.63 0.52 0.00 0.00 0.74 0.00 0.00 0.00 0.00 0.00 0.00 0.00 0.66 0.89 0.00 0.00 0.00 0.56 0.00 0.00 0.00 0.00 0.00 0.00 0.00 0.00 0.00 0.00 0.00 0.60 0.00 0.00 0.00 0.00 0.00 0.00 0.87 0.00 0.00 0.74 0.60 0.00 0.00 0.00 0.00 0.00 0.98 0.00 0.51 0.90 0.00 0.00 0.00 0.00 0.00 0.00 0.00 0.00 0.00 0.00 0.00 0.00 0.00 0.00 0.81
0.00 0.00 0.00 0.00 0.00 0.00 0.66 0.00 0.00 0.93 0.77 0.00 0.00 0.00 0.00 0.00 0.00 0.00 0.00 0.00 0.00 0.00 0.00 0.00 0.00 0.00 0.00 0.91 0.00 0.96 0.00 0.00 0.00 0.87 0.00 0.00 0.00 0.00 0.00 0.00 0.76 0.00 0.63 0.00 0.71 0.00 0.81 0.00 0.00 0.89 0.00 0.77 0.74 0.00 0.00 0.00 0.00 0.00 0.00 0.00 0.00 0.00 0.00 0.00 0.71 0.00 0.00 0.00 0.00 0.69 0.91 0.94 0.00 0.00 0.00 0.88 0.00 0.00 0.00 0.63 0.00 0.00 0.00 0.00 0.00 0.00 0.55 0.64 0.00 0.00 0.00 0.86 0.00 0.00 0.00 0.00 0.00 0.00 0.00 0.00 0.00 0.00 0.00 0.00 0.94 0.00 0.00 0.00 0.00 0.00 0.86 0.00 0.00 0.00 0.00 0.00 0.00 0.00 0.83 0.00 0.73 0.53 0.82 0.00 0.00 0.00 0.00 0.85 0.00 0.00 0.00 0.00 0.00 0.95 0.60 0.00 0.60 0.00 0.00 0.00
0.00 0.00 0.81 0.00 0.00 0.71 0.00 0.00 0.00 0.00 0.61 0.00 0.00 0.00 0.00 0.00 0.00 0.00 0.00 0.00 0.00 0.00 0.00 0.54 0.00 0.00 0.00 0.00 0.00 0.00 0.00 0.00 0.00 0.00 0.66 0.00 0.00 0.00 0.00 0.00 0.00 0.00 0.00 0.88 0.00 0.00 0.00 0.00 0.00 0.00 0.00 0.84 0.00 0.00 0.00 0.00 0.63 0.00 0.00 0.73 0.00 0.00 0.00 0.00 0.59 0.00 0.00 0.00 0.00 0.00 0.00 0.00 0.00 0.00 0.75 0.00 0.00 0.00 0.00 0.98 0.00 0.75 0.79 0.00 0.76 0.00 0.00 0.67 0.00 0.60 0.00 0.00 0.58 0.00 0.00 0.00 0.00 0.00 0.00 0.00 0.00 0.00 0.00 0.00 0.00 0.00 0.00 0.53 0.00 0.00 0.00 0.00 0.00 0.00 0.83 0.00 0.71 0.56 0.00 0.51 0.65 0.00 0.00 0.72 0.00 0.00 0.00 0.00 0.00 0.00 0.70 0.00 0.00 0.00 0.00 0.93 0.00 0.88 0.00 0.00
0.88 0.84 0.00 0.00 0.00 0.00 0.00 0.00 0.00 0.00 0.00 0.84 0.80 0.00 0.00 0.00 0.66 0.00 0.00 0.00 0.72 0.00 0.56 0.00 0.68 0.00 0.00 0.00 0.60 0.00 0.00 0.00 0.00 0.00 0.00 0.00 0.00 0.00 0.00 0.00 0.00 0.76 0.00 0.00 0.00 0.00 0.00 0.00 0.00 0.00 0.51 0.00 0.00 0.00 0.00 0.99 0.00 0.00 0.00 0.54 0.00 0.00 0.00 0.00 0.00 0.00 0.74 0.00 0.00 0.00 0.00 0.00 0.74 0.00 0.00 0.00 0.00 0.00 0.00 0.00 0.00 0.00 0.00 0.00 0.97 0.00 0.00 0.00 0.00 0.54 0.00 0.77 0.00 0.00 0.00 0.00 0.00 0.00 0.00 0.56 0.00 0.00 0.00 0.00 0.90 0.64 0.00 0.00 0.00 0.00 0.99 0.00 0.00 0.00 0.91 0.00 0.00 0.00 0.00 0.00 0.00 0.86 0.00 0.75 0.00 0.00 0.00 0.00 0.00 0.55 0.73 0.00 0.00 0.00 0.00 0.00 0.00 0.00 0.87 0.00
0.00 0.00 0.00 0.82 0.00 0.00 0.00 0.00 0.82 0.00 0.00 0.00 0.00 0.00 0.00 0.00 0.00 0.00 0.00 0.00 0.00 0.75 0.00 0.00 0.88 0.00 0.00 0.00 0.00 0.57 0.00 0.00 0.00 0.00 0.00 0.77 0.93 0.73 0.00 0.00 0.00 0.00 0.00 0.00 0.00 0.00 0.00 0.87 0.56 0.00 0.00 0.87 1.00 0.00 0.79 0.00 0.00 0.00 0.56 0.00 0.80 0.51 0.00 0.64 0.00 0.00 0.00 0.87 0.00 0.95 0.00 0.59 0.87 0.00 0.00 0.00 0.00 0.00 0.90 0.00 0.00 0.00 0.00 0.00 0.00 0.00 0.00 0.00 0.00 0.00 0.00 0.00 0.00 0.64 0.00 0.00 0.00 0.00 0.95 0.00 0.00 0.00 0.00 0.00 0.00 0.00 0.00 0.00 0.00 0.00 0.00 0.00 0.00 0.00 0.00 0.00 0.00 0.69 0.00 0.00 0.00 0.00 0.00 0.00 0.62 0.00 0.00 0.00 0.00 0.00 0.00 0.50 0.00 0.00 0.00 0.00 0.86 0.91 0.00 0.00
0.96 0.00 0.00 0.00 0.00 0.00 0.64 0.00 0.00 0.00 0.52 0.00 0.00 0.00 0.00 0.00 0.00 0.00 0.00 0.00 0.00 0.00 0.00 0.00 0.00 0.00 0.52 0.84 0.00 0.00 0.00 0.00 0.00 0.00 0.58 0.70 0.00 0.00 0.00 0.00 0.00 0.90 0.00 0.68 0.69 0.00 0.00 0.00 0.00 0.00 0.00 0.58 0.00 0.00 0.00 0.86 0.00 0.00 0.00 0.00 0.65 0.00 0.00 0.00 0.00 0.00 0.00 0.00 0.00 0.62 0.00 0.00 0.81 0.00 0.00 0.00 0.00 0.00 0.00 0.80 0.81 0.56 0.00 0.00 0.00 0.00 0.93 0.00 0.00 0.69 0.00 0.00 0.00 0.00 0.00 0.00 0.00 0.00 0.00 0.59 0.00 0.00 0.00 0.00 0.00 0.00 0.00 0.00 0.00 0.00 0.00 0.00 0.00 0.59 0.00 0.00 0.00 0.00 0.00 0.88 0.00 0.00 0.00 0.00 0.00 0.60 0.00 0.70 0.66 0.95 0.51 0.00 0.00 0.00 0.00 0.00 0.00 0.00 0.00 0.00
0.00 0.00 0.00 0.00 0.00 0.00 0.00 0.00 0.84 0.54 0.00 0.79 0.00 0.00 0.00 0.00 0.81 0.00 0.00 0.73 0.73 0.00 0.89 0.00 0.00 0.54 0.00 0.00 0.79 0.00 0.00 0.00 0.00 0.00 0.00 0.69 0.00 0.00 0.00 0.00 0.00 0.00 0.00 0.64 0.00 0.60 0.00 0.00 0.60 0.98 0.00 0.00 0.00 0.00 0.00 0.00 0.72 0.00 0.00 0.00 0.00 0.00 0.00 0.00 0.00 0.00 0.00 0.00 0.89 0.00 0.00 0.79 0.00 0.00 0.83 0.00 0.00 0.00 0.00 0.00 0.00 0.00 0.79 0.69 0.57 0.00 0.00 0.00 0.00 0.82 0.93 0.00 0.00 0.74 0.00 0.00 0.00 0.00 0.81 0.00 0.00 0.00 0.00 0.73 0.00 0.00 0.00 0.00 0.00 0.00 0.94 0.00 0.63 0.00 0.00 0.00 0.00 0.00 0.62 0.94 0.00 0.00 0.00 0.00 0.00 0.00 0.00 0.00 0.00 0.00 0.74 0.00 0.00 0.00 0.00 0.00 0.00 0.00 0.00 0.99
0.00 0.99 0.00 0.00 0.00 0.00 0.90 0.00 0.00 0.00 0.00 0.00 0.97 0.00 0.00 0.67 0.00 0.00 0.85 0.00 0.00 0.00 0.00 0.00 0.00 0.00 0.00 0.74 0.51 0.81 0.57 0.00 0.00 0.00 0.00 0.70 0.00 0.00 0.00 0.93 0.00 0.00 0.00 0.75 0.00 0.68 0.81 0.51 0.00 0.73 0.00 0.00 0.00 0.64 0.00 0.99 0.75 0.00 0.00 0.99 0.00 0.00 0.00 0.00 0.00 0.00 0.00 0.00 0.75 0.00 0.00 0.00 0.00 0.00 0.00 0.00 0.00 0.00 0.00 0.82 0.00 0.00 0.00 0.00 0.00 0.65 0.00 0.74 0.00 0.00 0.00 0.00 0.00 0.00 0.00 0.00 0.80 0.75 0.00 0.58 0.00 0.74 0.93 0.00 0.00 0.54 0.00 0.00 0.53 0.00 0.00 0.00 0.00 0.00 0.00 0.00 0.00 0.73 0.00 0.58 0.00 0.00 0.59 0.00 0.00 0.00 0.00 0.00 0.00 0.00 0.00 0.68 0.00 0.00 0.00 0.00 0.00 0.00 0.98 0.00
0.00 0.00 0.00 0.00 0.95 0.85 0.00 0.00 0.00 0.00 0.00 0.91 0.71 0.00 0.00 0.00 0.00 0.00 0.00 0.00 0.98 0.00 0.00 0.00 0.00 0.82 0.85 0.00 0.95 0.77 0.54 0.67 0.00 0.78 0.89 0.86 0.00 0.00 0.00 0.88 0.00 0.00 0.00 0.00 0.00 0.65 0.79 0.00 0.00 0.00 0.00 0.00 0.00 0.00 0.91 0.00 0.00 0.00 0.78 0.00 0.81 0.54 0.00 0.00 0.00 0.51 0.00 0.62 0.00 0.55 0.00 0.00 0.00 0.00 0.00 0.00 1.00 0.00 0.00 0.00 0.00 0.00 0.00 0.93 0.00 0.00 0.00 0.00 0.00 0.00 0.00 0.00 0.66 0.00 0.00 0.00 0.00 0.96 0.00 0.00 0.00 0.00 0.00 0.00 0.00 0.00 0.00 0.00 0.76 0.00 0.00 0.00 0.00 0.00 0.00 0.00 1.00 0.00 0.00 0.00 0.91 0.00 0.00 0.00 0.00 0.00 0.55 0.79 0.54 0.94 0.92 0.00 0.56 0.00 0.00 0.00 0.00 0.00 0.00 0.00
0.79 0.00 0.00 0.00 0.00 0.00 0.89 0.00 0.00 0.00 0.00 0.93 0.00 0.71 0.00 0.00 0.98 0.00 0.00 0.00 0.00 0.00 0.00 0.00 0.00 0.00 0.00 0.00 0.00 0.00 0.00 0.65 0.00 0.00 0.00 0.00 0.00 0.00 0.93 0.00 0.00 0.00 0.00 0.00 0.93 0.97 0.88 0.00 0.00 0.00 0.65 0.56 0.00 0.56 0.00 0.00 0.00 0.83 0.00 0.83 0.00 0.00 0.00 0.00 0.00 0.00 0.00 0.00 0.00 0.00 0.00 0.00 0.64 0.87 0.00 0.00 0.00 0.00 0.00 0.00 0.00 0.99 0.64 0.00 0.00 0.00 0.00 0.94 0.00 0.65 0.00 0.00 0.92 0.00 0.00 0.72 0.00 0.00 0.00 0.00 0.00 0.00 0.00 0.00 0.00 0.00 0.00 0.00 0.00 0.00 0.00 0.00 0.00 0.00 0.00 0.00 0.00 0.00 0.00 0.00 0.00 0.00 0.00 0.00 0.00 0.00 0.00 0.00 0.00 0.00 0.00 0.80 0.00 0.00 0.00 0.00 0.00 0.00 0.83 0.00
0.00 0.00 0.00 0.00 0.00 0.00 0.00 0.00 0.00 0.55 0.00 0.00 0.00 0.00 0.00 0.00 0.60 0.00 0.00 0.00 0.00 0.00 0.00 0.00 0.00 0.00 0.75 0.00 0.00 0.00 0.00 0.00 0.00 0.00 0.81 0.00 0.00 0.00 0.76 0.00 0.00 0.00 0.91 0.65 0.00 0.00 0.00 0.00 0.88 0.58 0.00 0.00 0.00 0.00 0.00 0.00 0.87 0.00 0.80 0.00 0.00 0.00 0.58 0.54 0.00 0.00 0.00 0.85 0.00 0.73 0.00 0.72 0.00 0.00 0.00 0.00 0.00 0.54 0.00 0.00 0.00 0.00 0.00 0.00 0.00 0.00 0.96 0.00 0.00 0.00 0.00 0.00 0.00 0.59 0.00 0.00 0.72 0.67 0.00 0.00 0.00 0.00 0.00 0.00 0.00 0.00 0.00 0.00 0.97 0.00 0.72 0.00 0.00 0.00 0.00 0.00 0.00 0.00 0.00 0.87 0.00 0.00 0.62 0.00 0.61 0.00 0.00 0.67 0.00 0.00 0.00 0.78 0.00 0.00 0.00 0.00 0.00 0.87 0.89 0.00
0.00 0.00 0.00 0.00 0.65 0.00 0.92 0.00 0.00 0.00 0.00 0.00 0.00 0.00 0.00 0.00 0.73 0.68 0.53 0.00 0.00 0.00 0.00 0.00 0.00 0.00 0.93 0.00 0.00 0.00 0.00 0.00 0.00 0.69 0.00 0.71 0.00 0.00 0.69 0.00 0.00 0.00 0.00 0.00 0.00 0.00 0.00 0.00 0.00 0.00 0.00 0.00 0.00 0.00 0.00 0.60 0.00 0.00 0.00 0.51 0.00 0.00 0.00 0.00 0.97 0.00 0.00 0.00 0.00 0.00 0.53 0.00 0.65 0.00 0.00 0.00 0.00 0.00 0.00 0.00 0.58 0.00 0.00 0.00 0.77 0.00 0.00 0.00 0.00 0.00 0.00 0.89 0.00 0.75 0.00 0.00 0.00 0.54 0.00 0.00 0.00 0.00 0.00 0.00 0.00 0.00 0.00 0.00 0.00 0.00 0.00 0.00 0.00 0.00 0.69 0.00 0.00 0.00 0.00 0.70 0.53 0.00 0.00 0.00 0.00 0.00 0.83 0.00 0.55 0.00 0.00 0.00 0.00 0.00 0.92 0.73 0.00 0.00 0.00 0.77
0.00 0.00 0.00 0.00 0.00 0.75 0.00 0.00 0.00 0.00 0.00 0.00 0.00 0.00 0.00 0.00 0.88 0.00 0.00 0.89 0.00 0.00 0.63 0.00 0.00 0.00 0.00 0.00 0.00 0.00 0.00 0.00 0.00 0.63 0.00 0.00 0.00 0.57 0.00 0.00 0.00 0.00 0.00 0.00 0.00 0.96 0.00 0.00 0.00 0.00 0.00 0.82 0.00 0.82 0.00 0.00 0.93 0.00 0.00 1.00 0.00 0.00 0.00 0.00 0.84 0.00 0.00 0.87 0.00 0.00 0.52 0.00 0.00 0.65 0.53 0.98 0.00 0.68 0.00 0.00 0.00 0.65 0.00 0.00 0.00 0.00 0.00 0.00 0.65 0.54 0.00 0.00 0.93 0.00 0.00 0.00 0.00 0.69 0.00 0.96 0.00 0.00 0.00 0.00 0.94 0.00 0.00 0.55 0.00 0.53 0.00 0.00 0.95 0.00 0.00 0.99 0.00 0.98 0.00 0.00 0.00 0.00 0.00 0.89 0.00 0.00 0.00 0.64 0.00 0.00 0.00 0.00 0.68 0.00 0.00 0.00 0.00 0.00 0.00 0.00
0.00 0.00 0.00 0.69 0.00 0.00 0.00 0.00 0.00 0.00 0.00 0.00 0.00 0.84 0.00 0.00 0.00 0.00 0.00 0.57 0.00 0.00 0.66 0.00 0.99 0.00 0.00 0.90 0.00 0.00 0.91 0.00 0.00 0.00 0.92 0.00 0.94 0.00 0.00 0.00 0.53 0.00 0.00 0.00 0.00 0.99 0.63 0.00 0.00 0.00 0.00 0.00 0.00 0.00 0.00 0.83 0.00 0.00 0.00 0.00 0.71 0.00 0.00 0.00 0.00 0.00 0.00 0.00 0.00 0.00 0.70 0.00 0.00 0.00 0.00 0.00 0.00 0.00 0.00 0.00 0.00 0.00 0.00 0.00 0.00 0.54 0.00 0.00 0.00 0.00 0.00 0.00 0.00 0.00 0.00 0.00 0.00 0.00 0.00 0.93 0.00 0.00 0.00 0.61 0.00 0.57 0.00 0.00 0.00 0.00 0.00 0.66 0.00 0.00 0.75 0.00 0.00 0.66 0.78 0.62 0.00 0.00 0.00 0.00 0.00 0.00 0.00 0.00 0.00 0.00 0.00 0.00 0.00 0.60 0.00 0.93 0.90 0.73 0.00 0.00
0.00 0.00 0.00 0.00 0.00 0.00 0.63 0.00 0.67 0.00 0.00 0.00 0.00 0.94 0.00 0.00 0.00 0.00 0.00 0.00 0.00 0.00 0.59 0.00 0.00 0.00 0.00 0.67 0.87 0.54 0.00 0.00 0.00 0.00 0.00 0.00 0.00 0.64 0.00 0.00 0.86 0.00 0.00 0.00 0.00 0.00 0.00 0.00 0.78 0.99 0.87 0.00 0.00 0.00 0.00 0.00 0.00 0.00 0.90 0.89 0.00 0.00 0.79 0.55 0.00 0.00 0.00 0.00 0.00 0.00 0.92 0.65 0.76 0.00 0.00 0.00 0.00 0.00 0.00 0.00 0.00 0.00 0.00 0.00 0.00 0.00 0.00 0.00 0.00 0.92 0.56 0.00 0.00 0.00 0.00 0.00 0.00 0.56 0.00 0.96 0.00 0.00 0.00 0.00 0.00 0.00 0.00 0.00 0.00 0.00 0.00 0.00 0.00 0.00 0.00 0.71 0.00 0.00 0.81 0.00 0.00 0.90 0.00 0.00 0.00 0.00 0.87 0.55 0.80 0.00 0.00 0.00 0.56 0.66 0.00 0.00 0.89 0.00 0.62 0.82
0.94 0.00 0.00 0.00 0.68 0.00 0.00 0.00 0.77 0.77 0.00 0.00 0.52 0.00 0.00 0.00 0.00 0.00 0.00 0.00 0.00 0.98 0.51 0.00 0.58 0.00 0.00 0.00 0.00 0.00 0.00 0.00 0.00 0.00 0.00 0.00 0.00 0.84 0.00 0.00 0.89 0.00 0.00 0.00 0.00 0.00 0.00 0.00 0.70 0.00 0.00 0.00 0.00 0.00 0.00 0.00 0.00 0.73 0.00 0.00 0.00 0.99 0.00 0.00 0.00 0.00 0.00 0.87 0.00 0.00 0.00 0.88 0.00 0.00 0.74 0.00 0.00 0.00 0.00 0.00 0.00 0.00 0.00 0.58 0.00 0.00 0.00 0.91 0.00 0.00 0.00 0.00 0.00 0.00 0.00 0.69 0.00 0.72 0.00 0.00 0.00 0.92 0.00 0.00 0.00 0.00 0.00 0.00 0.00 0.00 0.00 0.00 0.00 0.75 0.51 0.00 0.92 0.00 0.00 0.00 0.00 0.51 0.00 0.81 0.89 0.00 0.69 0.83 0.69 0.58 0.56 0.00 0.88 0.00 0.00 0.00 0.00 0.71 0.00 0.00
0.00 0.00 0.00 0.00 0.00 0.00 0.58 0.00 0.63 0.00 0.00 0.00 0.00 0.00 0.00 0.00 0.00 0.00 0.00 0.00 0.97 0.00 0.00 0.00 0.00 0.00 0.00 0.00 0.00 0.00 0.00 0.00 0.00 0.69 0.00 0.92 0.76 0.62 0.00 0.00 0.00 0.00 0.00 0.89 0.00 0.00 0.52 0.00 0.00 0.96 0.57 0.82 0.84 0.79 0.00 0.00 0.00 0.00 0.51 0.00 0.00 0.94 0.00 0.00 0.00 0.00 0.00 0.00 0.51 0.00 0.00 0.00 0.00 0.00 0.00 0.81 0.00 0.00 0.96 0.00 0.85 0.00 0.85 0.00 0.00 0.00 0.00 0.00 0.00 0.00 0.00 0.00 0.65 0.00 0.00 0.00 0.93 0.00 0.00 0.80 0.00 0.00 0.64 0.00 0.00 0.00 0.76 0.00 0.00 0.00 0.81 0.00 0.00 0.00 0.00 0.00 0.00 0.00 0.00 0.86 0.00 0.00 0.00 0.00 0.00 0.77 0.00 0.00 0.00 0.00 0.00 0.00 0.00 0.00 0.81 0.00 0.00 0.00 0.00 0.77
0.56 0.00 0.00 0.00 0.00 0.00 0.00 0.00 0.00 0.00 0.87 0.00 0.00 0.00 0.00 0.00 0.00 0.00 0.00 0.00 0.00 0.00 0.00 0.00 0.53 0.00 0.00 0.00 0.00 0.00 0.00 0.00 0.88 0.00 0.00 0.00 0.00 0.00 0.00 0.00 0.70 0.00 0.00 0.00 0.00 0.00 0.00 0.00 0.00 0.00 0.00 0.81 0.00 0.00 0.00 0.00 0.77 0.69 0.00 0.00 0.00 0.85 0.50 0.00 0.00 0.00 0.00 0.62 0.00 0.00 0.00 0.00 0.53 0.00 0.00 0.00 0.00 0.00 0.00 0.00 0.84 0.00 0.00 0.00 0.75 0.88 0.00 0.00 0.87 0.00 0.00 0.00 0.87 0.00 0.89 0.60 0.00 0.89 0.72 0.00 0.00 0.59 0.00 0.00 0.00 0.00 0.00 0.00 0.00 0.00 0.00 0.00 0.00 0.00 0.00 0.72 0.00 0.00 0.00 0.00 0.00 0.00 0.00 0.00 0.65 0.00 0.00 0.66 0.00 0.00 0.73 0.00 0.00 0.00 0.00 0.00 0.00 0.00 0.00 0.00
0.00 0.00 0.52 0.00 0.00 0.63 0.00 0.00 0.00 0.79 0.00 0.00 0.00 0.00 0.00 0.00 0.00 0.00 0.00 0.00 0.88 0.00 0.00 0.00 0.00 0.00 0.00 0.00 0.00 0.80 0.97 0.00 0.00 0.00 0.00 0.00 0.00 0.87 0.00 0.00 0.00 0.00 0.00 0.00 0.66 0.00 0.53 0.00 0.89 0.00 0.00 0.00 0.67 0.00 0.87 0.00 0.00 0.00 0.83 0.00 0.00 0.00 0.00 0.00 0.00 0.00 0.00 0.53 0.00 0.00 0.00 0.00 0.64 0.00 0.00 0.00 0.00 0.00 0.00 0.83 0.00 0.00 0.00 0.00 0.00 0.00 0.00 0.00 0.00 0.00 0.00 0.54 0.00 0.75 0.00 0.99 0.00 0.00 0.00 0.00 0.94 0.00 0.00 0.00 0.00 0.00 0.00 0.00 0.00 0.00 0.00 0.00 0.00 0.66 0.00 0.00 0.00 0.00 0.89 0.00 0.78 0.00 0.83 0.00 0.00 0.00 0.00 0.00 0.00 0.71 0.82 0.00 0.00 0.00 0.00 0.54 0.00 0.66 0.00 0.75
0.00 0.00 0.00 0.00 0.00 0.00 0.00 0.00 0.00 0.00 0.00 0.00 0.58 0.00 0.00 0.00 0.00 0.55 0.78 0.00 0.76 0.00 0.00 0.00 0.51 0.53 0.00 0.59 0.00 0.00 0.00 0.00 0.00 0.00 0.00 0.00 0.00 0.00 0.00 0.00 0.00 0.00 0.00 0.78 0.84 0.00 0.00 0.95 0.55 0.00 0.00 0.00 0.00 0.00 0.00 0.00 0.00 0.00 0.00 0.00 0.70 0.96 0.00 0.00 0.00 0.00 0.00 0.00 0.94 0.00 0.00 0.73 0.00 0.00 0.00 0.00 0.00 0.83 0.00 0.00 0.52 0.61 0.00 0.00 0.61 0.00 0.00 0.00 0.00 0.00 0.00 0.00 0.00 0.00 0.00 0.58 0.00 0.72 0.00 0.92 0.00 0.00 0.88 0.00 0.87 0.71 0.82 0.70 0.00 0.00 0.93 0.00 0.00 0.00 0.53 0.00 0.00 0.00 0.00 0.00 0.00 0.00 0.00 0.00 0.00 0.00 0.00 0.00 0.00 0.00 0.00 0.00 0.00 0.00 0.00 0.00 0.00 0.70 0.00 0.00
0.00 0.00 0.00 0.00 0.60 0.00 0.00 0.00 0.89 0.00 0.00 0.64 0.00 0.00 0.65 0.99 0.51 0.00 0.00 0.00 0.78 0.00 0.00 0.00 0.00 0.00 0.00 0.77 0.00 0.70 0.00 0.00 0.84 0.00 0.00 0.00 0.00 0.00 0.00 0.55 0.00 0.00 0.00 0.72 0.00 0.64 0.53 0.00 0.85 0.00 0.78 0.00 0.62 0.00 0.00 0.00 0.00 0.00 0.00 0.00 0.00 0.00 0.00 0.00 0.00 0.00 0.00 0.00 0.00 0.00 0.00 0.00 0.74 0.00 0.00 0.83 0.00 0.81 0.00 0.90 0.00 0.00 0.00 1.00 0.00 0.00 0.00 0.00 0.00 0.00 0.00 0.00 0.00 0.52 0.00 0.00 0.00 0.91 0.00 0.00 0.00 0.00 0.00 0.00 0.00 0.00 0.00 0.00 0.00 0.00 0.81 0.85 0.00 0.54 0.00 0.97 0.00 0.00 0.59 0.00 0.00 0.00 0.00 0.00 0.00 0.79 0.00 0.00 0.00 0.00 0.00 0.00 0.00 0.00 0.00 0.00 0.00 0.00 0.00 0.00
0.92 0.69 0.00 0.00 0.00 0.00 0.00 0.00 0.00 0.00 0.00 0.00 0.00 0.00 0.00 0.61 0.56 0.92 0.00 0.73 0.79 0.82 0.67 0.00 0.00 0.00 0.00 0.00 0.00 0.00 0.00 0.00 0.00 0.00 0.80 0.00 0.00 0.90 0.00 0.00 0.00 0.00 0.00 0.00 0.00 0.00 0.00 0.00 0.00 0.84 0.70 0.00 0.00 0.50 0.00 0.00 0.00 0.00 0.88 0.51 0.00 0.00 0.00 0.00 0.00 0.00 0.00 0.00 0.00 0.50 0.86 0.00 0.60 0.00 0.00 0.00 0.00 0.00 0.00 0.00 0.59 0.00 0.79 0.59 0.00 0.00 0.00 0.75 0.00 0.00 0.00 0.00 0.00 0.00 0.00 0.00 0.00 0.00 0.65 0.00 0.00 0.00 0.00 0.00 0.00 0.76 0.00 0.00 0.00 0.00 0.00 0.77 0.00 0.00 0.00 0.00 0.00 0.00 0.00 0.00 0.00 0.00 0.83 0.00 0.00 0.79 0.00 0.00 0.69 0.00 0.00 0.00 0.71 0.00 0.94 0.00 0.58 0.00 0.00 0.00
0.00 0.99 0.00 0.00 0.00 0.85 0.00 0.00 0.00 0.60 0.63 0.00 0.73 0.00 0.00 0.00 0.53 0.00 0.81 0.00 0.66 0.00 0.56 0.00 0.00 0.00 0.00 0.00 0.00 0.00 0.00 0.00 0.00 0.00 0.00 0.00 0.00 0.00 0.00 0.00 0.00 0.00 0.00 0.00 0.85 0.00 0.98 0.00 0.84 0.00 0.58 0.00 0.00 0.00 0.00 0.00 0.00 0.58 0.00 0.00 0.00 0.60 0.00 0.52 0.00 0.00 0.00 0.00 0.00 0.00 0.00 0.00 0.00 0.00 0.89 0.00 0.00 0.88 0.93 0.00 0.00 0.58 0.00 0.00 0.00 0.00 0.00 0.00 0.73 0.00 0.00 0.00 0.00 0.50 0.00 0.70 0.00 0.00 0.83 0.59 0.00 0.00 0.62 0.75 0.00 0.00 0.00 0.00 0.00 0.76 0.00 0.00 1.00 0.00 0.00 0.00 0.00 0.00 0.00 0.53 0.00 0.00 0.00 0.00 0.00 0.00 0.00 0.00 0.00 0.00 0.00 0.52 0.00 0.00 0.00 0.00 0.00 0.00 0.00 0.00
0.60 0.85 0.77 0.98 0.00 0.67 0.00 0.00 0.00 0.00 0.00 0.53 0.00 0.00 0.00 0.00 0.00 0.74 0.00 0.00 0.00 0.00 0.00 0.00 0.85 0.95 0.88 0.00 0.00 0.00 0.00 0.00 0.00 0.00 0.61 0.00 0.00 0.00 0.00 0.62 0.00 0.95 0.00 0.00 0.00 0.00 0.00 0.00 0.00 0.00 0.50 0.70 0.00 0.00 0.00 0.00 0.98 0.00 0.84 0.00 0.89 0.00 0.00 0.00 0.65 0.00 0.00 0.00 0.00 0.00 0.00 0.00 0.00 0.00 0.00 0.00 0.55 0.77 0.00 0.00 0.00 0.00 0.00 0.00 0.00 0.00 0.52 0.63 0.92 0.00 0.00 0.00 0.00 0.00 0.58 0.00 0.00 0.00 0.85 0.00 0.00 0.00 0.65 0.00 0.00 0.00 0.00 0.00 0.00 0.00 0.62 0.00 0.00 0.00 0.00 0.00 0.00 0.59 0.00 0.00 0.00 0.00 0.00 0.00 0.00 0.00 0.00 0.00 0.00 0.00 0.00 0.00 0.00 0.00 0.78 0.82 0.00 0.00 0.00 0.00
