140
0.00 0.00 0.00 0.00 0.00 0.00 0.66 0.00 0.00 0.00 0.00 0.00 0.00 0.60 0.00 0.00 0.65 0.00 0.69 0.80 0.52 0.00 0.59 0.00 0.00 0.00 0.00 0.58 0.60 0.81 0.00 0.86 0.00 0.00 0.00 0.60 0.00 0.00 0.00 0.76 0.00 0.00 0.75 0.00 0.00 0.84 0.00 0.00 0.00 0.00 0.00 0.00 0.61 0.00 0.00 0.00 0.57 0.00 0.61 0.71 0.00 0.00 0.00 0.00 0.00 0.00 0.92 0.00 0.00 0.54 0.82 0.00 0.00 0.00 0.00 0.00 0.00 0.00 0.00 0.00 0.00 0.00 0.00 0.56 0.84 0.00 0.00 0.55 0.00 0.00 0.00 0.00 0.00 0.00 0.00 0.71 0.66 0.61 0.00 0.00 0.00 0.00 0.00 0.00 0.00 0.00 0.90 0.74 0.00 0.00 0.00 0.00 0.00 0.00 0.00 0.00 0.71 0.00 0.00 0.68 0.00 0.96 0.00 0.00 0.00 0.59 0.00 0.00 0.55 0.00 0.00 0.00 0.00 0.00 0.00 0.00 0.00 0.00 0.00 0.00
0.00 0.00 0.00 0.00 0.00 0.00 0.00 0.00 0.00 0.00 0.00 0.00 0.79 0.00 0.00 0.00 0.00 0.00 0.59 0.00 0.00 0.52 0.00 0.00 0.00 0.00 0.61 0.00 0.64 0.00 0.95 0.00 0.96 0.74 0.84 0.00 0.00 0.00 0.00 0.00 0.00 0.00 0.53 0.90 0.00 0.63 0.00 0.00 0.69 0.00 0.00 0.00 0.00 0.00 0.00 0.00 0.53 0.00 0.00 0.69 0.00 0.57 0.83 0.56 0.00 0.00 0.00 0.00 0.00 0.00 0.94 0.90 0.00 0.92 0.00 0.00 0.00 0.00 0.00 0.00 0.00 0.00 0.96 0.00 0.00 0.00 0.00 0.57 0.88 0.00 0.80 0.00 0.00 0.00 0.00 0.52 0.85 0.00 0.00 0.00 0.00 0.54 0.93 0.84 0.00 0.00 0.00 0.00 0.00 0.00 0.97 0.00 0.00 0.00 0.00 0.00 0.00 0.00 0.90 0.00 0.00 0.56 0.00 0.00 0.00 0.00 0.00 0.00 0.92 0.00 0.66 0.00 0.00 0.00 0.00 0.00 0.86 0.00 0.00 0.00
0.00 0.00 0.00 0.00 0.71 0.98 0.00 0.00 0.00 0.00 0.00 0.00 0.00 0.97 0.00 0.00 0.92 0.00 0.00 0.00 0.60 0.00 0.00 0.00 0.00 0.00 0.00 0.00 0.00 0.56 0.00 0.58 0.00 0.00 0.00 0.77 0.00 0.76 0.00 0.51 0.60 0.71 0.00 0.00 0.87 0.00 0.00 0.00 0.00 0.00 0.00 0.00 0.00 0.00 0.00 0.00 0.58 0.53 0.00 0.00 0.00 0.00 0.00 0.00 0.00 0.00 0.93 0.85 0.00 0.00 0.00 0.00 0.00 0.00 0.50 0.00 0.00 0.69 0.00 0.00 0.72 0.89 0.00 0.52 0.70 0.00 0.58 0.00 0.00 0.00 0.00 0.00 0.00 0.00 0.00 0.00 0.00 0.00 0.00 0.00 0.00 0.74 0.00 0.84 0.00 0.81 0.00 0.00 0.00 0.00 0.61 0.00 0.97 0.00 0.00 0.00 0.00 0.00 0.00 0.00 0.00 0.00 0.00 0.00 0.66 0.00 0.50 0.00 0.61 0.00 0.57 0.00 0.00 0.00 0.00 0.00 0.58 0.00 0.00 0.76
0.00 0.00 0.66 0.00 0.00 0.92 0.00 0.00 0.00 0.73 0.00 0.00 0.00 0.60 0.00 0.00 0.00 0.82 0.00 0.00 0.00 0.52 0.00 0.00 0.70 0.00 0.00 0.00 0.00 0.76 0.91 0.90 0.00 0.00 0.00 0.69 0.74 0.84 0.00 0.72 0.00 0.99 0.00 0.87 0.00 0.58 0.00 0.00 0.78 0.00 0.00 0.00 0.00 0.00 0.00 0.00 0.00 0.00 0.00 0.00 0.89 0.00 0.65 0.00 0.00 0.00 0.00 0.89 0.00 0.00 0.68 0.00 0.00 0.00 0.00 0.00 0.00 0.00 0.96 0.00 0.00 0.00 0.00 0.00 0.00 0.00 0.00 0.00 0.83 0.00 0.00 0.00 0.00 0.00 0.93 0.00 0.00 0.00 0.00 0.91 0.00 0.00 0.00 0.00 0.00 0.92 0.00 0.00 0.00 0.00 0.00 0.86 0.00 0.61 0.00 0.59 0.00 0.91 0.00 0.00 0.00 0.00 0.00 0.00 0.00 0.00 0.00 0.00 0.00 0.00 0.00 0.00 0.00 0.00 0.00 0.00 0.00 0.00 0.00 0.00
0.85 0.00 0.00 0.00 0.00 0.00 0.00 0.00 0.00 0.69 0.00 0.82 0.00 0.00 0.74 0.00 0.00 0.00 0.87 0.66 0.00 0.00 0.75 0.00 0.00 0.00 0.00 0.00 0.96 0.85 0.00 0.00 0.00 0.00 0.00 0.00 0.00 0.00 0.00 0.00 0.96 0.00 0.00 0.00 0.00 1.00 0.00 0.00 0.86 0.72 0.00 0.67 0.00 0.65 0.00 0.00 0.00 0.00 0.00 0.94 0.00 0.72 0.00 0.00 0.84 0.00 0.00 0.00 0.99 0.00 0.00 0.73 0.00 0.76 0.64 0.84 0.82 0.00 0.00 0.00 0.00 0.00 0.00 0.00 0.00 0.00 0.00 0.76 0.72 0.85 0.00 0.00 0.00 0.00 0.00 0.00 0.91 0.98 0.59 0.00 0.00 0.00 0.00 0.00 0.00 0.00 0.00 0.00 0.00 0.00 0.66 0.00 0.00 0.00 0.00 0.00 0.00 0.00 0.00 0.00 0.67 0.00 0.00 0.00 0.00 0.00 0.00 0.00 0.00 0.00 0.88 0.00 0.00 0.00 0.87 0.00 0.00 0.00 0.00 0.00
0.00 0.00 0.00 0.00 0.68 0.00 0.00 0.52 0.00 0.00 0.00 0.94 0.00 0.00 0.00 0.94 0.00 0.00 0.00 0.00 0.00 0.00 0.00 0.00 0.00 0.00 0.00 0.00 0.00 0.00 0.00 0.00 0.95 0.00 0.88 0.71 0.00 0.00 0.00 0.92 0.65 0.00 0.00 0.00 0.00 0.00 0.99 0.00 0.00 0.00 0.63 0.00 0.00 0.00 0.00 0.78 0.95 0.00 0.00 0.00 0.00 0.00 0.00 0.90 0.00 0.67 0.87 0.00 0.00 0.00 0.65 0.63 0.00 0.00 0.00 0.00 1.00 0.00 0.00 0.00 0.00 0.00 0.53 0.70 0.00 0.63 0.00 0.00 0.00 0.81 0.57 0.00 0.00 0.00 0.57 0.00 0.00 0.94 0.00 0.00 0.00 0.00 0.00 0.93 0.00 0.00 0.00 0.00 0.00 0.00 0.00 0.00 0.00 0.00 0.00 0.00 0.00 0.00 0.76 0.00 0.00 0.00 0.00 0.00 0.52 0.00 0.00 0.00 0.00 0.00 0.00 0.00 0.00 0.93 0.00 0.00 0.00 0.00 0.00 0.00
0.00 0.00 0.00 0.00 0.00 0.00 0.00 0.75 0.00 0.00 0.00 0.00 0.99 0.00 0.00 0.94 0.00 0.00 0.56 0.00 0.53 0.00 0.00 0.00 0.00 0.00 0.00 0.00 0.00 0.00 0.00 0.00 0.00 0.00 0.00 0.00 0.77 0.00 0.00 0.00 0.00 0.00 0.00 0.00 0.00 0.60 0.00 0.53 0.00 0.00 0.00 0.74 0.00 0.00 0.74 0.00 0.00 0.00 0.00 0.00 0.81 0.00 0.00 0.00 0.00 0.00 0.00 0.00 0.00 0.00 0.74 0.00 0.70 0.88 0.87 0.00 0.00 0.00 0.00 0.00 0.00 0.00 0.77 0.00 0.00 0.00 0.00 0.00 0.00 0.86 0.00 0.00 0.00 0.00 0.88 0.00 0.00 0.00 0.00 0.00 0.00 0.00 0.00 0.00 0.00 0.00 0.00 0.00 0.89 0.00 0.00 0.00 0.00 0.00 0.00 0.79 0.00 0.00 0.00 0.00 0.00 0.00 0.00 0.92 0.00 0.00 0.96 0.57 0.00 0.00 0.00 0.00 0.92 0.00 0.00 0.00 0.00 0.00 0.69 0.83
0.00 0.00 0.00 0.87 0.00 0.00 0.00 0.00 0.00 0.68 0.00 0.88 0.00 0.67 0.00 0.00 0.00 0.00 0.00 0.00 0.00 0.00 0.84 0.00 0.00 0.00 0.00 0.00 0.00 0.00 0.00 0.00 0.00 0.60 0.00 0.00 0.00 0.00 0.00 0.00 0.00 0.00 0.00 0.00 0.54 0.00 0.73 0.00 0.00 0.00 0.00 0.00 0.00 0.00 0.00 0.53 0.00 0.66 0.00 0.00 0.00 0.00 0.00 0.00 0.00 0.60 0.00 0.00 0.00 0.55 0.91 0.00 0.00 0.00 0.00 0.00 0.00 0.00 0.95 0.96 0.87 0.00 0.00 0.00 0.00 0.00 0.00 0.00 0.00 0.97 0.00 0.00 0.00 0.00 0.00 0.00 0.00 0.50 0.00 0.00 0.00 0.00 0.00 0.00 0.00 0.00 0.00 0.75 0.00 0.00 0.00 0.00 0.00 0.00 0.00 0.00 0.00 0.00 0.77 0.00 0.00 0.54 0.00 0.00 0.79 0.00 0.93 0.00 0.00 0.78 0.00 0.87 0.00 0.00 0.00 0.00 0.00 0.00 0.82 0.00
0.75 0.00 0.63 0.00 0.00 0.00 0.00 0.00 0.00 0.59 0.00 0.90 0.00 0.52 0.76 0.00 0.00 0.00 0.00 0.63 0.64 0.00 0.00 0.00 0.00 0.00 0.99 0.00 0.00 0.00 0.00 0.00 0.00 0.00 0.00 0.00 0.00 0.00 0.00 0.00 0.00 0.00 0.00 0.00 0.55 0.00 0.00 0.00 0.00 0.00 0.00 0.00 0.00 0.99 0.00 0.57 0.00 0.00 0.00 0.00 0.00 0.78 0.00 0.78 0.94 0.00 0.00 0.76 0.00 0.00 0.00 0.00 0.00 0.00 0.00 0.00 0.00 0.52 0.00 0.00 0.67 0.00 0.00 0.00 0.00 0.00 0.00 0.00 0.00 0.00 0.00 0.56 0.00 0.00 0.00 0.00 0.62 0.00 0.00 0.00 0.00 0.00 0.00 0.00 0.00 0.00 0.00 0.00 0.58 0.00 0.00 0.00 0.00 0.00 0.00 0.83 0.00 0.00 0.62 0.00 0.00 0.00 0.85 0.00 0.00 0.00 0.96 0.00 0.00 0.00 0.00 0.00 0.00 0.57 0.00 0.00 0.52 0.00 0.55 0.00
0.91 0.00 0.00 0.00 0.00 0.00 0.00 0.75 0.00 0.00 0.76 0.74 0.00 0.00 0.00 0.53 0.00 0.00 0.00 0.00 0.00 0.00 0.00 0.00 0.00 0.00 0.00 0.74 0.00 0.00 0.00 0.00 0.00 0.00 0.00 0.00 0.00 0.92 0.62 0.82 0.00 0.00 0.69 0.00 0.00 0.00 0.00 0.00 0.00 0.00 0.52 0.00 0.00 0.00 0.00 0.72 0.00 0.77 0.00 0.00 0.00 0.00 0.00 0.00 0.00 0.00 0.00 0.00 0.00 0.00 0.80 0.00 0.00 0.00 0.00 0.00 0.00 0.52 0.00 0.00 0.90 0.00 0.00 0.55 0.00 0.72 0.00 0.00 0.63 0.00 0.00 0.53 0.98 0.00 0.95 0.00 0.51 0.00 0.00 0.00 0.00 0.00 0.00 0.00 0.57 0.00 0.00 0.00 0.95 0.00 0.57 0.00 0.00 0.62 0.00 0.00 0.00 0.00 0.00 0.00 0.00 0.00 0.00 0.00 0.83 0.54 0.00 0.91 0.00 0.00 0.00 0.00 0.00 0.00 0.00 0.00 0.00 0.00 0.00 0.00
0.61 0.00 0.00 0.00 0.55 0.00 0.00 0.00 0.59 0.00 0.00 0.58 0.00 0.00 0.97 0.00 0.62 0.00 0.83 0.83 0.00 0.00 0.00 0.80 0.00 0.00 0.00 0.68 0.00 0.00 0.88 0.51 0.00 0.00 0.60 0.00 0.00 0.67 0.00 0.00 0.00 0.00 0.80 0.00 0.70 0.00 0.00 0.82 0.71 0.00 0.00 0.63 0.00 0.00 0.00 0.50 0.00 0.00 0.00 0.00 0.00 0.00 0.00 0.00 0.00 0.00 0.00 0.00 0.00 0.00 0.00 0.00 0.00 0.00 0.00 0.00 0.00 0.00 0.00 0.00 0.00 0.74 0.00 0.90 0.00 0.00 0.00 0.00 0.00 0.00 0.00 0.00 0.00 0.00 0.00 0.00 0.00 0.00 0.00 0.65 0.00 0.00 0.00 0.72 0.00 0.00 0.98 0.00 0.00 0.93 0.69 0.00 0.71 0.79 0.00 0.89 0.00 0.73 0.00 0.00 0.00 0.00 0.76 0.00 0.00 0.00 0.00 0.00 0.00 0.00 0.00 0.00 0.00 0.00 0.00 0.00 0.00 0.00 0.00 0.53
0.00 0.00 0.00 0.00 0.00 0.00 0.00 0.00 0.00 0.00 0.00 0.00 0.00 0.00 0.00 0.00 0.00 0.00 0.63 0.87 0.00 0.00 0.00 0.67 0.00 0.00 0.99 0.00 0.92 0.65 0.00 0.00 0.00 0.75 0.00 0.00 0.00 0.00 0.00 0.80 0.00 0.00 0.84 0.00 0.83 0.00 0.00 0.00 0.82 0.00 0.86 0.00 0.00 0.00 0.00 0.00 0.00 0.00 0.00 0.56 0.00 0.67 0.00 0.00 0.00 0.00 0.00 0.00 0.00 0.00 0.73 0.66 0.00 0.53 0.00 0.00 0.00 0.00 0.00 1.00 0.00 0.00 0.00 0.00 0.00 0.00 0.00 0.00 0.00 0.00 0.00 0.00 0.00 0.81 0.00 0.62 0.00 0.00 0.62 0.68 0.98 0.00 0.65 0.00 0.00 0.86 0.56 0.00 0.00 0.00 0.00 0.00 0.00 0.59 0.00 0.00 0.00 0.00 0.66 0.69 0.76 0.94 0.00 0.00 0.00 0.51 0.00 0.00 0.00 0.00 0.00 0.00 0.00 0.84 0.00 0.00 0.00 0.00 0.00 0.00
0.00 0.00 0.00 0.00 0.00 0.00 0.00 0.00 0.00 0.00 0.96 0.00 0.00 0.81 0.00 0.00 0.51 0.00 0.00 0.00 0.00 0.00 0.93 0.00 0.00 0.00 0.75 0.00 0.00 0.00 0.00 0.00 0.00 0.00 0.00 0.00 0.79 0.55 0.00 0.00 0.75 0.00 0.00 0.50 0.00 0.00 0.77 0.91 0.00 0.00 0.00 0.00 0.00 0.92 0.00 0.00 0.00 0.00 0.00 0.91 0.00 0.52 0.73 0.81 0.00 0.74 0.00 0.00 0.00 0.00 0.00 0.57 0.00 0.00 0.00 0.57 0.00 0.53 0.00 0.00 0.00 0.00 0.00 0.00 0.81 0.97 0.00 0.00 0.00 0.00 0.00 0.80 0.00 0.00 0.61 0.00 0.00 0.00 0.00 0.78 0.00 0.00 0.00 0.50 0.51 0.00 0.00 0.63 0.00 0.00 0.00 0.00 0.00 0.00 0.00 0.00 0.00 0.74 0.62 0.85 0.00 0.60 0.00 0.00 0.83 0.00 0.00 0.00 0.00 0.00 0.00 0.00 0.00 0.00 0.00 0.00 0.70 0.91 0.00 0.00
0.00 0.59 0.00 0.00 0.90 0.00 0.00 0.00 0.00 0.00 0.00 0.00 0.00 0.00 0.00 0.00 0.00 0.00 0.62 0.50 0.00 0.00 0.79 0.00 0.00 0.00 0.00 0.00 0.00 0.00 0.00 0.56 0.00 0.00 0.00 0.00 0.00 0.00 0.70 0.00 0.00 0.00 0.68 0.00 0.74 0.00 0.59 0.00 0.00 0.00 0.00 0.96 0.00 0.00 0.00 0.00 0.00 0.00 0.00 0.00 0.52 0.00 0.00 0.62 0.00 0.00 0.00 0.00 0.00 0.00 0.00 0.00 0.99 0.00 0.00 0.00 0.00 0.00 0.00 0.00 0.00 0.72 0.00 0.54 0.00 0.00 0.00 0.00 0.00 0.80 0.00 0.00 0.00 0.00 0.00 0.00 0.97 0.66 0.00 0.00 0.70 0.00 0.00 0.00 0.00 0.00 0.00 0.53 0.00 0.73 0.00 0.00 0.57 0.00 0.00 0.88 0.00 0.00 0.00 0.00 0.00 0.00 0.00 0.00 0.00 0.00 0.00 0.00 0.00 0.00 0.00 0.00 0.00 0.79 0.00 0.00 0.00 0.00 0.00 0.00
0.54 0.00 0.63 0.00 0.00 0.00 0.00 0.00 0.00 0.00 0.00 0.00 0.82 0.00 0.00 0.00 0.00 0.00 0.87 0.00 0.84 0.63 0.00 0.00 0.82 0.00 0.00 0.00 0.00 0.00 0.00 0.00 0.00 0.00 0.00 0.00 0.76 0.00 0.52 0.00 0.00 0.67 0.00 0.00 0.00 0.00 0.65 0.00 0.00 0.00 0.00 0.00 0.00 0.00 0.00 0.86 0.86 0.00 0.51 0.90 0.00 0.00 0.87 0.00 0.58 0.00 0.00 0.00 0.85 0.00 0.00 0.00 0.00 0.81 0.00 0.56 0.75 0.00 0.00 0.00 0.00 0.00 0.00 0.00 0.00 0.00 0.00 0.00 0.00 0.00 0.00 0.00 0.00 0.00 0.83 0.00 0.00 0.00 0.56 0.00 0.00 0.00 0.00 0.00 0.67 0.00 0.00 0.00 0.00 0.00 0.98 0.00 0.00 0.00 0.00 0.00 0.67 0.00 0.00 0.00 0.00 0.00 0.00 0.00 0.00 0.00 0.00 0.00 0.00 0.00 0.00 0.00 0.00 0.55 0.60 0.00 0.00 0.00 0.00 0.00
0.00 0.54 0.00 0.00 0.80 0.00 0.00 0.00 0.00 0.00 0.00 0.00 0.00 0.00 0.00 0.00 0.00 0.00 0.80 0.00 0.79 0.00 0.66 0.00 0.53 0.00 0.00 0.00 0.99 0.00 0.78 0.00 0.00 0.00 0.00 0.00 0.00 0.00 0.71 0.00 0.00 0.00 0.00 0.00 0.95 0.00 0.00 0.00 0.59 0.87 0.00 0.00 0.00 0.00 0.00 0.00 0.00 0.00 0.86 0.00 0.85 0.00 0.00 0.00 0.00 0.00 0.00 0.00 1.00 0.00 0.00 0.92 0.00 0.00 0.00 0.00 0.61 0.00 0.52 0.00 0.00 0.00 0.00 0.00 0.00 0.00 0.00 0.69 0.82 0.00 0.00 0.58 0.00 0.00 0.00 0.00 0.00 0.00 0.54 0.00 0.00 0.00 0.00 0.00 0.00 0.00 0.00 0.00 0.00 0.76 0.00 0.00 0.00 0.00 0.00 0.00 0.00 0.00 0.00 0.00 0.79 0.91 0.00 0.92 0.00 0.57 0.00 0.00 0.00 0.56 0.68 0.71 0.00 0.00 0.00 0.00 0.00 0.00 0.90 0.82
0.00 0.00 0.00 0.61 0.00 0.00 0.00 0.63 0.00 0.00 0.00 0.00 0.00 0.00 0.92 0.56 0.00 0.00 0.00 0.00 0.81 0.64 0.00 0.96 0.94 0.00 0.00 0.51 0.00 0.00 0.93 0.00 0.00 0.00 0.00 0.81 0.00 0.00 0.00 0.00 0.00 0.00 0.00 0.00 0.69 0.83 0.00 0.00 0.00 0.00 0.00 0.88 0.00 0.00 0.00 0.00 0.00 0.00 0.00 0.00 0.00 0.00 0.00 0.00 0.00 0.00 0.00 0.00 0.82 0.00 0.00 0.94 0.00 0.00 0.00 0.00 0.72 0.00 0.00 0.56 0.00 0.00 0.00 0.00 0.61 0.00 0.00 0.89 0.00 0.00 0.00 0.00 0.00 0.00 0.00 0.00 0.00 0.00 0.00 0.93 0.00 0.00 0.00 0.00 0.00 0.57 0.00 0.56 0.00 0.00 0.65 0.00 0.00 0.00 0.00 0.00 0.92 0.00 0.70 0.00 0.00 0.00 0.00 0.59 0.00 0.00 0.00 0.00 0.75 0.00 0.00 0.00 0.00 0.00 0.69 0.00 0.99 0.91 0.00 0.00
0.00 0.00 0.00 0.00 0.00 0.00 0.00 0.77 0.00 0.00 0.00 0.75 0.00 0.99 0.00 0.00 0.00 0.00 0.79 0.00 0.00 0.00 0.00 0.00 0.00 0.67 0.60 0.00 0.00 0.00 0.51 0.00 0.54 0.89 0.00 0.00 0.00 0.00 0.00 0.00 0.00 0.00 0.00 0.00 0.66 0.85 0.00 0.00 0.00 0.00 0.00 0.59 0.00 0.78 0.91 0.00 0.00 0.67 0.00 0.00 0.00 0.00 0.00 0.00 0.61 0.00 0.00 0.00 0.00 0.00 0.00 0.00 0.00 0.58 0.76 0.00 0.00 0.00 0.00 0.00 0.00 0.00 0.00 0.00 0.00 0.00 0.88 0.00 0.00 0.00 0.00 0.91 0.85 0.00 0.00 0.00 0.82 0.56 0.00 0.00 0.91 0.00 0.00 0.00 0.00 0.00 0.62 0.79 0.00 0.00 0.00 0.00 0.73 0.00 0.00 0.00 0.00 0.00 0.00 0.00 0.00 0.00 0.00 0.57 0.00 0.00 0.00 0.93 0.00 0.89 0.52 0.78 0.00 0.00 0.00 0.00 0.00 0.00 0.00 0.00
0.00 0.00 0.00 0.65 0.00 0.00 0.00 0.00 0.00 0.00 0.97 0.00 0.00 0.00 0.99 0.00 0.51 0.00 0.00 0.72 0.58 0.00 0.00 0.00 0.00 0.00 0.00 0.00 0.00 0.00 0.00 0.00 0.00 0.00 0.00 0.72 0.00 0.00 0.00 0.00 0.00 0.00 0.00 0.00 0.00 0.00 0.66 0.00 0.00 0.00 0.00 0.00 0.00 0.00 0.00 0.50 0.51 0.00 0.00 0.00 0.00 0.00 0.00 0.00 0.00 0.00 0.00 0.00 0.00 0.59 0.64 0.60 0.00 0.00 0.00 0.00 0.00 0.00 0.00 0.00 0.00 0.00 0.50 0.00 0.74 0.00 0.00 0.00 0.00 0.86 0.00 0.00 0.00 0.00 0.00 0.00 0.00 0.00 0.00 0.00 0.00 0.75 0.00 0.00 0.74 0.00 0.97 0.00 0.00 0.00 0.91 0.00 0.00 0.00 0.00 0.00 0.89 0.00 0.00 0.00 0.00 0.00 0.00 0.62 0.91 0.00 0.00 0.90 0.00 0.00 0.00 0.00 0.00 0.93 0.00 0.00 0.00 0.00 0.00 0.00
0.00 0.00 0.00 0.00 0.00 0.00 0.00 0.00 0.00 0.00 0.00 0.00 0.00 0.00 0.00 0.00 0.00 0.00 0.00 0.00 0.00 0.59 0.00 0.00 0.00 0.00 0.80 0.00 0.00 0.00 0.00 0.00 0.00 0.00 0.00 0.00 0.00 0.00 0.97 0.83 0.00 0.00 0.00 0.00 0.00 0.00 0.00 0.00 0.00 0.00 0.61 0.00 0.68 0.00 0.00 0.00 0.00 0.80 0.00 0.00 0.00 0.00 0.90 0.71 0.00 0.00 0.00 0.63 0.00 0.56 0.00 0.78 0.95 0.00 0.79 0.00 0.95 0.70 0.92 0.00 0.62 0.00 0.00 0.78 0.00 0.86 0.00 0.00 0.00 0.68 0.00 0.00 0.50 0.00 0.00 0.00 0.98 0.00 0.00 0.00 0.00 0.00 0.00 0.00 0.00 0.00 0.75 0.00 0.00 0.00 0.00 0.00 0.00 0.00 0.00 0.66 0.00 0.00 0.00 0.00 0.00 0.00 0.00 0.96 0.00 0.00 0.00 0.00 0.00 0.00 0.91 0.00 0.81 0.00 0.60 0.00 0.00 0.68 0.00 0.00
0.84 0.00 0.69 0.74 0.99 0.93 0.00 0.00 0.00 0.00 0.00 0.00 0.00 0.00 0.68 0.00 0.00 0.00 0.00 0.00 0.00 0.00 0.00 0.00 0.00 0.96 0.00 0.63 0.00 0.00 0.00 0.00 0.00 0.78 0.99 0.57 0.81 0.00 0.00 0.00 0.99 0.78 0.00 0.00 0.00 0.00 0.00 0.00 0.00 0.58 0.00 0.00 0.00 0.00 0.00 0.00 0.73 0.80 0.00 0.00 0.00 0.00 0.54 0.00 0.00 0.00 0.00 0.00 0.00 0.62 0.00 0.00 0.00 0.00 0.00 0.00 0.00 0.00 0.00 0.00 0.00 0.00 0.00 0.63 0.00 0.00 0.00 0.84 0.00 0.61 0.51 0.00 0.00 0.00 0.53 0.71 0.95 0.00 0.00 0.00 0.00 0.66 0.00 0.73 0.00 0.00 0.83 0.65 0.00 0.93 0.00 0.00 0.00 0.00 0.63 0.00 0.00 0.00 0.00 0.00 0.00 0.00 0.00 0.57 0.00 0.00 0.00 0.00 0.00 0.00 0.00 0.00 0.00 0.00 0.00 0.00 0.00 0.00 0.00 0.00
0.00 0.00 0.00 0.00 0.00 0.00 0.00 0.00 0.00 0.83 0.99 0.00 0.00 0.00 0.00 0.00 0.00 0.00 0.84 0.00 0.00 0.00 0.00 0.00 0.00 0.00 0.00 0.00 0.00 0.83 0.00 0.00 0.95 0.00 0.97 0.00 0.00 0.00 0.00 0.00 0.00 0.00 0.00 0.84 0.97 0.87 0.00 0.00 0.00 0.00 0.00 0.00 0.00 0.00 0.00 0.00 0.00 0.00 0.00 0.00 0.00 0.00 0.00 0.00 0.00 0.60 0.00 0.74 0.63 0.61 0.00 0.00 0.00 0.00 0.00 0.00 0.00 0.00 0.00 0.00 0.00 0.00 0.00 0.77 0.53 0.00 0.00 0.00 0.00 0.00 0.00 0.00 0.00 0.00 0.00 0.68 0.00 0.00 0.00 0.00 0.00 0.00 0.85 0.00 0.00 0.00 0.76 0.00 0.72 0.00 0.74 0.00 0.00 0.00 0.00 0.00 0.00 0.00 0.00 0.00 0.00 0.50 0.00 0.00 0.00 0.00 0.00 0.00 0.74 0.95 0.89 0.00 0.00 0.00 0.00 0.00 0.00 0.00 0.00 0.00
0.00 0.00 0.00 0.00 0.00 0.00 0.00 0.00 0.00 0.00 0.77 0.00 0.00 0.84 0.00 0.00 0.00 0.00 0.53 0.00 0.00 0.00 0.00 0.78 0.00 0.00 0.00 0.53 0.00 0.00 0.00 0.53 0.70 0.00 1.00 0.65 0.00 0.00 0.00 0.59 0.00 0.00 0.73 0.00 0.00 0.65 0.00 0.00 0.75 0.00 0.00 0.00 0.00 0.57 0.00 0.00 0.00 0.00 0.00 0.00 0.00 0.00 0.00 0.87 0.00 0.00 0.00 0.00 0.83 0.00 0.00 0.00 0.71 0.81 0.00 0.87 0.00 0.77 0.76 0.00 0.54 0.00 0.57 0.94 0.00 0.00 0.00 0.00 0.00 0.00 0.64 0.79 0.00 0.00 0.00 0.00 0.00 0.00 0.77 0.00 0.00 0.00 0.94 0.00 0.00 0.00 0.00 0.00 0.00 0.85 0.58 0.00 0.57 0.00 0.55 0.99 0.75 0.00 0.00 0.00 0.00 0.00 0.00 0.00 0.00 0.51 0.00 0.67 0.58 0.00 0.00 0.00 0.00 0.00 0.00 0.00 0.72 0.00 0.67 0.00
0.00 0.00 0.98 0.00 0.00 0.00 0.00 0.67 0.00 0.57 0.00 0.00 0.00 0.00 0.84 0.00 0.00 0.00 0.00 0.00 0.00 0.00 0.76 0.00 0.00 0.00 0.00 0.00 0.00 0.00 0.00 0.00 0.00 0.00 0.00 0.00 0.00 0.00 0.00 0.00 0.00 0.00 0.00 0.00 0.63 0.00 0.00 0.00 0.00 0.00 0.00 0.00 0.00 0.94 0.61 0.00 0.76 0.00 0.00 0.00 0.00 0.00 0.00 0.00 0.00 0.00 0.00 0.00 0.00 0.00 0.00 0.00 0.00 0.00 0.84 0.00 0.00 0.00 0.00 0.00 0.00 0.00 0.00 0.00 0.00 0.00 0.00 0.00 0.00 0.00 0.00 0.00 0.00 0.00 0.88 0.00 0.93 0.53 0.00 0.00 0.00 0.00 0.00 0.00 0.00 0.00 0.00 0.58 0.00 0.00 0.00 0.71 0.00 0.95 0.00 0.56 0.00 0.00 0.55 0.93 0.00 0.00 0.95 0.00 0.00 0.00 0.00 0.00 0.00 0.00 0.70 0.00 0.00 0.00 0.00 0.00 0.74 0.67 0.00 0.00
0.00 0.00 0.52 0.00 0.00 0.00 0.00 0.65 0.00 0.00 0.00 0.00 0.72 0.00 0.84 0.00 0.86 0.00 0.00 0.00 0.00 0.00 0.00 0.00 0.00 0.00 0.00 0.00 0.00 0.00 0.85 0.86 0.00 0.00 0.00 0.68 0.00 0.74 0.88 0.54 0.55 0.00 0.60 0.00 0.58 0.00 0.00 0.00 0.00 0.00 0.00 0.00 0.00 0.00 0.00 0.98 0.00 0.00 0.00 0.00 0.00 0.00 0.00 0.00 0.00 0.00 0.00 0.00 0.00 0.00 0.00 0.00 0.00 0.51 0.00 0.00 0.00 0.00 0.00 0.00 0.00 0.00 0.00 0.00 0.00 0.00 0.00 0.60 0.00 0.00 0.88 0.00 0.00 0.82 0.00 0.00 0.00 0.00 0.00 0.00 0.76 0.74 0.00 0.00 0.00 0.67 0.00 0.82 0.00 0.00 0.00 0.00 0.00 0.00 0.00 0.00 0.00 0.00 0.00 0.00 0.00 0.80 0.00 0.00 0.00 0.59 0.00 0.00 0.00 0.00 0.00 0.00 0.00 0.00 0.00 0.83 0.00 0.98 0.00 0.84
0.00 0.00 0.52 0.00 0.00 0.00 0.00 0.00 0.00 0.97 0.00 0.00 0.00 0.74 0.82 0.00 0.00 0.00 0.00 0.00 0.00 0.00 0.00 0.00 0.00 0.00 0.00 0.00 0.55 0.00 0.80 0.50 0.00 0.00 0.00 0.68 0.68 0.00 0.00 0.00 0.00 0.00 0.00 0.00 0.00 0.00 0.00 0.00 0.00 0.00 0.00 0.00 0.00 0.95 0.00 0.00 0.77 0.00 0.00 0.00 0.00 0.00 0.00 0.00 0.00 0.00 0.00 0.00 0.00 0.00 0.00 0.00 0.00 0.72 0.00 0.00 0.59 0.00 0.00 0.00 0.00 0.00 0.00 0.00 0.59 0.00 0.00 0.00 0.97 0.00 0.00 0.52 0.00 0.00 0.00 0.00 0.00 0.00 0.00 0.94 0.70 0.00 0.00 0.00 0.00 0.95 0.00 0.69 0.00 0.00 0.00 0.00 0.00 0.00 0.87 0.54 0.00 0.57 0.00 0.00 0.00 0.76 0.00 0.00 0.00 0.00 0.00 0.00 0.00 0.00 0.00 0.65 0.87 0.93 0.87 0.00 0.00 0.00 0.00 0.85
0.00 0.00 0.00 0.53 0.57 0.00 0.00 0.00 0.00 0.00 0.00 0.91 0.00 0.00 0.00 0.00 0.00 0.00 0.00 0.83 0.00 0.00 0.00 0.00 0.00 0.00 0.00 0.00 0.00 0.00 0.57 0.00 0.00 0.00 0.00 0.00 0.00 0.00 0.00 0.51 0.00 0.00 0.00 0.00 0.00 0.00 0.00 0.00 0.00 0.00 0.00 0.00 0.00 0.00 0.51 0.00 0.00 0.00 0.00 0.00 0.00 0.00 0.00 0.84 0.00 0.00 0.78 0.00 0.00 0.00 0.59 0.56 0.96 0.00 0.00 0.00 0.00 0.00 0.00 0.00 0.52 0.00 0.00 0.00 0.00 0.00 0.00 0.00 0.00 0.00 0.00 0.00 0.00 0.00 0.00 0.00 0.00 0.00 0.00 0.00 0.87 0.00 0.00 0.00 0.00 0.00 0.00 0.00 0.00 0.00 0.00 0.00 0.00 0.00 0.00 0.00 0.00 0.58 0.00 0.00 0.00 0.00 0.00 0.00 0.00 0.00 0.00 0.00 0.00 0.58 0.00 0.00 0.00 0.00 0.00 0.00 0.00 0.00 0.00 0.00
0.00 0.00 0.00 0.58 0.00 0.00 0.00 0.00 0.00 0.00 0.00 0.00 0.00 0.00 0.00 0.66 0.00 0.85 0.00 0.00 0.00 0.00 0.62 0.00 0.84 0.98 0.82 0.00 0.00 0.99 0.00 0.00 0.69 0.00 0.00 0.00 0.00 0.98 0.00 0.00 0.57 0.00 0.00 0.84 0.00 0.00 0.00 0.00 0.00 0.00 0.00 0.00 0.57 0.85 0.00 0.64 0.00 0.00 0.00 0.00 0.00 0.00 0.79 0.85 0.87 0.00 0.00 0.00 0.00 0.00 0.54 0.00 0.00 0.00 0.69 0.00 0.00 0.53 0.00 0.67 0.84 0.00 0.00 0.00 0.71 0.00 0.74 0.00 0.75 0.00 0.00 0.00 0.00 0.00 0.00 0.00 0.68 0.00 0.00 0.00 0.00 0.00 0.00 0.00 0.97 0.00 0.00 0.00 0.00 0.00 0.78 0.76 0.00 0.00 0.00 0.00 0.00 0.00 0.52 0.97 0.00 0.00 0.00 0.00 0.00 0.00 0.00 0.50 0.00 0.63 0.00 0.00 0.00 0.00 0.00 0.00 0.00 0.00 0.00 0.00
0.00 0.00 0.00 0.00 0.00 0.00 0.72 0.00 0.00 0.00 0.00 0.00 0.90 0.00 0.00 0.00 0.00 0.00 0.00 0.79 0.00 0.98 0.63 0.00 0.00 0.94 0.59 0.55 0.00 0.86 0.68 0.00 0.00 0.00 0.00 0.81 0.00 0.00 0.00 0.00 0.00 0.00 0.00 0.00 0.85 0.00 0.00 0.00 0.79 0.00 0.00 0.78 0.88 0.00 0.00 0.00 0.00 0.00 0.89 0.00 0.00 0.00 0.00 0.64 0.97 0.00 0.00 0.89 0.00 0.00 0.00 0.00 0.00 0.00 0.92 0.98 0.00 0.00 0.00 0.00 0.00 0.00 0.00 0.00 0.00 0.00 0.00 0.00 0.00 0.00 0.57 0.00 0.00 0.00 0.00 0.51 0.00 0.00 0.00 0.00 0.00 0.98 0.00 0.00 0.00 0.00 0.73 0.00 0.66 0.70 0.00 0.65 0.68 0.00 0.00 0.00 0.00 0.00 0.00 0.00 0.00 0.00 0.00 0.00 0.74 0.00 0.88 0.00 0.62 0.87 0.00 0.00 0.00 0.00 0.00 0.89 0.00 0.00 0.00 0.00
0.00 0.00 0.00 0.95 0.00 0.00 0.00 0.00 0.65 0.00 0.96 0.00 0.00 0.00 0.00 0.74 0.00 0.71 0.00 0.00 0.00 0.00 0.00 0.00 0.00 0.60 0.00 0.00 0.00 0.00 0.77 0.00 0.00 0.00 0.00 0.55 0.00 0.00 0.00 0.00 0.00 0.00 0.00 0.70 0.00 0.00 0.00 0.00 0.00 0.00 0.00 0.00 0.00 0.00 0.00 0.00 0.00 0.00 0.64 0.65 0.94 0.00 0.65 0.00 0.00 0.00 0.00 0.00 0.00 0.00 0.00 0.00 0.00 0.00 0.00 0.00 0.51 0.00 0.00 0.00 0.00 0.00 0.00 0.66 0.67 0.00 0.00 0.76 0.00 0.00 0.00 0.00 0.84 0.00 0.00 0.00 0.00 0.00 0.93 0.00 0.00 0.00 0.00 0.00 0.77 0.00 1.00 0.00 0.75 0.00 0.00 0.00 0.00 0.00 0.00 0.00 0.00 0.00 0.00 0.75 0.00 0.00 0.67 0.86 0.00 0.00 0.96 0.00 0.00 0.00 0.00 0.56 0.00 0.00 0.00 0.00 0.66 0.00 0.00 0.00
0.00 0.90 0.00 0.00 0.00 0.00 0.00 0.00 0.00 0.00 0.00 0.00 0.00 0.96 0.00 0.00 0.54 0.00 0.00 0.00 0.00 0.00 0.00 0.00 0.00 0.00 0.00 0.00 0.00 0.96 0.00 0.98 0.73 0.00 0.00 0.00 0.00 0.00 0.00 0.00 0.00 0.74 0.00 0.90 0.00 0.00 0.69 0.65 0.00 0.00 0.00 0.54 0.00 0.00 0.00 0.00 0.81 0.98 0.00 0.00 0.00 0.00 0.00 0.55 0.00 0.55 0.00 0.00 0.00 0.90 0.00 0.00 0.51 0.77 0.00 0.00 0.64 0.00 0.00 0.58 0.00 0.00 0.00 0.00 0.92 0.00 0.00 0.00 0.00 0.82 0.00 0.00 0.00 0.00 0.78 0.86 0.00 0.00 0.00 0.00 0.00 0.00 0.00 0.84 0.00 0.00 0.00 0.57 0.00 0.00 0.00 0.00 0.00 0.00 0.00 0.00 0.00 0.60 0.00 0.00 0.00 0.00 0.58 0.79 0.00 0.00 0.86 0.00 0.94 0.00 0.62 0.00 0.00 0.00 0.00 0.90 0.69 0.00 0.00 0.00
0.00 0.00 0.00 0.78 0.00 0.00 0.77 0.00 0.00 0.00 0.55 0.96 0.00 0.96 0.00 0.00 0.00 0.00 0.00 0.57 0.00 0.00 0.00 0.77 0.00 0.00 0.00 0.00 0.00 0.00 0.00 0.00 0.00 0.89 0.58 0.00 0.00 0.00 0.00 0.00 0.56 0.00 0.00 0.00 0.00 0.00 0.00 0.80 0.00 0.00 0.00 0.00 0.51 0.00 0.00 0.00 0.00 0.00 0.00 0.78 0.00 0.00 0.00 0.50 0.00 0.00 0.00 0.00 0.00 0.00 0.74 0.00 0.00 0.67 0.80 0.00 0.00 0.00 0.00 0.76 0.00 0.00 0.00 0.00 0.76 0.00 0.00 0.00 0.00 0.00 0.86 0.00 0.00 0.00 0.00 0.00 0.00 0.75 0.00 0.68 0.00 0.00 0.00 0.60 0.56 0.00 0.00 0.00 0.00 0.00 0.00 0.00 0.00 0.00 0.89 0.00 0.64 0.87 0.00 0.00 0.00 0.00 0.00 0.00 0.00 0.00 0.60 0.00 0.00 0.00 0.00 0.00 0.00 0.00 0.00 0.00 0.00 0.00 0.00 0.00
0.90 0.00 0.00 0.00 0.53 0.00 0.00 0.00 0.00 0.00 0.00 0.00 0.00 0.76 0.00 0.00 0.00 0.62 0.00 0.00 0.00 0.00 0.00 0.00 0.00 0.00 0.00 0.00 0.00 0.00 0.00 0.69 0.00 0.51 0.66 0.00 0.00 0.00 0.00 0.00 0.00 0.00 0.00 0.00 0.00 0.00 0.00 0.84 0.00 0.00 0.00 0.00 0.58 0.73 0.98 0.97 0.00 0.92 0.00 0.00 0.00 0.00 0.00 0.89 0.00 0.00 0.00 0.93 0.80 0.00 0.00 0.63 0.00 0.00 0.00 0.00 0.00 0.00 0.00 0.00 0.00 0.82 0.00 0.00 0.00 0.00 0.00 0.52 0.00 0.00 0.00 0.69 0.00 0.00 0.00 0.84 0.65 0.00 0.00 0.78 0.71 0.77 0.00 0.00 0.00 0.00 0.00 0.00 0.00 0.88 0.00 0.00 0.00 0.55 0.93 0.00 0.00 0.77 0.00 0.00 0.00 0.00 0.58 0.00 0.00 0.00 0.00 0.00 0.00 0.81 0.00 0.00 0.00 0.54 0.00 0.00 0.00 0.75 0.00 0.00
0.89 0.00 0.00 0.00 0.00 0.97 0.00 0.00 0.00 0.00 0.00 0.00 0.00 0.00 0.00 0.00 0.69 0.00 0.00 0.00 0.95 0.56 0.92 0.00 0.91 0.56 0.00 0.00 0.00 0.00 0.00 0.51 0.00 0.00 0.00 0.00 0.00 0.00 0.00 0.95 0.00 0.00 0.00 0.00 0.00 0.00 0.62 0.61 0.00 0.00 0.90 0.00 0.00 0.00 0.00 0.00 0.94 0.00 0.76 0.00 0.00 0.00 0.00 0.00 0.00 0.00 0.00 0.00 0.00 0.00 0.57 0.00 0.68 0.00 0.00 0.51 0.00 0.00 0.00 0.00 0.00 0.00 0.00 0.73 0.00 0.00 0.00 0.73 0.60 0.00 0.65 0.00 0.00 0.00 0.00 0.00 0.00 0.00 0.00 0.58 0.00 0.00 0.89 0.00 0.00 0.00 0.93 0.00 0.00 0.00 0.00 0.99 0.00 0.00 0.00 0.76 0.00 0.00 0.00 0.00 0.00 0.00 0.86 0.73 0.00 0.00 0.00 0.70 0.00 0.00 0.93 0.00 0.00 0.00 0.00 0.00 0.00 0.00 0.00 0.71
0.00 0.00 0.00 0.00 0.00 0.00 0.00 0.00 0.00 0.00 0.82 0.73 0.56 0.00 0.00 0.00 0.00 0.00 0.00 0.00 0.00 0.68 0.00 0.81 0.00 0.00 0.00 0.00 0.00 0.70 0.00 0.75 0.00 0.00 0.00 0.66 0.53 0.00 0.68 0.79 0.00 0.78 0.00 0.00 0.00 0.74 0.00 0.00 0.72 0.55 0.00 0.00 0.84 0.00 0.00 0.00 0.00 0.00 0.72 0.00 0.00 0.00 0.00 0.77 0.00 0.00 0.00 0.00 0.00 0.92 0.66 0.00 0.00 0.00 0.89 0.90 0.60 0.00 0.00 0.00 0.59 0.81 0.78 0.88 0.00 0.00 0.00 0.00 0.96 0.00 0.00 0.00 0.57 0.00 0.00 0.00 0.00 0.00 0.00 0.00 0.00 0.00 0.90 0.00 0.00 0.00 0.00 0.00 0.84 0.00 0.00 0.00 0.00 0.00 0.91 0.00 0.00 0.00 0.00 0.67 0.00 0.00 0.75 0.00 0.00 0.74 0.00 0.00 0.00 0.00 0.00 0.00 0.00 0.00 0.75 0.00 0.00 0.00 0.00 0.00
0.00 0.00 0.97 0.84 0.76 0.00 0.00 0.72 0.00 0.68 0.00 0.00 0.00 0.00 0.00 0.82 0.00 0.90 0.69 0.00 0.00 0.00 0.00 0.00 0.57 0.00 0.00 0.00 0.00 0.68 0.00 0.00 0.00 0.59 0.00 0.00 0.00 0.00 0.96 0.00 0.00 0.00 0.00 0.00 0.00 0.80 0.78 0.00 0.78 0.00 0.00 0.67 0.00 0.00 0.00 0.00 0.00 0.00 0.00 0.00 0.00 0.00 0.00 0.00 0.00 0.00 0.00 0.00 0.00 0.00 0.00 0.94 0.64 0.57 0.00 0.00 0.00 0.00 0.00 0.54 0.00 0.00 0.53 0.00 0.00 0.00 0.65 0.00 0.83 0.00 0.00 0.00 0.00 0.67 0.00 0.00 0.00 0.00 0.00 0.00 0.72 0.00 0.00 0.91 0.82 0.00 0.00 0.00 0.96 0.00 0.76 0.00 0.56 0.00 0.00 0.86 0.00 0.00 0.00 0.00 0.51 0.00 0.00 0.00 0.00 0.66 0.00 0.00 0.73 0.00 0.69 0.00 0.00 0.00 0.00 0.00 0.00 0.79 0.00 0.00
0.00 0.00 0.00 0.00 0.00 0.00 0.00 0.55 0.00 0.00 0.00 0.00 0.00 0.00 0.00 0.00 0.50 0.00 0.00 0.00 0.87 0.51 0.00 0.00 0.00 0.58 0.00 0.00 0.00 0.00 0.00 0.00 0.52 0.74 0.00 0.00 0.00 0.69 0.00 0.00 0.00 0.00 0.00 0.95 0.85 0.99 0.60 0.00 0.73 0.93 0.82 0.00 0.00 0.51 0.00 0.00 0.00 0.82 0.00 0.00 0.00 0.00 0.00 0.62 0.00 0.00 0.00 0.00 0.00 0.00 0.00 0.00 0.00 0.00 0.00 0.91 0.79 0.00 0.00 0.72 0.00 0.60 0.67 0.68 0.00 0.00 0.89 0.00 0.00 0.00 0.00 0.84 0.00 0.00 0.83 0.94 0.00 0.00 0.76 0.00 0.00 0.00 0.00 0.00 0.00 0.00 0.00 0.00 0.00 0.76 0.00 0.00 0.00 0.00 0.84 0.00 0.00 0.00 0.00 0.00 0.00 0.00 0.00 0.00 0.00 0.68 0.00 0.60 0.70 0.78 0.00 0.68 0.00 0.00 0.00 0.00 0.00 0.00 0.00 0.00
0.00 0.00 0.00 0.78 0.00 0.72 0.00 0.71 0.00 0.51 0.00 0.00 0.00 0.90 0.52 0.00 0.72 0.00 0.00 0.00 0.00 0.00 0.00 0.97 0.00 0.00 0.78 0.00 0.60 0.55 0.00 0.50 0.00 0.00 0.66 0.00 0.00 0.00 0.00 0.66 0.58 0.00 0.00 0.75 0.00 0.80 0.00 0.60 0.00 0.00 0.00 0.00 0.53 0.96 0.00 0.70 0.00 0.00 0.98 0.00 0.00 0.00 0.00 0.00 0.00 0.90 0.00 0.69 0.00 0.00 0.00 0.00 0.00 0.00 0.00 0.00 0.00 0.00 0.76 0.69 0.00 0.00 0.98 0.00 0.00 0.00 0.00 0.00 0.00 0.00 0.00 0.00 0.00 0.00 0.72 0.98 0.73 0.00 0.69 0.00 0.56 0.75 0.00 0.00 0.77 0.59 0.95 0.00 0.00 0.00 0.00 0.57 0.00 0.00 0.00 0.00 0.00 0.00 0.00 0.00 0.00 0.70 0.50 0.00 0.00 0.00 0.00 0.76 0.00 0.00 0.00 0.00 0.00 0.00 0.88 0.00 0.00 0.00 0.00 0.00
0.00 0.00 0.83 0.00 0.00 0.96 0.00 0.00 0.00 0.71 0.61 0.00 0.00 0.00 0.00 0.00 0.00 0.63 0.54 0.00 0.00 0.00 0.00 0.00 0.00 0.00 0.00 0.90 0.56 0.68 0.00 0.00 0.00 0.55 0.58 0.00 0.00 0.00 0.00 0.50 0.00 0.00 0.00 0.83 0.77 0.00 0.50 0.00 0.00 0.00 0.00 0.57 0.82 0.99 0.00 0.00 0.00 0.88 0.00 0.81 0.57 0.00 0.00 0.00 0.00 0.00 0.00 0.93 0.00 0.00 0.00 0.00 0.00 0.00 0.00 0.00 0.00 0.00 0.00 0.00 0.74 0.90 0.00 0.00 0.00 0.00 0.00 0.67 0.00 0.00 0.00 0.00 0.00 0.00 0.00 0.00 0.65 0.55 0.00 0.00 0.00 0.91 0.00 0.00 0.00 0.00 0.57 0.00 0.00 0.56 0.53 0.00 0.00 0.00 0.00 0.81 0.00 0.00 0.00 0.99 0.00 0.83 0.00 0.86 0.00 0.00 0.00 0.00 0.77 0.77 0.00 0.00 0.00 0.00 0.00 0.00 0.00 0.00 0.00 0.94
0.00 0.00 0.00 0.00 0.00 0.00 0.00 0.67 0.50 0.00 0.00 0.00 0.00 0.52 0.00 0.00 0.00 0.00 0.62 0.00 0.98 0.00 0.00 0.00 0.00 0.97 0.00 0.79 0.00 0.00 0.00 0.00 0.00 0.64 0.65 0.00 0.69 0.96 0.00 0.00 0.60 0.00 0.00 0.75 0.00 0.98 0.00 0.00 0.00 0.00 0.00 0.00 0.00 0.00 0.00 0.00 0.00 0.00 0.96 0.80 0.00 0.98 0.65 0.00 0.00 0.00 0.00 0.00 0.00 0.00 0.00 0.00 0.00 0.63 0.00 0.00 0.53 0.78 0.00 0.81 0.80 0.00 0.00 0.67 0.00 0.00 0.00 0.70 0.00 0.00 0.00 0.00 0.72 0.00 0.00 0.00 0.00 0.00 0.00 0.86 0.00 0.55 0.00 0.82 0.00 0.59 0.00 0.00 0.00 0.00 0.00 0.00 0.00 0.00 0.59 0.00 0.98 0.00 0.00 0.00 0.87 0.87 0.94 0.00 0.00 0.73 0.00 0.62 0.00 0.00 0.54 0.80 0.00 0.00 0.00 0.00 0.00 0.00 0.00 0.00
1.00 0.00 0.00 0.00 0.00 0.00 0.00 0.64 0.00 0.00 0.00 0.89 0.00 0.00 0.86 0.00 0.00 0.72 0.00 0.00 0.68 0.00 0.00 0.00 0.00 0.00 0.00 0.00 0.00 0.00 0.00 0.00 0.00 0.89 0.00 0.69 0.00 0.00 0.79 0.00 0.00 0.00 0.58 0.71 0.58 0.00 0.00 0.00 0.00 0.00 0.72 0.00 0.00 0.63 0.00 0.00 0.00 0.00 0.63 0.00 0.00 0.00 0.00 0.80 0.00 0.00 0.63 0.00 0.00 0.00 0.00 0.00 0.00 0.00 0.00 0.64 0.00 0.00 0.00 0.99 0.00 0.00 0.63 0.00 0.00 0.00 0.00 0.93 0.00 0.60 0.94 0.58 0.00 0.00 0.00 0.00 0.00 0.00 0.00 0.53 0.00 0.76 0.88 0.00 0.00 0.77 0.00 0.00 0.00 0.85 0.71 0.00 0.00 0.00 0.00 0.77 0.00 0.00 0.00 0.00 0.95 0.00 0.00 0.00 0.00 0.00 0.00 0.00 0.00 0.00 0.00 0.00 0.00 0.52 0.00 0.00 0.86 0.00 0.00 0.00
0.00 0.88 0.00 0.00 0.86 0.72 0.00 0.67 0.00 0.53 0.00 0.00 0.77 0.00 0.00 0.00 0.55 0.85 0.00 0.00 0.00 0.00 0.00 0.00 0.00 0.00 0.00 0.63 0.00 0.99 0.73 0.00 0.75 0.71 0.00 0.00 0.91 0.00 0.00 0.00 0.00 0.00 0.00 0.00 0.00 0.00 0.00 0.00 0.00 0.00 0.00 0.90 0.69 0.98 0.00 0.00 0.52 0.72 0.79 0.00 0.00 0.93 0.00 0.00 0.56 0.00 0.00 0.00 0.00 0.00 0.00 0.99 0.00 0.00 0.00 0.00 0.00 0.00 0.00 0.00 0.00 0.00 0.00 0.00 0.00 0.00 0.63 0.00 0.00 0.80 0.00 0.00 0.00 0.00 0.00 0.00 0.00 0.00 0.00 0.00 0.00 0.00 0.00 0.00 0.00 0.00 0.92 0.00 0.77 0.00 0.00 0.99 0.00 0.00 0.00 0.00 0.00 0.00 0.00 0.00 0.00 0.00 0.00 0.00 0.00 0.00 0.00 0.00 0.99 0.00 0.00 0.00 0.00 0.00 0.66 1.00 0.00 0.00 0.90 0.00
0.00 0.00 0.00 0.68 0.00 0.00 0.00 0.75 0.00 0.00 0.92 0.00 0.00 0.00 0.00 0.00 0.00 0.00 0.00 0.00 0.00 0.00 0.00 0.00 0.00 0.00 0.88 0.00 0.00 0.58 0.73 0.00 0.00 0.00 0.00 0.00 0.00 0.00 0.67 0.00 0.00 0.00 0.00 0.00 0.81 0.00 0.73 0.00 0.00 0.53 0.00 0.58 0.00 0.00 0.00 0.80 0.76 0.00 0.00 0.00 0.00 0.00 0.00 0.00 0.97 0.00 0.00 0.61 0.00 0.00 0.00 0.00 0.81 0.00 0.00 0.00 0.00 0.00 0.00 0.00 0.00 0.00 0.52 0.00 0.00 0.00 0.62 0.00 0.76 0.00 0.00 0.00 0.00 0.00 0.00 0.61 0.00 0.55 0.00 0.50 0.00 0.00 0.00 0.00 0.72 0.85 0.00 0.00 0.00 0.77 0.00 0.00 0.00 0.00 0.70 0.00 0.89 0.87 0.00 0.00 0.51 0.76 0.00 0.00 0.94 0.80 0.00 0.00 0.00 0.78 0.00 0.00 0.90 0.00 0.97 0.00 0.00 0.78 0.91 0.00
0.00 0.00 0.65 0.97 0.00 0.00 0.00 0.00 0.00 0.00 0.00 0.00 0.00 0.00 0.00 0.00 0.00 0.00 0.00 0.00 0.00 0.83 0.00 0.00 0.00 0.77 0.00 0.00 0.85 0.00 0.62 0.81 0.00 0.00 0.97 0.00 0.00 0.00 0.00 0.50 0.00 0.56 0.00 0.00 0.00 0.00 0.00 0.00 0.00 0.00 0.00 0.00 0.00 0.00 0.00 0.00 0.00 0.00 0.00 0.00 0.84 0.00 0.00 0.86 0.96 0.00 0.94 0.72 0.73 0.92 0.00 0.00 0.00 0.00 0.00 0.00 0.00 0.81 0.00 0.75 0.00 0.00 0.00 0.00 0.00 0.00 0.00 0.00 0.00 0.00 0.00 0.88 0.00 0.69 0.00 0.00 0.00 0.00 0.00 0.00 0.00 0.00 0.00 0.00 0.00 0.00 0.00 0.00 0.00 0.00 0.00 0.00 0.00 0.00 0.00 0.59 0.00 0.00 0.54 0.00 0.63 0.00 0.92 0.00 0.00 0.00 0.91 0.00 0.00 0.00 0.00 0.00 0.00 0.00 0.00 0.81 0.69 0.95 0.55 0.00
0.00 0.00 0.00 0.00 0.77 0.00 0.00 0.00 0.00 0.00 0.00 0.00 0.00 0.00 0.00 0.00 0.81 0.00 0.93 0.65 0.00 0.00 0.00 0.00 0.00 0.00 0.63 0.00 0.00 0.00 0.00 0.00 0.00 0.00 0.00 0.00 0.00 0.00 0.00 0.00 0.00 0.85 0.00 0.00 0.00 0.00 0.88 0.55 0.00 0.00 0.00 0.97 0.00 0.00 0.00 0.00 0.00 0.00 0.00 0.00 0.00 0.00 0.70 0.64 0.00 0.00 0.00 0.00 0.00 0.00 0.00 0.60 0.00 0.70 0.58 0.00 0.00 0.92 0.00 0.00 0.00 0.83 0.68 1.00 0.00 0.63 0.00 0.00 0.00 0.93 0.00 0.00 0.00 0.00 0.00 0.00 0.00 0.00 0.00 0.00 0.00 0.00 0.00 0.00 0.00 0.00 0.00 0.00 0.76 0.00 0.00 0.51 0.00 0.00 0.00 0.00 0.00 0.92 0.00 0.00 0.00 0.00 0.52 0.00 0.00 0.00 0.81 0.00 0.00 0.95 0.00 0.00 0.00 0.90 0.00 0.00 0.00 0.80 0.00 0.00
0.00 0.00 0.00 0.66 0.99 0.74 0.00 0.00 0.00 0.64 0.00 0.00 0.00 0.00 0.00 0.73 0.00 0.00 0.00 0.00 0.79 0.00 0.00 0.00 0.00 0.77 0.00 0.00 0.54 0.00 0.00 0.00 0.00 0.00 0.00 0.00 0.00 0.00 0.00 0.00 0.00 0.00 0.00 0.00 0.00 0.00 0.66 0.00 0.00 0.00 0.00 0.79 0.00 0.97 0.00 0.00 0.63 0.00 0.00 0.96 0.00 0.00 0.00 0.00 0.75 0.70 0.00 0.00 0.00 0.00 0.00 0.00 0.00 0.00 0.00 0.00 0.00 0.00 0.79 0.00 0.00 0.00 0.00 0.99 0.00 0.00 0.00 0.00 0.00 0.00 0.71 0.00 0.00 0.00 0.00 0.71 0.00 0.00 0.00 0.00 0.00 0.00 0.99 0.00 0.00 0.00 0.00 0.00 0.00 0.62 0.00 0.00 0.00 0.00 0.00 0.00 0.00 0.67 0.00 0.00 0.00 0.00 0.00 0.00 0.00 0.00 0.00 0.00 0.00 0.00 0.00 0.00 0.00 0.00 0.00 0.00 0.00 0.93 0.00 0.00
0.00 0.00 0.00 0.00 0.00 0.00 0.00 0.70 0.00 0.00 0.00 0.00 0.00 1.00 0.00 0.00 0.00 0.00 0.00 0.00 0.00 0.00 0.00 0.00 0.00 0.00 0.00 0.00 0.00 0.00 0.00 0.00 1.00 0.00 0.00 0.00 0.00 0.87 0.00 0.00 0.00 0.00 0.00 0.00 0.00 0.95 0.00 0.00 0.50 0.00 0.00 0.00 0.00 0.00 0.00 0.00 0.00 0.82 0.00 0.96 0.00 0.00 0.00 0.00 0.00 0.00 0.78 0.00 0.00 0.00 0.67 0.00 0.00 0.00 0.73 0.96 0.00 0.67 0.67 0.00 0.00 0.00 0.00 0.00 0.00 0.00 0.84 0.00 0.00 0.00 0.00 0.00 0.00 0.00 0.77 0.97 0.00 0.00 0.00 0.00 0.00 0.00 0.00 0.00 0.00 0.00 0.00 0.00 0.92 0.00 0.00 0.00 0.00 0.00 0.00 0.00 0.00 0.67 0.00 0.00 0.00 0.59 0.00 0.50 0.00 0.00 0.00 0.86 0.00 0.69 0.00 0.00 0.00 0.00 0.51 0.00 0.00 0.76 0.00 0.00
0.98 0.00 0.00 0.00 0.91 0.00 0.00 0.00 0.00 0.54 0.00 0.00 0.53 0.00 0.00 0.66 0.00 0.00 0.00 0.00 0.00 0.00 0.00 0.00 0.00 0.00 0.00 0.63 0.00 0.66 0.00 0.00 0.00 0.00 0.85 0.00 0.00 0.00 0.55 0.68 0.00 0.87 0.00 0.95 0.00 0.70 0.00 0.00 0.59 0.00 0.97 0.00 0.00 0.00 0.00 0.00 0.00 0.00 0.00 0.00 0.00 0.00 0.00 0.54 0.00 0.00 0.00 0.00 0.00 0.00 0.00 0.00 0.00 0.00 0.64 0.85 0.00 0.00 0.00 0.00 0.00 0.00 0.00 0.00 0.00 0.62 0.00 0.89 0.00 0.84 0.00 0.56 0.00 0.00 0.00 0.92 0.00 0.00 0.00 0.00 0.00 0.00 0.96 0.90 0.96 0.00 0.00 0.00 0.00 0.00 0.00 0.00 0.00 0.00 0.00 0.00 0.00 0.00 0.00 0.60 0.00 0.00 0.00 0.00 0.71 0.00 0.00 0.00 0.00 0.00 0.77 0.00 0.82 0.00 0.00 0.00 0.00 0.65 0.00 0.00
0.00 0.00 0.00 0.00 0.00 0.67 0.78 0.00 0.00 0.00 0.64 0.00 0.00 0.00 0.90 0.00 0.00 0.00 0.00 0.00 0.00 0.00 0.00 0.73 0.00 0.00 0.00 0.84 0.87 0.88 0.00 0.00 0.77 0.78 0.76 0.00 0.91 0.00 0.00 0.00 0.00 0.00 0.00 0.00 0.00 0.00 0.00 0.00 0.00 0.00 0.00 0.00 0.00 0.00 0.58 0.00 0.86 0.00 0.00 0.00 0.00 0.00 0.00 0.91 0.00 0.00 0.00 0.00 0.00 0.00 0.00 0.00 0.00 0.99 0.00 0.00 0.00 0.00 0.00 0.57 0.83 0.66 0.00 0.00 0.00 0.00 0.00 0.00 0.00 0.00 0.95 0.00 0.00 0.00 0.00 0.80 0.00 0.90 0.00 0.00 0.67 0.00 0.00 0.53 0.00 0.92 0.00 0.00 0.00 0.00 0.00 0.00 0.00 0.96 0.00 0.00 0.00 0.59 0.85 0.00 0.00 0.00 0.85 0.00 0.00 0.00 0.00 0.51 0.00 0.00 0.00 0.00 0.00 0.00 0.00 0.91 0.00 0.00 0.00 0.00
0.00 0.00 0.75 0.00 0.00 0.00 0.53 0.00 0.00 0.00 0.00 0.00 0.73 0.72 0.00 0.00 0.00 0.00 0.00 0.00 0.00 0.00 0.00 0.00 0.00 0.60 0.89 0.00 0.00 0.52 0.00 0.00 0.00 0.00 0.00 0.00 0.82 0.63 0.00 0.00 0.98 0.00 0.00 0.00 0.00 0.00 0.00 0.89 0.00 0.00 1.00 0.99 0.00 0.00 0.00 0.00 0.68 0.00 0.00 0.00 0.00 0.00 0.00 0.00 0.00 0.00 0.00 0.00 0.00 0.00 0.00 0.00 0.00 0.54 0.00 0.00 0.00 0.00 0.00 0.00 0.70 0.83 0.00 0.00 0.00 0.00 0.00 0.53 0.00 0.00 0.00 0.00 0.00 0.00 0.57 0.00 0.00 0.00 0.00 0.00 0.00 0.00 0.00 0.71 0.00 0.00 0.00 0.66 0.00 0.86 0.00 0.00 0.00 0.00 0.88 0.00 0.00 0.00 0.00 0.00 0.78 0.85 0.00 0.00 0.00 0.00 0.00 0.00 0.00 0.00 0.00 0.66 0.00 0.00 0.52 0.00 0.00 0.00 0.00 0.61
0.00 0.00 0.54 0.77 0.99 0.00 0.00 0.00 0.56 0.00 0.00 0.00 0.00 0.00 0.00 0.54 0.00 0.00 0.00 0.00 0.00 0.77 0.89 0.00 0.00 0.00 0.00 0.00 0.00 0.87 0.86 0.82 0.00 0.00 0.56 0.60 0.00 0.00 0.00 0.88 0.00 0.00 0.00 0.68 0.00 0.00 0.00 0.51 0.00 0.00 0.00 0.52 0.73 0.00 0.00 0.60 0.00 0.00 0.00 0.00 0.00 0.00 0.63 0.00 0.00 0.00 0.00 0.00 0.71 0.00 0.53 0.93 0.00 0.00 0.00 0.00 0.00 0.00 0.52 0.00 0.00 0.00 0.00 0.00 0.00 0.00 0.00 0.00 0.00 0.00 0.00 0.00 0.53 0.00 0.00 0.00 0.00 0.00 0.81 0.00 0.00 0.00 0.00 0.00 0.00 0.00 0.00 0.50 0.71 0.54 0.00 0.00 0.00 0.00 0.00 0.54 0.00 0.00 0.00 0.00 0.00 0.00 0.66 0.00 0.00 0.00 0.00 0.00 0.68 0.66 0.00 0.00 0.00 0.00 0.62 0.00 0.00 0.00 0.00 0.52
0.00 0.00 0.87 0.00 0.00 0.00 0.00 0.75 0.00 0.00 0.00 0.00 0.00 0.97 0.00 0.00 0.00 0.87 0.00 0.00 0.99 0.00 0.00 0.57 0.00 0.53 0.70 0.00 0.00 0.55 0.00 0.00 0.79 0.00 0.00 0.00 0.00 0.00 0.60 0.00 0.00 0.83 0.75 0.00 0.00 0.00 0.00 0.00 0.98 0.00 0.62 0.00 0.00 0.00 0.58 0.97 0.00 0.00 0.00 0.00 0.00 0.83 0.00 0.00 0.00 0.00 0.00 0.00 0.65 0.75 0.77 0.00 0.00 0.00 0.00 0.00 0.00 0.00 0.00 0.00 0.00 0.00 0.00 0.00 0.76 0.81 0.00 0.95 0.89 0.00 0.00 0.00 0.00 0.00 0.00 0.00 0.00 0.00 0.65 0.00 0.00 0.00 0.00 0.92 0.00 0.00 0.00 0.00 0.99 0.00 0.00 0.00 0.00 0.00 0.00 0.56 0.67 0.00 0.00 0.00 0.85 0.97 0.00 0.00 0.00 0.63 0.96 0.57 0.00 0.00 0.00 0.00 0.52 0.00 0.00 0.66 0.58 0.00 0.00 0.00
0.00 0.00 0.00 0.00 0.00 0.00 0.00 0.79 0.00 0.61 0.00 0.00 0.00 0.00 0.00 0.88 0.00 0.00 0.57 0.00 0.00 0.62 0.00 0.00 0.92 0.00 0.00 0.00 0.00 0.00 0.56 0.00 0.00 0.82 0.00 0.67 0.00 0.00 0.00 0.95 0.82 0.00 0.65 0.00 0.88 0.00 0.00 0.00 0.00 0.57 0.51 0.00 0.00 0.00 0.00 0.00 0.00 0.00 0.00 0.84 0.81 0.00 0.82 0.00 0.00 0.00 0.00 0.00 0.00 0.00 0.96 0.00 0.00 0.00 0.00 0.80 0.00 0.78 0.65 0.00 0.00 0.00 0.76 0.84 0.00 0.00 0.84 0.00 0.00 0.50 0.91 0.52 0.96 0.66 0.00 0.00 0.00 0.00 0.00 0.84 0.00 0.00 0.00 0.77 0.00 0.00 0.00 0.00 0.00 0.00 0.66 0.75 0.62 0.00 0.00 0.00 0.00 0.00 0.00 0.00 0.00 0.82 0.00 0.00 0.00 0.00 0.00 0.00 0.00 0.59 0.00 0.00 0.95 0.00 0.00 0.60 0.91 0.00 0.00 0.00
0.00 0.53 0.00 0.00 0.98 0.00 0.98 0.00 0.00 0.00 0.00 0.00 0.00 0.96 0.00 0.00 0.00 0.88 0.66 0.00 0.91 0.00 0.00 0.00 0.00 0.00 0.00 0.00 0.55 0.54 0.65 0.00 0.00 0.00 0.00 0.00 0.00 0.00 0.00 0.00 0.00 0.00 0.00 0.90 0.00 0.00 0.00 0.96 0.00 0.68 0.00 0.68 0.00 0.00 0.00 0.65 0.00 0.77 0.00 0.00 0.00 0.00 0.81 0.67 0.00 0.00 0.00 0.00 0.82 0.00 0.56 0.83 0.00 0.00 0.00 0.00 0.00 0.00 0.00 0.87 0.00 0.00 0.00 0.00 0.00 0.89 0.56 0.00 0.00 0.00 0.57 0.98 0.61 0.53 0.00 0.82 0.00 0.75 0.86 0.00 0.66 0.78 0.00 0.82 0.81 0.00 0.97 0.00 0.64 0.00 0.00 0.00 0.00 0.00 0.00 0.95 0.82 0.00 0.00 0.94 0.00 0.00 0.56 0.00 0.00 0.00 0.86 0.00 0.80 0.00 0.00 0.00 0.00 0.00 0.00 0.00 0.94 0.00 0.54 0.00
0.00 0.75 0.93 0.00 0.00 0.70 0.82 0.00 0.00 0.71 0.77 0.00 0.00 0.00 0.00 0.00 0.00 0.00 0.00 0.00 0.00 0.79 0.00 0.00 0.00 0.78 0.00 0.00 0.82 0.00 0.00 0.00 0.00 0.00 0.93 0.00 0.00 0.92 0.83 0.00 0.98 0.82 0.00 0.00 0.79 0.00 0.00 0.00 0.00 0.00 0.00 0.00 0.00 0.00 0.00 0.00 0.69 0.70 0.00 0.00 0.60 1.00 0.00 0.00 0.00 0.97 0.00 0.00 0.00 0.57 0.00 0.00 0.00 0.00 0.88 0.00 0.00 0.00 0.00 0.00 0.00 0.00 0.00 0.00 0.00 0.91 0.00 0.00 0.00 0.75 0.00 0.00 0.00 0.00 0.89 0.00 0.00 0.00 0.00 0.00 0.00 0.00 0.00 0.00 0.00 0.56 0.00 0.00 0.00 0.00 0.00 0.63 0.00 0.00 0.00 0.00 0.00 0.00 0.00 0.00 0.67 0.00 0.00 0.65 0.00 0.00 0.00 0.00 0.52 0.00 0.00 0.00 0.00 0.00 0.00 0.00 0.00 0.00 0.00 0.00
0.00 0.00 0.73 0.00 0.00 0.00 0.00 0.69 0.00 0.84 0.00 0.00 0.00 0.00 0.00 0.85 0.00 0.98 0.00 0.00 0.00 0.00 0.00 0.63 0.54 0.00 0.00 0.73 0.00 0.00 0.00 0.00 0.00 0.00 0.00 0.00 0.00 0.00 0.00 0.00 0.00 0.00 0.00 0.00 0.00 0.00 0.00 0.00 0.00 0.00 0.00 0.00 0.00 0.91 0.00 0.00 0.00 0.00 0.00 0.00 0.00 0.76 0.00 0.00 0.95 0.00 0.00 0.00 0.00 0.54 0.00 0.00 0.00 0.00 0.00 0.00 0.00 0.96 0.00 0.00 0.00 0.00 0.00 0.00 0.00 0.00 0.00 0.94 0.00 0.00 0.00 0.64 0.00 0.00 0.00 0.00 0.00 0.00 0.00 0.00 0.00 0.00 0.00 0.00 0.91 0.00 0.00 0.00 0.00 0.97 0.86 0.00 0.00 0.00 0.00 0.00 0.00 0.00 0.00 0.00 0.00 0.97 0.00 0.00 0.00 0.71 0.00 0.90 0.73 0.96 0.00 0.71 0.00 0.00 0.00 0.76 0.00 0.00 0.00 0.00
0.00 0.00 0.00 0.00 0.00 1.00 0.87 0.00 0.80 0.00 0.00 0.00 0.00 0.00 0.00 0.00 0.00 0.00 0.00 0.65 0.00 0.00 0.00 0.00 0.00 0.72 0.63 0.00 0.00 0.00 0.54 0.00 0.00 0.00 0.00 0.00 0.69 0.00 0.00 0.74 0.00 0.00 0.00 0.00 0.00 0.00 0.00 0.00 0.00 0.00 0.00 0.00 0.00 0.00 0.00 0.00 0.00 0.00 0.00 0.90 0.00 0.87 0.00 0.89 0.00 0.74 0.00 0.00 0.00 0.00 0.00 0.00 0.00 0.00 0.00 0.00 0.00 0.00 0.00 0.00 0.78 0.00 0.00 0.00 0.00 0.00 0.97 0.00 0.94 0.00 0.00 0.00 0.00 0.00 0.00 0.00 0.52 0.00 0.00 0.00 0.00 0.00 0.00 0.67 0.00 0.00 0.00 0.00 0.00 0.00 0.00 0.00 0.68 0.00 0.79 0.00 0.78 0.91 0.00 0.00 0.00 0.00 0.00 0.57 0.00 0.00 0.82 0.00 0.68 0.00 0.00 0.51 0.00 0.00 0.00 0.00 0.55 0.00 0.00 0.00
0.00 0.00 0.00 0.00 0.00 0.91 0.00 0.00 0.66 0.00 0.00 0.00 0.00 0.00 0.57 0.00 0.00 0.00 0.00 0.00 0.00 0.75 0.00 0.00 0.98 0.00 0.70 0.71 0.81 0.00 0.96 0.00 0.00 0.00 0.00 0.65 0.00 0.00 0.92 0.00 0.00 0.00 0.00 0.75 0.00 0.00 0.00 0.00 0.00 0.73 0.00 0.99 0.00 0.00 0.00 0.00 0.00 0.00 0.55 0.00 0.00 0.83 0.00 0.56 0.00 0.00 0.00 0.00 0.00 0.00 0.00 0.64 0.00 0.00 0.00 0.00 0.00 0.63 0.00 0.56 0.81 0.79 0.00 0.00 0.76 0.00 0.00 0.85 0.58 0.92 0.00 0.96 0.00 0.00 0.00 0.00 0.61 0.70 0.95 0.00 0.63 0.53 0.00 0.51 0.00 0.00 0.00 0.00 0.00 0.00 0.00 0.00 0.00 0.50 0.00 0.97 0.00 0.00 0.00 0.84 0.00 0.70 0.86 0.00 0.00 0.97 0.59 0.00 0.00 0.66 0.00 0.00 0.00 0.00 0.70 0.00 0.94 0.00 0.00 0.75
0.00 0.00 0.00 0.96 0.00 0.76 0.60 0.00 0.00 0.78 0.69 0.00 0.64 0.00 0.00 0.00 0.00 0.00 0.00 0.00 0.76 0.00 0.00 0.00 0.57 0.00 0.00 0.00 0.00 0.00 0.00 0.57 0.00 0.00 0.69 0.00 0.00 0.00 0.00 0.00 0.00 0.00 0.00 0.00 0.00 0.81 0.79 0.00 0.00 0.00 0.00 0.81 0.00 0.00 0.00 0.78 0.00 0.99 0.00 0.00 0.00 0.00 0.64 0.00 0.00 0.71 0.00 0.00 0.99 0.00 0.00 0.00 0.00 0.84 0.00 0.00 0.00 0.85 0.00 0.00 0.00 0.00 0.00 0.00 0.52 0.00 0.00 0.00 0.00 0.72 0.89 0.00 0.00 0.00 0.00 0.52 0.00 0.00 0.93 0.00 0.95 0.00 0.00 0.00 0.00 0.00 0.65 0.00 0.00 0.00 0.00 0.00 0.00 0.00 0.00 0.00 1.00 0.00 0.00 0.00 0.96 0.00 0.00 0.00 0.79 0.00 0.82 0.82 0.60 0.00 0.00 0.98 0.00 0.00 0.00 0.97 0.86 0.00 0.00 0.00
0.63 0.00 0.00 0.00 0.00 0.66 0.00 0.00 0.00 0.00 0.00 0.00 0.00 0.00 0.00 0.91 0.66 0.91 0.00 0.75 0.00 0.00 0.00 0.00 0.00 0.63 0.99 0.00 0.00 0.66 0.00 0.00 0.00 0.00 0.00 0.72 0.00 0.00 0.97 0.00 0.88 0.88 0.00 0.00 0.53 0.91 0.99 0.00 0.89 0.00 0.00 0.00 0.00 0.81 0.88 0.00 0.00 0.77 0.00 0.00 0.68 0.00 0.00 0.00 0.00 0.83 0.66 0.00 0.00 0.00 0.00 0.55 0.86 0.00 0.00 0.00 0.00 0.65 0.00 0.00 0.57 0.00 0.00 0.85 0.79 0.00 0.73 0.00 0.51 0.00 0.00 0.83 0.00 0.00 0.00 0.94 0.55 0.00 0.00 0.00 0.00 0.76 0.75 0.00 0.00 0.00 0.69 0.00 0.00 0.00 0.00 0.00 0.99 0.00 0.00 0.87 0.00 0.00 0.87 0.56 0.00 0.00 0.00 0.51 0.00 0.00 0.51 0.89 0.00 0.79 0.00 0.61 0.65 0.00 0.00 0.00 0.76 0.00 0.00 0.00
0.00 0.00 0.00 0.00 0.95 0.00 0.00 0.00 0.00 0.00 0.00 0.00 0.00 0.00 0.00 0.00 0.00 0.00 0.00 0.00 0.00 0.00 0.00 0.63 0.00 0.00 0.00 0.00 0.00 0.00 0.00 0.83 0.00 0.00 0.91 0.00 0.85 0.00 0.00 0.00 0.92 0.00 0.60 0.82 0.00 0.90 0.00 0.00 0.00 0.60 0.00 0.72 0.91 0.00 0.00 0.00 0.00 0.00 0.00 0.69 0.00 0.00 0.73 0.00 0.67 0.56 0.95 0.00 0.00 0.00 0.65 0.00 0.77 0.00 0.00 0.00 0.00 0.88 0.00 0.00 0.00 0.88 0.00 0.00 0.00 0.71 0.00 0.00 0.00 0.00 0.00 0.00 0.00 0.00 0.88 0.00 0.00 0.00 0.00 0.00 0.76 0.00 0.00 0.52 0.00 0.00 0.00 0.00 0.00 0.00 0.87 0.00 0.00 0.00 0.00 0.00 0.00 0.00 0.00 0.00 0.00 0.00 0.00 0.00 0.88 0.00 0.58 0.00 0.95 0.00 0.00 0.85 0.00 0.98 0.00 0.00 0.00 0.00 0.91 0.00
0.00 0.00 0.00 0.84 0.00 0.00 0.55 0.00 0.00 0.62 0.98 0.00 0.00 0.00 0.00 0.61 0.00 0.00 0.00 0.00 0.88 0.00 0.00 0.00 0.00 0.00 0.00 0.00 0.00 0.00 0.76 0.00 0.00 0.00 0.00 0.00 0.64 0.00 0.00 0.00 0.00 0.00 0.00 0.00 0.00 0.00 0.69 0.00 0.00 0.67 0.00 0.00 0.00 0.00 0.00 0.00 0.00 0.00 0.57 0.00 0.95 0.00 0.00 0.53 0.76 0.00 0.00 0.00 0.00 0.56 0.00 0.00 0.00 0.00 0.00 0.00 0.00 0.00 0.00 0.00 0.00 0.00 0.00 0.00 0.77 0.79 0.00 0.00 0.68 0.00 0.54 0.80 0.00 0.00 0.00 0.86 0.00 0.71 0.00 0.00 0.00 0.00 0.70 0.00 0.95 0.00 0.00 0.00 0.00 0.78 0.51 0.70 0.00 0.00 0.00 0.00 0.00 0.51 0.72 0.00 0.00 0.00 0.00 0.00 0.00 0.95 0.97 0.00 0.60 0.00 0.00 0.00 0.00 0.52 0.00 0.70 0.72 0.93 0.00 0.00
0.00 0.00 0.00 0.00 0.00 0.00 0.00 0.00 0.00 0.00 0.90 0.85 0.67 0.00 0.00 0.00 0.00 0.00 0.00 0.00 0.85 0.00 0.00 0.75 0.00 0.71 0.52 0.95 0.00 0.50 0.00 0.00 0.00 0.00 0.57 0.00 0.54 0.00 0.00 0.00 0.00 0.00 0.00 0.00 0.00 0.00 0.00 0.00 0.00 0.00 0.00 0.00 0.00 0.66 0.89 0.65 0.00 0.00 0.87 0.00 0.00 0.00 0.00 0.96 0.69 0.00 0.00 0.00 0.00 0.00 0.00 0.00 0.00 0.00 0.00 0.00 0.00 0.00 0.00 0.87 0.00 0.67 0.00 0.00 0.00 0.00 0.00 0.98 0.00 0.00 0.00 0.00 0.89 0.00 0.00 0.66 0.00 0.00 0.00 0.00 0.62 0.00 0.00 0.72 0.00 0.00 0.00 0.00 0.00 0.76 0.00 0.00 0.00 0.00 0.00 0.00 0.00 0.00 0.66 0.00 0.00 0.00 0.00 0.00 0.00 0.53 0.00 0.00 0.00 0.00 0.00 0.61 0.00 0.00 0.00 0.00 0.00 0.00 0.00 0.00
0.55 0.00 0.00 0.00 0.00 0.82 0.61 0.00 0.75 0.00 0.87 0.54 0.00 0.74 0.99 0.63 0.00 0.00 0.00 0.00 0.00 0.71 0.65 0.78 0.00 0.00 0.00 0.00 0.53 0.64 0.00 0.00 0.00 0.66 0.98 0.00 0.80 0.00 0.75 0.00 0.00 0.00 0.00 0.00 0.00 0.00 0.00 0.00 0.00 0.53 0.61 0.00 0.74 0.00 0.00 0.00 0.00 0.00 0.00 0.00 0.87 0.71 0.00 0.00 0.00 0.00 0.98 0.00 0.00 0.64 0.62 0.00 0.00 0.00 0.00 0.65 0.00 0.00 0.00 0.00 0.00 0.00 0.00 0.58 0.00 0.00 0.00 0.66 0.63 0.00 0.00 0.00 0.00 0.00 0.00 0.00 0.82 0.00 0.00 0.00 0.96 0.00 0.00 0.59 0.00 0.00 0.00 0.66 0.00 0.89 0.00 0.00 0.00 0.00 0.00 0.00 0.00 0.00 0.00 0.00 0.00 0.00 0.67 0.00 0.00 0.00 0.00 0.00 0.89 0.00 0.60 0.60 0.00 0.00 0.00 0.00 0.00 0.00 0.00 0.00
0.00 0.00 0.00 0.70 0.00 0.00 0.92 0.00 0.96 0.00 0.00 0.53 0.00 0.60 0.00 0.00 0.00 0.00 0.00 0.00 0.00 0.00 0.94 0.00 0.00 0.00 0.00 0.00 0.00 0.00 0.74 0.00 0.00 0.00 0.00 0.00 0.88 0.00 0.76 0.00 0.00 0.00 0.00 0.00 0.80 0.00 0.00 0.00 0.00 0.00 0.00 0.00 0.00 0.00 0.00 0.59 0.68 0.93 0.83 0.00 0.00 0.00 0.00 0.00 0.00 0.89 0.00 0.00 0.00 0.76 0.99 0.00 0.00 0.85 0.88 0.95 0.00 0.96 0.90 0.00 0.00 0.57 0.00 0.61 0.00 0.75 0.00 0.00 0.98 0.00 1.00 0.00 0.00 0.00 0.00 0.00 0.00 0.00 0.00 0.00 0.00 0.00 0.00 0.81 0.00 0.00 0.00 0.60 0.00 0.67 0.82 0.00 0.00 0.00 0.00 0.00 0.53 0.00 0.00 0.00 0.00 0.00 0.00 0.82 0.00 0.00 0.00 0.00 0.00 0.00 0.00 0.00 0.00 0.00 0.00 0.00 0.00 0.63 0.71 0.00
0.86 0.00 0.00 0.90 0.00 0.00 0.00 0.00 0.00 0.00 0.00 0.00 0.00 0.00 0.00 0.66 0.80 0.75 0.00 0.00 0.00 0.00 0.73 0.00 0.00 0.90 0.00 0.00 0.00 0.00 0.00 0.84 0.00 0.00 0.00 0.00 0.00 0.00 0.00 0.75 0.00 1.00 0.54 0.00 0.00 0.00 0.60 0.00 0.52 0.00 0.00 0.00 0.63 0.00 0.00 0.00 0.92 0.75 0.00 0.00 0.89 0.00 0.00 0.00 0.00 0.00 0.00 0.00 0.62 0.00 0.00 0.00 0.00 0.00 0.70 0.00 0.00 0.00 0.00 0.00 0.00 0.00 0.00 0.00 0.00 0.00 0.00 0.00 0.64 0.00 0.00 0.00 0.71 0.00 0.00 0.68 0.77 0.82 0.00 0.65 0.00 0.58 0.91 0.74 0.00 0.00 0.00 0.66 0.00 0.00 0.00 0.00 0.86 0.00 0.00 0.00 0.00 0.00 0.00 0.00 0.56 0.00 0.00 0.80 0.00 0.00 0.00 0.00 0.81 0.00 0.00 0.00 0.00 0.00 0.00 0.00 0.00 0.60 0.00 0.00
0.89 0.56 0.00 0.00 0.94 0.00 0.00 0.00 0.65 0.77 0.84 0.00 0.63 0.64 0.52 0.00 0.00 0.83 0.00 0.00 0.00 0.67 0.00 0.00 0.00 0.00 0.00 0.00 0.00 0.00 0.00 0.00 0.00 0.00 0.92 0.00 0.00 0.00 0.00 0.00 0.00 0.00 0.00 0.58 0.00 0.76 0.56 0.00 0.00 0.00 0.00 0.00 0.00 0.73 0.00 0.00 0.00 0.00 0.00 0.00 0.00 0.00 0.00 0.00 0.00 0.62 0.00 0.00 0.00 0.53 0.73 0.00 0.00 0.00 0.00 0.00 0.00 0.00 0.00 0.73 0.69 0.00 0.92 0.00 0.00 0.00 0.00 0.00 0.00 0.00 0.00 0.00 0.81 0.00 0.00 0.80 0.71 0.00 0.00 0.00 0.00 0.57 0.00 0.00 0.00 0.77 0.00 0.00 0.97 0.00 0.00 0.00 0.00 0.00 0.91 0.53 0.52 0.00 0.00 0.00 1.00 0.00 0.00 0.00 0.77 0.00 0.00 0.83 0.00 0.00 0.00 0.00 0.00 0.00 0.00 0.00 0.00 0.00 0.61 0.00
0.87 0.00 0.00 0.00 0.00 0.00 0.00 0.00 0.00 0.87 0.00 0.00 0.00 0.00 0.67 0.00 0.00 0.00 0.91 0.00 0.00 0.00 0.00 0.94 0.00 0.00 0.00 0.00 0.00 0.63 0.00 0.64 0.00 0.00 0.00 0.54 0.00 0.70 0.00 0.00 0.00 0.82 0.00 0.78 0.70 0.00 0.00 0.00 0.00 0.69 0.00 0.00 0.00 0.00 0.83 0.81 0.00 0.00 0.75 0.00 0.00 0.00 0.00 0.78 0.00 0.00 0.97 0.00 0.00 0.00 0.00 0.00 0.00 0.00 0.00 0.00 0.00 0.00 0.00 0.00 0.00 0.00 0.00 0.91 0.00 0.50 0.00 0.00 0.69 0.00 0.91 0.00 0.00 0.00 0.00 0.00 0.00 0.00 0.00 0.00 0.55 0.00 0.00 0.00 0.93 0.00 0.00 0.92 0.93 0.00 0.51 0.64 0.00 0.00 0.66 0.00 0.00 0.00 0.00 0.71 0.00 0.00 0.79 0.73 0.00 0.00 0.56 0.00 0.00 0.00 0.00 0.00 0.00 0.00 0.91 0.00 0.00 0.72 0.00 0.00
0.00 0.00 0.00 0.00 0.00 0.66 0.00 0.00 0.58 0.00 0.00 0.00 0.00 0.00 0.72 0.00 0.00 0.00 0.00 0.91 0.00 0.00 0.00 0.93 0.00 0.00 0.00 0.00 0.00 0.00 0.00 0.00 0.85 0.00 0.00 0.00 0.79 0.92 0.94 0.00 0.61 0.00 0.00 0.00 0.00 0.69 0.77 0.00 0.00 0.00 0.00 0.98 0.52 0.00 0.50 0.00 0.83 0.00 0.00 0.00 0.00 0.00 0.00 0.60 0.00 0.55 0.00 0.00 0.00 0.85 0.00 0.00 0.75 0.00 0.00 0.00 0.00 0.83 0.53 0.00 0.00 0.00 0.00 0.56 0.00 0.00 0.00 0.00 0.87 0.00 0.61 0.68 0.00 0.00 0.00 0.00 0.00 0.00 0.00 0.00 0.90 0.00 0.96 0.73 0.00 0.00 0.00 0.00 0.00 0.00 0.65 0.00 0.00 0.00 0.00 0.00 0.00 0.00 0.00 0.00 0.81 0.00 0.56 0.00 0.00 0.00 0.00 0.00 0.58 0.00 0.00 0.00 0.54 0.00 0.00 0.00 0.00 0.00 0.00 0.00
0.00 0.00 0.96 0.77 0.00 0.00 0.67 0.00 0.00 0.00 0.00 0.00 0.00 0.00 0.00 0.00 0.00 0.00 0.00 0.56 0.00 0.00 0.66 0.00 0.00 0.00 0.00 0.00 0.00 0.00 0.73 0.00 0.00 0.00 0.00 0.00 0.90 0.00 0.00 0.00 0.93 0.00 0.00 0.00 0.00 0.00 0.00 0.00 0.54 0.85 0.00 0.60 0.00 0.00 0.55 0.00 0.63 0.00 0.62 0.00 0.00 0.00 0.00 0.00 0.00 0.83 0.00 0.00 0.00 0.00 0.00 0.00 0.73 0.00 0.90 0.99 0.53 0.00 0.00 0.00 0.00 0.94 0.00 0.00 0.00 0.00 0.73 0.00 0.00 0.00 0.00 0.00 0.00 0.00 0.83 0.00 0.90 0.00 0.00 0.00 0.78 0.00 0.00 0.56 0.00 0.00 0.00 0.00 0.74 0.00 0.68 0.81 0.00 0.00 0.00 0.00 0.00 0.00 0.00 0.00 0.00 0.00 0.00 0.00 0.65 0.00 0.00 0.00 0.00 0.00 0.00 0.00 0.00 0.75 0.00 0.00 0.00 0.00 0.00 0.00
0.96 0.00 0.00 0.00 0.91 0.00 0.83 0.00 0.00 0.00 0.00 0.00 0.58 0.00 0.00 0.84 0.74 0.00 0.00 0.00 0.00 0.00 0.00 0.00 0.00 0.00 0.00 0.00 0.94 0.00 0.00 0.60 0.00 0.77 0.00 0.00 0.00 0.00 0.00 0.00 0.00 0.00 0.00 0.87 0.00 0.00 0.84 0.59 0.00 0.00 0.00 0.00 0.00 0.98 0.00 0.00 0.00 0.00 0.00 0.00 0.00 0.00 0.00 0.00 0.00 0.00 0.00 0.62 0.95 0.00 0.00 0.00 0.00 0.00 0.68 0.00 0.00 0.00 0.00 0.00 0.00 0.58 0.00 0.93 0.00 0.00 0.59 0.00 0.63 0.72 0.00 0.00 0.00 0.82 0.00 0.95 0.00 0.00 0.00 0.58 0.00 0.60 0.00 0.00 0.00 0.00 0.78 0.66 0.86 0.00 0.00 0.66 0.00 0.00 0.00 0.00 0.00 0.90 0.00 0.00 0.00 0.00 0.00 0.85 0.72 0.00 0.00 0.00 0.96 0.85 0.85 0.90 0.00 0.00 0.00 0.00 0.00 0.80 0.00 0.00
0.00 0.00 0.77 0.00 0.74 0.77 0.00 0.00 0.00 0.00 0.83 0.73 0.00 0.00 0.00 0.57 0.56 0.00 0.00 0.00 0.89 0.00 0.92 0.86 0.00 0.95 0.99 0.00 0.00 0.98 0.00 0.00 0.00 0.00 0.53 0.86 0.00 0.00 0.73 0.00 0.00 0.00 0.00 0.00 0.93 0.00 0.00 0.00 0.73 0.00 0.75 0.00 0.00 0.00 0.00 0.90 0.00 0.00 0.00 0.00 0.00 0.94 0.00 0.00 0.00 0.00 0.00 0.00 0.00 0.00 0.00 0.00 0.00 0.58 0.00 0.00 0.00 0.00 0.66 0.00 0.00 0.00 0.61 0.00 0.00 0.00 0.00 0.00 0.00 0.00 0.00 0.77 0.51 0.00 0.00 0.00 0.00 0.71 0.00 0.00 0.00 0.00 0.00 0.00 0.68 0.71 0.00 0.54 0.00 0.00 0.00 0.00 0.73 0.00 0.92 0.00 0.00 0.00 0.00 0.00 0.00 0.00 0.00 0.58 0.00 0.00 0.60 0.75 0.00 0.75 0.00 0.76 0.85 0.00 0.00 0.00 0.00 0.91 0.00 0.53
0.00 0.00 0.00 0.00 0.00 0.00 0.00 0.00 0.00 0.00 0.98 0.00 0.00 0.00 0.00 0.00 0.00 0.00 0.00 0.00 0.64 0.00 0.00 0.67 0.00 0.00 0.60 0.00 0.00 0.00 0.52 0.00 0.00 0.00 0.00 0.00 0.71 0.88 0.00 0.80 0.00 0.00 0.87 0.00 0.00 0.00 0.00 0.00 0.00 0.00 0.59 0.00 0.00 0.85 0.00 0.00 0.00 0.00 0.00 0.00 0.00 0.00 0.00 0.00 0.00 0.00 0.00 0.00 0.00 0.00 0.00 0.00 0.00 0.00 0.00 0.00 0.00 0.92 0.00 0.00 0.00 0.54 0.72 0.00 0.00 0.00 0.00 0.00 0.00 0.00 0.00 0.00 0.00 0.87 0.82 0.00 0.91 0.00 0.00 0.00 0.00 0.00 0.72 0.00 0.00 0.51 0.00 0.00 0.87 0.55 0.75 0.00 0.68 0.00 0.00 0.00 0.00 0.00 0.00 0.00 0.00 0.85 0.00 0.00 0.92 0.00 0.00 0.86 0.00 0.73 0.69 0.00 0.71 0.92 0.00 0.00 0.00 0.00 0.00 0.00
0.00 0.00 0.00 0.00 0.00 0.60 0.96 0.00 0.00 0.00 0.00 0.00 0.00 0.00 0.00 0.00 0.87 0.00 0.67 0.00 0.00 0.00 0.00 0.00 0.00 0.00 0.66 0.00 0.00 0.00 0.00 0.00 0.00 0.00 0.00 0.99 0.00 0.00 0.00 0.52 0.80 0.00 0.00 0.82 0.00 0.00 0.00 0.00 0.83 0.86 0.00 0.53 0.00 0.75 0.00 0.00 0.00 0.00 0.00 0.00 0.00 0.00 0.00 0.00 0.00 0.00 0.00 0.00 0.00 0.00 0.67 0.00 0.00 0.00 0.00 0.00 0.00 0.00 0.65 0.61 0.00 0.00 0.00 0.62 0.00 0.00 0.00 0.00 0.00 0.00 0.00 0.00 0.00 0.00 0.00 0.00 0.00 0.00 0.00 0.81 0.00 0.00 0.90 0.00 0.00 0.77 0.00 0.94 0.59 0.00 0.00 0.00 0.00 0.00 0.85 0.00 0.96 0.74 0.00 0.00 0.00 0.87 0.00 0.00 0.00 0.00 0.65 0.79 0.00 0.00 0.00 0.82 0.00 0.00 0.00 0.00 0.00 0.00 0.00 0.00
0.00 0.00 0.55 0.00 0.00 0.00 0.86 0.74 0.00 0.94 0.65 0.00 0.82 0.00 0.00 0.00 0.00 0.00 0.00 0.00 0.95 0.54 0.00 0.00 0.00 0.00 0.00 0.00 0.00 0.00 0.00 0.00 0.00 0.66 0.00 0.00 0.00 0.00 0.00 0.00 0.59 0.00 0.59 0.00 0.00 0.00 0.00 0.00 0.58 0.67 0.73 0.00 0.00 0.80 0.00 0.00 0.54 0.00 0.54 0.80 0.00 0.00 0.00 0.00 0.00 0.00 0.00 0.00 0.00 0.55 0.00 0.00 0.72 0.88 0.00 0.00 0.00 0.00 0.99 0.00 0.00 0.59 0.00 0.00 0.00 0.67 0.00 0.00 0.00 0.63 0.56 0.00 0.00 0.00 0.00 0.00 0.00 0.00 0.00 0.00 0.00 0.00 0.73 0.00 0.00 0.00 0.93 0.00 0.00 0.00 0.00 0.00 0.00 0.00 0.00 0.00 0.97 0.00 0.00 0.00 0.00 0.00 0.00 0.00 0.00 0.62 0.00 0.00 0.75 0.68 0.00 0.00 0.61 0.00 0.00 0.92 0.00 0.00 0.00 0.00
0.60 0.81 0.72 0.00 0.00 0.00 0.91 0.00 0.00 0.82 0.74 0.00 0.00 0.00 0.00 0.00 0.00 0.78 0.00 0.62 0.00 0.76 0.00 0.76 0.00 0.00 0.70 0.84 0.00 0.00 0.00 0.00 0.00 0.53 0.00 0.00 0.00 0.00 0.00 0.00 0.00 0.00 0.64 0.00 0.00 0.00 0.00 0.00 0.55 0.51 0.00 0.00 0.53 0.00 0.93 0.00 0.81 0.00 0.00 0.89 0.00 0.00 0.88 0.00 0.00 0.00 0.00 0.00 0.00 0.59 0.00 0.58 0.62 0.00 0.00 0.00 0.94 0.65 0.00 0.00 0.00 0.90 0.00 0.00 0.00 0.00 0.68 0.00 0.00 0.00 0.00 0.98 0.97 0.53 0.00 0.00 0.66 0.57 0.00 0.79 0.00 0.00 0.00 0.00 0.00 0.00 0.55 0.00 0.00 0.00 0.00 0.94 0.00 0.79 0.59 0.00 0.73 0.00 0.00 0.84 0.93 0.00 0.00 0.00 0.54 0.00 0.00 0.00 0.00 0.79 0.00 0.00 0.00 0.00 0.00 0.00 0.88 0.00 0.00 0.00
0.76 0.80 0.94 0.00 0.00 0.00 0.00 0.00 0.00 0.97 0.00 0.00 0.00 0.69 0.00 0.00 0.00 0.00 0.00 0.00 0.00 0.00 0.00 0.00 0.00 0.87 0.00 0.82 0.00 0.52 0.00 0.00 0.00 0.00 0.00 0.00 0.87 0.00 0.00 0.00 0.00 0.00 0.00 0.00 0.00 0.91 0.00 0.00 0.00 0.00 0.75 0.00 0.91 0.00 0.00 0.00 0.99 0.00 0.00 0.00 0.67 0.00 0.00 0.00 0.00 0.55 0.00 0.00 0.00 0.00 0.00 0.52 0.00 0.00 0.00 0.00 0.00 0.00 0.00 0.91 0.00 0.00 0.62 0.51 0.00 0.69 0.00 0.63 0.00 0.99 0.00 0.00 0.00 0.98 0.00 0.00 0.00 0.00 0.00 0.69 0.00 0.00 0.76 0.00 0.00 0.00 0.00 0.00 0.80 0.00 0.00 0.90 0.00 0.84 0.00 0.00 0.00 0.00 0.52 0.00 0.00 0.00 0.00 0.00 0.00 0.00 0.55 0.00 0.00 0.00 0.00 0.00 0.00 0.00 0.00 0.00 0.00 0.00 0.00 0.00
0.00 0.60 0.00 0.76 0.00 0.00 0.00 0.00 0.00 0.99 0.00 0.00 0.00 0.62 0.00 0.00 0.00 0.00 0.00 0.00 0.66 0.00 0.97 0.54 0.00 0.52 0.00 0.00 0.00 0.00 0.00 0.00 0.00 0.00 0.00 0.00 0.00 0.58 0.00 0.00 0.00 0.00 0.00 0.00 0.00 0.00 0.90 0.00 0.00 0.00 0.00 0.00 0.00 0.00 0.00 0.83 0.00 0.00 0.00 0.60 0.00 0.00 0.00 0.00 0.70 0.71 0.00 0.00 0.80 0.00 0.00 0.00 0.00 0.00 0.83 0.00 0.00 0.00 0.00 0.00 0.71 0.00 0.00 0.00 0.00 0.00 0.00 0.96 0.00 0.70 0.00 0.00 0.00 0.00 0.00 0.00 0.00 0.00 0.00 0.00 0.58 0.00 0.00 0.93 0.83 0.73 0.00 0.00 0.00 0.00 0.00 0.00 0.95 0.00 0.00 0.95 0.00 0.00 0.00 0.00 0.00 0.72 0.00 0.00 0.92 0.00 0.00 0.00 0.00 0.00 0.00 0.00 0.00 0.00 0.00 0.00 0.00 0.79 0.00 0.00
0.52 0.00 0.00 0.00 0.00 0.00 0.00 0.00 0.82 0.00 0.89 0.00 0.00 0.53 0.00 0.00 0.00 0.00 0.00 0.00 0.00 0.00 0.52 0.83 0.65 0.91 0.00 0.00 0.00 0.00 0.86 0.54 0.00 0.00 0.00 0.00 0.00 0.00 0.00 0.00 0.00 0.67 0.73 0.00 0.60 0.00 0.00 0.86 0.00 0.00 0.96 0.72 0.73 0.00 0.00 0.00 0.94 0.00 0.00 0.54 0.00 0.55 0.00 0.00 0.82 0.00 0.00 0.00 0.00 0.98 0.00 0.00 0.00 0.00 0.00 0.00 0.00 0.00 0.00 0.93 0.00 0.00 0.00 0.00 0.00 0.82 0.00 0.00 0.00 0.76 0.00 0.00 0.00 0.00 0.00 0.67 0.75 0.52 0.64 0.00 0.00 0.00 0.00 0.52 0.00 0.00 0.00 0.00 0.00 0.00 0.00 0.00 0.00 0.51 0.00 0.00 0.69 0.00 0.83 0.00 0.00 0.00 0.54 0.00 0.93 0.00 0.00 0.00 0.68 0.00 0.00 0.00 0.00 0.00 0.00 0.00 0.00 0.00 0.00 0.00
0.00 0.77 0.00 0.00 0.77 0.00 0.00 0.93 0.00 0.59 0.00 0.00 1.00 0.00 0.00 0.00 0.00 0.98 0.99 0.00 0.88 0.00 0.00 0.00 0.00 0.74 0.00 0.00 0.00 0.00 0.83 0.96 0.00 0.00 0.00 0.68 0.00 0.00 0.00 0.00 0.00 0.53 0.00 0.00 0.00 0.00 0.00 0.00 0.00 0.00 0.00 0.85 0.00 0.00 0.00 0.00 0.55 0.00 0.00 0.00 0.51 0.00 0.00 0.53 0.91 0.00 0.00 0.00 0.00 0.00 0.00 0.00 0.00 0.59 0.00 0.00 0.00 0.00 0.79 0.00 0.80 0.00 0.00 0.00 0.00 0.79 0.96 0.60 0.53 0.00 0.79 0.00 0.00 0.00 0.00 0.00 0.62 0.67 0.00 0.00 0.00 0.00 0.57 0.76 0.00 0.00 0.63 0.00 0.88 0.00 0.00 0.00 0.77 0.00 0.82 0.93 0.00 0.00 0.58 0.00 0.00 0.00 0.00 0.79 0.00 0.00 0.00 0.00 0.00 0.00 0.75 0.55 0.00 0.00 0.00 0.00 0.00 0.00 0.00 0.00
0.00 0.00 0.00 0.00 0.00 0.00 0.00 0.00 0.00 0.00 0.57 0.00 0.00 0.50 0.00 0.00 0.00 0.00 0.00 0.00 0.00 0.00 0.00 0.00 0.00 0.00 0.00 0.00 0.00 0.00 0.00 0.00 0.00 0.00 0.00 0.59 0.00 0.00 0.00 0.52 0.00 0.00 0.00 0.00 0.00 0.61 0.00 0.00 0.87 0.87 0.00 0.00 0.00 0.00 0.00 0.00 0.00 0.81 0.00 0.97 0.00 0.00 0.00 0.00 0.00 0.00 0.00 0.90 0.59 0.00 0.00 0.00 0.00 0.00 0.00 0.81 0.00 0.55 0.00 0.00 0.00 0.00 0.00 0.76 0.00 0.00 0.00 0.00 0.00 0.00 0.00 0.00 0.00 0.00 0.00 0.00 0.00 0.00 0.00 0.00 0.00 0.00 0.00 0.00 0.00 0.00 0.00 0.87 0.00 0.00 0.00 0.84 0.00 0.00 0.00 0.00 0.80 0.58 0.68 0.00 0.00 0.00 0.00 0.00 0.00 0.84 0.00 0.00 0.92 0.00 0.00 0.00 0.87 0.83 0.00 0.53 0.62 0.99 0.00 0.00
0.00 0.00 0.96 0.93 0.00 0.00 0.00 0.80 0.00 0.00 0.00 0.00 0.00 0.00 0.00 0.00 0.52 0.00 0.00 0.00 0.00 0.00 0.00 0.00 0.00 0.00 0.00 0.00 0.00 0.00 0.00 0.00 0.00 0.00 0.00 0.00 0.88 0.00 0.00 0.00 0.91 0.00 0.00 0.00 0.92 0.00 0.00 0.00 0.68 0.00 0.00 0.00 0.91 0.00 0.67 0.92 0.00 0.00 0.00 0.00 0.00 0.00 0.00 0.00 0.00 0.00 0.97 0.00 0.00 0.83 0.00 0.00 0.00 0.00 0.00 0.00 0.83 0.73 0.97 0.00 0.00 0.00 0.00 0.58 0.00 0.00 0.00 0.00 0.00 0.64 0.00 0.00 0.00 0.00 0.00 0.52 0.99 0.00 0.00 0.00 0.00 0.00 1.00 0.00 0.00 0.00 0.00 0.00 0.00 0.00 0.00 0.00 0.60 0.56 0.00 0.00 0.54 0.00 0.00 0.00 0.00 0.70 0.00 0.00 0.00 0.00 0.00 0.70 0.00 0.00 0.00 0.00 0.82 0.00 0.00 0.00 0.00 0.00 0.68 0.00
0.00 0.00 0.00 0.00 0.00 0.76 1.00 0.00 0.00 0.00 0.00 0.00 0.00 0.00 0.52 0.00 0.00 0.00 0.00 0.00 0.00 0.00 0.00 0.00 0.00 0.00 0.00 0.00 0.00 0.00 0.00 0.89 0.00 0.00 0.00 0.85 0.89 0.00 0.00 0.77 0.88 0.00 0.00 0.00 0.00 0.00 0.00 0.00 0.00 0.62 0.56 0.00 0.00 0.00 0.00 0.00 0.00 0.88 0.00 0.00 0.00 0.00 0.00 0.52 0.00 0.00 0.00 0.00 0.00 0.00 0.54 0.00 0.00 0.00 0.00 0.00 0.00 0.00 0.00 0.00 0.00 0.66 0.00 0.00 0.00 0.00 0.00 0.00 0.91 0.95 0.53 0.78 0.00 0.00 0.00 0.00 0.00 0.00 0.00 0.00 0.00 0.00 0.57 0.00 0.54 0.00 0.82 0.00 0.00 0.69 0.00 0.00 0.57 0.89 0.00 0.88 0.00 0.58 0.59 0.78 0.00 0.00 0.00 0.00 0.00 0.00 0.78 0.00 0.98 0.00 0.00 0.63 0.00 0.00 0.73 0.00 0.00 0.00 0.00 0.67
0.60 0.00 0.00 0.00 0.00 0.83 0.00 0.00 0.00 0.89 0.00 0.80 0.00 0.00 0.00 0.00 0.00 0.00 0.00 0.00 0.00 0.00 0.00 0.00 0.00 0.59 0.81 0.97 0.00 0.73 0.00 0.00 0.00 0.00 0.67 0.00 0.00 0.90 0.70 0.00 0.00 0.00 0.00 0.00 0.00 0.00 0.93 0.00 0.00 0.00 0.00 0.00 0.90 0.00 0.00 0.00 0.00 0.00 0.00 0.00 0.00 0.69 0.00 0.00 0.00 0.00 0.00 0.00 0.00 0.84 0.00 0.00 0.62 0.55 0.00 0.00 0.00 0.00 0.00 0.00 0.00 0.00 0.80 0.00 0.83 0.00 0.00 0.00 0.00 0.00 0.00 0.00 1.00 0.00 0.66 0.00 0.00 0.00 0.68 0.78 0.94 0.00 0.00 0.74 0.00 0.81 0.00 0.00 0.00 0.00 0.00 0.00 0.00 0.00 0.00 0.00 0.00 0.00 0.88 0.00 0.96 0.00 0.00 0.00 0.72 0.76 0.00 0.90 0.00 0.00 0.00 0.00 0.90 0.00 0.50 0.79 0.00 0.00 0.00 0.00
0.00 0.67 0.00 0.00 0.00 0.00 0.00 0.00 0.00 0.00 0.00 0.60 0.00 0.00 0.88 0.00 0.00 0.00 0.00 0.61 0.00 0.00 0.00 0.00 0.00 0.00 0.77 0.00 0.00 0.00 0.62 0.00 0.00 0.00 0.00 0.95 0.00 0.00 0.00 0.00 0.00 0.00 0.00 0.58 0.00 0.00 0.00 0.00 0.92 0.00 0.00 0.00 0.00 0.00 0.00 0.00 0.00 0.00 0.95 0.00 0.00 0.00 0.00 0.94 0.00 0.00 0.72 0.00 0.00 0.00 0.00 0.89 0.00 0.62 0.00 0.00 0.53 0.74 0.00 0.00 0.00 0.00 0.00 0.00 0.00 0.00 0.58 0.56 0.00 0.00 0.00 0.00 0.00 0.67 0.00 0.00 0.59 0.85 0.00 0.00 1.00 0.00 0.00 0.00 0.76 0.82 0.68 0.00 0.00 0.73 0.77 0.00 0.00 0.00 0.00 0.56 0.91 0.98 0.00 0.00 0.00 0.00 0.00 0.81 0.74 0.72 0.70 0.64 0.00 0.00 0.86 0.00 0.00 0.00 0.70 0.00 0.00 0.00 0.00 0.93
0.00 0.00 0.00 0.90 0.00 0.00 0.00 0.00 0.71 0.86 0.86 0.00 0.00 0.00 0.00 0.00 0.00 0.00 0.00 0.00 0.00 0.00 0.00 0.00 0.00 0.60 0.52 0.88 0.00 0.00 0.00 0.79 0.00 0.00 0.89 0.00 0.00 0.87 0.00 0.00 0.00 0.00 0.00 0.00 0.57 0.00 0.00 0.67 0.00 0.00 0.00 0.00 0.89 0.00 0.00 0.00 0.00 0.00 0.00 0.00 0.00 0.70 0.00 0.00 0.66 0.00 0.76 0.82 0.00 0.00 0.00 0.00 0.00 0.71 0.00 0.00 0.00 0.00 0.00 0.54 0.00 0.00 0.00 0.00 0.00 0.00 0.00 0.00 0.00 0.00 0.71 0.00 0.00 0.00 0.77 1.00 0.00 0.00 0.96 0.00 0.78 0.93 0.00 0.00 0.00 0.00 0.00 0.85 0.00 0.00 0.00 0.69 0.69 0.00 0.00 0.64 0.79 0.00 0.80 0.00 0.66 0.00 0.00 0.00 0.00 0.72 0.00 0.00 0.00 0.00 0.00 0.74 0.00 0.00 0.00 0.00 0.99 0.00 0.81 0.00
0.61 0.00 0.00 0.00 0.00 0.00 0.00 0.00 0.00 0.00 0.00 0.00 0.00 0.00 0.00 0.70 0.62 0.00 0.00 0.00 0.74 0.00 0.00 0.69 0.00 0.00 0.87 0.00 0.00 0.62 0.99 0.00 0.00 0.00 0.00 0.00 0.85 0.00 0.89 0.00 0.00 0.00 0.54 0.00 0.00 0.00 0.99 0.00 0.87 0.00 0.00 0.00 0.00 0.78 0.00 0.92 0.00 0.00 0.00 0.00 0.00 0.00 0.53 0.00 0.00 0.00 0.73 0.00 0.00 0.00 0.00 0.00 0.00 0.00 0.00 0.00 0.90 0.00 0.00 0.00 0.78 0.00 0.57 0.00 0.00 0.00 0.00 0.00 0.00 0.00 0.00 0.00 0.00 0.98 0.00 0.00 0.74 0.00 0.97 0.50 0.00 0.00 0.00 0.00 0.00 0.00 0.00 0.00 0.00 0.00 0.73 0.51 0.53 0.00 0.00 0.00 0.00 0.00 0.00 0.00 0.00 0.00 0.00 0.00 0.00 0.55 0.00 0.00 0.00 0.00 0.00 0.00 0.65 0.00 0.00 0.00 0.00 0.00 0.00 0.82
0.00 0.00 0.00 0.00 0.00 0.00 0.00 0.00 0.00 0.00 0.69 0.00 0.00 0.00 0.00 0.98 0.00 0.00 0.74 0.00 0.94 0.00 0.00 0.00 0.00 0.00 0.00 0.00 0.00 0.00 0.00 0.00 0.00 0.68 0.00 0.00 0.00 0.00 0.00 0.00 0.00 0.00 0.86 0.00 0.00 0.71 0.66 0.82 0.53 0.60 0.00 0.00 0.00 0.00 0.00 0.55 0.00 0.00 0.00 0.96 0.00 0.00 0.00 0.00 0.00 0.90 0.00 0.00 0.00 0.00 0.00 0.00 0.00 0.00 0.00 0.00 0.00 0.00 0.00 0.00 0.00 0.80 0.00 0.00 0.00 0.86 0.00 0.00 0.00 0.64 0.00 0.00 0.00 0.00 0.00 0.00 0.00 0.00 0.00 0.00 0.69 0.00 0.00 0.00 0.00 0.00 0.00 0.00 0.00 0.00 0.00 0.52 0.00 0.00 0.00 0.00 0.00 0.00 0.00 0.00 0.00 0.00 0.00 0.00 0.00 0.67 0.00 0.00 0.00 0.61 0.00 0.00 0.51 0.00 0.00 0.00 0.00 0.00 0.00 0.00
0.00 0.59 0.00 0.00 0.00 0.00 0.00 0.00 0.00 0.76 0.00 0.00 0.00 0.86 0.00 0.00 0.00 0.55 0.00 0.00 0.00 0.77 0.59 0.00 0.00 0.00 0.79 0.00 0.00 0.66 0.00 0.71 0.00 0.00 0.00 0.00 0.00 0.00 0.00 0.00 0.00 0.00 0.00 0.55 0.69 0.51 0.00 0.00 0.00 0.00 0.00 0.00 0.00 0.95 0.59 0.00 0.00 0.00 0.00 0.00 0.00 0.62 0.00 0.00 0.00 0.00 0.74 0.77 0.00 0.00 0.51 0.00 0.00 0.00 0.00 0.00 0.76 0.00 0.00 0.00 0.00 0.74 0.00 0.00 0.00 0.00 0.00 0.70 0.00 0.79 0.00 0.00 0.00 0.70 0.00 0.00 0.53 0.00 0.00 0.88 0.00 0.00 0.00 0.00 0.00 0.00 0.00 0.92 0.00 0.00 0.00 0.00 0.00 0.00 0.00 0.00 0.00 0.00 0.00 0.00 0.00 0.00 0.00 0.00 0.00 0.00 0.00 0.00 0.58 0.00 0.00 0.00 0.62 0.00 0.00 0.00 0.00 0.00 0.00 0.00
0.00 0.00 0.67 0.00 0.00 0.00 0.00 0.00 0.00 0.92 0.00 0.00 0.97 0.00 0.00 0.87 0.00 0.89 0.00 0.00 0.87 0.59 0.55 0.00 0.00 0.86 0.86 0.00 0.00 0.00 0.91 0.86 0.00 0.99 0.80 0.00 0.00 0.00 0.00 0.00 0.00 0.00 0.00 0.67 0.00 0.00 0.00 0.00 0.54 0.00 0.66 0.00 0.86 0.79 0.00 0.00 0.00 0.99 0.00 0.00 0.00 0.00 0.00 0.00 0.71 0.00 0.00 0.00 0.00 0.00 0.80 0.91 0.00 0.00 0.00 0.00 0.00 0.00 0.64 0.00 0.00 0.00 0.57 0.92 0.00 0.00 0.63 0.00 0.00 0.00 0.97 0.00 0.00 0.00 0.00 0.00 0.00 0.00 0.00 0.00 0.00 0.00 0.00 0.64 0.00 0.00 0.00 0.00 0.00 0.00 0.85 0.72 0.00 0.00 0.00 0.78 0.70 0.66 0.00 0.00 0.00 0.00 0.00 0.52 0.00 0.00 0.77 0.88 0.60 0.00 0.00 0.00 0.87 0.00 0.00 0.92 0.00 0.00 0.61 0.64
0.00 0.00 0.00 0.00 0.00 0.00 0.00 0.00 0.00 0.00 0.00 0.00 0.00 0.00 0.71 0.00 0.87 0.88 0.00 0.00 0.87 0.00 0.00 0.00 0.00 0.00 0.00 0.51 0.00 0.00 0.00 0.53 0.00 0.00 0.87 0.00 0.00 0.00 0.00 0.00 0.00 0.00 0.00 0.00 0.00 0.82 0.00 0.00 0.57 0.51 0.77 0.00 0.00 0.00 0.00 0.00 0.00 0.00 0.00 0.00 0.00 0.00 0.00 0.00 0.00 0.00 0.00 0.00 0.00 0.00 0.00 0.98 0.69 0.00 0.00 0.00 0.00 0.00 0.00 0.00 0.00 0.00 0.00 0.00 0.00 0.00 0.00 0.00 0.00 0.00 0.00 0.00 0.00 0.00 0.00 0.00 0.00 0.91 0.00 0.00 0.00 0.00 0.67 0.00 0.00 0.96 0.00 0.80 0.00 0.00 0.86 0.00 0.00 0.57 0.00 0.00 0.00 0.00 0.00 0.00 0.00 0.00 0.67 0.00 0.00 0.00 0.00 0.00 0.00 0.00 0.00 0.00 0.00 0.00 0.00 0.82 0.50 0.85 0.00 0.60
0.00 0.70 0.00 0.99 0.00 0.00 0.00 0.67 0.00 0.58 0.83 0.00 0.00 0.00 0.00 0.00 0.00 0.00 0.00 0.00 0.00 0.00 0.00 0.00 0.00 0.00 0.82 0.00 0.00 0.00 0.00 0.77 0.00 0.00 0.00 0.00 0.00 0.00 0.00 0.00 0.00 0.00 0.00 0.58 0.00 0.00 0.91 0.00 0.00 0.00 0.63 0.00 0.00 0.00 0.65 0.00 0.00 0.55 0.65 0.00 0.00 0.00 0.00 0.00 0.00 0.59 0.95 0.00 0.00 0.00 0.82 0.00 0.00 0.00 0.00 0.51 0.00 0.00 0.00 0.54 0.00 0.00 0.87 0.00 0.98 0.92 0.00 0.00 0.00 0.66 0.00 0.00 0.00 0.00 0.00 0.66 0.00 0.00 0.99 0.00 0.00 0.00 0.00 0.66 0.00 0.00 0.00 0.00 0.00 0.94 0.00 0.00 0.88 0.75 0.00 0.83 0.00 0.00 0.00 0.98 0.00 0.87 0.00 0.51 0.97 0.00 0.00 0.00 0.00 0.53 0.00 0.83 0.52 0.00 0.00 0.00 0.00 0.00 0.00 0.00
0.00 0.57 0.00 0.00 0.00 0.00 0.00 0.00 0.00 0.00 0.78 0.00 0.00 0.00 0.73 0.00 0.00 0.00 0.79 0.00 0.00 0.00 0.00 0.52 0.00 0.00 0.00 0.00 0.00 0.00 0.00 0.00 0.00 0.00 0.95 0.00 0.00 0.00 0.78 0.00 0.00 0.00 0.00 0.00 0.70 0.90 0.00 0.00 0.00 0.00 0.64 0.00 0.00 0.00 0.00 0.00 0.87 0.56 0.89 0.96 0.00 0.00 0.00 0.00 0.73 0.00 0.70 0.00 0.00 0.00 0.00 0.00 0.00 0.00 0.00 0.72 0.00 0.69 0.64 0.00 0.00 0.75 0.00 0.00 0.00 0.00 0.00 0.00 0.00 0.65 0.00 0.58 0.00 0.00 0.62 0.62 0.00 0.00 0.00 0.00 0.00 0.92 0.86 0.80 0.00 0.00 0.00 0.59 0.00 0.00 0.79 0.94 0.00 0.00 0.00 0.52 0.00 0.72 0.00 0.00 0.66 0.00 0.00 0.76 0.00 0.00 0.00 0.00 0.00 0.00 0.00 0.82 0.00 0.64 0.88 0.00 0.00 0.00 0.85 0.00
0.00 0.00 0.54 0.70 0.91 0.00 0.00 0.00 0.00 0.00 0.00 0.00 0.00 0.84 0.00 0.00 0.74 0.78 0.00 0.00 0.89 0.00 0.53 0.71 0.00 0.00 0.89 0.00 0.00 0.00 0.94 0.00 0.00 0.00 0.70 0.91 0.00 0.00 0.00 0.00 0.00 0.00 0.71 0.00 0.00 0.00 0.00 0.52 0.00 0.00 0.00 0.00 0.00 0.00 0.00 0.56 0.00 0.00 0.53 0.00 0.00 0.00 0.00 0.69 0.00 0.00 0.00 0.00 0.92 0.85 0.00 0.00 0.00 0.75 0.00 0.00 0.00 0.00 0.00 0.97 0.00 0.00 0.74 0.00 0.97 0.55 0.52 0.00 0.00 0.00 0.00 0.00 0.70 0.00 0.00 0.00 0.76 0.00 0.00 0.00 0.91 0.00 0.00 0.00 0.00 0.52 0.00 0.00 0.85 0.98 0.69 0.00 0.00 0.00 0.00 0.00 0.00 0.00 0.00 0.00 0.83 0.00 0.00 0.00 0.00 0.00 0.00 0.55 0.80 0.00 0.00 0.00 0.00 0.00 0.00 0.00 0.77 0.00 0.00 0.00
0.00 0.00 0.00 0.00 0.00 0.00 0.00 0.00 0.00 0.00 0.00 0.00 0.00 0.00 0.00 0.00 0.00 0.00 0.00 0.00 0.00 0.00 0.53 0.00 0.00 0.00 0.00 0.99 0.00 0.68 0.00 0.75 0.71 0.54 0.00 0.88 0.72 0.00 0.00 0.00 0.00 0.00 0.00 0.00 0.00 0.00 0.00 0.00 0.00 0.00 0.00 0.00 0.00 0.00 0.00 0.00 0.54 0.00 0.66 0.00 0.00 0.98 0.00 0.00 0.00 0.93 0.00 0.58 0.00 0.00 0.00 0.00 0.00 0.00 0.00 0.00 0.00 0.00 0.00 0.00 0.00 0.00 0.00 0.54 0.87 0.00 0.00 0.91 0.00 0.00 0.00 0.00 0.00 0.00 0.00 0.00 0.00 0.00 0.00 0.00 0.00 0.00 0.00 0.73 0.00 0.96 0.00 0.00 0.67 0.57 0.00 0.71 0.61 0.00 0.00 0.00 0.00 0.00 0.00 0.00 0.85 0.00 0.00 0.00 0.87 0.53 0.00 0.00 0.66 0.79 0.88 0.00 0.00 0.00 0.70 0.00 0.00 0.00 0.00 0.94
0.63 0.68 0.91 0.93 0.00 0.00 0.00 0.00 0.00 0.00 0.72 0.00 0.00 0.00 0.00 0.00 0.00 0.00 0.00 0.00 0.53 0.00 0.00 0.00 0.00 0.00 0.00 0.88 0.94 0.00 0.00 0.00 0.00 0.00 0.00 0.93 0.56 0.00 0.00 0.00 0.54 0.00 0.70 0.67 0.00 0.00 0.00 0.66 0.00 0.00 0.00 0.00 0.91 0.00 0.00 0.00 0.61 0.00 0.00 0.00 0.00 0.96 0.00 0.57 0.00 0.00 0.00 0.00 0.00 0.00 0.00 0.00 0.00 0.00 0.00 0.00 0.00 0.00 0.00 0.00 0.00 0.00 0.87 0.00 0.00 0.64 0.00 0.00 0.00 0.55 0.00 0.00 0.00 0.59 0.00 0.00 0.00 0.73 0.76 0.00 0.00 0.00 0.89 0.97 0.00 0.86 0.00 0.00 0.00 0.00 0.00 0.00 0.00 0.00 0.00 0.00 0.00 0.00 0.00 0.00 0.00 0.63 0.54 0.66 0.78 0.74 0.66 0.50 0.00 0.00 0.92 0.00 0.00 0.00 0.00 0.00 0.73 0.00 0.00 0.87
0.00 0.00 0.54 0.00 0.84 0.00 0.00 0.00 0.00 0.00 0.00 0.70 0.00 0.82 0.85 0.93 0.00 0.58 0.00 0.00 0.00 0.00 0.57 0.00 0.00 0.00 0.99 0.86 0.92 0.00 0.93 0.00 0.00 0.65 0.00 0.00 0.00 0.00 0.00 0.75 0.00 0.00 0.00 0.69 0.00 0.00 0.00 0.00 0.78 0.00 0.00 0.00 0.00 0.00 0.00 0.99 0.00 0.00 0.00 0.00 0.00 0.00 0.00 0.00 0.00 0.72 0.00 0.00 0.00 0.87 0.00 0.00 0.00 0.00 0.00 0.63 0.00 0.75 0.00 0.00 0.83 0.00 0.00 0.93 0.78 0.85 0.00 0.00 0.00 0.00 0.00 0.00 1.00 0.70 0.00 0.00 0.00 0.00 0.00 0.00 0.00 1.00 0.00 0.64 0.62 0.00 0.72 0.00 0.00 0.86 0.00 0.00 0.00 0.00 0.00 0.00 0.53 0.00 0.76 0.55 0.00 0.76 0.94 0.60 0.00 0.00 0.00 0.94 0.00 0.60 0.00 0.00 0.00 0.00 0.00 0.00 0.00 0.00 0.00 0.00
0.73 0.95 0.00 0.00 0.00 0.00 0.00 0.00 0.61 0.51 0.58 0.84 0.00 0.80 0.90 0.00 0.00 0.00 0.00 0.00 0.73 0.00 0.82 0.00 0.00 0.00 0.00 0.00 0.00 0.00 0.00 0.00 0.00 0.00 0.53 0.00 0.79 0.00 0.00 0.00 0.00 0.00 0.00 0.00 0.00 0.00 0.00 0.00 0.00 0.00 0.00 0.00 0.00 0.00 0.78 0.00 0.00 0.00 0.00 0.53 0.00 0.00 0.00 0.66 0.00 0.00 0.00 0.00 0.00 0.00 0.00 0.00 0.00 0.00 0.00 0.00 0.00 0.71 0.80 0.00 0.78 0.88 0.83 0.00 0.00 0.00 0.00 0.00 0.00 0.00 0.00 0.00 0.00 0.98 0.00 0.00 0.00 0.00 0.00 0.00 0.00 0.00 0.00 0.00 0.52 0.00 0.00 0.00 0.00 0.00 0.00 0.00 0.00 0.00 0.00 0.00 0.00 0.00 0.00 0.69 0.00 0.54 0.00 0.00 0.00 0.00 0.00 0.00 1.00 0.00 0.75 0.00 0.69 0.00 0.00 0.00 0.71 0.00 0.00 0.00
0.00 0.81 0.00 0.00 0.92 0.71 0.00 0.00 0.00 0.00 0.00 0.70 0.00 0.00 0.00 0.00 0.00 0.00 0.00 0.00 0.00 0.00 0.00 0.00 0.00 0.91 0.00 0.00 0.60 0.00 0.58 0.00 0.00 0.00 0.00 0.00 0.00 0.00 0.00 0.00 0.00 0.00 0.00 0.00 0.00 0.00 0.68 0.66 0.00 0.00 0.97 0.00 0.96 0.81 0.00 0.00 0.68 0.60 0.00 0.00 0.00 0.00 0.00 0.54 0.00 0.88 0.85 0.00 0.00 0.69 0.00 0.00 0.00 0.69 0.00 0.00 0.55 0.00 0.00 0.00 0.00 0.00 0.00 0.00 0.00 0.00 0.00 0.00 0.00 0.91 0.00 0.85 0.00 0.00 0.00 0.00 0.00 0.87 0.00 0.00 0.65 0.00 0.00 0.00 0.95 0.00 0.00 0.00 0.00 0.00 0.00 0.00 0.00 0.00 0.00 0.00 0.00 0.94 0.00 0.00 0.66 0.56 0.00 0.00 0.83 0.00 0.00 0.00 0.74 0.00 0.00 0.00 0.00 0.00 0.71 0.71 0.77 0.00 0.00 0.00
0.00 0.00 0.00 0.00 0.00 0.00 0.00 0.00 0.00 0.00 0.00 0.00 0.00 0.00 0.00 0.00 0.00 0.50 0.00 0.00 0.00 0.00 0.00 0.00 0.00 0.00 0.86 0.00 0.00 0.51 0.00 0.00 0.00 0.00 0.66 0.00 0.00 0.00 0.62 0.00 0.65 0.00 0.00 0.00 0.00 0.00 0.00 0.00 0.00 0.54 0.78 0.80 0.00 0.00 0.00 0.62 0.69 0.00 0.00 0.00 0.00 0.65 0.00 0.00 0.00 0.93 0.00 0.86 0.00 0.79 0.89 0.00 0.00 0.00 0.73 0.00 0.00 0.00 0.00 0.51 0.00 0.00 0.89 0.00 0.98 0.00 0.95 0.51 0.00 0.00 0.00 0.00 0.00 0.00 0.00 0.00 0.00 0.89 0.00 0.00 0.00 0.51 0.00 0.00 0.00 0.00 0.00 0.00 0.00 0.00 0.00 1.00 0.00 0.00 0.00 0.00 0.54 0.00 0.00 0.00 0.00 0.00 0.00 0.00 0.62 0.00 0.00 0.00 0.00 0.00 0.00 0.00 0.62 0.00 0.00 0.00 0.00 0.00 0.00 0.62
0.00 0.56 0.00 0.56 0.00 0.92 0.00 0.00 0.00 0.00 0.00 0.00 0.00 0.00 0.00 0.00 0.66 0.00 0.00 0.00 0.00 0.00 0.00 0.00 0.00 0.00 0.00 0.00 0.00 0.00 0.86 0.92 0.00 0.00 0.00 0.00 0.00 0.87 0.00 0.93 0.00 0.65 0.00 0.00 0.00 0.00 0.00 0.00 0.64 0.64 0.00 0.00 0.00 0.00 0.00 0.00 0.00 0.00 0.00 0.00 0.00 0.00 0.00 0.53 0.00 0.00 0.00 0.00 0.00 0.00 0.00 0.00 0.00 0.00 0.00 0.00 0.00 0.63 0.80 0.54 0.00 0.95 0.00 0.00 0.00 0.00 0.00 0.00 0.87 0.52 0.00 0.00 0.66 0.00 0.00 0.00 0.00 0.00 0.00 0.52 0.00 0.78 0.00 0.00 0.00 0.00 0.00 0.94 0.00 0.00 0.00 0.00 0.00 0.00 0.00 0.00 0.00 0.00 0.00 0.00 0.00 0.00 0.00 0.00 0.00 0.00 0.00 0.00 0.93 0.00 0.00 0.00 0.76 0.70 0.61 0.98 0.00 0.00 0.00 0.74
0.00 0.54 0.00 0.00 0.00 0.00 0.00 0.00 0.00 0.00 0.53 0.00 0.93 0.00 0.00 0.00 0.61 0.78 0.00 0.72 0.66 0.00 0.00 0.89 0.00 0.00 0.00 0.70 0.00 0.00 0.73 0.00 0.00 0.00 0.00 0.00 0.00 0.65 0.00 0.00 0.00 0.00 0.62 0.00 0.00 0.00 0.00 0.00 0.00 0.00 0.92 0.54 0.00 1.00 0.00 0.80 0.62 0.00 0.00 0.95 0.00 0.00 0.00 0.00 0.00 0.00 0.00 0.00 0.68 0.56 0.52 0.00 0.00 0.93 0.88 0.00 0.00 0.00 0.00 0.72 0.91 0.95 0.00 0.00 0.62 0.00 0.00 0.00 0.00 0.00 0.00 0.00 0.00 0.00 0.00 0.00 0.00 0.00 0.00 0.00 0.00 0.00 0.00 0.00 0.00 0.00 0.00 0.00 0.94 0.00 0.93 0.00 0.98 0.74 0.00 0.00 0.00 0.00 0.00 0.94 0.68 0.00 0.00 0.00 0.00 0.00 0.00 0.96 0.00 0.00 0.00 0.95 0.00 0.00 0.80 0.74 0.00 0.00 0.00 0.00
0.00 0.00 0.69 0.81 0.76 0.54 0.00 0.62 0.00 0.00 0.00 0.00 0.00 0.00 0.00 0.00 0.00 0.67 0.00 0.65 0.94 0.00 0.00 0.00 0.84 0.00 0.78 0.00 0.00 0.00 0.00 0.00 0.00 0.00 0.00 0.00 0.00 0.00 0.00 0.00 0.00 0.51 0.00 0.00 0.61 0.00 0.00 0.00 0.78 0.00 0.97 0.00 0.74 0.00 0.00 0.00 0.80 0.00 0.65 0.00 0.00 0.94 0.00 0.00 0.73 0.00 0.00 0.00 0.66 0.76 0.90 0.00 0.00 0.00 0.00 0.00 0.00 0.00 0.00 0.00 0.76 0.00 0.00 0.98 0.00 0.00 0.63 0.00 0.00 0.71 0.00 0.00 0.00 0.00 0.00 0.00 0.74 0.58 0.00 0.00 0.00 0.00 0.00 0.00 0.00 0.00 0.00 0.00 0.00 0.00 0.00 0.00 0.51 0.00 0.00 0.00 0.00 0.59 0.00 0.00 0.00 0.00 0.00 0.00 0.00 0.74 0.00 0.00 0.00 0.00 0.75 0.00 0.57 0.99 0.53 0.00 0.00 0.94 0.00 0.00
0.00 0.00 0.00 0.00 0.00 0.78 0.00 0.00 0.00 0.00 0.00 0.00 0.94 0.84 0.00 0.83 0.00 0.00 0.00 0.00 0.00 0.00 0.78 0.00 0.00 0.00 0.00 0.96 0.00 0.00 0.00 0.00 0.00 0.00 0.00 0.00 0.00 0.00 0.00 0.66 0.00 0.00 0.00 0.96 0.00 0.00 0.00 0.00 0.52 0.00 0.00 0.00 0.00 0.00 0.00 0.00 0.00 0.00 0.00 0.80 0.00 0.00 0.91 0.00 0.00 0.00 0.00 0.67 0.00 0.55 0.00 0.00 0.00 0.00 0.65 0.00 0.00 0.00 0.00 0.00 0.00 0.96 0.00 0.00 0.00 0.00 0.00 0.00 0.91 0.00 0.70 0.63 0.00 0.65 0.00 0.00 0.00 0.00 0.00 0.96 0.00 0.98 0.97 0.00 0.00 0.00 0.00 0.57 0.83 0.00 0.00 0.00 0.00 0.00 0.76 0.00 0.00 0.00 0.00 0.00 0.00 0.00 0.00 0.93 0.00 0.00 0.00 0.69 0.00 0.00 0.00 0.00 0.00 0.00 0.00 0.56 0.00 0.00 0.00 0.65
0.87 0.58 0.00 0.00 0.00 0.00 0.78 0.00 0.00 0.00 0.00 0.00 0.00 0.51 0.00 0.88 0.65 0.00 0.00 0.00 0.00 0.00 0.00 0.00 0.00 0.97 0.00 0.00 0.00 0.00 0.69 0.00 0.70 0.00 0.00 0.00 0.00 0.00 0.00 0.93 0.00 0.00 0.00 0.00 0.51 0.00 0.00 0.00 0.00 0.00 0.79 0.00 0.00 0.00 0.77 0.94 0.00 0.00 0.00 0.86 0.00 0.00 0.00 0.00 0.00 0.90 0.00 0.00 0.00 0.00 0.00 0.00 0.65 0.00 0.00 0.81 0.62 0.00 0.72 0.56 0.00 0.00 0.00 0.00 0.00 0.76 0.00 0.00 0.97 0.00 0.00 0.00 0.00 0.00 0.00 0.00 0.00 0.00 0.86 0.00 0.89 0.00 0.00 0.00 0.00 0.00 0.00 0.89 0.99 0.74 0.00 0.68 0.00 0.84 0.00 0.00 0.00 0.00 0.00 0.87 0.00 0.00 0.00 0.87 0.00 0.00 0.00 0.00 0.00 0.00 0.00 0.00 0.82 0.88 0.00 0.61 0.00 0.00 0.53 0.80
0.00 0.62 0.00 0.77 0.56 0.00 0.00 0.00 0.73 0.78 0.84 0.75 0.00 0.59 0.00 0.00 0.83 0.00 0.78 0.84 0.00 0.95 0.00 0.00 0.00 0.00 0.92 0.00 0.00 0.00 0.00 0.00 0.00 0.64 0.90 0.00 0.84 0.00 0.00 0.77 0.00 0.00 0.00 0.00 0.00 0.87 0.00 0.00 0.72 0.00 0.00 0.00 0.71 0.00 0.00 0.00 0.85 0.00 0.00 0.00 0.00 0.85 0.00 0.00 0.00 0.72 0.00 0.00 0.55 0.00 0.00 0.00 0.00 0.00 0.00 0.00 0.00 0.97 0.92 0.98 0.00 0.63 0.00 0.00 0.00 0.00 0.55 0.90 0.88 0.99 0.00 0.00 0.00 0.00 0.00 0.00 0.00 0.94 0.00 0.00 0.55 0.75 0.92 0.00 0.00 0.00 0.00 0.00 0.00 0.00 0.00 0.00 0.00 0.79 0.00 0.00 0.00 0.00 0.00 0.00 0.00 0.00 0.00 0.00 0.00 0.00 0.00 0.00 0.98 0.00 0.00 0.00 0.00 0.00 0.00 0.85 0.75 0.52 0.00 0.00
0.00 0.00 0.00 0.97 0.85 0.00 0.00 0.00 0.00 0.00 0.00 0.98 0.00 0.00 0.00 0.92 0.90 0.00 0.00 0.00 0.00 0.00 0.00 0.00 0.00 0.00 0.00 0.00 0.00 0.00 0.00 0.00 0.00 0.00 0.00 0.00 0.78 0.63 0.89 0.00 0.00 0.00 0.00 0.97 0.00 0.00 0.00 0.00 0.00 0.00 0.00 0.00 0.00 0.00 0.92 0.00 0.00 0.00 0.56 0.00 0.69 0.86 0.00 0.00 0.00 0.00 0.00 0.51 0.00 0.00 0.00 0.78 0.00 0.97 0.74 0.00 0.00 0.00 0.00 0.00 0.90 0.00 0.00 0.00 0.00 0.66 0.69 0.00 0.82 0.00 0.64 0.00 0.00 0.00 0.00 0.00 0.00 0.00 0.00 0.85 0.00 0.66 0.00 0.00 0.70 0.68 0.00 0.00 0.00 0.91 0.00 0.00 0.00 0.00 0.54 0.00 0.00 0.00 0.00 0.00 0.00 0.00 0.00 0.83 0.00 0.00 0.00 0.00 0.00 0.56 0.00 0.00 0.00 0.00 0.00 0.00 0.00 0.96 0.00 0.00
0.00 0.00 0.00 0.00 0.00 0.00 0.00 0.00 0.00 0.84 0.00 0.00 0.00 0.00 0.00 0.00 0.00 0.77 0.00 0.00 0.00 0.99 0.00 0.79 0.00 0.00 0.00 0.00 0.00 0.69 0.00 0.00 0.00 0.00 0.00 0.00 0.00 0.00 0.84 0.00 0.82 0.57 0.00 0.00 0.00 0.00 0.00 0.00 0.00 0.80 0.00 0.00 0.70 0.00 0.55 0.00 0.71 0.00 0.00 0.00 0.00 0.00 0.00 0.00 0.00 0.00 0.00 0.00 0.00 0.69 0.00 0.59 0.00 0.00 0.00 0.00 0.00 0.00 0.00 0.00 0.00 0.00 0.00 0.00 0.00 0.00 0.00 0.00 0.00 0.00 0.00 0.71 0.00 0.93 0.77 0.63 0.00 0.00 0.00 0.00 0.00 0.79 0.00 0.00 0.91 0.00 0.00 0.00 0.00 0.00 0.00 0.00 0.00 0.00 0.00 0.00 0.00 0.00 0.00 0.00 0.00 0.00 0.71 0.00 0.00 0.00 0.89 0.74 0.94 0.00 0.00 0.00 0.99 0.00 0.00 0.83 0.82 0.00 0.90 0.96
0.57 0.00 1.00 0.00 0.00 0.00 0.00 0.00 0.00 0.00 0.00 0.00 0.00 0.00 0.00 0.76 0.00 0.75 0.00 0.67 0.94 0.00 0.00 0.85 0.00 0.90 0.00 0.00 0.00 0.69 0.55 0.00 0.00 0.00 0.00 0.78 0.00 0.00 0.00 0.00 0.00 0.84 0.00 0.00 0.00 0.64 0.00 0.65 0.00 0.00 0.00 0.00 0.00 0.84 0.00 0.00 0.00 0.64 0.00 0.00 0.00 0.00 0.00 0.00 0.00 0.66 0.00 0.00 0.00 0.78 0.00 0.00 0.73 0.00 0.00 0.00 0.00 0.00 0.00 0.00 0.73 0.00 0.00 0.00 0.00 0.00 0.00 0.67 0.00 0.71 0.00 0.00 0.00 0.00 0.00 0.77 0.00 0.73 0.00 0.58 0.00 0.00 0.00 0.00 0.00 0.75 0.00 0.00 0.00 0.00 0.00 0.00 0.97 0.00 0.55 0.00 0.00 0.00 0.00 0.00 0.00 0.00 0.00 0.00 0.00 0.00 0.00 0.00 0.00 0.00 0.00 0.00 0.67 0.00 0.00 0.00 0.00 0.65 0.00 0.00
0.73 0.00 0.73 0.73 0.66 0.00 0.00 0.00 0.71 0.00 0.00 0.00 0.00 0.00 0.00 0.00 0.00 0.00 0.69 0.00 0.00 0.00 0.00 0.00 0.87 0.62 0.00 0.00 0.58 0.00 0.64 0.62 0.00 0.00 0.00 0.00 0.00 0.00 0.00 0.00 0.00 0.00 0.61 0.00 0.00 0.51 0.00 0.00 0.00 0.00 0.00 0.00 0.00 0.00 0.56 0.00 0.89 0.00 0.00 0.00 0.00 0.00 0.00 0.00 0.00 0.68 0.00 0.55 0.00 0.77 0.71 0.00 0.57 0.00 0.00 0.00 0.00 0.00 0.69 0.00 0.00 0.00 0.00 0.00 0.00 0.00 0.00 0.00 0.00 0.00 0.00 0.00 0.00 0.00 0.58 0.00 0.55 0.00 0.00 0.55 0.00 0.00 0.00 0.00 0.00 0.00 0.00 0.00 0.00 0.00 0.00 0.00 0.00 0.00 0.00 0.00 0.00 0.55 0.00 0.00 0.00 0.95 0.00 0.00 0.00 0.00 0.53 0.00 0.60 0.00 0.00 0.00 0.00 0.00 0.00 0.00 0.00 0.00 0.00 0.66
0.00 0.00 0.00 0.51 0.00 0.00 0.00 0.00 0.00 0.00 0.00 0.00 0.93 0.00 0.00 0.00 0.00 0.00 0.69 0.00 0.00 0.61 0.00 0.00 0.00 0.00 0.00 0.00 0.68 0.00 0.00 0.00 0.00 0.00 0.00 0.51 0.00 0.58 0.00 0.50 0.74 0.00 0.00 0.00 0.00 0.00 0.92 0.79 0.00 0.96 0.85 0.00 0.62 0.91 0.00 0.00 0.00 0.00 0.59 0.00 0.55 0.00 0.00 0.84 0.00 0.00 0.80 0.50 0.00 0.00 0.00 0.00 0.00 0.00 0.00 0.64 0.00 0.94 0.00 0.00 1.00 0.00 0.00 0.00 0.00 0.00 0.00 0.00 0.00 0.00 0.91 0.00 0.55 0.58 0.87 0.00 0.91 0.95 0.00 0.00 0.00 0.00 0.00 0.00 0.00 0.68 0.00 0.00 0.00 0.00 0.00 0.00 0.00 0.78 0.00 0.00 0.00 0.56 0.72 0.00 0.00 0.97 0.95 0.00 0.00 0.00 0.00 0.00 0.86 0.71 0.00 0.00 0.00 0.00 0.00 0.00 0.00 0.00 0.00 0.00
0.00 0.67 0.65 0.00 0.00 0.00 0.00 0.00 0.00 0.00 0.86 0.63 0.00 0.00 0.00 0.00 0.00 0.00 0.00 0.00 0.66 0.00 0.58 0.00 0.00 0.00 0.00 0.91 0.00 0.00 0.00 0.80 0.00 0.00 0.00 0.00 0.00 0.00 0.00 0.00 0.00 0.00 0.84 0.00 0.00 0.00 0.00 0.00 0.00 0.00 0.89 0.00 0.79 0.00 0.62 0.00 0.00 0.00 0.80 0.00 0.00 0.00 0.00 0.00 0.00 0.00 0.00 0.77 0.00 0.00 0.00 0.84 0.00 0.00 0.50 0.81 0.00 0.00 0.00 0.00 0.00 0.00 0.00 0.00 0.00 0.00 0.00 0.95 0.00 0.72 0.00 0.00 0.00 0.79 0.00 0.84 0.00 0.90 0.89 0.00 0.70 0.00 0.00 0.00 0.58 0.00 0.00 0.00 0.00 0.00 0.88 0.00 0.00 0.00 0.00 0.00 0.00 0.00 0.00 0.00 0.00 0.00 0.65 0.00 0.73 0.00 0.00 0.85 0.00 0.76 0.80 0.62 0.00 0.00 0.00 0.00 0.54 0.00 0.84 0.00
0.63 0.51 0.00 0.00 0.00 0.00 0.00 0.00 0.00 0.00 0.00 0.61 0.00 0.00 0.00 0.00 0.00 0.76 0.00 0.00 0.93 0.00 0.00 0.00 0.00 0.89 0.00 0.00 0.00 0.00 0.00 0.00 0.00 0.00 0.00 0.00 0.00 0.00 0.66 0.00 0.68 0.00 0.52 0.00 0.00 0.77 0.00 0.00 0.00 0.67 0.00 0.00 0.00 0.00 0.00 0.85 0.00 0.74 0.00 0.84 0.00 0.82 0.00 0.00 0.00 0.80 0.00 0.00 0.00 0.00 0.00 0.00 0.00 0.00 0.98 0.00 0.00 0.72 0.00 0.00 0.00 0.00 0.70 0.00 0.00 0.00 0.87 0.61 0.00 0.57 0.00 0.00 0.00 0.00 0.00 0.54 0.00 0.00 0.98 0.00 0.00 0.00 0.00 0.71 0.00 0.58 0.85 0.00 0.86 0.00 0.00 0.00 0.00 0.00 0.59 0.00 0.00 0.00 0.00 0.53 0.00 0.92 0.52 0.84 0.00 0.00 0.00 0.69 0.00 0.00 0.00 0.00 0.00 0.00 0.00 0.81 0.00 0.00 0.00 0.00
0.50 0.00 0.00 0.00 0.00 0.00 0.00 0.83 0.00 0.00 0.00 0.00 0.00 0.00 0.00 0.00 0.00 0.00 0.00 0.77 0.00 0.00 0.00 0.00 0.82 0.00 0.00 0.00 0.00 0.00 0.00 0.00 0.00 0.00 0.00 0.00 0.00 0.00 0.00 0.00 0.86 0.00 0.00 0.00 0.00 0.83 0.00 0.00 0.00 0.86 0.92 0.00 0.00 0.00 0.00 0.00 0.00 0.00 0.00 0.00 0.00 0.61 0.00 0.00 0.00 0.00 0.75 0.65 0.00 0.00 0.00 0.92 0.00 0.69 0.00 0.93 0.00 0.00 0.90 0.00 0.74 0.00 0.00 0.54 0.00 0.64 0.00 0.55 0.00 0.00 0.00 1.00 0.54 0.00 0.00 0.00 0.00 0.00 0.00 0.00 0.00 0.00 0.00 0.00 0.74 0.00 0.00 0.00 0.99 0.00 0.69 0.71 0.00 0.00 0.00 0.00 0.00 0.00 0.00 0.00 0.00 0.00 0.57 0.00 0.00 0.00 0.00 0.00 0.00 0.00 0.85 0.80 0.00 0.67 0.00 0.77 0.00 0.00 0.00 0.00
0.00 0.00 0.71 0.00 0.00 0.00 0.85 0.60 0.00 0.00 0.00 0.57 0.00 0.00 0.00 0.00 0.80 0.00 0.00 0.00 0.00 0.00 0.00 0.00 0.75 0.00 0.77 0.00 0.00 0.00 0.95 0.00 0.00 0.00 0.00 0.00 0.00 0.00 0.00 0.00 0.00 0.00 0.00 0.71 0.00 0.00 0.00 0.00 0.00 0.00 0.00 0.00 0.00 0.97 0.00 0.55 0.00 0.00 0.85 0.69 0.99 0.51 0.00 0.74 0.00 0.00 0.00 0.00 0.92 0.00 0.00 0.67 0.00 0.00 0.70 0.88 0.00 0.00 0.00 0.00 0.00 0.00 0.00 0.00 0.91 0.00 0.53 0.00 0.00 0.00 0.52 0.00 0.58 0.00 0.00 0.00 0.00 0.00 0.00 0.00 0.00 0.84 0.00 0.00 0.57 0.00 0.00 0.00 0.00 0.00 0.85 0.00 0.00 0.00 0.00 0.00 0.00 0.53 0.00 0.00 0.00 0.00 0.00 0.00 0.00 0.00 0.00 0.00 0.00 0.00 0.00 0.00 0.00 0.00 0.00 0.66 0.00 0.00 0.00 0.96
0.00 0.00 0.00 0.56 0.00 0.00 0.00 0.68 0.00 0.86 0.87 0.86 0.95 0.00 0.00 0.00 0.00 0.82 0.00 0.00 0.00 0.00 0.00 0.00 0.00 0.00 0.73 0.00 0.00 0.00 0.94 0.00 0.00 0.00 0.00 0.00 0.62 0.00 0.00 0.00 0.00 0.00 0.00 0.00 0.69 0.00 0.00 0.86 0.00 0.85 0.00 0.00 0.00 0.00 0.00 0.00 0.00 0.00 0.00 0.00 0.82 0.00 0.00 0.92 0.00 0.00 0.00 0.00 0.00 0.78 0.00 0.00 0.00 0.86 0.00 0.00 0.00 0.00 0.87 0.77 0.00 0.00 0.00 0.00 0.00 0.64 0.00 0.94 0.00 0.00 0.67 0.00 0.60 0.00 0.00 0.00 0.00 0.86 0.00 0.00 0.00 0.00 0.95 0.00 0.72 0.00 0.00 0.00 0.00 0.00 0.00 0.00 0.00 0.00 0.00 0.00 0.00 0.00 0.51 0.00 0.00 0.57 0.00 0.00 0.74 0.00 0.00 0.00 0.75 0.00 0.00 0.82 0.00 0.53 1.00 0.00 0.00 0.80 0.00 0.00
0.00 0.00 0.00 0.00 0.93 0.00 0.00 0.00 0.00 0.00 0.68 0.00 0.56 0.75 0.00 0.00 0.00 0.00 0.00 0.00 0.00 0.57 0.00 0.00 0.91 0.00 0.84 0.83 0.51 0.00 0.84 0.61 0.00 0.98 0.00 0.00 0.00 0.73 0.00 0.00 0.00 0.00 0.00 0.00 0.00 0.00 0.00 0.00 0.00 0.00 0.00 0.00 0.00 0.81 0.00 0.00 0.00 0.62 0.87 0.00 0.70 0.98 0.71 0.81 0.00 0.61 0.00 0.00 0.78 0.00 0.00 0.71 0.00 0.00 0.94 0.00 0.63 0.86 0.00 0.00 0.85 0.00 0.00 0.00 0.61 0.00 0.66 0.00 0.00 0.00 0.00 0.00 0.00 0.00 0.00 0.57 0.00 0.00 0.00 0.00 0.00 0.00 0.67 0.00 0.00 0.52 0.00 0.00 0.00 0.58 0.95 0.96 0.98 0.00 0.00 0.00 0.00 0.00 0.00 0.83 0.00 0.75 0.60 0.00 0.00 0.54 0.00 0.00 0.90 0.00 0.00 0.70 0.00 0.00 0.00 0.00 0.00 0.00 0.00 0.00
0.00 0.00 0.00 0.00 0.00 0.00 0.00 0.66 0.00 0.00 0.00 0.00 0.00 0.00 0.00 0.95 0.64 0.00 0.00 0.00 0.00 0.00 0.83 0.00 0.00 0.00 0.97 0.00 0.57 0.00 0.00 0.00 0.00 0.00 0.62 0.00 0.00 0.99 0.00 0.58 0.50 0.00 0.85 0.00 0.00 0.00 0.57 0.00 0.00 0.00 0.00 0.00 0.00 0.53 0.00 0.97 0.56 0.00 0.00 0.58 0.00 0.00 0.77 0.97 0.00 0.00 0.00 0.00 0.65 0.00 0.00 0.98 0.00 0.98 0.00 0.97 0.85 0.00 0.00 0.00 0.74 0.00 0.00 0.00 0.00 0.00 0.57 0.00 0.64 0.00 0.68 0.00 0.00 0.63 0.00 0.00 0.00 0.00 0.00 0.00 0.00 0.00 0.00 0.81 0.00 0.00 0.00 0.00 0.73 0.00 0.77 0.00 0.70 0.00 0.00 0.63 0.00 0.00 0.00 0.00 0.00 0.00 0.00 0.00 0.00 0.00 0.68 0.00 1.00 0.58 0.00 0.00 0.72 0.00 0.00 0.84 0.00 0.00 0.00 0.00
0.00 0.00 0.73 0.00 0.00 0.00 0.00 0.00 0.00 0.00 0.00 0.00 0.83 0.00 0.00 0.00 0.00 0.00 0.71 0.00 0.00 0.00 0.00 0.00 0.00 0.00 0.00 0.78 0.00 0.00 0.00 0.00 0.00 0.00 0.00 0.00 0.00 0.00 0.52 0.00 0.00 0.00 0.00 0.00 0.00 0.00 0.83 0.00 0.64 0.00 0.89 0.70 0.00 0.00 0.00 0.00 0.00 0.00 0.90 0.00 0.00 0.00 0.00 0.51 0.00 0.79 0.00 0.57 0.00 0.00 0.00 0.00 0.00 0.00 0.00 0.00 0.95 0.00 0.00 0.00 0.00 0.00 0.00 0.00 0.00 0.74 0.65 0.00 0.00 0.00 0.00 0.00 0.74 0.00 0.00 0.00 0.00 0.00 0.00 0.00 0.73 0.00 0.00 0.00 0.00 0.00 0.66 0.00 0.00 0.00 0.73 0.00 0.89 0.00 0.00 0.00 0.00 0.69 0.00 0.98 0.50 0.84 0.00 0.00 0.00 0.00 0.00 0.00 0.00 0.87 0.00 0.00 0.00 0.00 0.00 0.00 0.99 0.00 0.00 0.00
0.00 0.00 0.00 0.00 0.00 0.00 0.00 0.00 0.00 0.00 0.51 0.00 0.00 0.00 0.94 0.53 0.00 0.00 0.00 0.00 0.00 0.00 0.51 0.78 0.73 0.00 0.00 0.00 0.00 0.61 0.00 0.00 0.67 0.00 0.00 0.00 0.00 0.63 0.60 0.64 0.00 0.00 0.00 0.00 0.00 0.00 0.00 0.00 0.00 0.00 0.00 0.00 0.00 0.77 0.00 0.00 0.00 0.75 0.00 0.00 0.00 0.00 0.71 0.00 0.00 0.00 0.00 0.00 0.00 0.00 0.64 0.87 0.00 0.75 0.00 0.00 0.00 0.00 0.00 0.00 0.00 0.00 0.95 0.00 0.00 0.00 0.00 0.00 0.00 0.00 0.88 0.00 0.00 0.00 0.00 0.00 0.83 0.73 0.00 0.00 0.00 0.00 0.00 0.00 0.00 0.00 0.00 0.99 0.00 0.00 0.00 0.00 0.52 0.00 0.00 0.95 0.00 0.00 0.97 0.00 0.00 0.00 0.00 0.91 0.00 0.00 0.00 0.00 0.93 0.00 0.88 0.00 0.58 0.75 0.00 0.00 0.00 0.53 0.00 0.97
0.82 0.65 0.55 0.00 0.00 0.00 0.00 0.00 0.00 0.00 0.00 0.86 0.00 0.00 0.00 0.00 0.88 0.00 0.00 0.00 0.78 0.66 0.00 0.00 0.00 0.00 0.00 0.00 0.00 0.00 0.00 0.00 0.97 0.91 0.00 0.00 0.00 0.00 0.00 0.00 0.00 0.62 0.85 0.00 0.00 0.00 0.00 0.00 0.71 0.00 0.57 0.60 0.00 0.00 0.00 0.00 0.00 0.00 0.61 0.00 0.00 0.59 0.81 0.00 0.00 0.95 0.00 0.00 0.00 0.91 0.00 0.00 0.00 0.00 0.90 0.84 0.00 0.00 0.00 0.00 0.00 0.00 0.00 0.89 0.86 0.00 0.00 0.00 0.00 0.00 0.00 0.00 0.86 0.00 0.00 0.00 0.00 0.00 0.97 0.00 0.00 0.00 0.85 0.66 0.00 0.00 0.00 0.00 0.00 0.57 0.00 0.88 0.00 0.00 0.00 0.00 0.00 0.00 0.00 0.67 0.00 0.00 0.00 0.00 0.00 0.00 0.00 0.56 0.00 0.87 0.00 0.00 0.00 0.71 0.00 0.00 0.98 0.00 0.00 0.58
0.99 0.74 0.00 0.00 0.67 0.00 0.00 0.00 0.83 0.00 0.00 0.00 0.00 0.00 0.96 0.00 0.00 0.00 0.00 0.00 0.00 0.00 0.00 0.00 0.93 0.00 0.00 0.00 0.00 0.00 0.00 0.00 0.00 0.00 0.00 0.95 0.00 0.00 0.00 0.68 0.00 0.00 0.00 0.90 0.00 0.00 0.67 0.00 0.00 0.00 0.00 0.00 0.00 0.00 0.00 0.00 0.00 0.96 0.00 0.00 0.00 0.00 0.00 0.00 0.00 0.50 0.72 0.71 0.00 0.00 0.75 0.97 0.00 0.92 0.00 0.00 0.00 0.59 0.80 0.51 0.00 0.00 0.00 0.00 0.69 0.00 0.00 0.62 0.00 0.00 0.00 0.82 0.00 0.00 0.00 0.00 0.00 0.00 0.00 0.65 0.00 0.86 0.00 0.00 0.00 0.00 0.00 0.00 0.00 0.00 0.00 0.00 0.00 0.00 0.00 0.00 0.67 0.00 0.00 0.00 0.00 0.00 0.00 0.00 0.00 0.00 0.51 0.00 0.00 0.00 0.00 0.00 0.00 0.00 0.00 0.00 0.00 0.00 0.65 0.50
0.00 0.98 0.00 0.00 0.84 0.92 0.79 0.00 0.65 0.69 0.00 0.76 0.00 0.00 0.00 0.00 0.65 0.00 0.00 0.00 0.00 0.00 0.00 0.00 0.00 0.00 0.00 0.57 0.84 0.00 0.00 0.00 0.00 0.84 0.00 0.00 0.00 0.61 0.53 0.00 0.00 0.00 0.00 0.00 0.00 0.00 0.98 0.00 0.00 0.00 0.00 0.00 0.68 0.00 0.61 0.00 0.73 0.00 0.68 0.00 0.00 0.00 0.56 0.00 0.00 0.00 0.97 0.72 0.00 0.00 0.00 0.00 0.00 0.53 0.00 0.00 0.00 0.00 0.00 0.00 0.74 0.00 0.00 0.00 0.00 0.00 0.00 0.00 0.00 0.95 0.81 0.00 0.90 0.69 0.00 0.00 0.00 0.59 0.00 0.00 0.00 0.00 0.00 0.85 0.00 0.00 0.00 0.84 0.00 0.00 0.00 0.00 0.83 0.00 0.00 0.00 0.00 0.00 0.00 0.00 0.00 0.00 0.00 0.00 0.00 0.00 0.00 0.00 0.00 0.00 0.55 0.00 0.00 0.00 0.53 0.00 0.81 0.00 0.74 0.86
0.00 0.58 0.00 0.00 0.51 0.77 0.79 0.00 0.72 0.00 0.00 0.96 0.63 0.00 0.00 0.00 0.00 0.00 0.00 0.00 0.00 0.00 0.00 0.00 0.00 0.00 0.00 0.00 0.00 0.00 0.00 0.81 0.95 0.00 0.00 0.00 0.76 0.55 0.52 0.59 0.52 0.00 0.00 0.00 0.00 0.00 0.00 0.00 0.00 0.00 0.00 0.00 0.00 0.00 0.00 0.00 0.67 0.00 0.00 0.74 0.57 0.00 0.78 0.00 0.00 0.74 0.00 0.00 0.00 0.00 0.00 0.00 0.93 0.93 0.00 0.70 0.89 0.74 0.60 0.84 0.00 0.00 0.00 0.94 0.00 0.84 0.00 0.00 0.00 1.00 0.00 0.00 0.00 0.00 0.00 0.00 0.00 0.00 0.00 0.00 0.00 0.00 0.00 0.00 0.00 0.94 0.00 0.00 0.00 0.00 0.00 0.00 0.00 0.00 0.00 0.00 0.00 0.00 0.00 0.00 0.00 0.00 0.00 0.00 0.00 0.00 0.00 0.71 0.00 0.00 0.00 0.00 0.00 0.00 0.00 0.97 0.00 0.00 0.85 0.62
0.00 0.00 0.52 0.58 0.00 0.00 0.55 0.00 0.91 0.00 0.00 0.00 0.00 0.00 0.00 0.00 0.71 0.54 0.00 0.00 0.00 0.74 0.00 0.75 0.00 0.00 0.00 0.77 0.00 0.00 0.67 0.00 0.88 0.00 0.00 0.79 0.88 0.54 0.00 0.00 0.00 0.00 0.00 0.00 0.00 0.00 0.00 0.00 0.96 0.00 0.00 0.00 0.00 0.00 0.00 0.00 0.00 0.00 0.00 0.00 0.00 0.00 0.84 0.00 0.70 0.00 0.00 0.98 0.00 0.68 0.00 0.00 0.00 0.00 0.00 0.00 0.00 0.91 0.00 0.00 0.00 0.66 0.00 0.00 0.00 0.00 0.00 0.00 0.00 0.00 0.00 0.00 0.84 0.00 0.00 0.00 0.64 0.00 0.73 0.00 0.93 0.00 0.00 0.00 0.00 0.00 0.00 0.00 0.00 0.00 0.91 0.00 0.00 0.00 0.72 0.00 0.00 0.00 0.00 0.74 0.00 0.00 0.00 0.00 0.00 0.69 0.57 0.00 0.00 0.90 0.00 0.66 0.85 0.00 0.83 0.78 0.00 0.00 0.00 0.00
0.00 0.00 0.00 0.00 0.00 0.00 0.84 0.00 0.00 0.84 0.77 0.00 0.00 0.00 0.50 0.00 0.00 0.00 0.54 0.92 0.00 0.00 0.00 0.00 0.00 0.63 0.86 0.00 0.00 0.00 0.00 0.00 0.76 0.00 0.00 0.00 0.00 0.00 0.00 0.00 0.80 0.52 0.00 0.00 0.00 0.00 0.98 0.00 0.00 0.57 0.00 0.00 0.52 0.66 0.00 0.00 0.92 0.86 0.00 0.00 0.00 0.00 0.00 0.00 0.00 0.00 0.81 0.00 0.00 0.00 0.00 0.00 0.79 0.00 0.00 0.00 0.00 0.00 0.93 0.00 0.00 0.00 0.58 0.00 0.00 0.00 0.00 0.00 0.82 0.00 0.00 0.70 0.00 0.00 0.00 0.00 0.68 0.82 0.00 0.00 0.53 0.00 0.00 0.94 0.00 0.00 0.84 0.00 0.00 0.00 0.82 0.00 0.00 0.00 0.00 0.00 0.00 0.00 0.00 0.00 0.00 0.00 0.00 0.00 0.88 0.00 0.70 0.00 0.00 0.00 0.00 0.00 0.00 0.00 0.89 0.00 0.50 0.00 0.00 0.00
0.00 0.00 0.00 0.00 0.00 0.00 0.00 0.00 0.88 0.00 0.50 0.00 0.90 0.00 0.00 0.00 0.00 0.00 0.91 0.00 0.55 0.55 0.00 0.63 0.00 0.00 0.00 0.00 0.00 0.74 0.00 0.00 0.00 0.00 0.00 0.00 0.00 0.00 0.00 0.85 0.00 0.00 0.00 0.00 0.00 0.00 0.98 0.00 0.66 0.00 0.00 0.75 0.76 0.00 0.00 0.00 0.00 0.87 0.00 0.00 0.00 0.00 0.68 0.00 0.00 0.00 0.00 0.00 0.00 0.00 0.62 0.00 0.00 0.69 0.00 0.00 0.00 0.00 0.00 0.79 0.00 0.00 0.00 0.00 0.00 0.00 0.00 0.00 0.00 0.00 0.00 0.00 0.00 0.00 0.84 0.00 0.00 0.00 0.65 0.00 0.00 0.00 0.00 0.00 0.00 0.84 0.99 0.00 0.00 0.00 0.00 0.00 0.00 0.00 0.00 0.00 0.00 0.00 0.98 0.00 0.00 0.00 0.00 0.00 0.00 0.00 0.00 0.00 0.95 0.00 0.00 0.74 0.00 0.00 0.00 0.00 0.00 0.00 0.00 0.00
0.00 0.61 0.00 0.76 0.00 0.00 0.54 0.63 0.00 0.00 0.00 0.00 0.00 0.00 0.66 0.00 0.00 0.00 0.00 0.00 0.00 0.89 0.00 0.00 0.98 0.00 0.00 0.00 0.94 0.00 0.00 0.00 0.00 0.75 0.00 0.52 0.65 0.00 0.00 0.72 0.00 0.00 0.00 0.00 0.00 0.00 0.00 0.00 0.00 0.00 0.00 0.00 0.00 0.82 0.00 0.00 0.00 0.90 0.00 0.00 0.91 0.00 0.00 0.00 0.00 0.00 0.90 0.00 0.00 0.75 0.00 0.96 0.00 0.60 0.74 0.00 0.00 0.00 0.00 0.92 0.00 0.55 0.00 0.00 0.00 0.00 0.00 0.00 0.90 0.00 0.00 0.00 0.00 0.00 0.00 0.00 0.75 0.00 0.73 0.00 0.00 0.68 0.00 0.00 0.00 0.00 0.00 0.00 0.00 0.79 0.54 0.71 0.00 0.00 0.00 0.00 0.00 0.00 0.00 0.00 0.00 0.00 0.00 0.92 0.00 0.00 0.00 0.00 0.00 0.97 0.00 0.52 0.00 0.00 0.88 0.00 0.00 0.00 0.00 0.00
0.61 0.00 0.00 0.00 0.00 0.68 0.00 0.00 0.00 0.00 0.00 0.00 0.00 0.00 0.00 0.78 0.00 0.67 0.00 0.00 0.00 0.98 0.00 0.00 0.00 0.00 0.75 0.00 0.65 0.00 0.00 0.00 0.00 0.52 0.00 0.82 0.73 0.53 0.00 0.00 0.82 0.00 0.00 0.00 0.68 0.00 0.81 0.00 0.00 0.60 0.00 0.62 0.61 0.00 0.00 0.63 0.62 0.00 0.00 0.00 0.00 0.00 0.00 0.70 0.55 0.00 0.00 0.00 0.56 0.79 0.00 0.00 0.68 0.87 0.00 0.00 0.00 0.55 0.00 0.00 0.00 0.00 0.00 0.00 0.00 0.00 0.00 0.00 0.00 0.00 0.59 0.00 0.00 0.00 0.00 0.70 0.62 0.00 0.00 0.00 0.00 0.96 0.52 0.00 0.00 0.84 0.66 0.94 0.00 0.00 0.00 0.00 0.00 0.00 0.00 0.00 0.00 0.00 0.00 0.00 0.00 0.00 0.00 0.00 0.56 0.61 0.00 0.00 0.00 0.63 0.97 0.69 0.62 0.00 0.00 0.00 0.65 0.00 0.00 0.00
0.00 0.00 0.00 0.00 0.00 0.56 0.00 0.00 0.77 0.00 0.63 0.00 0.58 0.00 0.00 0.00 0.00 0.00 0.00 0.91 0.66 0.00 0.00 0.00 0.76 0.00 0.00 0.56 0.00 0.69 0.53 0.00 0.00 0.94 0.00 0.00 0.89 0.00 0.59 0.00 0.00 0.77 0.00 0.00 0.91 0.00 0.89 0.00 0.00 0.55 0.97 0.00 0.00 0.00 0.00 0.60 0.00 0.00 0.74 0.00 0.73 0.00 0.00 0.00 0.88 0.88 0.00 0.96 0.00 0.00 0.00 0.00 0.00 0.00 0.00 0.00 0.00 0.56 0.00 0.63 0.00 0.68 0.00 0.00 0.00 0.00 0.00 0.00 0.00 0.00 0.00 0.00 0.00 0.82 0.91 0.00 0.00 0.00 0.73 0.75 0.89 0.00 0.86 0.00 0.00 0.00 0.00 0.00 0.79 0.00 0.00 0.63 0.00 0.00 0.00 0.74 0.00 0.00 0.97 0.00 0.00 0.78 0.00 0.00 0.00 0.00 0.00 0.60 0.00 0.00 0.00 0.70 0.88 0.00 0.00 0.00 0.59 0.00 0.00 0.00
0.00 0.00 0.00 0.54 0.00 0.00 0.00 0.00 0.87 0.98 0.00 0.96 0.00 0.55 0.87 0.59 0.00 0.00 0.99 0.00 0.00 0.00 0.95 0.00 0.00 0.00 0.00 0.51 0.00 0.00 0.00 0.00 0.93 0.00 0.00 0.00 0.00 0.00 0.00 0.00 0.00 0.00 0.00 0.64 0.00 0.52 0.87 0.00 0.00 0.00 0.00 0.61 0.00 0.00 0.00 0.00 0.00 0.93 0.00 0.00 0.00 0.00 0.00 0.00 0.54 0.93 0.00 0.00 0.54 0.00 0.00 0.00 0.00 0.00 0.00 0.00 0.82 0.00 0.00 0.98 0.00 0.99 0.00 0.00 0.00 0.00 0.00 0.00 0.00 0.95 0.00 0.00 0.00 0.00 0.00 0.00 0.00 0.00 0.00 0.79 0.76 0.00 0.00 0.00 0.00 0.00 0.60 0.00 0.00 0.00 0.00 0.00 0.00 0.00 0.00 0.00 0.00 0.00 0.00 0.00 0.00 0.63 0.57 0.00 0.61 0.00 0.00 0.00 0.00 0.00 0.00 0.00 0.00 0.99 0.00 0.00 0.60 0.00 0.00 0.00
0.00 0.56 0.61 0.00 0.91 0.00 0.00 0.00 0.00 0.00 0.00 0.00 0.00 0.00 0.00 0.00 0.00 0.61 0.97 0.00 0.00 0.00 0.00 0.00 0.00 0.00 0.00 0.00 0.00 0.00 0.00 0.00 0.00 0.70 0.00 0.77 0.85 0.00 0.00 0.00 0.00 0.00 0.00 0.00 0.00 0.00 0.54 0.00 0.00 0.00 0.00 0.81 0.00 0.00 0.00 0.00 0.86 0.00 0.00 0.00 0.00 0.00 0.85 0.00 0.00 0.00 0.99 0.00 0.00 0.00 0.00 0.00 0.00 0.00 0.00 0.00 0.52 0.00 0.00 0.64 0.00 0.00 0.00 0.00 0.68 0.00 0.00 0.00 0.00 0.00 0.00 0.00 0.00 0.70 0.72 0.00 0.53 0.00 0.00 0.00 0.00 0.00 0.62 0.00 0.00 0.75 0.00 0.81 0.56 0.00 0.62 0.00 0.71 0.71 0.00 0.00 0.60 0.00 0.00 0.00 0.00 0.82 0.00 0.00 0.92 0.00 0.00 0.00 0.00 0.00 0.00 0.00 0.00 0.00 0.00 0.87 0.00 0.51 0.99 0.00
0.00 0.00 0.00 0.00 0.00 0.00 0.00 0.55 0.00 0.88 0.00 0.00 0.00 0.00 0.67 0.00 0.00 0.00 0.54 0.00 0.00 0.00 0.81 0.00 0.00 0.00 0.00 0.00 0.00 0.82 0.00 0.00 0.55 0.00 0.65 0.00 0.00 0.61 0.82 0.87 0.00 0.00 0.00 0.00 0.00 0.00 0.00 0.85 0.00 0.00 0.63 0.00 0.00 0.90 0.00 0.00 0.00 0.00 0.50 0.99 0.00 0.98 0.00 0.00 0.82 0.00 0.00 0.00 0.00 0.00 0.61 0.00 0.00 0.00 0.00 0.00 0.00 0.00 0.94 0.00 0.00 0.00 0.00 0.63 0.00 0.00 0.00 0.00 0.00 0.00 0.00 0.99 0.00 0.00 0.71 0.00 0.00 0.00 0.00 0.00 0.00 0.00 0.00 0.00 0.00 0.00 0.00 0.84 0.00 0.00 0.67 0.00 0.00 0.00 0.00 0.55 0.00 0.00 0.00 0.77 0.00 0.00 0.00 0.00 0.00 0.00 0.00 0.00 0.00 0.00 0.00 0.00 0.00 0.00 0.00 0.00 0.00 0.00 0.00 0.00
0.00 0.00 0.86 0.00 0.99 0.00 0.00 0.80 0.00 0.00 0.00 0.78 0.00 0.00 0.00 0.00 0.87 0.56 0.95 0.89 0.00 0.00 0.00 0.00 0.00 0.00 0.00 0.95 0.00 0.00 0.97 0.76 0.00 0.00 0.00 0.63 0.00 0.00 0.00 0.00 0.00 0.57 0.00 0.00 0.00 0.00 0.00 0.55 0.74 0.00 0.00 0.00 0.00 0.00 0.00 0.00 0.00 0.00 0.00 0.00 0.00 0.00 0.00 0.00 0.00 0.00 0.80 0.00 0.00 0.66 0.00 0.00 0.00 0.61 0.00 0.00 0.96 0.00 0.70 0.00 0.82 0.60 0.00 0.00 0.00 0.00 0.00 0.00 0.00 0.94 0.00 0.00 0.00 0.00 0.00 0.00 0.00 0.00 0.00 0.00 0.85 0.00 0.00 0.00 0.84 0.00 0.00 0.95 0.00 0.00 0.00 0.57 0.00 0.65 0.00 0.00 0.00 0.91 0.00 0.00 0.00 0.00 0.00 0.56 0.00 0.61 0.00 0.00 0.00 0.00 0.71 0.94 0.00 0.00 0.00 0.00 0.00 0.00 0.00 0.00
0.00 0.67 0.00 0.00 0.00 0.00 0.92 0.00 0.00 0.00 0.00 0.59 0.00 0.00 0.95 0.00 0.00 0.57 0.00 0.00 0.00 0.00 0.00 0.66 0.00 0.00 0.00 0.00 0.85 0.00 0.00 0.00 0.00 0.00 0.00 0.00 0.00 0.00 0.00 0.00 0.00 0.93 0.00 0.00 0.82 0.00 0.00 0.00 0.00 0.00 0.00 0.56 0.86 0.00 0.98 0.00 0.61 0.00 0.00 0.00 0.53 0.00 0.00 0.71 0.00 0.00 0.00 0.00 0.96 0.00 0.00 0.00 0.00 0.00 0.89 0.00 0.00 0.76 0.00 0.00 0.80 0.00 0.00 0.55 0.00 0.00 0.00 0.98 0.00 0.74 0.00 0.93 0.00 0.00 0.00 0.00 0.00 0.00 0.00 0.00 0.86 0.00 0.61 0.00 0.63 0.00 0.66 0.50 0.77 0.88 0.00 0.00 0.00 0.00 0.93 0.00 0.00 0.00 0.72 0.00 0.00 0.00 0.00 0.00 0.00 0.66 0.97 0.00 0.51 0.80 0.00 0.00 0.00 0.00 0.00 0.00 0.00 0.00 0.89 0.00
0.00 0.00 0.00 0.55 0.00 0.00 0.00 0.00 0.84 0.00 0.00 0.57 0.00 0.00 0.00 0.00 0.00 0.00 0.00 0.00 0.00 0.00 0.00 0.60 0.79 0.00 0.64 0.00 0.00 0.00 0.00 0.00 0.00 0.00 0.00 0.00 0.00 0.00 0.00 0.00 0.00 0.89 0.00 0.00 0.00 0.00 0.91 0.00 0.00 0.00 0.00 0.00 0.00 0.56 0.00 0.00 0.00 0.00 0.00 0.00 0.00 0.00 0.63 0.76 0.95 0.89 0.00 0.00 0.00 0.00 0.00 0.00 0.00 0.87 0.00 0.00 0.00 0.00 0.71 0.00 0.97 0.74 0.00 0.00 0.00 0.00 0.00 0.76 0.00 0.00 0.00 0.00 0.00 0.00 0.93 0.58 0.00 0.00 0.00 0.86 0.00 0.00 0.97 0.00 0.00 0.00 0.00 0.00 0.00 0.00 0.62 0.00 0.78 0.00 0.00 0.00 0.00 0.00 0.00 0.00 0.74 0.00 0.62 0.60 0.00 0.61 0.00 0.00 0.00 0.00 0.54 0.81 0.00 0.00 0.88 0.00 0.00 0.00 0.00 0.00
0.00 0.00 0.85 0.00 0.78 0.00 0.00 0.00 0.90 0.00 0.00 0.00 0.82 0.00 0.66 0.00 0.00 0.00 0.00 0.00 0.00 0.00 0.00 0.00 0.00 0.52 0.87 0.00 0.00 0.87 0.00 0.82 0.59 0.00 0.00 0.00 0.00 0.00 0.64 0.00 0.78 0.00 0.00 0.00 0.00 0.00 0.00 0.00 0.00 0.00 0.00 0.00 0.00 0.00 0.00 0.00 0.00 0.00 0.00 0.60 0.00 0.00 0.00 0.00 0.00 0.00 0.69 0.00 0.59 0.00 0.00 0.71 0.00 0.00 0.54 0.00 0.00 0.00 0.00 0.58 0.00 0.80 0.00 0.65 0.50 0.00 0.00 0.00 0.00 0.00 0.00 0.00 0.00 0.00 0.00 0.00 0.00 0.82 0.00 0.00 0.00 0.00 0.00 0.78 0.00 0.00 0.00 0.00 0.00 0.00 0.00 0.74 0.00 0.00 0.00 0.00 0.72 0.91 0.79 0.00 0.00 0.55 0.00 0.00 0.00 0.62 0.94 0.53 0.00 0.99 0.76 0.00 0.55 0.00 0.00 0.00 0.00 0.00 0.90 0.71
0.00 0.00 0.76 0.93 0.93 0.00 0.00 0.97 0.00 0.00 0.68 0.00 0.97 0.86 0.00 0.00 0.00 0.00 0.00 0.00 0.00 0.94 0.00 0.00 0.94 0.98 0.85 0.00 0.82 0.83 0.00 0.00 0.00 0.00 0.00 0.00 0.86 0.00 0.74 0.65 0.00 0.00 0.00 0.00 0.00 0.00 0.63 0.00 0.50 0.00 0.00 0.00 0.00 0.00 0.00 0.00 0.00 0.00 0.00 0.66 0.00 0.00 0.00 0.00 0.00 0.74 0.00 0.00 0.00 0.62 0.00 0.94 0.00 0.53 0.00 0.00 0.00 0.00 0.00 0.00 0.00 0.00 0.00 0.00 0.64 0.00 0.83 0.00 0.00 0.75 0.00 0.00 0.92 0.00 0.00 0.00 0.00 0.00 0.00 0.00 0.82 0.00 0.00 0.00 0.00 0.00 0.00 0.76 0.00 0.00 0.00 0.00 0.00 0.00 0.00 0.50 0.80 0.00 0.60 0.00 0.00 0.00 0.00 0.00 0.00 0.00 0.00 0.00 0.00 0.00 0.00 0.71 0.00 0.00 0.58 0.81 0.60 0.00 0.00 0.95
0.00 0.00 0.00 0.00 0.00 0.00 0.00 0.00 0.00 0.62 0.00 0.00 0.91 0.00 0.00 0.94 0.00 0.00 0.95 0.00 0.00 0.99 0.00 0.00 0.76 0.83 0.00 0.00 0.97 0.00 0.92 0.00 0.59 0.85 0.00 0.96 0.00 0.00 0.00 0.87 0.00 0.00 0.00 0.00 0.00 1.00 0.00 0.00 0.00 0.00 0.00 0.00 0.00 0.00 0.00 0.00 0.74 0.00 0.00 0.00 0.00 0.84 0.00 0.70 0.00 0.00 0.00 0.00 0.00 0.00 0.00 0.00 0.00 0.00 0.59 0.00 0.00 0.85 0.00 0.00 0.00 0.00 0.00 0.00 0.00 0.00 0.00 0.65 0.00 0.00 0.00 0.00 0.00 0.78 0.00 0.00 0.00 0.00 0.87 0.66 0.00 0.00 0.84 0.67 0.00 0.00 0.00 0.72 0.00 0.00 0.00 0.95 0.00 0.00 0.00 0.00 0.00 0.00 0.87 0.00 0.84 0.00 0.00 0.00 0.00 0.00 0.97 0.00 0.00 0.00 0.81 0.00 0.00 0.00 0.88 0.00 0.00 0.00 0.00 0.62
0.00 0.00 0.00 0.00 0.00 0.00 0.79 0.91 0.00 0.00 0.00 0.66 0.77 0.54 0.72 0.00 0.00 0.86 0.98 0.00 0.00 0.00 0.00 0.00 0.00 0.00 0.00 0.00 0.55 0.66 0.00 0.00 0.87 0.00 0.00 0.00 0.00 0.00 0.77 0.84 0.00 0.00 0.00 0.00 0.00 0.00 0.00 0.74 0.00 0.00 0.00 0.00 0.00 0.00 0.00 0.00 0.00 0.00 0.00 0.61 0.00 0.00 0.00 0.61 0.00 0.92 0.63 0.00 0.00 0.00 0.64 0.00 0.00 0.59 0.00 0.00 0.00 0.00 0.00 0.00 0.00 0.84 0.00 0.80 0.00 0.00 0.00 0.78 0.74 0.00 0.00 0.00 0.00 0.85 0.00 0.78 0.00 0.00 0.00 0.00 0.61 0.65 0.00 0.00 0.83 0.00 0.00 0.00 0.95 0.62 0.00 0.00 0.87 0.00 0.00 0.00 0.96 0.00 0.00 0.00 0.00 0.00 0.00 0.00 0.00 0.00 0.00 0.00 0.00 0.66 0.93 0.00 0.00 0.67 0.67 0.00 0.00 0.56 0.00 0.00
