withGripper
0.1 0.7 0.5 1.5 -1.5 1.5 -1.5 1.5 -1.5 0.03 0.03 0.03 0.03
0.1 0.2 0.5 1.5 -1.5 1.5 1.5 1.5 -1.5 0.03 0.03 0.03 0.03
11
0.0 0.55 0.3 0.45
0.2 0.85 0.45 0.7
0.6 1.0 0.65 0.7
0.8 0.8 0.85 0.2
0.6 0.3 0.65 0.0
0.2 0.3 0.45 0.15
0.55 0.55 0.7 0.45
0.43 0.7 0.45 0.51
0.43 0.49 0.45 0.3
0.3 0.51 0.55 0.49
0.7 0.51 0.8 0.49
