603-214-281-502-903-111 cost 3.25 at depth 5
908-752-166-714-501 cost 3.09 at depth 4
278-571-790-64 cost 2.08 at depth 3
470-695-210-206-191 cost 2.88 at depth 4
203-522-610-794-699 cost 2.86 at depth 4
596-317-134-426-742 cost 3.22 at depth 4
193-326-197-384-89-97 cost 3.48 at depth 5
643-824-45-422-46 cost 2.44 at depth 4
643-824-45-422-46 cost 2.44 at depth 4
643-824-45-422-46 cost 2.44 at depth 4
643-824-45-422-46 cost 2.44 at depth 4
643-824-45-422-46 cost 2.44 at depth 4
643-824-45-422-46 cost 2.44 at depth 4
643-824-45-422-46 cost 2.44 at depth 4
643-824-45-422-46 cost 2.44 at depth 4
643-824-45-422-46 cost 2.44 at depth 4
