0.448735, 0.375114
0.599505, 0.632481
0.270898, 0.255125
0.539088, 0.723035
0.0468059, 0.702335
0.236225, 0.340728
0.577959, 0.73173
0.460192, 0.660307
0.793836, 0.216597
0.426327, 0.388775
0.319972, 0.662119
0.592724, 0.66736
0.745513, 0.592369
0.20859, 0.313958
0.404574, 0.605093
0.283162, 0.118476
0.544038, 0.75672
0.419632, 0.657059
0.221518, 0.621534
0.585289, 0.638654
0.438636, 0.699188
0.64564, 0.567369
0.769693, 0.963957
0.697879, 0.171017
0.421933, 0.449528
0.908811, 0.115562
0.416307, 0.599386
0.517102, 0.643224
0.576484, 0.780454
0.101161, 0.562603
0.269881, 0.323442
0.644398, 0.392146
0.865704, 0.177322
0.309003, 0.181059
0.375287, 0.778606
0.518827, 0.593783
0.959724, 0.174181
0.474444, 0.757454
0.614503, 0.55529
0.488034, 0.773788
0.669832, 0.566443
0.180655, 0.539486
0.958755, 0.17578
0.273334, 0.886358
0.141908, 0.246879
0.25003, 0.149866
0.60783, 0.659122
0.63378, 0.565329
0.510479, 0.743972
0.521983, 0.775195
0.634288, 0.597603
0.565761, 0.694226
0.305109, 0.213578
0.21614, 0.0723867
0.884972, 0.460078
0.376097, 0.298438
0.557389, 0.65422
0.773323, 0.654522
0.403926, 0.352939
0.572175, 0.639139
0.50404, 0.708277
0.654616, 0.560352
0.974351, 0.284136
0.256414, 0.182718
0.257156, 0.331353
0.72789, 0.35947
0.463841, 0.339872
0.874133, 0.147321
0.315565, 0.627995
0.270848, 0.58051
0.580424, 0.631536
0.190143, 0.589734
0.154806, 0.609579
0.812334, 0.851679
0.701263, 0.399536
0.692831, 0.632724
0.532446, 0.583953
0.291638, 0.283476
0.611771, 0.394024
0.253071, 0.570109
0.31224, 0.236863
0.262185, 0.121918
0.438994, 0.738376
0.82373, 0.581666
0.355544, 0.346499
0.818305, 0.172841
0.253963, 0.648238
0.699387, 0.662549
0.580792, 0.598453
0.225668, 0.328303
0.376975, 0.655255
0.477831, 0.599275
0.0361959, 0.611268
0.656789, 0.58307
0.183765, 0.384978
0.547946, 0.679707
0.487314, 0.740385
0.782394, 0.433667
0.319012, 0.398195
0.444044, 0.327428
0.531776, 0.583734
0.321479, 0.164425
0.244598, 0.285508
0.310702, 0.213371
0.928101, 0.435336
0.403603, 0.578698
0.733239, 0.319796
0.563587, 0.611608
0.509507, 0.741207
0.27617, 0.63737
0.555029, 0.779393
0.207896, 0.152023
0.365917, 0.879957
0.950064, 0.283897
0.528059, 0.138762
0.313934, 0.560897
0.896497, 0.880185
0.316399, 0.330308
0.560056, 0.73707
0.206062, 0.249634
0.589341, 0.719023
0.570994, 0.591591
0.94296, 0.257317
0.545491, 0.765885
0.644506, 0.389967
0.825258, 0.0897914
0.736964, 0.602092
0.525707, 0.580144
0.529746, 0.571517
0.637657, 0.563449
0.527357, 0.623534
0.403368, 0.774913
0.801242, 0.539096
0.876011, 0.868548
0.613283, 0.817679
0.24982, 0.611612
0.289674, 0.304086
0.80291, 0.620963
0.558747, 0.770654
0.162382, 0.505052
0.275325, 0.569136
0.593031, 0.38401
0.286075, 0.261981
0.301841, 0.144554
0.838678, 0.417913
0.101899, 0.6148
0.624073, 0.195634
0.513404, 0.764679
0.387763, 0.70098
0.611227, 0.123388
0.445933, 0.557166
0.248003, 0.184591
0.9584, 0.54887
0.541395, 0.721464
0.924341, 0.343334
0.300928, 0.35378
0.710003, 0.584431
0.508018, 0.795412
0.468773, 0.433015
0.228835, 0.21452
0.288676, 0.15069
0.343245, 0.419204
0.458713, 0.581259
0.625247, 0.809053
0.578961, 0.598259
0.482221, 0.788893
0.745295, 0.561036
0.51848, 0.675457
0.193946, 0.707384
0.478188, 0.607238
0.350666, 0.348051
0.822229, 0.530435
0.86932, 0.606812
0.841156, 0.625085
0.39485, 0.65617
0.378967, 0.285877
0.463499, 0.331182
0.365416, 0.176137
0.95008, 0.0332132
0.648901, 0.616877
0.355697, 0.277507
0.31748, 0.306138
0.528133, 0.371653
0.42188, 0.459597
0.275479, 0.123564
0.726454, 0.580625
0.389058, 0.727951
0.257768, 0.239793
0.519722, 0.390274
0.941122, 0.600757
0.244033, 0.585697
0.378119, 0.133408
0.434405, 0.742076
0.581208, 0.38152
0.475294, 0.459965
0.539999, 0.810402
0.632855, 0.74654
0.680286, 0.402504
0.795395, 0.855067
0.179262, 0.859081
0.105755, 0.269187
0.73547, 0.240269
0.2663, 0.634684
0.353331, 0.275312
0.174845, 0.31786
0.500853, 0.680209
0.312654, 0.57026
0.726101, 0.565876
0.779949, 0.296471
0.706834, 0.556408
0.513886, 0.76599
0.275516, 0.625214
0.0943674, 0.430351
0.425291, 0.713297
0.815665, 0.226894
0.708127, 0.639832
0.123563, 0.253348
0.689719, 0.352724
0.675064, 0.602763
0.275149, 0.974039
0.925999, 0.166696
0.688024, 0.615697
0.42063, 0.442777
0.622619, 0.630811
0.438056, 0.615325
0.245359, 0.317561
0.642002, 0.3657
0.21463, 0.94686
0.560501, 0.676507
0.542125, 0.729945
0.0575654, 0.73323
0.699096, 0.462397
0.416875, 0.63076
0.535732, 0.548781
0.812201, 0.558268
0.127795, 0.94295
0.354736, 0.54508
0.499903, 0.318531
0.628493, 0.674698
0.329029, 0.62183
0.387105, 0.317527
0.817212, 0.96153
0.33771, 0.38412
0.580511, 0.769064
0.443022, 0.693134
0.21061, 0.851225
0.454336, 0.328167
0.706699, 0.596256
0.551762, 0.620709
0.703331, 0.555342
0.270566, 0.183256
0.153327, 0.266311
0.22414, 0.717665
0.207278, 0.633961
0.461458, 0.616118
0.272402, 0.290025
0.475296, 0.711279
0.499944, 0.755851
0.489409, 0.388902
0.369162, 0.453247
0.277474, 0.638369
0.51738, 0.643709
0.55894, 0.597761
0.36449, 0.140245
0.437498, 0.773859
0.309704, 0.635581
0.247946, 0.371887
0.470799, 0.387165
0.762051, 0.30623
0.632361, 0.840996
0.641804, 0.708669
0.303369, 0.373487
0.501036, 0.582662
0.533788, 0.639019
0.407023, 0.541645
0.527669, 0.774085
0.506734, 0.543435
0.609642, 0.740516
0.855688, 0.417394
0.808208, 0.625498
0.579011, 0.166487
0.49057, 0.439879
0.52336, 0.539636
0.472392, 0.668592
0.807739, 0.385055
0.458708, 0.633462
0.42857, 0.464145
0.349515, 0.11231
0.571217, 0.646455
0.271721, 0.128671
0.217048, 0.314165
0.687954, 0.575184
0.344851, 0.160556
0.941941, 0.174268
0.779796, 0.63055
0.26772, 0.187974
0.435443, 0.110263
0.550747, 0.650008
0.50097, 0.718775
0.512395, 0.671248
0.358314, 0.64956
0.284116, 0.862108
0.116377, 0.948404
0.65387, 0.626083
0.500693, 0.793391
0.479953, 0.670552
0.689551, 0.655734
0.494588, 0.760238
0.432252, 0.785483
0.419708, 0.106887
0.326122, 0.925747
0.409046, 0.272975
0.633541, 0.55281
0.530407, 0.704022
0.220523, 0.653176
0.588902, 0.703791
0.854329, 0.0637316
0.90075, 0.468251
0.582782, 0.75551
0.250547, 0.0777891
0.445921, 0.775251
0.394862, 0.283165
0.227872, 0.299858
0.631777, 0.597129
0.845508, 0.192531
0.252073, 0.151591
0.801849, 0.760715
0.872203, 0.644275
0.297514, 0.647833
0.219287, 0.180559
0.643253, 0.162663
0.128851, 0.271646
0.347456, 0.861725
0.457337, 0.339282
0.141051, 0.802015
0.509606, 0.726229
0.895141, 0.885921
0.328799, 0.251566
0.690148, 0.568
0.711153, 0.0357294
0.38308, 0.629726
0.926115, 0.484882
0.164611, 0.227518
0.561776, 0.598415
0.343081, 0.594443
0.438081, 0.54299
0.104224, 0.200585
0.915135, 0.497544
0.492093, 0.760981
0.312463, 0.958529
0.0696449, 0.564902
0.258451, 0.595305
0.884641, 0.161768
0.349686, 0.654996
0.572159, 0.626274
0.176437, 0.763172
0.723904, 0.0660391
0.53108, 0.604035
0.933286, 0.817916
0.71181, 0.139453
0.908347, 0.212265
0.407645, 0.651237
0.549654, 0.61788
0.523589, 0.706455
0.553041, 0.563162
0.459153, 0.782207
0.61793, 0.588306
0.353711, 0.330946
0.788918, 0.188219
0.307434, 0.636817
0.350589, 0.154262
0.501225, 0.596399
0.899746, 0.160508
0.832521, 0.612246
0.459112, 0.787665
0.514743, 0.74262
0.197963, 0.158227
0.639495, 0.387586
0.122412, 0.218642
0.405635, 0.550564
0.470073, 0.778023
0.514314, 0.733726
0.449484, 0.616293
0.453014, 0.372372
0.79073, 0.5922
0.296246, 0.555758
0.437186, 0.298429
0.691538, 0.527378
0.405733, 0.468753
0.242053, 0.642214
0.465371, 0.693166
0.450162, 0.785665
0.701808, 0.409083
0.320189, 0.155172
0.613486, 0.627875
0.246484, 0.144624
0.243662, 0.305603
0.669259, 0.0659856
0.567971, 0.669742
0.488003, 0.765424
0.54847, 0.765776
0.396872, 0.235153
0.129443, 0.275277
0.515937, 0.804215
0.853592, 0.0680301
0.627483, 0.739785
0.45957, 0.660742
0.606001, 0.656869
0.518827, 0.662904
0.497712, 0.788532
0.701935, 0.529757
0.940524, 0.737966
0.119653, 0.629475
0.481185, 0.777997
0.964302, 0.0805548
0.169259, 0.238299
0.470372, 0.607861
0.359951, 0.196522
0.711354, 0.535917
0.644915, 0.589666
0.820243, 0.539877
0.783025, 0.90507
0.940825, 0.3495
0.151936, 0.757335
0.348834, 0.168413
0.338068, 0.194175
0.389403, 0.742273
0.613441, 0.685361
0.84098, 0.451757
0.285, 0.136841
0.383757, 0.467342
0.853806, 0.363134
0.727946, 0.65667
0.296934, 0.177305
0.641559, 0.353929
0.244496, 0.626601
0.553157, 0.646529
0.498638, 0.721465
0.964371, 0.249714
0.380621, 0.120062
0.841572, 0.256295
0.24307, 0.592985
0.178618, 0.213573
0.580347, 0.755618
0.183367, 0.537613
0.474704, 0.77725
0.629389, 0.611524
0.838728, 0.46984
0.940544, 0.546056
0.553805, 0.79645
0.156477, 0.87112
0.572607, 0.622598
0.566591, 0.370626
0.585245, 0.600973
0.438528, 0.75498
0.369248, 0.626483
0.666542, 0.600196
0.561023, 0.651307
0.64883, 0.681305
0.646765, 0.108503
0.527514, 0.743215
0.626146, 0.589481
0.252974, 0.307468
0.403512, 0.378092
0.112299, 0.261248
0.183579, 0.21182
0.632064, 0.367831
0.476661, 0.770281
0.533833, 0.662786
0.570698, 0.571931
0.568588, 0.822212
0.502496, 0.669192
0.643654, 0.66742
0.365807, 0.365275
0.182977, 0.873548
0.329345, 0.29474
0.446568, 0.744243
0.211596, 0.632579
0.183064, 0.622123
0.359462, 0.203307
0.117489, 0.262498
0.51519, 0.39192
0.583608, 0.700453
0.743578, 0.363418
0.65298, 0.847378
0.103814, 0.245172
0.584101, 0.758369
0.687245, 0.646962
0.264727, 0.0674457
0.288742, 0.391347
0.468963, 0.610139
0.77765, 0.567468
0.497296, 0.676963
0.54487, 0.778614
0.570828, 0.689209
0.376464, 0.368654
0.11609, 0.243454
0.616173, 0.748111
0.688786, 0.561265
0.59327, 0.679988
0.668085, 0.674243
0.366243, 0.642916
0.457682, 0.329568
0.557092, 0.66689
0.74773, 0.301237
0.483555, 0.661414
0.737646, 0.305918
0.432498, 0.440525
0.40239, 0.196785
0.533106, 0.670707
0.291322, 0.194669
0.535255, 0.608089
0.481077, 0.772714
0.433846, 0.638676
0.897348, 0.136497
0.586665, 0.649054
0.462152, 0.784265
0.472367, 0.124864
0.184323, 0.976844
0.650418, 0.564034
0.497778, 0.732785
0.263105, 0.257382
0.401872, 0.746702
0.418009, 0.281082
0.223846, 0.590868
0.375723, 0.262425
0.871488, 0.645938
0.492885, 0.804717
0.493786, 0.530184
0.622403, 0.714032
0.239919, 0.118319
0.48012, 0.521363
0.38382, 0.631042
0.802104, 0.274164
0.413966, 0.781867
0.769353, 0.831874
0.308618, 0.592512
0.857932, 0.333605
0.326481, 0.345468
0.616582, 0.690831
0.569256, 0.621338
0.238323, 0.694021
0.585178, 0.713196
0.632073, 0.808297
0.562826, 0.600348
0.523885, 0.774725
0.258225, 0.595853
0.529214, 0.700932
0.325271, 0.138336
0.226841, 0.166157
0.342844, 0.203146
0.32709, 0.598702
0.144918, 0.862159
0.696678, 0.555435
0.483469, 0.362953
0.837791, 0.328721
0.259942, 0.301489
0.517169, 0.61487
0.734526, 0.654341
0.859882, 0.921253
0.109854, 0.928035
0.686745, 0.38332
0.421347, 0.524963
0.449463, 0.463922
0.363404, 0.268286
0.274228, 0.25235
0.284206, 0.31214
0.621281, 0.743228
0.532294, 0.615519
0.977261, 0.421745
0.396645, 0.172636
0.531648, 0.550253
0.314254, 0.259101
0.642647, 0.571695
0.701733, 0.534424
0.576157, 0.617954
0.246813, 0.843649
0.640769, 0.584774
0.397327, 0.392334
0.772925, 0.448484
0.138014, 0.220164
0.379904, 0.430265
0.422988, 0.798178
0.434144, 0.139007
0.151213, 0.758475
0.613272, 0.728586
0.384217, 0.201201
0.332454, 0.652034
0.689456, 0.659068
0.498645, 0.780613
0.621361, 0.727585
0.226046, 0.244157
0.622535, 0.757162
0.726598, 0.549362
0.20551, 0.88168
0.813354, 0.540104
0.477993, 0.766661
0.587706, 0.753682
0.486569, 0.568199
0.0581755, 0.676838
0.336682, 0.655387
0.803605, 0.326544
0.136405, 0.541309
0.895228, 0.865899
0.743855, 0.556653
0.464583, 0.721658
0.246157, 0.162946
0.255753, 0.692904
0.387768, 0.358537
0.515549, 0.669252
0.325635, 0.275511
0.648788, 0.141406
0.134543, 0.227227
0.361818, 0.281472
0.447935, 0.601757
0.745203, 0.206632
0.593081, 0.76017
0.15479, 0.066909
0.519299, 0.649524
0.567296, 0.619285
0.508665, 0.611712
0.187047, 0.66452
0.775117, 0.662693
0.804794, 0.563923
0.444046, 0.376126
0.515879, 0.686413
0.740639, 0.606398
0.137086, 0.208073
0.248148, 0.676658
0.59131, 0.578434
0.42844, 0.577372
0.411084, 0.745463
0.558114, 0.768488
0.492487, 0.668318
0.478269, 0.737799
0.478475, 0.54761
0.5919, 0.0473725
0.353393, 0.544264
0.557006, 0.596342
0.584074, 0.636757
0.316305, 0.591139
0.637307, 0.0684574
0.171762, 0.951945
0.413673, 0.37426
0.322058, 0.621983
0.546782, 0.640152
0.603276, 0.548776
0.256287, 0.668107
0.922651, 0.477427
0.317924, 0.703319
0.616458, 0.934294
0.170198, 0.0216029
0.489434, 0.585769
0.282831, 0.2082
0.408587, 0.101416
0.530007, 0.645746
0.132249, 0.518979
0.318731, 0.154775
0.768908, 0.329576
0.173981, 0.73379
0.534896, 0.746696
0.382329, 0.766431
0.479507, 0.701178
0.52915, 0.761654
0.467524, 0.77196
0.905509, 0.261666
0.271673, 0.543768
0.313945, 0.318983
0.142816, 0.952132
0.322069, 0.613567
0.251238, 0.661216
0.416867, 0.537829
0.352187, 0.340859
0.802797, 0.398502
0.429681, 0.645855
0.267805, 0.273922
0.534346, 0.776978
0.624539, 0.588338
0.537774, 0.69596
0.34173, 0.704435
0.44415, 0.045998
0.51348, 0.585244
0.388707, 0.555054
0.312273, 0.57838
0.794089, 0.620485
0.625533, 0.787286
0.277041, 0.210298
0.402479, 0.394877
0.706796, 0.533335
0.604552, 0.653009
0.197876, 0.200452
0.34731, 0.134271
0.962371, 0.07326
0.765342, 0.175393
0.440022, 0.427449
0.0827078, 0.945063
0.962612, 0.6829
0.543855, 0.648886
0.556784, 0.75429
0.606414, 0.626327
0.526425, 0.594845
0.186081, 0.541977
0.203783, 0.0810768
0.4147, 0.126025
0.332502, 0.153579
0.588838, 0.629456
0.346367, 0.64252
0.404878, 0.578794
0.757453, 0.207925
0.173326, 0.505314
0.891051, 0.49838
0.0623068, 0.761711
0.79496, 0.614003
0.701135, 0.0793144
0.0680281, 0.535053
0.194915, 0.747364
0.604032, 0.770957
0.0887052, 0.258608
0.128611, 0.224205
0.343932, 0.346032
0.25249, 0.557143
0.601378, 0.633661
0.023247, 0.479108
0.552802, 0.659992
0.164052, 0.835005
0.150547, 0.225932
0.447205, 0.673484
0.767947, 0.954516
0.14655, 0.627976
0.436232, 0.410202
0.76514, 0.298774
0.628463, 0.647924
0.595669, 0.620744
0.334356, 0.198253
0.544056, 0.655447
0.526525, 0.690881
0.405015, 0.365873
0.533395, 0.768411
0.525469, 0.605123
0.624638, 0.7112
0.698763, 0.623095
0.559319, 0.532612
0.472406, 0.783828
0.124074, 0.646018
0.311682, 0.205683
0.134973, 0.663334
0.620828, 0.85729
0.529451, 0.822315
0.819077, 0.310271
0.479539, 0.656516
0.493354, 0.752352
0.460596, 0.604586
0.527071, 0.6886
0.592924, 0.697358
0.492415, 0.10108
0.869782, 0.362994
0.64184, 0.595582
0.430362, 0.670586
0.438167, 0.71335
0.539936, 0.605572
0.444942, 0.351789
0.499737, 0.0604153
0.616767, 0.641384
0.770153, 0.631643
0.506198, 0.699717
0.404709, 0.776085
0.146502, 0.506151
0.689304, 0.140189
0.327247, 0.115964
0.736599, 0.914201
0.457468, 0.28618
0.282252, 0.695073
0.198887, 0.854766
0.622738, 0.58715
0.246425, 0.644303
0.869326, 0.682359
0.409226, 0.0738609
0.296071, 0.147178
0.254115, 0.344572
0.358247, 0.150961
0.786217, 0.5828
0.761249, 0.230673
0.57501, 0.82212
0.139176, 0.264994
0.304778, 0.32197
0.585337, 0.574792
0.247893, 0.190708
0.1148, 0.885278
0.34552, 0.327375
0.522279, 0.786036
0.107541, 0.228834
0.157183, 0.934508
0.703368, 0.547569
0.691462, 0.60868
0.473116, 0.798617
0.627879, 0.543379
0.327369, 0.670701
0.362311, 0.316626
0.376049, 0.552161
0.656063, 0.638263
0.712432, 0.951789
0.272286, 0.554365
0.611977, 0.65771
0.792026, 0.463792
0.491771, 0.605754
0.474224, 0.756284
0.614598, 0.620399
0.921191, 0.730294
0.514979, 0.745957
0.758378, 0.236343
0.411103, 0.96945
0.742341, 0.653683
0.77823, 0.352245
0.429987, 0.739879
0.303356, 0.666285
0.571191, 0.598627
0.39146, 0.137687
0.513425, 0.570433
0.648536, 0.845895
0.85106, 0.339222
0.387368, 0.804028
0.6071, 0.5857
0.903236, 0.0981494
0.636785, 0.65773
0.36568, 0.638278
0.519594, 0.799509
0.291939, 0.596499
0.405311, 0.395026
0.580821, 0.561197
0.826199, 0.413216
0.565569, 0.682822
0.332839, 0.2645
0.029932, 0.630572
0.268282, 0.203205
0.833929, 0.196188
0.53618, 0.724772
0.267646, 0.344097
0.261231, 0.96039
0.293024, 0.376934
0.804988, 0.615456
0.636238, 0.377887
0.617995, 0.676777
0.743993, 0.373598
0.298041, 0.384089
0.0614753, 0.359658
0.509105, 0.579223
0.557254, 0.670576
0.302602, 0.164183
0.456205, 0.563336
0.393387, 0.778286
0.499955, 0.769158
0.321144, 0.169345
0.330924, 0.385992
0.303431, 0.183935
0.168249, 0.47902
0.564896, 0.657497
0.764358, 0.393757
0.649165, 0.57828
0.441681, 0.787706
0.279643, 0.590505
0.535555, 0.69396
0.524917, 0.618774
0.73906, 0.352442
0.067175, 0.822589
0.308111, 0.335483
0.118259, 0.795718
0.746764, 0.55788
0.281882, 0.194635
0.521234, 0.655553
0.52944, 0.721676
0.457105, 0.373309
0.328354, 0.130095
0.710707, 0.876465
0.950445, 0.433738
0.37636, 0.268915
0.494048, 0.123838
0.318097, 0.37409
0.384172, 0.95257
0.064092, 0.774772
0.616319, 0.565329
0.137796, 0.273049
0.483731, 0.641436
0.16486, 0.61143
0.377806, 0.188914
0.399517, 0.67885
0.189386, 0.751439
0.115123, 0.219453
0.648829, 0.638626
0.585766, 0.5591
0.570733, 0.695169
0.754156, 0.592546
0.508884, 0.0886311
0.389474, 0.568606
0.441214, 0.654353
0.462323, 0.442017
0.879113, 0.498638
0.5762, 0.732924
0.516012, 0.4205
0.495729, 0.560518
0.126006, 0.258089
0.463955, 0.727804
0.275049, 0.304165
0.575864, 0.777005
0.560631, 0.578224
0.578338, 0.767688
0.464803, 0.758559
0.652444, 0.551778
0.443641, 0.628154
0.142403, 0.867473
0.703288, 0.413244
0.444576, 0.75968
0.505725, 0.836685
0.63764, 0.691302
0.40157, 0.309307
0.442439, 0.599861
0.325714, 0.646456
0.422907, 0.547793
0.550866, 0.605133
0.328305, 0.352043
0.518632, 0.767347
0.73712, 0.147927
0.56031, 0.599909
0.623678, 0.657827
0.794602, 0.638482
0.838264, 0.593327
0.535156, 0.620436
0.169024, 0.554532
0.48319, 0.594777
0.808756, 0.270652
0.700545, 0.607062
0.566996, 0.746677
0.121222, 0.235861
0.444334, 0.718997
0.414336, 0.0435963
0.546929, 0.592337
0.515581, 0.643563
0.216457, 0.621209
0.417504, 0.169806
0.724403, 0.0574507
0.224928, 0.165257
0.299441, 0.280174
0.462498, 0.777061
0.721365, 0.572817
0.576689, 0.752615
0.504011, 0.462004
0.237103, 0.650264
0.235443, 0.5855
0.57739, 0.590808
0.299047, 0.60702
0.124147, 0.723161
0.329563, 0.551714
0.417834, 0.789895
0.835115, 0.211043
0.501944, 0.780676
0.27294, 0.259571
0.236308, 0.613572
0.338636, 0.958391
0.519508, 0.768639
0.718888, 0.117601
0.0943473, 0.257682
0.615996, 0.586446
0.548344, 0.835473
0.482552, 0.744171
0.517812, 0.0803583
0.750642, 0.566095
0.360645, 0.449934
0.271648, 0.108596
0.361421, 0.445573
0.286022, 0.567806
0.370685, 0.718242
0.0827976, 0.732478
0.556474, 0.743992
0.559007, 0.67057
0.607161, 0.391056
0.119983, 0.222624
0.119444, 0.207782
0.753763, 0.673689
0.638616, 0.606768
0.890413, 0.481887
0.761092, 0.262657
0.474105, 0.656035
0.404223, 0.943119
0.543929, 0.611724
0.41542, 0.362774
0.465579, 0.543414
0.637243, 0.57098
0.730506, 0.0406937
0.435842, 0.792214
0.434798, 0.343729
0.544143, 0.720872
0.25484, 0.14577
0.556579, 0.808524
0.367029, 0.65764
0.208961, 0.291631
0.291088, 0.626127
0.132863, 0.259427
0.195644, 0.652296
0.697363, 0.357413
0.677332, 0.665819
0.918426, 0.763753
0.463507, 0.629578
0.141008, 0.901153
0.913987, 0.924768
0.477451, 0.346282
0.871249, 0.300897
0.614742, 0.224798
0.904346, 0.633856
0.337852, 0.636751
0.975986, 0.698412
0.493684, 0.402265
0.441245, 0.464885
0.883773, 0.687519
0.439427, 0.586457
0.192289, 0.735312
0.688524, 0.370282
0.877235, 0.805558
0.414805, 0.915429
0.231051, 0.289457
0.571788, 0.548851
0.536212, 0.711441
0.381447, 0.13067
0.235632, 0.54416
0.472899, 0.716348
0.57369, 0.53934
0.3842, 0.638087
0.535566, 0.828677
0.0582408, 0.856237
0.0500392, 0.464766
0.0888603, 0.27161
0.40433, 0.702769
0.587956, 0.668774
0.301426, 0.134133
0.313889, 0.54437
0.321137, 0.197156
0.30892, 0.853414
0.843085, 0.268186
0.192219, 0.0603223
0.610978, 0.620699
0.230678, 0.354824
0.618058, 0.763797
0.716114, 0.885069
0.801342, 0.191986
0.25092, 0.604854
0.56295, 0.382014
0.906802, 0.495589
0.478016, 0.634712
0.363141, 0.45625
0.346374, 0.56096
0.822756, 0.609652
0.311338, 0.628731
0.344251, 0.443994
0.260917, 0.569597
0.629214, 0.776533
0.243751, 0.280681
0.516788, 0.585223
0.554165, 0.364868
0.503745, 0.560637
0.422796, 0.428197
0.679082, 0.38325
0.63417, 0.172163
0.662349, 0.601926
0.105855, 0.276738
0.553089, 0.767872
0.638702, 0.830942
0.733445, 0.374128
0.25763, 0.202949
0.326002, 0.367711
0.288565, 0.638531
0.176784, 0.281706
0.1621, 0.216302
0.392818, 0.574865
0.268654, 0.316647
0.610742, 0.5619
0.152389, 0.698886
0.350897, 0.373063
0.30816, 0.208523
0.471119, 0.635598
0.6559, 0.548411
0.499171, 0.687813
0.741262, 0.677787
0.250009, 0.397572
0.339568, 0.195534
0.774151, 0.317537
0.0512637, 0.556368
0.481739, 0.71596
0.470684, 0.785908
0.404304, 0.392855
0.739729, 0.583556
0.145231, 0.529998
0.85231, 0.799563
0.590916, 0.615808
0.288489, 0.54
0.290773, 0.154322
0.408165, 0.827055
0.629512, 0.531537
0.510771, 0.792806
0.375224, 0.891197
0.504891, 0.539531
0.679648, 0.36879
0.217014, 0.28503
0.673698, 0.0410088
0.0250573, 0.28241
0.30093, 0.371738
0.520458, 0.531406
0.75398, 0.579738
0.592672, 0.378824
0.397776, 0.66002
0.421266, 0.815807
0.480878, 0.574839
0.707396, 0.650755
0.396691, 0.646033
0.279821, 0.214745
0.685947, 0.594724
0.488204, 0.732899
0.605788, 0.0746703
0.840569, 0.348933
0.582545, 0.582279
0.121813, 0.724481
0.60758, 0.390931
0.401219, 0.160571
0.453533, 0.544127
0.892152, 0.753854
0.171812, 0.710425
0.387181, 0.299196
0.738294, 0.841914
0.915228, 0.28825
0.519255, 0.604088
0.197621, 0.938229
0.24893, 0.0869619
0.545361, 0.684051
0.752772, 0.190806
0.647026, 0.66379
0.279724, 0.210565
0.629545, 0.546348
0.315719, 0.606077
0.460485, 0.695701
0.588375, 0.717294
0.147593, 0.277171
0.150569, 0.270008
0.344439, 0.118199
0.557546, 0.707086
0.805481, 0.381796
0.281321, 0.565372
0.876703, 0.406056
0.51198, 0.691838
0.905803, 0.532953
0.556866, 0.692697
0.684016, 0.405328
0.523624, 0.636364
0.548044, 0.714787
0.483149, 0.73091
0.311951, 0.658371
0.538149, 0.591992
0.361548, 0.565597
0.368664, 0.623478
0.583186, 0.54931
0.133655, 0.779124
0.441273, 0.357601
0.354595, 0.237161
0.630806, 0.62484
0.0953366, 0.628269
0.285163, 0.124774
0.791946, 0.528075
0.414753, 0.669709
0.562548, 0.630305
0.675748, 0.595623
0.627826, 0.574644
0.315237, 0.20429
0.920943, 0.702962
0.210816, 0.881073
0.55194, 0.36996
0.488002, 0.771663
0.307533, 0.310824
0.577632, 0.658288
0.561877, 0.582489
0.393478, 0.617265
0.861777, 0.254169
0.432094, 0.303244
0.274804, 0.170419
0.626743, 0.577832
0.303551, 0.957981
0.227843, 0.142961
0.856029, 0.723291
0.714323, 0.210638
0.239949, 0.646718
0.388574, 0.342206
0.613207, 0.608858
0.181648, 0.56325
0.582521, 0.542647
0.933049, 0.1533
0.573569, 0.825544
0.298761, 0.242087
0.473325, 0.75578
0.538802, 0.641072
0.589221, 0.66766
0.443999, 0.349279
0.8268, 0.961842
0.571509, 0.635361
0.499847, 0.362889
0.576947, 0.576764
0.721362, 0.428932
0.341803, 0.184922
0.221504, 0.232896
0.700394, 0.388118
0.847276, 0.827695
0.413269, 0.561125
0.587488, 0.606407
0.432189, 0.530484
0.51137, 0.656363
0.203653, 0.712999
0.48044, 0.716431
0.615864, 0.737953
0.509532, 0.367602
0.788872, 0.102599
0.280197, 0.582203
0.594296, 0.620831
0.596532, 0.550963
0.441561, 0.833063
0.138219, 0.205258
0.451188, 0.759028
0.376809, 0.704496
0.607481, 0.652193
0.738884, 0.583841
0.391884, 0.319385
0.721094, 0.529992
0.679675, 0.861311
0.32344, 0.327081
0.419737, 0.747056
0.223361, 0.66228
0.554703, 0.642821
0.256621, 0.035676
0.68271, 0.618693
0.563368, 0.575039
0.540808, 0.727336
0.394513, 0.451245
0.578442, 0.694344
0.460933, 0.792614
0.561826, 0.754271
0.594401, 0.63781
0.560214, 0.635449
0.586559, 0.653166
0.518647, 0.100512
0.85739, 0.467221
0.475767, 0.606706
0.54618, 0.705373
0.129975, 0.781536
0.416594, 0.585581
0.468575, 0.760766
0.436968, 0.630322
0.256557, 0.161479
0.213134, 0.581806
0.0896258, 0.700401
0.332819, 0.180975
0.424128, 0.455209
0.382965, 0.2014
0.329, 0.63509
0.554786, 0.687319
0.523558, 0.743101
0.59758, 0.587217
0.421641, 0.581095
0.641433, 0.677017
0.681595, 0.405606
0.422609, 0.821856
0.161124, 0.501471
0.292337, 0.925972
0.330221, 0.0473855
0.49953, 0.658673
0.201511, 0.134147
0.382026, 0.735021
0.354416, 0.233562
0.414616, 0.580777
0.548383, 0.785542
0.543303, 0.586498
0.391559, 0.734085
0.472473, 0.407393
0.538551, 0.836386
0.5161, 0.632463
0.518779, 0.603807
0.184138, 0.684005
0.468799, 0.139298
0.403941, 0.774751
0.62512, 0.713418
0.72587, 0.439111
0.269176, 0.578384
0.633887, 0.60071
0.624066, 0.602882
0.885016, 0.346063
0.493158, 0.654143
0.307197, 0.683331
0.599462, 0.573935
0.489847, 0.385792
0.887709, 0.583338
0.535507, 0.555543
0.139711, 0.258659
0.790351, 0.385941
0.929544, 0.463264
0.538046, 0.687735
0.620694, 0.371142
0.21716, 0.292638
0.407733, 0.67735
0.196199, 0.222366
0.618138, 0.387973
0.544656, 0.570459
0.2298, 0.338507
0.470252, 0.590419
0.93362, 0.2645
0.498561, 0.650212
0.540478, 0.555953
0.275282, 0.584938
0.547469, 0.36628
0.972149, 0.298898
0.476225, 0.404494
0.455582, 0.342592
0.615427, 0.384448
0.374224, 0.559438
0.417787, 0.708414
0.556451, 0.624059
0.49517, 0.707811
0.659558, 0.88815
0.626741, 0.653452
0.422149, 0.797198
0.196946, 0.085465
0.150001, 0.613544
0.607255, 0.635656
0.242506, 0.616389
0.23117, 0.847528
0.329306, 0.304172
0.538603, 0.751472
0.372574, 0.159117
0.889793, 0.758985
0.77555, 0.40679
0.610421, 0.812769
0.886229, 0.0719141
0.518299, 0.624515
0.683989, 0.149687
0.510436, 0.547213
0.616251, 0.629044
0.681657, 0.647519
0.271338, 0.664158
0.396781, 0.671198
0.427112, 0.657937
0.373909, 0.138532
0.538243, 0.642445
0.539338, 0.774078
0.221154, 0.316335
0.273791, 0.0989459
0.426973, 0.720672
0.621401, 0.387502
0.111514, 0.674403
0.13756, 0.228294
0.162473, 0.726372
0.628057, 0.862779
0.929047, 0.473616
0.822702, 0.445039
0.236444, 0.195049
0.7676, 0.413133
0.339601, 0.602216
0.609982, 0.716051
0.564793, 0.139052
0.123485, 0.661717
0.128765, 0.729412
0.404863, 0.466921
0.784897, 0.525504
0.414664, 0.632714
0.371386, 0.17003
0.455978, 0.58578
0.608651, 0.768042
0.321966, 0.256018
0.57817, 0.74385
0.322041, 0.31438
0.577682, 0.720595
0.268288, 0.580536
0.356472, 0.222607
0.705831, 0.970452
0.72646, 0.466365
0.838146, 0.97782
0.896666, 0.481411
0.530599, 0.599554
0.871055, 0.30284
0.486141, 0.72556
0.206084, 0.31825
0.300626, 0.583872
0.529036, 0.64248
0.270578, 0.231168
0.217829, 0.212255
0.318895, 0.162513
0.229976, 0.548601
0.303227, 0.601466
0.201898, 0.115539
0.479501, 0.610955
0.713362, 0.0442787
0.293344, 0.356279
0.299994, 0.612449
0.550514, 0.652482
0.641312, 0.395161
0.312726, 0.203354
0.752346, 0.307596
0.265393, 0.32098
0.556975, 0.674973
0.227265, 0.0947866
0.454121, 0.796879
0.567978, 0.813228
0.5297, 0.660621
0.853768, 0.572997
0.862875, 0.562419
0.427153, 0.358308
0.454774, 0.384561
0.0410035, 0.604352
0.880248, 0.160214
0.931881, 0.482494
0.735071, 0.405142
0.176302, 0.648942
0.553099, 0.76369
0.62613, 0.572321
0.60813, 0.541461
0.590169, 0.563889
0.608232, 0.601819
0.569768, 0.548164
0.550446, 0.61702
0.869696, 0.778701
0.799079, 0.642632
0.4359, 0.441948
0.222949, 0.628665
0.491574, 0.706681
0.458589, 0.344072
0.314095, 0.610251
0.603667, 0.597261
0.457485, 0.775553
0.877177, 0.620237
0.461168, 0.548112
0.335443, 0.200321
0.28094, 0.664533
0.388451, 0.728387
0.951159, 0.907657
0.516339, 0.581241
0.550859, 0.715088
0.627026, 0.642188
0.320245, 0.221633
0.670214, 0.841259
0.0358445, 0.562944
0.711891, 0.36995
0.352596, 0.134411
0.273261, 0.665185
0.454765, 0.664382
0.613271, 0.585796
0.620759, 0.556842
0.473786, 0.38734
0.512571, 0.46102
0.540072, 0.366117
0.849003, 0.859165
0.343398, 0.299984
0.383411, 0.569309
0.559639, 0.736445
0.805305, 0.765956
0.280538, 0.263432
0.297635, 0.295394
0.59909, 0.699557
0.643515, 0.597055
0.267074, 0.227073
0.917705, 0.179039
0.238902, 0.685152
0.471754, 0.646832
0.367415, 0.952601
0.481991, 0.348816
0.194587, 0.199599
0.21969, 0.0419963
0.105619, 0.781255
0.410656, 0.555043
0.751717, 0.103959
0.904519, 0.261345
0.918456, 0.485149
0.279401, 0.598258
0.26689, 0.166525
0.603907, 0.619596
0.889928, 0.436311
0.467337, 0.766586
0.636524, 0.745417
0.666999, 0.899826
0.47328, 0.68598
0.858209, 0.436405
0.160143, 0.449759
0.539863, 0.744276
0.510166, 0.37752
0.410397, 0.303189
0.328046, 0.594827
0.880772, 0.467579
0.935273, 0.366616
0.893585, 0.103314
0.759718, 0.217598
0.830694, 0.376728
0.662929, 0.607668
0.358924, 0.596191
0.343492, 0.619681
0.346371, 0.453951
0.461162, 0.745262
0.402658, 0.38852
0.602234, 0.396392
0.746526, 0.326937
0.753319, 0.439476
0.751311, 0.38063
0.576523, 0.78183
0.134277, 0.231448
0.572124, 0.803579
0.218696, 0.751602
0.156803, 0.241956
0.599885, 0.620821
0.401482, 0.173613
0.839239, 0.632732
0.339986, 0.218386
0.303836, 0.348332
0.581987, 0.799673
0.597498, 0.6739
0.476609, 0.551479
0.469426, 0.749076
0.570856, 0.366333
0.610876, 0.763318
0.855955, 0.285621
0.517148, 0.65338
0.567442, 0.700769
0.650708, 0.55254
0.248617, 0.177907
0.432791, 0.0554413
0.791477, 0.542247
0.546202, 0.728608
0.84568, 0.752622
0.896039, 0.941867
0.338608, 0.579461
0.350743, 0.194771
0.932923, 0.795458
0.634323, 0.620126
0.631013, 0.628827
0.473101, 0.600843
0.353236, 0.697617
0.218657, 0.309414
0.406762, 0.684319
0.480457, 0.603667
0.630957, 0.156199
0.438199, 0.629178
0.751865, 0.282201
0.597131, 0.603327
0.697088, 0.0350334
0.485188, 0.587562
0.192347, 0.316963
0.53999, 0.747347
0.581576, 0.636402
0.46329, 0.372771
0.560622, 0.749806
0.860419, 0.842342
0.622496, 0.681289
0.383589, 0.590137
0.89591, 0.0952625
0.684285, 0.644375
0.496752, 0.69154
0.809396, 0.216133
0.420271, 0.597041
0.639453, 0.761547
0.797837, 0.148245
0.710131, 0.377557
0.684892, 0.425758
0.809297, 0.239563
0.338001, 0.125211
0.725199, 0.120304
0.499862, 0.567828
0.543625, 0.561671
0.777621, 0.562538
0.409951, 0.293481
0.537307, 0.565596
0.244734, 0.355538
0.157489, 0.25566
0.272669, 0.671848
0.522371, 0.609956
0.517254, 0.637726
0.50927, 0.671966
0.883334, 0.765385
0.556654, 0.586126
0.354615, 0.0848797
0.456904, 0.602525
0.299949, 0.664818
0.433771, 0.705545
0.579579, 0.807648
0.747605, 0.25289
0.671667, 0.350563
0.16342, 0.224109
0.722202, 0.561151
0.743752, 0.554007
0.552204, 0.671888
0.886798, 0.508118
0.859298, 0.665361
0.264384, 0.0688189
0.495604, 0.625561
0.545703, 0.802744
0.0668214, 0.55375
0.522967, 0.688363
0.332057, 0.117566
0.800369, 0.894601
0.406955, 0.765223
0.544617, 0.596382
# ms_querying = 3659.73;
