0.525793, 0.428038
0.586445, 0.086936
0.137222, 0.635531
0.376359, 0.861298
0.421239, 0.0465173
0.573092, 0.680347
0.814263, 0.52121
0.842408, 0.0266217
0.777308, 0.646858
0.230994, 0.375272
0.957437, 0.327402
0.262881, 0.362832
0.585105, 0.358253
0.668249, 0.534244
0.304283, 0.334595
0.477427, 0.439123
0.869234, 0.481975
0.57659, 0.823554
0.406478, 0.551289
0.827545, 0.423805
0.672477, 0.167731
0.811778, 0.785304
0.485789, 0.0669428
0.588987, 0.502423
0.468958, 0.847143
0.737747, 0.567886
0.582474, 0.108121
0.0856054, 0.660847
0.519386, 0.447786
0.671397, 0.551629
0.645721, 0.537631
0.0539959, 0.503433
0.88324, 0.324542
0.389671, 0.451691
0.605108, 0.493317
0.723586, 0.329546
0.689483, 0.376211
0.280605, 0.130015
0.840074, 0.540539
0.89165, 0.451086
0.888735, 0.370935
0.175406, 0.045968
0.664537, 0.146952
0.292264, 0.162595
0.599616, 0.879378
0.950248, 0.284135
0.316757, 0.521663
0.116728, 0.475008
0.095668, 0.753381
0.11204, 0.503712
0.405262, 0.174229
0.603849, 0.0705368
0.620055, 0.157232
0.196198, 0.949144
0.420819, 0.782198
0.586757, 0.613079
0.596966, 0.166835
0.572273, 0.485307
0.801316, 0.449227
0.382838, 0.690438
0.377663, 0.103831
0.541887, 0.464586
0.548896, 0.636418
0.400196, 0.464619
0.592004, 0.248043
0.379256, 0.688112
0.589142, 0.320773
0.113683, 0.210191
0.0565298, 0.655558
0.483644, 0.66611
0.17631, 0.383569
0.823225, 0.404014
0.0706283, 0.421093
0.920507, 0.796635
0.159916, 0.426017
0.173172, 0.573362
0.331435, 0.359366
0.695271, 0.772242
0.29668, 0.529642
0.589306, 0.504284
0.152636, 0.203245
0.0718088, 0.334469
0.708284, 0.777464
0.379189, 0.91927
0.0665876, 0.509514
0.288365, 0.532592
0.587157, 0.696776
0.489238, 0.450166
0.393665, 0.822179
0.396229, 0.813448
0.841237, 0.644148
0.473155, 0.468555
0.584972, 0.799821
0.493038, 0.431261
0.391473, 0.880077
0.707047, 0.336153
0.424258, 0.155745
0.191073, 0.627613
0.168495, 0.424926
0.875626, 0.680133
0.404867, 0.240854
0.516718, 0.236837
0.107384, 0.224452
0.126303, 0.203975
0.375007, 0.0613846
0.80474, 0.418765
0.250143, 0.340362
0.653925, 0.729265
0.861744, 0.164529
0.559304, 0.626408
0.486832, 0.66768
0.319116, 0.550307
0.396341, 0.972391
0.6122, 0.325748
0.256832, 0.764535
0.122074, 0.0969126
0.822359, 0.211909
0.339642, 0.366898
0.502407, 0.645703
0.382288, 0.39261
0.60408, 0.168625
0.32488, 0.745682
0.43396, 0.241389
0.524843, 0.666335
0.0411883, 0.526866
0.878619, 0.22606
0.705386, 0.341079
0.0686134, 0.959318
0.551921, 0.0707911
0.587769, 0.0602998
0.172893, 0.788995
0.933499, 0.721569
0.0576628, 0.832432
0.820676, 0.321768
0.357351, 0.349755
0.416057, 0.361637
0.596287, 0.298695
0.780129, 0.111219
0.388983, 0.805276
0.307021, 0.35813
0.091523, 0.845991
0.619205, 0.658478
0.211814, 0.164136
0.383168, 0.28731
0.697257, 0.153481
0.466747, 0.847541
0.599398, 0.484916
0.382612, 0.612396
0.578666, 0.262398
0.385249, 0.215636
0.8234, 0.382068
0.147874, 0.425165
0.286343, 0.747764
0.952641, 0.750822
0.408373, 0.474975
0.165721, 0.0727381
0.491636, 0.850474
0.526862, 0.4586
0.884482, 0.0994482
0.388561, 0.826441
0.96162, 0.439166
0.125964, 0.805256
0.343519, 0.355074
0.270377, 0.961547
0.308756, 0.57652
0.828643, 0.565128
0.489854, 0.624297
0.473903, 0.446436
0.676522, 0.745046
0.38846, 0.224417
0.596257, 0.811678
0.173349, 0.417148
0.395069, 0.741303
0.683539, 0.330542
0.373197, 0.474201
0.800461, 0.814915
0.622103, 0.550212
0.763869, 0.756547
0.220893, 0.712727
0.604021, 0.0686058
0.965332, 0.740434
0.802912, 0.364305
0.13356, 0.503095
0.399287, 0.878367
0.926594, 0.561087
0.615921, 0.518617
0.602089, 0.133342
0.592879, 0.709886
0.416333, 0.828952
0.577623, 0.0666269
0.770252, 0.161283
0.611751, 0.582615
0.700824, 0.362544
0.607826, 0.491291
0.0905152, 0.742382
0.425492, 0.703612
0.683466, 0.149697
0.487898, 0.247627
0.761976, 0.374326
0.207753, 0.847357
0.474831, 0.64872
0.953914, 0.235149
0.593156, 0.48716
0.387872, 0.84075
0.602948, 0.844725
0.413777, 0.608471
0.49536, 0.256488
0.46607, 0.467823
0.56103, 0.229821
0.414506, 0.373329
0.396801, 0.784526
0.610971, 0.863338
0.390632, 0.188823
0.905022, 0.962707
0.489152, 0.626405
0.855176, 0.462127
0.623607, 0.215509
0.467508, 0.458749
0.602875, 0.893811
0.395396, 0.146841
0.46875, 0.435073
0.593762, 0.524302
0.518048, 0.664882
0.497638, 0.871167
0.408423, 0.293079
0.766534, 0.535824
0.415919, 0.843346
0.403625, 0.752383
0.542971, 0.649461
0.593506, 0.261619
0.737975, 0.164348
0.591691, 0.623298
0.809092, 0.726595
0.433597, 0.677094
0.919715, 0.722746
0.678695, 0.158081
0.307765, 0.731965
0.178804, 0.0494349
0.168065, 0.503208
0.310573, 0.531724
0.409564, 0.73547
0.600582, 0.136407
0.583082, 0.508268
0.0407676, 0.637808
0.872457, 0.519907
0.408791, 0.858221
0.378978, 0.355932
0.375514, 0.691686
0.60617, 0.398897
0.668967, 0.551959
0.309227, 0.539723
0.394992, 0.801809
0.605524, 0.0830264
0.502686, 0.465857
0.601608, 0.221612
0.312137, 0.543713
0.105361, 0.555091
0.817619, 0.291981
0.427872, 0.595432
0.971757, 0.54716
0.23338, 0.126077
0.370574, 0.772322
0.589283, 0.493107
0.139003, 0.783739
0.413109, 0.903139
0.42598, 0.685126
0.784135, 0.751263
0.638012, 0.32737
0.278173, 0.527956
0.402547, 0.425645
0.0393423, 0.703179
0.481593, 0.465621
0.116505, 0.289605
0.0709486, 0.503714
0.775752, 0.506587
0.135834, 0.193309
0.609986, 0.500484
0.909515, 0.0729044
0.491357, 0.656688
0.594182, 0.581184
0.371341, 0.533452
0.0955739, 0.145329
0.166999, 0.358487
0.387593, 0.816134
0.386205, 0.406251
0.404056, 0.275335
0.450828, 0.452837
0.388026, 0.454639
0.589226, 0.411638
0.703092, 0.152875
0.673066, 0.152874
0.883739, 0.760726
0.570722, 0.419112
0.102952, 0.355973
0.401776, 0.283319
0.915324, 0.619611
0.646885, 0.149541
0.103577, 0.266088
0.977471, 0.0866308
0.752904, 0.972534
0.372826, 0.815096
0.494867, 0.87728
0.961869, 0.653989
0.571235, 0.866149
0.604223, 0.576581
0.0696358, 0.954724
0.393475, 0.271904
0.26316, 0.155335
0.334412, 0.543321
0.0450157, 0.637702
0.594949, 0.796933
0.617054, 0.447478
0.615069, 0.100659
0.961135, 0.870375
# ms_querying = 133.616;
