0.781653, 0.721098
0.537954, 0.274338
0.581473, 0.352348
0.247258, 0.713793
0.829873, 0.444545
0.570376, 0.120503
0.57746, 0.456522
0.154087, 0.424205
0.793699, 0.11474
0.832797, 0.872846
0.0260462, 0.319124
0.787176, 0.275267
0.178239, 0.0956205
0.926554, 0.657032
0.690804, 0.0873509
0.816146, 0.424294
0.108238, 0.238546
0.855168, 0.553192
0.414512, 0.488317
0.582821, 0.632789
0.834579, 0.861307
0.278116, 0.603843
0.283909, 0.509958
0.541984, 0.159863
0.571733, 0.342989
0.0474697, 0.841023
0.642057, 0.0873781
0.940915, 0.887442
0.0592855, 0.2608
0.0373887, 0.379448
0.0547215, 0.912209
0.861339, 0.832888
0.569629, 0.762933
0.516905, 0.241245
0.469481, 0.512661
0.183584, 0.550657
0.115535, 0.328304
0.226213, 0.753865
0.344477, 0.495635
0.0228751, 0.791411
0.598563, 0.338612
0.558157, 0.41306
0.466877, 0.516322
0.95744, 0.57714
0.798262, 0.153308
0.352256, 0.530118
0.0569728, 0.703759
0.764815, 0.560435
0.372296, 0.52158
0.0604746, 0.321801
0.952189, 0.418593
0.815985, 0.865762
0.0851595, 0.224628
0.307973, 0.519268
0.613665, 0.83718
0.508213, 0.552738
0.0618757, 0.246834
0.818599, 0.288091
0.578189, 0.265706
0.758968, 0.0853737
0.289468, 0.496037
0.869504, 0.63754
0.272773, 0.208878
0.118964, 0.35787
0.515028, 0.491561
0.444367, 0.464959
0.832399, 0.405305
0.575251, 0.657777
0.564775, 0.75332
0.192736, 0.735956
0.812594, 0.963906
0.14271, 0.252587
0.804534, 0.934481
0.579976, 0.113108
0.562954, 0.142131
0.164521, 0.442749
0.438946, 0.48845
0.554647, 0.46691
0.182091, 0.717884
0.207483, 0.44281
0.804905, 0.0940654
0.379356, 0.542395
0.827185, 0.616307
0.164495, 0.682129
0.213798, 0.173352
0.231343, 0.689224
0.13822, 0.88231
0.781584, 0.66271
0.834583, 0.91208
0.379748, 0.478188
0.349115, 0.530755
0.510166, 0.617465
0.0690671, 0.212157
0.682327, 0.0298378
0.163129, 0.278239
0.920794, 0.50967
0.479461, 0.527538
0.136632, 0.571894
0.760787, 0.188466
0.363066, 0.474904
0.797711, 0.801196
0.0282476, 0.491382
0.0314325, 0.0442935
0.764021, 0.196133
0.370945, 0.505094
0.26942, 0.0648783
0.106094, 0.746277
0.244155, 0.215379
0.531006, 0.419626
0.596213, 0.914482
0.149244, 0.403185
0.116953, 0.178688
0.709846, 0.145774
0.420161, 0.516193
0.270331, 0.476096
0.583459, 0.142083
0.589059, 0.107964
0.850401, 0.107094
0.175866, 0.261915
0.237122, 0.485972
0.926375, 0.202601
0.51995, 0.565564
0.229383, 0.179523
0.505433, 0.754349
0.0218735, 0.460465
0.271142, 0.532132
0.553182, 0.248744
0.531959, 0.384558
0.73962, 0.532174
0.507047, 0.41282
0.822658, 0.123144
0.343674, 0.478742
0.341211, 0.483077
0.534433, 0.347096
0.93757, 0.721441
0.447785, 0.475248
0.751523, 0.167431
0.75431, 0.52534
0.804296, 0.895877
0.588826, 0.541444
0.754384, 0.474396
0.791508, 0.240808
0.407016, 0.487601
0.269935, 0.965962
0.310924, 0.549143
0.39789, 0.518589
0.779589, 0.370781
0.449229, 0.509214
0.760439, 0.545682
0.672627, 0.915947
0.118118, 0.600011
0.350633, 0.549416
0.399538, 0.503405
0.766986, 0.213332
0.836323, 0.392791
0.775393, 0.169061
0.163415, 0.372643
0.554888, 0.0661166
0.21541, 0.795147
0.911548, 0.0883849
0.163706, 0.710476
0.411279, 0.507486
0.727466, 0.317601
0.274275, 0.667035
0.121981, 0.746523
0.329478, 0.465274
0.234122, 0.20021
0.929696, 0.172423
0.0540032, 0.481388
0.100481, 0.492075
0.162655, 0.339213
0.801834, 0.216643
0.545042, 0.942672
0.513371, 0.0346549
0.39156, 0.507337
0.325609, 0.451733
0.0759516, 0.621856
0.546072, 0.680092
0.0298764, 0.717761
0.574141, 0.903905
0.73921, 0.789258
0.765988, 0.155464
0.536787, 0.728665
0.239676, 0.0728169
0.074726, 0.686422
0.647082, 0.921626
0.129315, 0.874805
0.841278, 0.403915
0.169885, 0.514668
0.196898, 0.364937
0.891535, 0.673323
0.860041, 0.743802
0.546786, 0.648218
0.137849, 0.285088
0.932374, 0.848349
0.550971, 0.866502
0.104741, 0.748455
0.406051, 0.504389
0.806421, 0.86603
0.879558, 0.490443
0.803759, 0.765969
0.719257, 0.887123
0.636342, 0.978786
0.826616, 0.893505
0.847411, 0.763813
0.211807, 0.928928
0.828347, 0.874232
0.544517, 0.325329
0.932319, 0.590024
0.372719, 0.540306
0.403759, 0.512485
0.109104, 0.813258
0.121339, 0.649855
0.853363, 0.478927
0.828029, 0.0617875
0.573902, 0.309707
0.53574, 0.240838
0.0825528, 0.318358
0.902315, 0.749901
0.20955, 0.0455297
0.195949, 0.542737
0.405046, 0.533722
0.685655, 0.943798
0.153648, 0.14866
0.349273, 0.487183
0.249904, 0.619536
0.852264, 0.59515
0.110116, 0.434682
0.890292, 0.739994
0.877853, 0.724941
0.870775, 0.425155
0.0453062, 0.615724
0.409382, 0.490347
0.566045, 0.782462
0.0510772, 0.139564
0.342626, 0.450969
0.74948, 0.413292
0.590819, 0.0688689
0.873821, 0.888237
0.369103, 0.526619
0.790803, 0.357607
0.949261, 0.293215
0.18772, 0.590946
0.367576, 0.473212
0.894328, 0.291358
0.408191, 0.511099
0.951198, 0.666648
0.581459, 0.183537
0.364564, 0.506764
0.907284, 0.236696
0.242794, 0.666162
0.544583, 0.675362
0.578868, 0.180665
0.313702, 0.462449
0.789898, 0.929904
0.790436, 0.82254
0.368134, 0.470221
0.748976, 0.131716
0.746928, 0.59847
0.586233, 0.802744
0.0417142, 0.46743
0.26608, 0.40596
0.833981, 0.370664
0.363646, 0.496854
0.873142, 0.270589
0.418426, 0.476416
0.389615, 0.544852
0.283518, 0.53692
0.723104, 0.201975
0.818803, 0.295228
0.794498, 0.560601
0.223447, 0.740971
0.863255, 0.0521805
0.037515, 0.434734
0.379158, 0.507088
0.888048, 0.804371
0.520159, 0.480576
0.593761, 0.966858
0.35639, 0.47145
0.449981, 0.475967
0.533055, 0.451213
0.276192, 0.407294
0.348087, 0.510561
0.325395, 0.531172
0.37053, 0.458318
0.819829, 0.700045
0.0962427, 0.482189
0.655838, 0.931576
0.750977, 0.60363
0.525674, 0.406766
0.02734, 0.286163
0.0666494, 0.948664
0.0871208, 0.802668
0.928634, 0.389714
0.121829, 0.4325
0.255331, 0.435684
0.547089, 0.716255
0.159483, 0.432494
0.57598, 0.250906
0.517028, 0.801433
0.509594, 0.73863
0.121947, 0.318651
0.883621, 0.0803829
0.889858, 0.503179
0.154626, 0.37803
0.0906112, 0.327347
0.357688, 0.506387
0.655411, 0.867135
0.0715595, 0.306443
0.155861, 0.248166
0.886486, 0.282238
0.545542, 0.655718
0.865824, 0.684737
0.406152, 0.500027
0.226552, 0.478926
0.192066, 0.63495
0.517806, 0.540338
0.7814, 0.557966
0.556233, 0.870804
0.141421, 0.856252
0.586805, 0.3208
0.0546521, 0.838361
0.557738, 0.423603
0.902404, 0.8587
0.524509, 0.380027
0.786083, 0.496617
0.276088, 0.842723
0.534528, 0.442569
0.141386, 0.776488
0.543177, 0.803436
0.314609, 0.475201
0.167703, 0.580985
0.400043, 0.541026
0.580328, 0.643374
0.10573, 0.977195
0.37894, 0.479933
0.0335975, 0.970748
0.575208, 0.209907
0.401944, 0.493701
0.571403, 0.0334143
0.527641, 0.634417
0.135231, 0.253999
0.429344, 0.51199
0.862631, 0.347638
0.546434, 0.478607
0.962189, 0.105669
0.545463, 0.0808515
0.638256, 0.890734
0.063427, 0.301179
0.546285, 0.70744
0.821873, 0.356274
0.845456, 0.718728
0.369215, 0.492372
0.781453, 0.507969
0.419118, 0.512474
0.312218, 0.517675
0.519831, 0.0583147
0.970561, 0.802386
0.33855, 0.547262
0.106051, 0.16051
0.25403, 0.0789404
0.880072, 0.550567
0.504363, 0.539643
0.532121, 0.128773
0.459055, 0.477813
0.570301, 0.561646
0.144481, 0.280991
0.964181, 0.684121
0.183503, 0.716517
0.838467, 0.649447
0.287531, 0.530401
0.898783, 0.0845572
0.322887, 0.539405
0.65258, 0.877439
0.562013, 0.390973
0.101779, 0.0571126
0.817838, 0.392075
0.847806, 0.328499
0.377066, 0.507263
0.0348025, 0.839758
0.237392, 0.17427
0.523949, 0.685996
0.529974, 0.387951
0.523095, 0.361355
0.359341, 0.50305
0.0681659, 0.726204
0.118255, 0.6012
0.764298, 0.804292
0.849643, 0.893714
0.668593, 0.862958
0.22389, 0.497213
0.360952, 0.497861
0.317632, 0.534832
0.131412, 0.336234
0.956493, 0.401975
0.591873, 0.395148
0.875071, 0.195434
0.256618, 0.76785
0.228639, 0.257909
0.347576, 0.51594
0.426837, 0.468991
0.35228, 0.533876
0.174745, 0.345194
0.918414, 0.724299
0.823052, 0.767572
0.542241, 0.460947
0.764994, 0.710489
0.58109, 0.47856
0.52108, 0.0964776
0.217039, 0.0454925
0.662423, 0.0310762
0.515494, 0.497132
0.0714891, 0.894695
0.849729, 0.699951
0.0722995, 0.442458
0.697341, 0.0762856
0.754249, 0.17432
0.152698, 0.642224
0.222681, 0.149482
0.0700242, 0.240312
0.287897, 0.493681
0.560923, 0.304898
0.752459, 0.618581
0.398738, 0.471877
0.803582, 0.291952
0.917349, 0.868227
0.52607, 0.754989
0.193731, 0.375069
0.56117, 0.422684
0.645165, 0.864796
0.760464, 0.806928
0.51256, 0.947075
0.781594, 0.45807
0.575448, 0.600222
0.815949, 0.348107
0.851553, 0.817293
0.167084, 0.685203
0.159179, 0.137238
0.594572, 0.454109
0.511443, 0.659267
0.383694, 0.494805
0.0872265, 0.589679
0.0498594, 0.652205
0.57351, 0.695007
0.923774, 0.1675
0.840555, 0.428347
0.736814, 0.913791
0.0435947, 0.195947
0.264627, 0.568065
0.913821, 0.571208
0.955948, 0.370206
0.85295, 0.394893
0.859341, 0.439927
0.681942, 0.126902
0.532684, 0.565345
0.778448, 0.899351
0.422678, 0.510182
0.898459, 0.164441
0.78741, 0.584352
0.345145, 0.503651
0.0547707, 0.467722
0.562556, 0.46623
0.770938, 0.222598
0.769168, 0.372275
0.57937, 0.442091
0.582803, 0.806024
0.181731, 0.218518
0.725211, 0.56329
0.377165, 0.519178
0.313918, 0.499959
0.773821, 0.858236
0.518663, 0.680482
0.0241407, 0.164742
0.842808, 0.493803
0.130282, 0.760268
0.321949, 0.501736
0.815377, 0.53567
0.544704, 0.668019
0.093606, 0.554908
0.720761, 0.212523
0.370757, 0.52113
0.505229, 0.797563
0.0830761, 0.229591
0.567224, 0.852948
0.0709985, 0.909729
0.566015, 0.602673
0.510621, 0.284709
0.801256, 0.201152
0.219194, 0.435636
0.541225, 0.656004
0.539434, 0.822296
0.0316902, 0.362534
0.188802, 0.373469
0.168385, 0.570422
0.77253, 0.62851
0.562241, 0.187779
0.51399, 0.397765
0.139002, 0.542888
0.541378, 0.510298
0.854224, 0.155533
0.144926, 0.281685
0.658732, 0.86977
0.868355, 0.386723
0.502957, 0.596848
0.7445, 0.128131
0.146842, 0.732253
0.208533, 0.275467
0.509331, 0.717357
0.382881, 0.483316
0.160748, 0.591113
0.57151, 0.402717
0.966255, 0.779335
0.638177, 0.150631
0.565283, 0.343497
0.240432, 0.159703
0.256524, 0.103209
0.503569, 0.819726
0.529662, 0.168468
0.556122, 0.135403
0.525144, 0.356917
0.961112, 0.287271
0.165552, 0.272193
0.529698, 0.640537
0.79657, 0.38278
0.869346, 0.547834
0.695584, 0.10843
0.288549, 0.523549
0.676767, 0.169074
0.926869, 0.907997
0.035125, 0.256129
0.567115, 0.376839
0.359538, 0.456655
0.594703, 0.194129
0.792431, 0.731473
0.400199, 0.518102
0.814505, 0.823127
0.322763, 0.493143
0.890347, 0.458409
0.209926, 0.593224
0.57549, 0.625515
0.540226, 0.180303
0.592103, 0.70756
0.720845, 0.0786139
0.741204, 0.782574
0.238522, 0.132187
0.570265, 0.596201
0.335731, 0.459656
0.799113, 0.653527
0.638289, 0.94059
0.210107, 0.549598
0.0943709, 0.788418
0.569093, 0.784487
0.775455, 0.851101
0.344876, 0.477537
0.115, 0.209658
0.901485, 0.575598
0.893408, 0.361007
0.537582, 0.727425
0.336317, 0.476952
0.739423, 0.802545
0.518582, 0.840469
0.688986, 0.175138
0.509294, 0.850415
0.141334, 0.642987
0.864056, 0.52075
0.873476, 0.368527
0.437089, 0.517116
0.0278885, 0.541619
0.402739, 0.525014
0.700573, 0.121106
0.359776, 0.470771
0.0249306, 0.704323
0.188762, 0.631363
0.529245, 0.951435
0.591712, 0.790592
0.587061, 0.837552
0.25582, 0.902518
0.203247, 0.605136
0.320943, 0.472592
0.895286, 0.802803
0.85489, 0.188208
0.761099, 0.764573
0.158911, 0.385727
0.515736, 0.413019
0.20461, 0.165186
0.554227, 0.845444
0.732885, 0.151367
0.240351, 0.303489
0.208593, 0.747453
0.285865, 0.526441
0.734314, 0.618821
0.955838, 0.765765
0.924234, 0.699699
0.264459, 0.765629
0.052302, 0.480637
0.965427, 0.360885
0.550212, 0.614167
0.576604, 0.157925
0.324516, 0.525146
0.798967, 0.343269
0.503412, 0.307605
0.384767, 0.482536
0.52789, 0.856991
0.325064, 0.541632
0.43603, 0.526128
0.0213633, 0.539402
0.281341, 0.478699
0.0837629, 0.687397
0.834689, 0.0273954
0.832057, 0.432477
0.426163, 0.540127
0.65919, 0.826023
0.525115, 0.392956
0.0920961, 0.477601
0.84381, 0.755578
0.401301, 0.522924
0.220568, 0.700731
0.15017, 0.596679
0.495996, 0.520754
0.121916, 0.445122
0.847228, 0.397365
0.31268, 0.473261
0.476959, 0.511725
0.178104, 0.876734
0.594931, 0.250569
0.565943, 0.4132
0.363137, 0.479165
0.242434, 0.533292
0.621632, 0.173281
0.560569, 0.491976
0.729403, 0.685682
0.581905, 0.709815
0.54974, 0.408337
0.465998, 0.50343
0.722264, 0.656073
0.647414, 0.0538495
0.736322, 0.53024
0.545042, 0.831756
0.325341, 0.466729
0.360615, 0.533062
0.834401, 0.255401
0.371672, 0.547495
0.883667, 0.131435
0.796282, 0.37549
0.924297, 0.481904
0.518652, 0.378631
0.561219, 0.754019
0.505122, 0.51504
0.952824, 0.64216
0.0672678, 0.570691
0.562955, 0.780496
0.92606, 0.564485
0.227077, 0.630079
0.081822, 0.367643
0.59796, 0.109257
0.369792, 0.544475
0.531622, 0.167253
0.923299, 0.860918
0.896148, 0.40719
0.736845, 0.773345
0.479394, 0.530651
0.427688, 0.451867
0.647089, 0.871356
0.516031, 0.262685
0.55859, 0.423708
0.847425, 0.238132
0.543214, 0.379647
0.378609, 0.505409
0.891109, 0.494517
0.182463, 0.210006
0.845859, 0.830237
0.663702, 0.886486
0.401546, 0.520339
0.189192, 0.317611
0.330874, 0.509953
0.777196, 0.365032
0.552556, 0.0758141
0.745353, 0.47164
0.407822, 0.509584
0.415501, 0.480262
0.196621, 0.686867
0.433651, 0.491628
0.549084, 0.478052
0.574273, 0.4691
0.880387, 0.716401
0.525688, 0.783046
0.421263, 0.479437
0.214567, 0.901524
0.0877069, 0.365583
0.783361, 0.624717
0.938572, 0.268474
0.397921, 0.526407
0.790349, 0.763586
0.919611, 0.572818
0.570656, 0.514754
0.337004, 0.494431
0.540701, 0.888977
0.354371, 0.490744
0.0868763, 0.493806
0.935908, 0.308667
0.119279, 0.788519
0.411067, 0.498949
0.697314, 0.0499296
0.213871, 0.407452
0.185132, 0.0417175
0.15049, 0.0381575
0.102143, 0.338716
0.164532, 0.695221
0.519478, 0.204409
0.358775, 0.486234
0.45987, 0.492986
0.180577, 0.124066
0.834925, 0.688013
0.902941, 0.695708
0.573735, 0.411323
0.809699, 0.789516
0.548459, 0.360729
0.146772, 0.140391
0.508312, 0.133069
0.517238, 0.219007
0.905039, 0.823168
0.243652, 0.697252
0.251319, 0.306837
0.806114, 0.104401
0.804906, 0.883865
0.429462, 0.485192
0.774741, 0.0888544
0.238507, 0.470586
0.91615, 0.787668
0.839844, 0.152647
0.363589, 0.47939
0.0820314, 0.928895
0.165805, 0.248761
0.0950415, 0.402981
0.788929, 0.51068
0.242432, 0.502359
0.0931995, 0.118956
0.792802, 0.254417
0.413038, 0.477482
0.555396, 0.467915
0.865322, 0.357318
0.8263, 0.712327
0.195887, 0.596063
0.539583, 0.542536
0.590795, 0.432088
0.119712, 0.542071
0.129519, 0.727034
0.313563, 0.479551
0.728591, 0.87823
0.765082, 0.865748
0.564946, 0.93394
0.179401, 0.191672
0.532844, 0.527489
0.599332, 0.150334
0.632423, 0.919597
0.242518, 0.431452
0.239555, 0.918706
0.882517, 0.65684
0.365829, 0.498376
0.538503, 0.863541
0.400319, 0.506678
0.172804, 0.647843
0.851444, 0.870994
0.511021, 0.0342207
0.0723436, 0.45065
0.0648666, 0.674106
0.544729, 0.428114
0.14622, 0.326842
0.320416, 0.453551
0.972957, 0.471952
0.127571, 0.961077
0.0972446, 0.838378
0.590854, 0.809069
0.810316, 0.298522
0.743569, 0.0596884
0.841198, 0.255227
0.394805, 0.476411
0.0944803, 0.962697
0.524059, 0.833884
0.87489, 0.533629
0.117312, 0.102496
0.121323, 0.621365
0.136167, 0.39546
0.448403, 0.49618
0.505879, 0.0900377
0.180178, 0.968889
0.790388, 0.260978
0.692437, 0.0384411
0.755193, 0.239278
0.865493, 0.164145
0.0918182, 0.462218
0.322759, 0.504977
0.56916, 0.767971
0.928025, 0.227182
0.839775, 0.868509
0.828353, 0.697078
0.669146, 0.140051
0.507294, 0.432981
0.329697, 0.465378
0.346603, 0.460523
0.704394, 0.100874
0.169465, 0.264251
0.385489, 0.485368
0.740374, 0.309664
0.130561, 0.396153
0.0387089, 0.681755
0.392538, 0.480516
0.164555, 0.522271
0.236104, 0.871399
0.26981, 0.470672
0.80969, 0.91481
0.0605394, 0.743807
0.578038, 0.154381
0.568713, 0.128367
0.408128, 0.50958
0.449807, 0.474394
0.940789, 0.156925
0.189955, 0.702187
0.125331, 0.431992
0.262684, 0.345427
0.902142, 0.0882661
0.252965, 0.556146
0.0439894, 0.256316
0.963175, 0.875891
0.479658, 0.459708
0.0226427, 0.230466
0.413897, 0.492637
0.559225, 0.249568
0.739702, 0.207202
0.267317, 0.170136
0.54086, 0.879463
0.533735, 0.342463
0.225598, 0.763281
0.616108, 0.90593
0.510045, 0.738602
0.232306, 0.721348
0.657531, 0.084617
0.595459, 0.57351
0.0530778, 0.798274
0.390768, 0.481106
0.0963523, 0.666339
0.915304, 0.515768
0.86953, 0.315497
0.255542, 0.156469
0.374283, 0.462828
0.180944, 0.129989
0.131219, 0.693198
0.358541, 0.467856
0.563726, 0.632247
0.349677, 0.505136
0.788034, 0.0796752
0.374729, 0.528145
0.409538, 0.489203
0.520139, 0.350828
0.550162, 0.520542
0.937993, 0.267574
0.218616, 0.614842
0.866416, 0.105866
0.459868, 0.518213
0.271253, 0.638358
0.337248, 0.467547
0.422553, 0.4883
0.976807, 0.440495
0.174946, 0.341165
0.879954, 0.417359
0.448391, 0.533498
0.270622, 0.959204
0.969353, 0.788427
0.583223, 0.677997
0.294896, 0.503237
0.557929, 0.639749
0.567969, 0.336824
0.114011, 0.503712
0.840305, 0.37344
0.562529, 0.857947
0.193243, 0.771072
0.556612, 0.212257
0.973484, 0.622025
0.108872, 0.21578
0.786424, 0.841331
0.932441, 0.272391
0.539414, 0.444578
0.357526, 0.454557
0.945242, 0.257128
0.055773, 0.503995
0.25761, 0.492524
0.777793, 0.308479
0.122892, 0.52653
0.117965, 0.476014
0.3079, 0.483893
0.668389, 0.0383646
0.119141, 0.355991
0.238688, 0.125753
0.545731, 0.194797
0.391844, 0.498712
0.359931, 0.509779
0.0355708, 0.679691
0.32677, 0.49348
0.215809, 0.890721
0.502164, 0.309443
0.201645, 0.807554
0.148616, 0.63457
0.747462, 0.0663998
0.56577, 0.429902
0.122463, 0.323072
0.558732, 0.0645209
0.532031, 0.865906
0.935371, 0.620794
0.379727, 0.52157
0.0738317, 0.800561
0.354103, 0.513337
0.543636, 0.0958726
0.392206, 0.511603
0.924534, 0.424262
0.513995, 0.176643
0.0593478, 0.514612
0.410752, 0.481516
0.722095, 0.898003
0.351364, 0.51428
0.770105, 0.612554
0.223226, 0.708317
0.331938, 0.520148
0.0281584, 0.50799
0.932533, 0.748282
0.367304, 0.451273
0.875087, 0.386127
0.953208, 0.415666
0.572644, 0.515181
0.562972, 0.618014
0.274003, 0.191797
0.528221, 0.656326
0.0592354, 0.436421
0.83992, 0.666046
0.385533, 0.457884
0.560326, 0.460398
0.828344, 0.890973
0.173181, 0.805658
0.306502, 0.487974
0.726983, 0.109986
0.123999, 0.298907
0.541213, 0.443079
0.562616, 0.149525
0.895564, 0.770764
0.93454, 0.42054
0.382079, 0.531409
0.322669, 0.509242
0.770397, 0.538456
0.346689, 0.476967
0.564298, 0.540244
0.350524, 0.497585
0.572926, 0.516956
0.730842, 0.634283
0.835499, 0.582172
0.533245, 0.594371
0.032319, 0.718103
0.563995, 0.884184
0.225868, 0.419161
0.318458, 0.532665
0.103937, 0.419086
0.115648, 0.205599
0.520338, 0.770172
0.360974, 0.523086
0.7556, 0.326034
0.235112, 0.109212
0.269983, 0.619676
0.5581, 0.730112
0.946923, 0.159804
0.116867, 0.773531
0.689498, 0.107283
0.301391, 0.468761
0.267252, 0.50096
0.537999, 0.633871
0.731105, 0.638971
0.198747, 0.658013
0.22065, 0.182851
0.84546, 0.562211
0.0690268, 0.596631
0.191309, 0.478555
0.066511, 0.196332
0.572571, 0.410097
0.262985, 0.498741
0.563979, 0.397511
0.519745, 0.404116
0.314606, 0.509732
0.362973, 0.469827
0.582486, 0.254933
0.0271331, 0.858042
0.396861, 0.528399
0.53092, 0.191163
0.960951, 0.655369
0.553433, 0.208625
0.440526, 0.500862
0.783353, 0.0688339
0.796306, 0.0502966
0.919597, 0.226212
0.872462, 0.526456
0.207468, 0.0907129
0.46224, 0.490005
0.540122, 0.859589
0.860887, 0.743994
0.783811, 0.686662
0.889703, 0.230205
0.124558, 0.647383
0.659614, 0.129226
0.0375026, 0.472632
0.550083, 0.672779
0.14333, 0.674053
0.071761, 0.56675
0.946081, 0.766564
0.541612, 0.100396
0.240743, 0.261126
0.113133, 0.172964
0.823738, 0.426496
0.271931, 0.34197
0.411863, 0.467046
0.10142, 0.246944
0.849083, 0.89932
0.937226, 0.293389
0.855226, 0.43572
0.358371, 0.516014
0.905005, 0.612116
0.273095, 0.600624
0.482524, 0.455039
0.0701939, 0.273422
0.305709, 0.495321
0.753162, 0.779689
0.883687, 0.834795
0.778615, 0.433921
0.797484, 0.189779
0.360425, 0.480943
0.851739, 0.442624
0.565675, 0.277001
0.540447, 0.369461
0.583676, 0.838014
0.0980643, 0.482647
0.201953, 0.392996
0.802782, 0.798754
0.088447, 0.43609
0.885046, 0.592177
0.746306, 0.685618
0.547125, 0.765308
0.100469, 0.54758
0.309292, 0.453107
0.394536, 0.474267
0.852605, 0.34171
0.442173, 0.532921
0.507684, 0.560316
0.0788225, 0.229517
0.536078, 0.359443
0.879341, 0.0556658
0.172257, 0.250828
0.9265, 0.608104
0.392438, 0.462014
0.608595, 0.86464
0.424804, 0.50954
0.96163, 0.321654
0.126769, 0.139925
0.534108, 0.47985
0.454724, 0.512082
0.110587, 0.671562
0.9238, 0.766747
0.536283, 0.908775
0.381568, 0.505334
0.832344, 0.318969
# ms_querying = 1707.3;
